%!PS-Adobe-3.0 EPSF-3.0
%%Creator: MATLAB, The MathWorks, Inc. Version 8.0.0.783 (R2012b). Operating System: Microsoft Windows 7.
%%Title: C:\000 Work\00000 paper 2\paper\4a.eps
%%CreationDate: 10/21/2013  01:52:27
%%DocumentNeededFonts: Helvetica
%%DocumentProcessColors: Cyan Magenta Yellow Black
%%LanguageLevel: 2
%%Pages: 1
%%BoundingBox:    74   313   536   478
%%EndComments

%%BeginProlog
% MathWorks dictionary
/MathWorks 160 dict begin
% definition operators
/bdef {bind def} bind def
/ldef {load def} bind def
/xdef {exch def} bdef
/xstore {exch store} bdef
% operator abbreviations
/c  /clip ldef
/cc /concat ldef
/cp /closepath ldef
/gr /grestore ldef
/gs /gsave ldef
/mt /moveto ldef
/np /newpath ldef
/cm /currentmatrix ldef
/sm /setmatrix ldef
/rm /rmoveto ldef
/rl /rlineto ldef
/s {show newpath} bdef
/sc {setcmykcolor} bdef
/sr /setrgbcolor ldef
/sg /setgray ldef
/w /setlinewidth ldef
/j /setlinejoin ldef
/cap /setlinecap ldef
/rc {rectclip} bdef
/rf {rectfill} bdef
% page state control
/pgsv () def
/bpage {/pgsv save def} bdef
/epage {pgsv restore} bdef
/bplot /gsave ldef
/eplot {stroke grestore} bdef
% orientation switch
/portraitMode 0 def /landscapeMode 1 def /rotateMode 2 def
% coordinate system mappings
/dpi2point 0 def
% font control
/FontSize 0 def
/FMS {/FontSize xstore findfont [FontSize 0 0 FontSize neg 0 0]
  makefont setfont} bdef
/ISOLatin1Encoding where {pop /WindowsLatin1Encoding 256 array bdef
ISOLatin1Encoding WindowsLatin1Encoding copy pop
/.notdef/.notdef/quotesinglbase/florin/quotedblbase/ellipsis/dagger
/daggerdbl/circumflex/perthousand/Scaron/guilsinglleft/OE/.notdef/.notdef
/.notdef/.notdef/quoteleft/quoteright/quotedblleft/quotedblright/bullet
/endash/emdash/tilde/trademark/scaron/guilsinglright/oe/.notdef/.notdef
/Ydieresis WindowsLatin1Encoding 128 32 getinterval astore pop}
{/WindowsLatin1Encoding StandardEncoding bdef} ifelse
/reencode {exch dup where {pop load} {pop StandardEncoding} ifelse
  exch dup 3 1 roll findfont dup length dict begin
  { 1 index /FID ne {def}{pop pop} ifelse } forall
  /Encoding exch def currentdict end definefont pop} bdef
/isroman {findfont /CharStrings get /Agrave known} bdef
/FMSR {3 1 roll 1 index dup isroman {reencode} {pop pop} ifelse
  exch FMS} bdef
/csm {1 dpi2point div -1 dpi2point div scale neg translate
 dup landscapeMode eq {pop -90 rotate}
  {rotateMode eq {90 rotate} if} ifelse} bdef
% line types: solid, dotted, dashed, dotdash
/SO { [] 0 setdash } bdef
/DO { [.5 dpi2point mul 4 dpi2point mul] 0 setdash } bdef
/DA { [6 dpi2point mul] 0 setdash } bdef
/DD { [.5 dpi2point mul 4 dpi2point mul 6 dpi2point mul 4
  dpi2point mul] 0 setdash } bdef
% macros for lines and objects
/L {lineto stroke} bdef
/MP {3 1 roll moveto 1 sub {rlineto} repeat} bdef
/AP {{rlineto} repeat} bdef
/PDlw -1 def
/W {/PDlw currentlinewidth def setlinewidth} def
/PP {closepath eofill} bdef
/DP {closepath stroke} bdef
/MR {4 -2 roll moveto dup  0 exch rlineto exch 0 rlineto
  neg 0 exch rlineto closepath} bdef
/FR {MR stroke} bdef
/PR {MR fill} bdef
/L1i {{currentfile picstr readhexstring pop} image} bdef
/tMatrix matrix def
/MakeOval {newpath tMatrix currentmatrix pop translate scale
0 0 1 0 360 arc tMatrix setmatrix} bdef
/FO {MakeOval stroke} bdef
/PO {MakeOval fill} bdef
/PD {currentlinewidth 2 div 0 360 arc fill
   PDlw -1 eq not {PDlw w /PDlw -1 def} if} def
/FA {newpath tMatrix currentmatrix pop translate scale
  0 0 1 5 -2 roll arc tMatrix setmatrix stroke} bdef
/PA {newpath tMatrix currentmatrix pop	translate 0 0 moveto scale
  0 0 1 5 -2 roll arc closepath tMatrix setmatrix fill} bdef
/FAn {newpath tMatrix currentmatrix pop translate scale
  0 0 1 5 -2 roll arcn tMatrix setmatrix stroke} bdef
/PAn {newpath tMatrix currentmatrix pop translate 0 0 moveto scale
  0 0 1 5 -2 roll arcn closepath tMatrix setmatrix fill} bdef
/vradius 0 def /hradius 0 def /lry 0 def
/lrx 0 def /uly 0 def /ulx 0 def /rad 0 def
/MRR {/vradius xdef /hradius xdef /lry xdef /lrx xdef /uly xdef
  /ulx xdef newpath tMatrix currentmatrix pop ulx hradius add uly
  vradius add translate hradius vradius scale 0 0 1 180 270 arc 
  tMatrix setmatrix lrx hradius sub uly vradius add translate
  hradius vradius scale 0 0 1 270 360 arc tMatrix setmatrix
  lrx hradius sub lry vradius sub translate hradius vradius scale
  0 0 1 0 90 arc tMatrix setmatrix ulx hradius add lry vradius sub
  translate hradius vradius scale 0 0 1 90 180 arc tMatrix setmatrix
  closepath} bdef
/FRR {MRR stroke } bdef
/PRR {MRR fill } bdef
/MlrRR {/lry xdef /lrx xdef /uly xdef /ulx xdef /rad lry uly sub 2 div def
  newpath tMatrix currentmatrix pop ulx rad add uly rad add translate
  rad rad scale 0 0 1 90 270 arc tMatrix setmatrix lrx rad sub lry rad
  sub translate rad rad scale 0 0 1 270 90 arc tMatrix setmatrix
  closepath} bdef
/FlrRR {MlrRR stroke } bdef
/PlrRR {MlrRR fill } bdef
/MtbRR {/lry xdef /lrx xdef /uly xdef /ulx xdef /rad lrx ulx sub 2 div def
  newpath tMatrix currentmatrix pop ulx rad add uly rad add translate
  rad rad scale 0 0 1 180 360 arc tMatrix setmatrix lrx rad sub lry rad
  sub translate rad rad scale 0 0 1 0 180 arc tMatrix setmatrix
  closepath} bdef
/FtbRR {MtbRR stroke } bdef
/PtbRR {MtbRR fill } bdef
/stri 6 array def /dtri 6 array def
/smat 6 array def /dmat 6 array def
/tmat1 6 array def /tmat2 6 array def /dif 3 array def
/asub {/ind2 exch def /ind1 exch def dup dup
  ind1 get exch ind2 get sub exch } bdef
/tri_to_matrix {
  2 0 asub 3 1 asub 4 0 asub 5 1 asub
  dup 0 get exch 1 get 7 -1 roll astore } bdef
/compute_transform {
  dmat dtri tri_to_matrix tmat1 invertmatrix 
  smat stri tri_to_matrix tmat2 concatmatrix } bdef
/ds {stri astore pop} bdef
/dt {dtri astore pop} bdef
/db {2 copy /cols xdef /rows xdef mul dup 3 mul string
  currentfile 
  3 index 0 eq {/ASCIIHexDecode filter}
  {/ASCII85Decode filter 3 index 2 eq {/RunLengthDecode filter} if }
  ifelse exch readstring pop
  dup 0 3 index getinterval /rbmap xdef
  dup 2 index dup getinterval /gbmap xdef
  1 index dup 2 mul exch getinterval /bbmap xdef pop pop}bdef
/it {gs np dtri aload pop moveto lineto lineto cp c
  cols rows 8 compute_transform 
  rbmap gbmap bbmap true 3 colorimage gr}bdef
/il {newpath moveto lineto stroke}bdef
currentdict end def
%%EndProlog

%%BeginSetup
MathWorks begin

0 cap

end
%%EndSetup

%%Page: 1 1
%%BeginPageSetup
%%PageBoundingBox:    74   313   536   478
MathWorks begin
bpage
%%EndPageSetup

%%BeginObject: obj1
bplot

/dpi2point 12 def
portraitMode 0888 5736 csm

    0     0  5553  1980 rc
85 dict begin %Colortable dictionary
/c0 { 0.000000 0.000000 0.000000 sr} bdef
/c1 { 1.000000 1.000000 1.000000 sr} bdef
/c2 { 0.900000 0.000000 0.000000 sr} bdef
/c3 { 0.000000 0.820000 0.000000 sr} bdef
/c4 { 0.000000 0.000000 0.800000 sr} bdef
/c5 { 0.910000 0.820000 0.320000 sr} bdef
/c6 { 1.000000 0.260000 0.820000 sr} bdef
/c7 { 0.000000 0.820000 0.820000 sr} bdef
c0
1 j
1 sg
   0    0 5554 1981 rf
6 w
0 1514 1855 0 0 -1514 722 1663 4 MP
PP
-1855 0 0 1514 1855 0 0 -1514 722 1663 5 MP stroke
4 w
DO
SO
6 w
0 sg
 722  149 mt 2577  149 L
 722 1663 mt 2577 1663 L
2577 1663 mt 2577  149 L
 722 1663 mt  722  149 L
 722 1663 mt 2577 1663 L
 722 1663 mt  722  149 L
 722 1663 mt  722 1644 L
 722  149 mt  722  167 L
%%IncludeResource: font Helvetica
/Helvetica /WindowsLatin1Encoding 120 FMSR

 689 1808 mt 
(0) s
1185 1663 mt 1185 1644 L
1185  149 mt 1185  167 L
1085 1808 mt 
(200) s
1649 1663 mt 1649 1644 L
1649  149 mt 1649  167 L
1549 1808 mt 
(400) s
2113 1663 mt 2113 1644 L
2113  149 mt 2113  167 L
2013 1808 mt 
(600) s
2577 1663 mt 2577 1644 L
2577  149 mt 2577  167 L
2477 1808 mt 
(800) s
 722 1663 mt  740 1663 L
2577 1663 mt 2558 1663 L
 621 1707 mt 
(0) s
 722 1360 mt  740 1360 L
2577 1360 mt 2558 1360 L
 554 1404 mt 
(20) s
 722 1057 mt  740 1057 L
2577 1057 mt 2558 1057 L
 554 1101 mt 
(40) s
 722  754 mt  740  754 L
2577  754 mt 2558  754 L
 554  798 mt 
(60) s
 722  451 mt  740  451 L
2577  451 mt 2558  451 L
 554  495 mt 
(80) s
 722  149 mt  740  149 L
2577  149 mt 2558  149 L
 487  193 mt 
(100) s
 722  149 mt 2577  149 L
 722 1663 mt 2577 1663 L
2577 1663 mt 2577  149 L
 722 1663 mt  722  149 L
gs 722 149 1856 1515 rc
/c8 { 0.000000 0.000000 1.000000 sr} bdef
c8
3 0 2 0 2 18 3 31 2 32 2 41 3 49 2 66 
2 66 3 65 2 56 2 52 2 48 3 73 2 56 2 61 
3 81 2 80 2 80 3 81 2 41 2 34 3 30 2 19 
2 22 3 24 2 25 2 19 3 17 2 12 2 10 3 7 
2 13 2 9 2 13 3 21 2 18 2 7 3 7 2 7 
2 5 3 10 2 10 2 10 3 7 2 7 2 3 3 -3 
2 -7 2 -15 3 -12 2 -10 2 -7 3 -2 2 -5 2 -5 
3 -3 2 -2 2 -5 2 -5 3 -10 2 -12 2 -5 3 -7 
2 -7 2 -12 3 -10 2 -10 2 -12 3 -7 2 -3 2 -2 
3 -8 2 -12 2 -12 3 -10 2 -4 2 -8 3 -5 2 0 
2 3 2 2 3 3 2 7 2 10 3 14 2 15 2 10 
3 7 2 7 2 0 3 -5 2 -2 2 -2 3 0 2 7 
2 2 3 3 2 -8 2 -7 3 -5 2 -7 2 -7 2 -8 
3 -2 2 0 2 2 3 12 2 13 2 9 3 -7 2 -12 
2 -15 3 -9 2 -13 2 -17 3 -17 2 -14 2 -17 3 -17 
2 -13 2 -7 3 0 2 5 2 7 2 42 3 48 2 56 
2 27 3 22 2 12 2 10 3 0 2 -7 2 -10 3 -7 
2 -8 2 -2 3 -10 2 -14 2 -8 3 -12 2 -17 2 -22 
3 -22 2 -17 2 -29 3 -22 2 -17 2 -2 2 0 3 2 
2 22 2 22 3 22 2 2 2 3 3 -3 2 -17 2 -10 
3 -5 2 3 2 2 3 3 2 7 2 7 3 8 2 2 
2 0 3 3 2 0 2 -3 2 -2 3 -12 2 -8 2 -2 
3 0 2 2 2 3 3 12 2 14 2 13 3 12 2 10 
2 9 3 8 2 4 2 8 3 2 2 0 2 3 3 -3 
2 0 2 0 2 0 3 3 2 2 2 5 3 5 2 7 
2 5 3 5 2 2 2 10 3 7 2 3 2 5 3 5 
2 7 2 2 3 3 2 2 2 5 3 5 2 5 2 2 
3 0 2 0 2 3 2 0 3 0 2 0 2 0 3 0 
2 0 2 0 3 0 2 0 2 0 3 0 2 0 2 0 
3 -3 2 -2 2 -3 3 -2 2 -3 2 -2 3 -2 2 -3 
2 0 2 -2 3 -3 2 -2 2 -3 3 -7 2 -7 2 -3 
3 -2 2 0 2 0 3 0 2 0 2 0 3 0 2 0 
2 2 3 0 2 0 2 3 3 2 2 0 2 3 2 5 
3 2 2 2 2 3 3 0 2 2 2 3 3 0 2 -3 
2 0 3 0 2 0 2 0 3 0 2 -2 2 0 3 0 
2 0 2 0 3 0 2 2 2 3 2 2 3 7 2 8 
2 5 3 2 2 12 2 10 3 2 2 10 2 8 3 4 
2 3 2 2 3 3 1804 242 300 MP stroke
2 0 2 0 3 -3 2 -2 2 0 3 -3 2 -2 2 0 
3 2 2 0 2 0 2 0 3 0 2 0 2 3 3 2 
2 0 2 0 3 -2 2 0 2 -3 3 -2 2 0 2 0 
3 0 2 0 2 2 3 3 2 2 2 3 3 2 2 0 
2 3 2 2 3 2 2 5 2 3 3 2 2 3 2 4 
3 5 2 5 2 3 3 0 2 -3 2 -10 3 -7 2 -5 
2 -12 3 -7 2 -3 2 -2 3 -2 2 -3 2 0 2 3 
3 2 2 2 2 0 3 0 2 0 2 0 3 0 2 -4 
2 -8 3 -10 2 -9 2 -8 3 -7 2 5 2 7 3 8 
2 2 2 5 3 5 2 0 2 -3 3 -5 2 -4 2 -5 
2 -8 3 -7 2 -2 2 0 3 0 2 5 2 7 3 7 
2 3 2 2 3 0 2 0 2 0 3 0 2 0 2 0 
3 0 2 0 2 -2 3 0 2 0 2 2 2 0 3 2 
2 3 2 5 3 5 2 7 2 2 3 3 2 2 2 5 
3 5 2 5 2 2 3 3 2 0 2 -3 3 -2 2 -3 
2 -7 3 -7 2 -3 2 -4 2 -5 3 -8 2 -5 2 -2 
3 -2 2 -13 2 -14 3 -15 2 -17 2 -17 3 -17 2 -17 
2 -17 3 -17 2 -17 2 -15 3 -17 2 -17 2 -15 3 -14 
2 -7 2 -8 2 -9 3 -3 2 -5 2 -7 3 -3 2 -4 
2 -5 3 -8 2 -9 2 -13 3 -12 2 -12 2 -10 3 -14 
2 -17 2 -22 3 -27 2 -39 2 -46 3 -54 2 -49 2 -46 
3 -22 2 -5 2 10 2 20 3 24 2 27 2 19 3 20 
2 17 2 17 3 27 2 41 2 27 3 36 2 47 2 19 
3 17 2 17 2 8 3 4 2 8 2 5 3 4 2 5 
2 5 2 5 3 5 2 12 2 12 3 8 2 4 2 13 
3 17 2 2 2 3 3 0 2 0 2 0 3 0 2 -5 
2 -8 3 -12 2 3 2 0 3 -3 2 -2 2 0 2 0 
3 0 2 0 2 -3 3 -9 2 -8 2 -5 3 -2 2 -2 
2 2 3 2 2 0 2 3 3 2 2 0 2 0 3 3 
2 0 2 2 3 -5 2 -7 2 -10 3 -17 2 -10 2 -7 
2 -10 3 -9 2 -10 2 -12 3 -5 2 -3 2 -9 3 -17 
2 -25 2 -17 3 -7 2 0 2 17 3 19 2 27 2 22 
3 12 2 -2 2 -12 3 -8 2 -2 2 0 2 2 3 3 
2 0 2 5 3 12 2 12 2 10 3 2 2 -7 2 -7 
3 -10 2 -12 2 -8 3 -2 2 7 2 8 3 7 2 -10 
2 -14 3 -20 2 -15 2 0 2 18 3 21 2 22 2 25 
3 7 2 2 2 3 3 5 2 5 2 7 3 12 2 15 
2 12 3 2 2 3 1111 493 300 MP stroke
2 0 3 -3 2 -7 2 -12 3 -3 2 -2 2 -2 2 -13 
3 -9 2 -5 2 -12 3 -8 2 -5 2 -2 3 -5 2 -2 
2 -5 3 -10 2 -15 2 -26 3 -25 2 -22 2 -14 3 -10 
2 -2 2 0 3 4 2 8 2 41 3 51 2 66 2 32 
2 14 3 3 2 0 2 0 3 -3 2 0 2 0 3 3 
2 -3 2 -2 3 -7 2 -5 2 2 3 7 2 10 2 8 
3 4 2 8 2 5 3 7 2 2 2 0 2 0 3 -2 
2 -3 2 -2 3 -2 2 -3 2 0 3 3 2 0 2 2 
3 -2 2 -8 2 -7 3 -7 2 -5 2 -8 3 -7 2 -7 
2 -5 3 -10 2 -5 2 -2 2 2 3 5 2 10 2 2 
3 3 2 2 2 -2 3 0 2 -3 2 -2 3 0 2 0 
2 2 3 3 2 2 2 3 3 -3 2 -2 2 -3 3 -2 
2 -2 2 -8 3 -5 2 -7 2 -7 2 -8 3 -7 2 -2 
2 -3 3 -2 2 -7 2 -5 3 -8 2 -12 2 -14 3 -17 
2 -20 2 -17 3 -17 2 -17 2 -17 3 -20 2 -12 2 -5 
3 -2 2 0 2 0 2 0 3 0 2 0 2 -3 3 -4 
2 -5 2 -8 3 -2 2 -10 2 -14 3 -8 2 -5 2 -2 
3 10 2 9 2 13 3 2 2 -5 2 -14 3 -5 2 -8 
2 -12 2 -14 3 -15 2 -17 2 -17 3 -20 2 -17 2 -24 
3 -24 2 -22 2 -32 3 -44 2 -53 2 -54 3 -56 2 -68 
2 -78 3 -78 2 -78 2 -71 3 -49 2 0 2 0 724 1663 168 MP stroke
gr

c8
0 sg
 405 1267 mt  -90 rotate
(Speed \(km/h\)) s
90 rotate
1428 1951 mt 
(Time \(s\)) s
1 sg
0 1514 1855 0 0 -1514 3167 1663 4 MP
PP
-1855 0 0 1514 1855 0 0 -1514 3167 1663 5 MP stroke
4 w
DO
SO
6 w
0 sg
3167  149 mt 5022  149 L
3167 1663 mt 5022 1663 L
5022 1663 mt 5022  149 L
3167 1663 mt 3167  149 L
3167 1663 mt 5022 1663 L
3167 1663 mt 3167  149 L
3167 1663 mt 3167 1644 L
3167  149 mt 3167  167 L
3134 1808 mt 
(0) s
3630 1663 mt 3630 1644 L
3630  149 mt 3630  167 L
3530 1808 mt 
(100) s
4094 1663 mt 4094 1644 L
4094  149 mt 4094  167 L
3994 1808 mt 
(200) s
4558 1663 mt 4558 1644 L
4558  149 mt 4558  167 L
4458 1808 mt 
(300) s
5022 1663 mt 5022 1644 L
5022  149 mt 5022  167 L
4922 1808 mt 
(400) s
3167 1663 mt 3185 1663 L
5022 1663 mt 5003 1663 L
3066 1707 mt 
(0) s
3167 1158 mt 3185 1158 L
5022 1158 mt 5003 1158 L
2999 1202 mt 
(50) s
3167  653 mt 3185  653 L
5022  653 mt 5003  653 L
2932  697 mt 
(100) s
3167  149 mt 3185  149 L
5022  149 mt 5003  149 L
2932  193 mt 
(150) s
3167  149 mt 5022  149 L
3167 1663 mt 5022 1663 L
5022 1663 mt 5022  149 L
3167 1663 mt 3167  149 L
gs 3167 149 1856 1515 rc
c8
5 0 5 0 4 0 5 0 4 0 5 0 5 33 4 65 
5 65 5 65 4 53 5 7 5 75 4 112 5 61 4 26 
5 43 5 69 4 56 5 44 5 19 4 7 5 37 5 42 
4 26 5 18 4 32 5 12 5 26 4 18 5 6 5 7 
4 -7 5 0 5 -6 4 6 5 -6 4 6 5 -6 5 -7 
4 7 5 -7 5 0 4 0 5 0 5 -6 4 0 5 -5 
4 5 5 -5 5 5 4 13 5 0 5 53 4 10 5 -3 
5 8 4 -3 5 6 5 -5 4 12 5 3 4 6 5 0 
5 -1 4 -4 5 7 5 8 4 2 5 -2 5 10 4 5 
5 19 4 -1 5 13 5 -13 4 11 5 -7 5 -1 4 8 
5 10 5 9 4 18 5 -6 4 -3 5 -12 5 2 4 1 
5 4 5 0 4 5 5 -12 5 -3 4 -8 5 -7 4 8 
5 -1 5 -5 4 -3 5 3 5 -2 4 4 5 -13 5 0 
4 0 5 -5 4 -7 5 3 5 4 4 -10 5 5 5 8 
4 -3 5 -4 5 10 4 5 5 -5 4 10 5 -5 5 -3 
4 -7 5 -9 5 0 4 0 5 -13 5 4 4 -6 5 -7 
4 -3 5 -6 5 -8 4 -12 5 -5 5 7 4 -7 5 -5 
5 7 4 5 5 11 5 15 4 1 5 2 4 8 5 -6 
5 0 4 -15 5 -5 5 -16 4 2 5 -5 5 3 4 10 
5 -5 4 19 5 52 5 30 4 27 5 36 5 18 4 18 
5 6 5 7 4 0 5 13 4 0 5 -7 5 0 4 -6 
5 -7 5 -18 4 -6 5 -20 5 -13 4 7 5 35 4 18 
5 -14 5 -18 4 -26 5 -15 5 -19 4 -16 5 -9 5 -14 
4 -3 5 0 4 -2 5 3 5 0 4 5 5 7 5 14 
4 2 5 -5 5 -8 4 3 5 0 4 7 5 37 5 -46 
4 -6 5 -37 5 -5 4 -5 5 -8 5 0 4 -13 5 -5 
4 -3 5 -15 5 -3 4 -13 5 -5 5 -8 4 -10 5 -18 
5 2 4 -5 5 -3 5 0 4 3 5 -7 4 2 5 0 
5 0 4 -5 5 2 5 3 4 5 5 6 5 -8 4 8 
5 0 4 -14 5 8 5 -2 4 0 5 8 5 -4 4 -7 
5 5 5 -2 4 0 5 2 4 -3 5 9 5 2 4 -6 
5 0 5 13 4 1 5 -1 5 -5 4 1 5 -1 4 8 
5 3 5 -10 4 10 5 -10 5 18 4 -3 5 18 5 -5 
4 -8 5 -5 4 -2 5 -8 5 -1 4 11 5 -3 5 3 
4 -2 5 2 5 -10 4 13 5 -5 4 5 5 2 5 -10 
4 6 5 -3 5 -5 4 8 5 38 5 -7 4 0 5 -11 
4 -7 5 -6 5 -3 4 -4 5 -3 5 3 4 -17 5 -4 
5 -1 4 6 5 -9 3491 647 300 MP stroke
5 -5 4 8 5 -3 4 0 5 -10 5 -8 4 -7 5 -18 
5 -8 4 -21 5 -2 5 -16 4 -21 5 -16 4 -41 5 39 
5 -6 4 9 5 18 5 2 4 2 5 4 5 4 4 -4 
5 -3 4 5 5 2 5 6 4 -6 5 14 5 -3 4 8 
5 5 5 3 4 23 5 13 4 -5 5 -5 5 -5 4 -19 
5 -5 5 -19 4 -10 5 -28 5 -13 4 0 5 0 4 -13 
5 -6 5 -7 4 -11 5 -20 5 -13 4 -24 5 -19 5 -25 
4 -37 5 -68 4 -75 5 -81 5 -106 4 -107 5 -112 5 -106 
4 -44 5 0 5 0 4 0 5 0 3171 1663 70 MP stroke
gr

c8
0 sg
2850 1267 mt  -90 rotate
(Speed \(km/h\)) s
90 rotate
3873 1951 mt 
(Time \(s\)) s

end %%Color Dict

eplot
%%EndObject

epage
end

showpage

%%Trailer
%%EOF
