%!PS-Adobe-3.0 EPSF-3.0
%%Creator: MATLAB, The MathWorks, Inc. Version 8.0.0.783 (R2012b). Operating System: Microsoft Windows 7.
%%Title: C:\000 Work\00000 paper 2\paper\4b.eps
%%CreationDate: 10/21/2013  01:52:47
%%DocumentNeededFonts: Helvetica
%%DocumentProcessColors: Cyan Magenta Yellow Black
%%LanguageLevel: 2
%%Pages: 1
%%BoundingBox:    74   313   536   479
%%EndComments

%%BeginProlog
% MathWorks dictionary
/MathWorks 160 dict begin
% definition operators
/bdef {bind def} bind def
/ldef {load def} bind def
/xdef {exch def} bdef
/xstore {exch store} bdef
% operator abbreviations
/c  /clip ldef
/cc /concat ldef
/cp /closepath ldef
/gr /grestore ldef
/gs /gsave ldef
/mt /moveto ldef
/np /newpath ldef
/cm /currentmatrix ldef
/sm /setmatrix ldef
/rm /rmoveto ldef
/rl /rlineto ldef
/s {show newpath} bdef
/sc {setcmykcolor} bdef
/sr /setrgbcolor ldef
/sg /setgray ldef
/w /setlinewidth ldef
/j /setlinejoin ldef
/cap /setlinecap ldef
/rc {rectclip} bdef
/rf {rectfill} bdef
% page state control
/pgsv () def
/bpage {/pgsv save def} bdef
/epage {pgsv restore} bdef
/bplot /gsave ldef
/eplot {stroke grestore} bdef
% orientation switch
/portraitMode 0 def /landscapeMode 1 def /rotateMode 2 def
% coordinate system mappings
/dpi2point 0 def
% font control
/FontSize 0 def
/FMS {/FontSize xstore findfont [FontSize 0 0 FontSize neg 0 0]
  makefont setfont} bdef
/ISOLatin1Encoding where {pop /WindowsLatin1Encoding 256 array bdef
ISOLatin1Encoding WindowsLatin1Encoding copy pop
/.notdef/.notdef/quotesinglbase/florin/quotedblbase/ellipsis/dagger
/daggerdbl/circumflex/perthousand/Scaron/guilsinglleft/OE/.notdef/.notdef
/.notdef/.notdef/quoteleft/quoteright/quotedblleft/quotedblright/bullet
/endash/emdash/tilde/trademark/scaron/guilsinglright/oe/.notdef/.notdef
/Ydieresis WindowsLatin1Encoding 128 32 getinterval astore pop}
{/WindowsLatin1Encoding StandardEncoding bdef} ifelse
/reencode {exch dup where {pop load} {pop StandardEncoding} ifelse
  exch dup 3 1 roll findfont dup length dict begin
  { 1 index /FID ne {def}{pop pop} ifelse } forall
  /Encoding exch def currentdict end definefont pop} bdef
/isroman {findfont /CharStrings get /Agrave known} bdef
/FMSR {3 1 roll 1 index dup isroman {reencode} {pop pop} ifelse
  exch FMS} bdef
/csm {1 dpi2point div -1 dpi2point div scale neg translate
 dup landscapeMode eq {pop -90 rotate}
  {rotateMode eq {90 rotate} if} ifelse} bdef
% line types: solid, dotted, dashed, dotdash
/SO { [] 0 setdash } bdef
/DO { [.5 dpi2point mul 4 dpi2point mul] 0 setdash } bdef
/DA { [6 dpi2point mul] 0 setdash } bdef
/DD { [.5 dpi2point mul 4 dpi2point mul 6 dpi2point mul 4
  dpi2point mul] 0 setdash } bdef
% macros for lines and objects
/L {lineto stroke} bdef
/MP {3 1 roll moveto 1 sub {rlineto} repeat} bdef
/AP {{rlineto} repeat} bdef
/PDlw -1 def
/W {/PDlw currentlinewidth def setlinewidth} def
/PP {closepath eofill} bdef
/DP {closepath stroke} bdef
/MR {4 -2 roll moveto dup  0 exch rlineto exch 0 rlineto
  neg 0 exch rlineto closepath} bdef
/FR {MR stroke} bdef
/PR {MR fill} bdef
/L1i {{currentfile picstr readhexstring pop} image} bdef
/tMatrix matrix def
/MakeOval {newpath tMatrix currentmatrix pop translate scale
0 0 1 0 360 arc tMatrix setmatrix} bdef
/FO {MakeOval stroke} bdef
/PO {MakeOval fill} bdef
/PD {currentlinewidth 2 div 0 360 arc fill
   PDlw -1 eq not {PDlw w /PDlw -1 def} if} def
/FA {newpath tMatrix currentmatrix pop translate scale
  0 0 1 5 -2 roll arc tMatrix setmatrix stroke} bdef
/PA {newpath tMatrix currentmatrix pop	translate 0 0 moveto scale
  0 0 1 5 -2 roll arc closepath tMatrix setmatrix fill} bdef
/FAn {newpath tMatrix currentmatrix pop translate scale
  0 0 1 5 -2 roll arcn tMatrix setmatrix stroke} bdef
/PAn {newpath tMatrix currentmatrix pop translate 0 0 moveto scale
  0 0 1 5 -2 roll arcn closepath tMatrix setmatrix fill} bdef
/vradius 0 def /hradius 0 def /lry 0 def
/lrx 0 def /uly 0 def /ulx 0 def /rad 0 def
/MRR {/vradius xdef /hradius xdef /lry xdef /lrx xdef /uly xdef
  /ulx xdef newpath tMatrix currentmatrix pop ulx hradius add uly
  vradius add translate hradius vradius scale 0 0 1 180 270 arc 
  tMatrix setmatrix lrx hradius sub uly vradius add translate
  hradius vradius scale 0 0 1 270 360 arc tMatrix setmatrix
  lrx hradius sub lry vradius sub translate hradius vradius scale
  0 0 1 0 90 arc tMatrix setmatrix ulx hradius add lry vradius sub
  translate hradius vradius scale 0 0 1 90 180 arc tMatrix setmatrix
  closepath} bdef
/FRR {MRR stroke } bdef
/PRR {MRR fill } bdef
/MlrRR {/lry xdef /lrx xdef /uly xdef /ulx xdef /rad lry uly sub 2 div def
  newpath tMatrix currentmatrix pop ulx rad add uly rad add translate
  rad rad scale 0 0 1 90 270 arc tMatrix setmatrix lrx rad sub lry rad
  sub translate rad rad scale 0 0 1 270 90 arc tMatrix setmatrix
  closepath} bdef
/FlrRR {MlrRR stroke } bdef
/PlrRR {MlrRR fill } bdef
/MtbRR {/lry xdef /lrx xdef /uly xdef /ulx xdef /rad lrx ulx sub 2 div def
  newpath tMatrix currentmatrix pop ulx rad add uly rad add translate
  rad rad scale 0 0 1 180 360 arc tMatrix setmatrix lrx rad sub lry rad
  sub translate rad rad scale 0 0 1 0 180 arc tMatrix setmatrix
  closepath} bdef
/FtbRR {MtbRR stroke } bdef
/PtbRR {MtbRR fill } bdef
/stri 6 array def /dtri 6 array def
/smat 6 array def /dmat 6 array def
/tmat1 6 array def /tmat2 6 array def /dif 3 array def
/asub {/ind2 exch def /ind1 exch def dup dup
  ind1 get exch ind2 get sub exch } bdef
/tri_to_matrix {
  2 0 asub 3 1 asub 4 0 asub 5 1 asub
  dup 0 get exch 1 get 7 -1 roll astore } bdef
/compute_transform {
  dmat dtri tri_to_matrix tmat1 invertmatrix 
  smat stri tri_to_matrix tmat2 concatmatrix } bdef
/ds {stri astore pop} bdef
/dt {dtri astore pop} bdef
/db {2 copy /cols xdef /rows xdef mul dup 3 mul string
  currentfile 
  3 index 0 eq {/ASCIIHexDecode filter}
  {/ASCII85Decode filter 3 index 2 eq {/RunLengthDecode filter} if }
  ifelse exch readstring pop
  dup 0 3 index getinterval /rbmap xdef
  dup 2 index dup getinterval /gbmap xdef
  1 index dup 2 mul exch getinterval /bbmap xdef pop pop}bdef
/it {gs np dtri aload pop moveto lineto lineto cp c
  cols rows 8 compute_transform 
  rbmap gbmap bbmap true 3 colorimage gr}bdef
/il {newpath moveto lineto stroke}bdef
currentdict end def
%%EndProlog

%%BeginSetup
MathWorks begin

0 cap

end
%%EndSetup

%%Page: 1 1
%%BeginPageSetup
%%PageBoundingBox:    74   313   536   479
MathWorks begin
bpage
%%EndPageSetup

%%BeginObject: obj1
bplot

/dpi2point 12 def
portraitMode 0888 5748 csm

    0     0  5553  1989 rc
85 dict begin %Colortable dictionary
/c0 { 0.000000 0.000000 0.000000 sr} bdef
/c1 { 1.000000 1.000000 1.000000 sr} bdef
/c2 { 0.900000 0.000000 0.000000 sr} bdef
/c3 { 0.000000 0.820000 0.000000 sr} bdef
/c4 { 0.000000 0.000000 0.800000 sr} bdef
/c5 { 0.910000 0.820000 0.320000 sr} bdef
/c6 { 1.000000 0.260000 0.820000 sr} bdef
/c7 { 0.000000 0.820000 0.820000 sr} bdef
c0
1 j
1 sg
   0    0 5554 1990 rf
6 w
0 1523 1855 0 0 -1523 722 1672 4 MP
PP
-1855 0 0 1523 1855 0 0 -1523 722 1672 5 MP stroke
4 w
DO
SO
6 w
0 sg
 722  149 mt 2577  149 L
 722 1672 mt 2577 1672 L
2577 1672 mt 2577  149 L
 722 1672 mt  722  149 L
 722 1672 mt 2577 1672 L
 722 1672 mt  722  149 L
 722 1672 mt  722 1653 L
 722  149 mt  722  167 L
%%IncludeResource: font Helvetica
/Helvetica /WindowsLatin1Encoding 120 FMSR

 689 1817 mt 
(0) s
1340 1672 mt 1340 1653 L
1340  149 mt 1340  167 L
1240 1817 mt 
(200) s
1958 1672 mt 1958 1653 L
1958  149 mt 1958  167 L
1858 1817 mt 
(400) s
2577 1672 mt 2577 1653 L
2577  149 mt 2577  167 L
2477 1817 mt 
(600) s
 722 1672 mt  740 1672 L
2577 1672 mt 2558 1672 L
 621 1716 mt 
(0) s
 722 1367 mt  740 1367 L
2577 1367 mt 2558 1367 L
 554 1411 mt 
(10) s
 722 1062 mt  740 1062 L
2577 1062 mt 2558 1062 L
 554 1106 mt 
(20) s
 722  758 mt  740  758 L
2577  758 mt 2558  758 L
 554  802 mt 
(30) s
 722  453 mt  740  453 L
2577  453 mt 2558  453 L
 554  497 mt 
(40) s
 722  149 mt  740  149 L
2577  149 mt 2558  149 L
 554  193 mt 
(50) s
 722  149 mt 2577  149 L
 722 1672 mt 2577 1672 L
2577 1672 mt 2577  149 L
 722 1672 mt  722  149 L
gs 722 149 1856 1524 rc
/c8 { 0.000000 0.000000 1.000000 sr} bdef
c8
3 0 3 0 3 0 3 0 3 0 3 0 3 0 3 0 
3 0 4 0 3 0 3 0 3 0 3 0 3 0 3 0 
3 0 3 0 3 0 3 0 4 0 3 0 3 0 3 0 
3 0 3 0 3 0 3 0 3 0 3 0 3 0 4 0 
3 0 3 0 3 0 3 35 3 49 3 142 3 137 3 191 
3 177 3 142 4 137 3 132 3 118 3 78 3 15 3 5 
3 -20 3 -29 3 -34 3 -44 3 -113 4 -157 3 -201 3 -176 
3 -64 3 -83 3 -103 3 14 3 113 3 39 3 5 3 -29 
4 -93 3 -123 3 -68 3 -40 3 -63 3 -54 3 -30 3 54 
3 74 3 15 3 -15 4 -20 3 -44 3 -34 3 -25 3 -10 
3 40 3 103 3 225 3 270 3 225 3 59 4 108 3 -10 
3 -54 3 10 3 15 3 -30 3 -49 3 -39 3 -88 3 -84 
3 -103 4 -19 3 -25 3 -54 3 -137 3 -162 3 -151 3 -50 
3 0 3 0 3 0 3 0 4 0 3 0 3 0 3 0 
3 0 3 0 3 0 3 0 3 0 3 0 3 0 4 0 
3 0 3 0 3 0 3 0 3 0 3 0 3 0 3 0 
3 0 4 0 3 0 3 0 3 0 3 0 3 0 3 0 
3 0 3 0 3 0 3 0 4 0 3 0 3 0 3 0 
3 0 3 5 3 -5 3 0 3 0 3 0 3 0 4 0 
3 0 3 30 3 39 3 49 3 44 3 108 3 123 3 -20 
3 5 3 59 4 161 3 45 3 -54 3 -44 3 53 3 113 
3 64 3 -25 3 -9 3 -20 3 -20 4 5 3 -34 3 -64 
3 -34 3 0 3 54 3 24 3 -14 3 -59 3 -79 3 -78 
4 -20 3 30 3 59 3 54 3 14 3 -24 3 -10 3 -29 
3 4 3 25 3 -39 4 -103 3 -157 3 -113 3 -10 3 45 
3 0 3 -69 3 -69 3 -10 3 0 3 0 4 0 3 0 
3 0 3 0 3 0 3 0 3 0 3 0 3 0 3 0 
3 0 4 0 3 0 3 0 3 0 3 0 3 0 3 0 
3 0 3 5 3 0 3 -5 4 0 3 0 3 5 3 -5 
3 0 3 0 3 0 3 0 3 0 3 10 3 15 4 5 
3 -5 3 -10 3 -10 3 -5 3 0 3 0 3 0 3 0 
3 0 4 0 3 0 3 0 3 0 3 0 3 0 3 5 
3 118 3 147 3 103 3 83 4 -44 3 -59 3 -58 3 -20 
3 15 3 44 3 88 3 59 3 -35 3 -147 3 -122 4 -20 
3 113 3 29 3 -176 3 -123 3 0 3 0 3 0 3 0 
3 0 3 0 4 0 3 0 3 30 3 69 3 58 3 113 
3 152 3 88 3 93 3 69 3 -44 4 -108 3 -59 3 39 
3 25 3 59 3 117 1649 971 300 MP stroke
3 118 3 20 3 9 3 98 3 59 4 -10 3 25 3 29 
3 35 3 14 3 -24 3 -25 3 -24 3 -25 3 -24 3 -10 
4 39 3 0 3 -68 3 -118 3 -137 3 -206 3 -245 3 -216 
3 -15 3 0 3 15 4 25 3 24 3 79 3 5 3 19 
3 -19 3 122 3 -54 3 34 3 69 3 5 4 29 3 20 
3 -20 3 -39 3 -93 3 -122 3 -89 3 -10 3 0 3 0 
3 0 4 0 3 0 3 0 3 0 3 0 3 0 3 0 
3 0 3 0 3 0 3 162 4 289 3 211 3 181 3 172 
3 118 3 58 3 35 3 -20 3 -54 3 -88 4 -103 3 -78 
3 -25 3 -34 3 -39 3 -20 3 0 3 39 3 54 3 49 
3 44 4 -5 3 -19 3 34 3 181 3 152 3 -9 3 -25 
3 -93 3 -196 3 -240 3 -182 4 94 3 176 3 113 3 73 
3 44 3 0 3 -34 3 -69 3 -166 3 -294 3 -294 4 -128 
3 -64 3 5 3 0 3 10 3 25 3 24 3 79 3 39 
3 88 3 142 4 152 3 83 3 49 3 0 3 10 3 5 
3 5 3 0 3 -24 3 -10 3 152 4 107 3 54 3 40 
3 24 3 25 3 29 3 29 3 49 3 15 3 30 3 -10 
4 -25 3 -19 3 -20 3 -29 3 -69 3 -103 3 -78 3 -25 
3 -34 3 -39 3 -5 4 14 3 -53 3 -64 3 -83 3 -94 
3 -205 3 -231 3 -64 3 0 3 0 3 10 4 10 3 -15 
3 35 3 10 3 78 3 54 3 64 3 53 3 74 3 64 
3 24 4 25 3 34 3 83 3 15 3 -24 3 -10 3 -25 
3 -29 3 -44 3 -133 3 -83 4 5 3 15 3 5 3 0 
3 -5 3 44 3 14 3 -68 3 -44 3 103 4 -5 3 -69 
3 25 3 132 3 127 3 192 3 102 3 5 3 5 3 -83 
3 -162 4 -201 3 -274 3 -133 3 0 3 0 3 0 3 0 
3 0 3 10 3 5 3 -15 4 0 3 0 3 0 3 5 
3 35 3 10 3 78 3 64 3 127 3 147 3 64 4 0 
3 -88 3 -162 3 -128 3 -49 3 20 3 152 3 225 3 211 
3 181 3 172 4 59 3 -93 3 -157 3 -137 3 -128 3 -137 
3 -49 3 15 3 29 3 -93 3 -59 4 -10 3 69 3 0 
3 -29 3 -69 3 -137 3 -118 3 -20 3 0 3 0 3 0 
4 0 3 0 3 0 3 0 3 0 3 0 3 0 3 0 
3 0 3 0 3 0 4 0 3 0 3 0 3 10 3 -5 
3 -5 3 0 3 0 3 0 3 0 3 0 4 0 3 0 
3 0 3 0 3 0 3 0 3 0 3 0 3 0 3 0 
3 15 4 -5 3 -10 3 15 3 -15 3 0 3 0 3 0 
3 0 3 0 3 0 725 1672 300 MP stroke
gr

c8
0 sg
 472 1271 mt  -90 rotate
(Speed \(km/h\)) s
90 rotate
1428 1960 mt 
(Time \(s\)) s
1 sg
0 1523 1855 0 0 -1523 3167 1672 4 MP
PP
-1855 0 0 1523 1855 0 0 -1523 3167 1672 5 MP stroke
4 w
DO
SO
6 w
0 sg
3167  149 mt 5022  149 L
3167 1672 mt 5022 1672 L
5022 1672 mt 5022  149 L
3167 1672 mt 3167  149 L
3167 1672 mt 5022 1672 L
3167 1672 mt 3167  149 L
3167 1672 mt 3167 1653 L
3167  149 mt 3167  167 L
3134 1817 mt 
(0) s
3939 1672 mt 3939 1653 L
3939  149 mt 3939  167 L
3839 1817 mt 
(500) s
4712 1672 mt 4712 1653 L
4712  149 mt 4712  167 L
4579 1817 mt 
(1000) s
3167 1672 mt 3185 1672 L
5022 1672 mt 5003 1672 L
3066 1716 mt 
(0) s
3167 1367 mt 3185 1367 L
5022 1367 mt 5003 1367 L
2999 1411 mt 
(10) s
3167 1062 mt 3185 1062 L
5022 1062 mt 5003 1062 L
2999 1106 mt 
(20) s
3167  758 mt 3185  758 L
5022  758 mt 5003  758 L
2999  802 mt 
(30) s
3167  453 mt 3185  453 L
5022  453 mt 5003  453 L
2999  497 mt 
(40) s
3167  149 mt 3185  149 L
5022  149 mt 5003  149 L
2999  193 mt 
(50) s
3167  149 mt 5022  149 L
3167 1672 mt 5022 1672 L
5022 1672 mt 5022  149 L
3167 1672 mt 3167  149 L
gs 3167 149 1856 1524 rc
c8
1 0 2 0 1 0 2 0 1 0 2 0 1 0 2 0 
1 0 2 0 2 0 1 0 2 0 1 0 2 0 1 0 
2 0 1 0 2 0 1 5 2 74 2 162 1 166 2 142 
1 118 2 88 1 69 2 54 1 -25 2 -29 1 10 2 -30 
2 -19 1 -25 2 -19 1 14 2 -5 1 -5 2 5 1 0 
2 0 1 0 2 0 2 -5 1 -24 2 34 1 10 2 -5 
1 5 2 -20 1 25 2 0 1 -10 2 -10 2 -14 1 -10 
2 -15 1 -19 2 -20 1 -39 2 -20 1 -34 2 -15 1 -39 
2 -34 2 -49 1 -54 2 -59 1 -64 2 -88 1 -59 2 -54 
1 -64 2 0 1 0 2 0 2 0 1 0 2 0 1 0 
2 0 1 0 2 0 1 0 2 0 1 0 2 0 2 0 
1 0 2 0 1 10 2 98 1 240 2 275 1 137 2 132 
1 99 2 93 2 58 1 45 2 -45 1 -49 2 -58 1 -108 
2 -123 1 -54 2 -58 1 -84 2 -93 2 -152 1 -157 2 -78 
1 -78 2 -50 1 0 2 0 1 0 2 0 1 0 2 0 
2 0 1 0 2 0 1 0 2 0 1 0 2 0 1 0 
2 0 1 0 2 0 2 0 1 20 2 20 1 78 2 88 
1 5 2 -14 1 -5 2 9 2 -14 1 78 2 69 1 -15 
2 0 1 25 2 78 1 10 2 -10 1 -10 2 -5 2 5 
1 -44 2 -64 1 -83 2 -73 1 -35 2 -39 1 -20 2 10 
1 39 2 98 2 152 1 113 2 103 1 54 2 29 1 25 
2 15 1 -45 2 -63 1 -93 2 -123 2 -132 1 -118 2 -88 
1 -30 2 0 1 0 2 0 1 0 2 0 1 0 2 0 
2 0 1 0 2 0 1 0 2 0 1 0 2 0 1 0 
2 0 1 0 2 5 2 79 1 122 2 128 1 137 2 216 
1 166 2 93 1 94 2 63 1 64 2 59 2 14 1 -58 
2 -64 1 -132 2 -94 1 -58 2 -74 1 -206 2 -132 1 -132 
2 -89 2 -39 1 -49 2 -103 1 -10 2 0 1 0 2 0 
1 0 2 0 1 0 2 0 2 0 1 0 2 0 1 0 
2 0 1 0 2 0 1 0 2 0 1 0 2 0 2 10 
1 89 2 102 1 133 2 127 1 113 2 69 1 78 2 64 
1 5 2 14 2 0 1 -14 2 14 1 20 2 54 1 -39 
2 19 1 -44 2 -54 1 -49 2 -73 2 -84 1 -68 2 -74 
1 -68 2 -94 1 -63 2 -39 1 -15 2 -54 1 -79 2 0 
2 0 1 0 2 0 1 0 2 0 1 0 2 0 1 0 
2 0 1 0 2 0 2 0 1 0 2 0 1 0 2 0 
1 0 2 10 1 113 2 113 1 98 2 112 2 246 1 186 
2 83 1 83 2 74 4389 554 300 MP stroke
1 69 2 0 1 -84 2 -73 1 -84 2 -166 2 -196 1 -118 
2 -132 1 -201 2 -69 1 -64 2 0 1 0 2 0 1 0 
2 0 2 0 1 0 2 0 1 0 2 0 1 0 2 0 
1 0 2 0 1 0 2 0 2 0 1 0 2 5 1 35 
2 68 1 30 2 -35 1 -14 2 127 1 162 2 152 2 108 
1 19 2 -10 1 45 2 -35 1 -34 2 -39 1 -54 2 -64 
1 -64 2 -49 2 -24 1 54 2 73 1 44 2 -4 1 9 
2 10 1 5 2 5 1 15 2 -10 2 -59 1 -59 2 -122 
1 -59 2 -79 1 -63 2 -39 1 24 2 34 1 113 2 49 
2 -44 1 -49 2 -34 1 58 2 103 1 142 2 133 1 -10 
2 -5 2 -10 1 15 2 10 1 0 2 -10 1 -64 2 -83 
1 -88 2 -93 1 -79 2 -88 2 -74 1 0 2 0 1 0 
2 0 1 0 2 0 1 0 2 0 1 0 2 0 2 0 
1 0 2 0 1 0 2 0 1 0 2 0 1 0 2 0 
1 5 2 49 2 54 1 98 2 103 1 177 2 157 1 73 
2 78 1 133 2 88 1 83 2 69 2 -20 1 -29 2 -83 
1 -98 2 -54 1 -64 2 -118 1 -161 2 -143 1 -132 2 -93 
2 -93 1 -79 2 0 1 0 2 0 1 0 2 0 1 0 
2 0 1 0 2 0 2 0 1 0 2 0 1 0 2 0 
1 0 2 0 1 0 2 0 1 0 2 15 2 39 1 118 
2 132 1 172 2 132 1 35 2 -20 1 -44 2 -34 1 -5 
2 9 2 35 1 -20 2 -10 1 10 2 39 1 10 2 -29 
1 -20 2 -24 1 -30 2 25 2 29 1 -10 2 -5 1 -83 
2 -34 1 -35 2 -19 1 -20 2 -68 1 -93 2 -113 2 -84 
1 0 2 0 1 0 2 0 1 0 2 0 1 0 2 0 
1 0 2 0 2 0 1 0 2 0 1 0 2 0 1 0 
2 0 1 0 2 0 1 5 2 49 2 54 1 54 2 69 
1 83 2 182 1 225 2 118 1 112 2 128 1 73 2 20 
2 19 1 -14 2 -25 1 -103 2 -24 1 -15 2 -24 1 -118 
2 -137 1 -74 2 -83 2 -226 1 -107 2 -103 1 -108 2 -15 
1 -15 2 0 1 0 2 0 1 0 2 0 2 0 1 0 
2 0 1 0 2 0 1 0 2 0 1 0 2 0 1 0 
2 0 2 0 1 0 2 5 1 74 2 162 1 166 2 142 
1 118 2 88 1 69 2 54 2 -25 1 -29 2 10 1 -30 
2 -19 1 -25 2 -19 1 14 2 -5 1 -5 2 5 2 0 
1 0 2 0 1 0 2 -5 1 -24 2 34 1 10 2 -5 
1 5 2 -20 2 25 1 0 2 -10 1 -10 2 -14 1 -10 
2 -15 1 -19 2 -20 3927 1000 300 MP stroke
1 -39 2 -20 2 -34 1 -15 2 -39 1 -34 2 -49 1 -54 
2 -59 1 -64 2 -88 1 -59 2 -54 2 -64 1 0 2 0 
1 0 2 0 1 0 2 0 1 0 2 0 2 0 1 0 
2 0 1 0 2 0 1 0 2 0 1 0 2 0 1 10 
2 98 2 240 1 275 2 137 1 132 2 99 1 93 2 58 
1 45 2 -45 1 -49 2 -58 2 -108 1 -123 2 -54 1 -58 
2 -84 1 -93 2 -152 1 -157 2 -78 1 -78 2 -50 2 0 
1 0 2 0 1 0 2 0 1 0 2 0 1 0 2 0 
1 0 2 0 2 0 1 0 2 0 1 0 2 0 1 0 
2 0 1 20 2 20 1 78 2 88 2 5 1 -14 2 -5 
1 9 2 -14 1 78 2 69 1 -15 2 0 1 25 2 78 
2 10 1 -10 2 -10 1 -5 2 5 1 -44 2 -64 1 -83 
2 -73 1 -35 2 -39 2 -20 1 10 2 39 1 98 2 152 
1 113 2 103 1 54 2 29 1 25 2 15 2 -45 1 -63 
2 -93 1 -123 2 -132 1 -118 2 -88 1 -30 2 0 1 0 
2 0 2 0 1 0 2 0 1 0 2 0 1 0 2 0 
1 0 2 0 1 0 2 0 2 0 1 0 2 0 1 5 
2 79 1 122 2 128 1 137 2 216 1 166 2 93 2 94 
1 63 2 64 1 59 2 14 1 -58 2 -64 1 -132 2 -94 
1 -58 2 -74 2 -206 1 -132 2 -132 1 -89 2 -39 1 -49 
2 -103 1 -10 2 0 1 0 2 0 2 0 1 0 2 0 
1 0 2 0 1 0 2 0 1 0 2 0 1 0 2 0 
2 0 1 0 2 0 1 0 2 10 1 89 2 102 1 133 
2 127 1 113 2 69 2 78 1 64 2 5 1 14 2 0 
1 -14 2 14 1 20 2 54 1 -39 2 19 2 -44 1 -54 
2 -49 1 -73 2 -84 1 -68 2 -74 1 -68 2 -94 1 -63 
2 -39 2 -15 1 -54 2 -79 1 0 2 0 1 0 2 0 
1 0 2 0 1 0 2 0 2 0 1 0 2 0 1 0 
2 0 1 0 2 0 1 0 2 0 1 0 2 10 2 113 
1 113 2 98 1 112 2 246 1 186 2 83 1 83 2 74 
1 69 2 0 2 -84 1 -73 2 -84 1 -166 2 -196 1 -118 
2 -132 1 -201 2 -69 1 -64 2 0 2 0 1 0 2 0 
1 0 2 0 1 0 2 0 1 0 2 0 2 0 1 0 
2 0 1 0 2 0 1 0 2 0 1 0 2 5 1 35 
2 68 2 30 1 -35 2 -14 1 127 2 162 1 152 2 108 
1 19 2 -10 1 45 2 -35 2 -34 1 -39 2 -54 1 -64 
2 -64 1 -49 2 -24 1 54 2 73 1 44 2 -4 2 9 
1 10 2 5 1 5 3465 1147 300 MP stroke
2 15 1 -10 2 -59 1 -59 2 -122 1 -59 2 -79 2 -63 
1 -39 2 24 1 34 2 113 1 49 2 -44 1 -49 2 -34 
1 58 2 103 2 142 1 133 2 -10 1 -5 2 -10 1 15 
2 10 1 0 2 -10 1 -64 2 -83 2 -88 1 -93 2 -79 
1 -88 2 -74 1 0 2 0 1 0 2 0 1 0 2 0 
2 0 1 0 2 0 1 0 2 0 1 0 2 0 1 0 
2 0 1 0 2 0 2 0 1 0 2 5 1 49 2 54 
1 98 2 103 1 177 2 157 1 73 2 78 2 133 1 88 
2 83 1 69 2 -20 1 -29 2 -83 1 -98 2 -54 1 -64 
2 -118 2 -161 1 -143 2 -132 1 -93 2 -93 1 -79 2 0 
1 0 2 0 1 0 2 0 2 0 1 0 2 0 1 0 
2 0 1 0 2 0 1 0 2 0 1 0 2 0 2 0 
1 0 2 0 1 15 2 39 1 118 2 132 1 172 2 132 
1 35 2 -20 2 -44 1 -34 2 -5 1 9 2 35 1 -20 
2 -10 1 10 2 39 1 10 2 -29 2 -20 1 -24 2 -30 
1 25 2 29 1 -10 2 -5 1 -83 2 -34 1 -35 2 -19 
2 -20 1 -68 2 -93 1 -113 2 -84 1 0 2 0 1 0 
2 0 1 0 2 0 2 0 1 0 2 0 1 0 2 0 
1 0 2 0 1 0 2 0 1 0 2 0 2 0 1 0 
2 5 1 49 2 54 1 54 2 69 1 83 2 182 1 225 
2 118 2 112 1 128 2 73 1 20 2 19 1 -14 2 -25 
1 -103 2 -24 1 -15 2 -24 2 -118 1 -137 2 -74 1 -83 
2 -226 1 -107 2 -103 1 -108 2 -15 1 -15 2 0 2 0 
1 0 2 0 1 0 2 0 1 0 2 0 1 0 2 0 
3168 1672 193 MP stroke
gr

c8
0 sg
2917 1271 mt  -90 rotate
(Speed \(km/h\)) s
90 rotate
3873 1960 mt 
(Time \(s\)) s

end %%Color Dict

eplot
%%EndObject

epage
end

showpage

%%Trailer
%%EOF
