%!PS-Adobe-3.0 EPSF-3.0
%%Creator: MATLAB, The MathWorks, Inc. Version 8.0.0.783 (R2012b). Operating System: Microsoft Windows 7.
%%Title: C:\000 Work\00000 paper 2\paper\4c.eps
%%CreationDate: 10/21/2013  01:53:05
%%DocumentNeededFonts: Helvetica
%%DocumentProcessColors: Cyan Magenta Yellow Black
%%LanguageLevel: 2
%%Pages: 1
%%BoundingBox:    74   312   536   479
%%EndComments

%%BeginProlog
% MathWorks dictionary
/MathWorks 160 dict begin
% definition operators
/bdef {bind def} bind def
/ldef {load def} bind def
/xdef {exch def} bdef
/xstore {exch store} bdef
% operator abbreviations
/c  /clip ldef
/cc /concat ldef
/cp /closepath ldef
/gr /grestore ldef
/gs /gsave ldef
/mt /moveto ldef
/np /newpath ldef
/cm /currentmatrix ldef
/sm /setmatrix ldef
/rm /rmoveto ldef
/rl /rlineto ldef
/s {show newpath} bdef
/sc {setcmykcolor} bdef
/sr /setrgbcolor ldef
/sg /setgray ldef
/w /setlinewidth ldef
/j /setlinejoin ldef
/cap /setlinecap ldef
/rc {rectclip} bdef
/rf {rectfill} bdef
% page state control
/pgsv () def
/bpage {/pgsv save def} bdef
/epage {pgsv restore} bdef
/bplot /gsave ldef
/eplot {stroke grestore} bdef
% orientation switch
/portraitMode 0 def /landscapeMode 1 def /rotateMode 2 def
% coordinate system mappings
/dpi2point 0 def
% font control
/FontSize 0 def
/FMS {/FontSize xstore findfont [FontSize 0 0 FontSize neg 0 0]
  makefont setfont} bdef
/ISOLatin1Encoding where {pop /WindowsLatin1Encoding 256 array bdef
ISOLatin1Encoding WindowsLatin1Encoding copy pop
/.notdef/.notdef/quotesinglbase/florin/quotedblbase/ellipsis/dagger
/daggerdbl/circumflex/perthousand/Scaron/guilsinglleft/OE/.notdef/.notdef
/.notdef/.notdef/quoteleft/quoteright/quotedblleft/quotedblright/bullet
/endash/emdash/tilde/trademark/scaron/guilsinglright/oe/.notdef/.notdef
/Ydieresis WindowsLatin1Encoding 128 32 getinterval astore pop}
{/WindowsLatin1Encoding StandardEncoding bdef} ifelse
/reencode {exch dup where {pop load} {pop StandardEncoding} ifelse
  exch dup 3 1 roll findfont dup length dict begin
  { 1 index /FID ne {def}{pop pop} ifelse } forall
  /Encoding exch def currentdict end definefont pop} bdef
/isroman {findfont /CharStrings get /Agrave known} bdef
/FMSR {3 1 roll 1 index dup isroman {reencode} {pop pop} ifelse
  exch FMS} bdef
/csm {1 dpi2point div -1 dpi2point div scale neg translate
 dup landscapeMode eq {pop -90 rotate}
  {rotateMode eq {90 rotate} if} ifelse} bdef
% line types: solid, dotted, dashed, dotdash
/SO { [] 0 setdash } bdef
/DO { [.5 dpi2point mul 4 dpi2point mul] 0 setdash } bdef
/DA { [6 dpi2point mul] 0 setdash } bdef
/DD { [.5 dpi2point mul 4 dpi2point mul 6 dpi2point mul 4
  dpi2point mul] 0 setdash } bdef
% macros for lines and objects
/L {lineto stroke} bdef
/MP {3 1 roll moveto 1 sub {rlineto} repeat} bdef
/AP {{rlineto} repeat} bdef
/PDlw -1 def
/W {/PDlw currentlinewidth def setlinewidth} def
/PP {closepath eofill} bdef
/DP {closepath stroke} bdef
/MR {4 -2 roll moveto dup  0 exch rlineto exch 0 rlineto
  neg 0 exch rlineto closepath} bdef
/FR {MR stroke} bdef
/PR {MR fill} bdef
/L1i {{currentfile picstr readhexstring pop} image} bdef
/tMatrix matrix def
/MakeOval {newpath tMatrix currentmatrix pop translate scale
0 0 1 0 360 arc tMatrix setmatrix} bdef
/FO {MakeOval stroke} bdef
/PO {MakeOval fill} bdef
/PD {currentlinewidth 2 div 0 360 arc fill
   PDlw -1 eq not {PDlw w /PDlw -1 def} if} def
/FA {newpath tMatrix currentmatrix pop translate scale
  0 0 1 5 -2 roll arc tMatrix setmatrix stroke} bdef
/PA {newpath tMatrix currentmatrix pop	translate 0 0 moveto scale
  0 0 1 5 -2 roll arc closepath tMatrix setmatrix fill} bdef
/FAn {newpath tMatrix currentmatrix pop translate scale
  0 0 1 5 -2 roll arcn tMatrix setmatrix stroke} bdef
/PAn {newpath tMatrix currentmatrix pop translate 0 0 moveto scale
  0 0 1 5 -2 roll arcn closepath tMatrix setmatrix fill} bdef
/vradius 0 def /hradius 0 def /lry 0 def
/lrx 0 def /uly 0 def /ulx 0 def /rad 0 def
/MRR {/vradius xdef /hradius xdef /lry xdef /lrx xdef /uly xdef
  /ulx xdef newpath tMatrix currentmatrix pop ulx hradius add uly
  vradius add translate hradius vradius scale 0 0 1 180 270 arc 
  tMatrix setmatrix lrx hradius sub uly vradius add translate
  hradius vradius scale 0 0 1 270 360 arc tMatrix setmatrix
  lrx hradius sub lry vradius sub translate hradius vradius scale
  0 0 1 0 90 arc tMatrix setmatrix ulx hradius add lry vradius sub
  translate hradius vradius scale 0 0 1 90 180 arc tMatrix setmatrix
  closepath} bdef
/FRR {MRR stroke } bdef
/PRR {MRR fill } bdef
/MlrRR {/lry xdef /lrx xdef /uly xdef /ulx xdef /rad lry uly sub 2 div def
  newpath tMatrix currentmatrix pop ulx rad add uly rad add translate
  rad rad scale 0 0 1 90 270 arc tMatrix setmatrix lrx rad sub lry rad
  sub translate rad rad scale 0 0 1 270 90 arc tMatrix setmatrix
  closepath} bdef
/FlrRR {MlrRR stroke } bdef
/PlrRR {MlrRR fill } bdef
/MtbRR {/lry xdef /lrx xdef /uly xdef /ulx xdef /rad lrx ulx sub 2 div def
  newpath tMatrix currentmatrix pop ulx rad add uly rad add translate
  rad rad scale 0 0 1 180 360 arc tMatrix setmatrix lrx rad sub lry rad
  sub translate rad rad scale 0 0 1 0 180 arc tMatrix setmatrix
  closepath} bdef
/FtbRR {MtbRR stroke } bdef
/PtbRR {MtbRR fill } bdef
/stri 6 array def /dtri 6 array def
/smat 6 array def /dmat 6 array def
/tmat1 6 array def /tmat2 6 array def /dif 3 array def
/asub {/ind2 exch def /ind1 exch def dup dup
  ind1 get exch ind2 get sub exch } bdef
/tri_to_matrix {
  2 0 asub 3 1 asub 4 0 asub 5 1 asub
  dup 0 get exch 1 get 7 -1 roll astore } bdef
/compute_transform {
  dmat dtri tri_to_matrix tmat1 invertmatrix 
  smat stri tri_to_matrix tmat2 concatmatrix } bdef
/ds {stri astore pop} bdef
/dt {dtri astore pop} bdef
/db {2 copy /cols xdef /rows xdef mul dup 3 mul string
  currentfile 
  3 index 0 eq {/ASCIIHexDecode filter}
  {/ASCII85Decode filter 3 index 2 eq {/RunLengthDecode filter} if }
  ifelse exch readstring pop
  dup 0 3 index getinterval /rbmap xdef
  dup 2 index dup getinterval /gbmap xdef
  1 index dup 2 mul exch getinterval /bbmap xdef pop pop}bdef
/it {gs np dtri aload pop moveto lineto lineto cp c
  cols rows 8 compute_transform 
  rbmap gbmap bbmap true 3 colorimage gr}bdef
/il {newpath moveto lineto stroke}bdef
currentdict end def
%%EndProlog

%%BeginSetup
MathWorks begin

0 cap

end
%%EndSetup

%%Page: 1 1
%%BeginPageSetup
%%PageBoundingBox:    74   312   536   479
MathWorks begin
bpage
%%EndPageSetup

%%BeginObject: obj1
bplot

/dpi2point 12 def
portraitMode 0888 5748 csm

    0     0  5544  1998 rc
85 dict begin %Colortable dictionary
/c0 { 0.000000 0.000000 0.000000 sr} bdef
/c1 { 1.000000 1.000000 1.000000 sr} bdef
/c2 { 0.900000 0.000000 0.000000 sr} bdef
/c3 { 0.000000 0.820000 0.000000 sr} bdef
/c4 { 0.000000 0.000000 0.800000 sr} bdef
/c5 { 0.910000 0.820000 0.320000 sr} bdef
/c6 { 1.000000 0.260000 0.820000 sr} bdef
/c7 { 0.000000 0.820000 0.820000 sr} bdef
c0
1 j
1 sg
   0    0 5545 1999 rf
6 w
0 1531 1819 0 0 -1531 721 1681 4 MP
PP
-1819 0 0 1531 1819 0 0 -1531 721 1681 5 MP stroke
4 w
DO
SO
6 w
0 sg
 721  150 mt 2540  150 L
 721 1681 mt 2540 1681 L
2540 1681 mt 2540  150 L
 721 1681 mt  721  150 L
 721 1681 mt 2540 1681 L
 721 1681 mt  721  150 L
 721 1681 mt  721 1662 L
 721  150 mt  721  168 L
%%IncludeResource: font Helvetica
/Helvetica /WindowsLatin1Encoding 120 FMSR

 688 1826 mt 
(0) s
1630 1681 mt 1630 1662 L
1630  150 mt 1630  168 L
1530 1826 mt 
(500) s
2540 1681 mt 2540 1662 L
2540  150 mt 2540  168 L
2407 1826 mt 
(1000) s
 721 1681 mt  739 1681 L
2540 1681 mt 2521 1681 L
 620 1725 mt 
(0) s
 721 1298 mt  739 1298 L
2540 1298 mt 2521 1298 L
 553 1342 mt 
(20) s
 721  915 mt  739  915 L
2540  915 mt 2521  915 L
 553  959 mt 
(40) s
 721  532 mt  739  532 L
2540  532 mt 2521  532 L
 553  576 mt 
(60) s
 721  150 mt  739  150 L
2540  150 mt 2521  150 L
 553  194 mt 
(80) s
 721  150 mt 2540  150 L
 721 1681 mt 2540 1681 L
2540 1681 mt 2540  150 L
 721 1681 mt  721  150 L
gs 721 150 1820 1532 rc
/c8 { 0.000000 0.000000 1.000000 sr} bdef
c8
2 0 2 1 2 23 1 42 2 57 2 69 2 76 2 80 
2 81 1 76 2 70 2 59 2 50 2 44 1 39 2 37 
2 37 2 35 2 32 2 28 1 21 2 14 2 6 2 -1 
2 -6 1 -13 2 -17 2 -20 2 -21 2 -20 2 -17 1 -14 
2 -12 2 -15 2 -22 2 -33 1 -45 2 -51 2 -47 2 -35 
2 -13 2 14 1 35 2 48 2 50 2 44 2 30 1 17 
2 6 2 -4 2 -11 2 -15 2 -17 1 -15 2 -10 2 0 
2 11 2 20 1 26 2 29 2 29 2 25 2 19 2 13 
1 5 2 -5 2 -16 2 -23 2 -27 1 -26 2 -23 2 -16 
2 -9 2 -6 2 -4 1 -3 2 -5 2 -7 2 -8 2 -9 
1 -9 2 -10 2 -11 2 -11 2 -12 2 -14 1 -15 2 -17 
2 -18 2 -22 2 -23 1 -27 2 -32 2 -36 2 -44 2 -53 
2 -61 1 -65 2 -63 2 -56 2 -42 2 -24 1 -9 2 4 
2 12 2 17 2 20 2 25 1 35 2 47 2 65 2 82 
2 97 2 103 1 102 2 94 2 81 2 67 2 56 1 45 
2 38 2 30 2 25 2 18 2 14 1 9 2 4 2 1 
2 -1 2 -2 1 -2 2 -2 2 -1 2 0 2 1 2 2 
1 2 2 2 2 2 2 -2 2 -4 1 -10 2 -13 2 -16 
2 -18 2 -20 2 -21 1 -22 2 -23 2 -24 2 -25 2 -27 
1 -35 2 -51 2 -72 2 -102 2 -132 2 -146 1 -138 2 -106 
2 -52 2 17 2 75 1 114 2 135 2 138 2 124 2 106 
2 86 1 64 2 40 2 16 2 -2 2 -15 1 -20 2 -17 
2 -10 2 -4 2 -4 2 -6 1 -14 2 -24 2 -37 2 -48 
2 -63 1 -77 2 -90 2 -94 2 -88 2 -69 2 -41 1 -6 
2 20 2 33 2 32 2 16 1 -8 2 -31 2 -45 2 -53 
2 -54 2 -50 1 -42 2 -32 2 -22 2 -7 2 6 1 15 
2 18 2 14 2 4 2 -10 2 -15 1 -11 2 5 2 31 
2 65 2 91 2 106 1 111 2 106 2 90 2 73 2 57 
1 41 2 26 2 10 2 -4 2 -13 2 -23 1 -28 2 -32 
2 -32 2 -30 2 -24 1 -16 2 -5 2 5 2 13 2 20 
2 25 1 28 2 30 2 29 2 26 2 21 1 13 2 7 
2 -1 2 -7 2 -12 2 -19 1 -19 2 -16 2 -8 2 4 
2 20 1 31 2 36 2 36 2 30 2 20 2 8 1 -1 
2 -9 2 -18 2 -23 2 -26 1 -24 2 -17 2 -5 2 8 
2 19 2 24 1 24 2 20 2 11 2 3 2 -2 1 -5 
2 -7 2 -5 2 -4 2 0 2 2 1 7 2 12 2 15 
2 20 2 23 1 26 2 28 2 26 2 23 2 15 2 4 
1 -10 2 -19 2 -24 1781 585 300 MP stroke
2 -24 2 -19 1 -11 2 -4 2 2 2 6 2 7 2 7 
1 6 2 4 2 3 2 -1 2 -4 1 -5 2 -6 2 -4 
2 0 2 4 2 8 1 12 2 15 2 18 2 20 2 19 
1 18 2 13 2 7 2 0 2 -5 2 -4 1 0 2 9 
2 20 2 28 2 35 2 36 1 34 2 29 2 24 2 19 
2 14 1 10 2 4 2 2 2 -1 2 -3 2 -2 1 -3 
2 -1 2 0 2 1 2 3 1 4 2 4 2 5 2 4 
2 2 2 -1 1 -3 2 -5 2 -5 2 -5 2 -6 1 -6 
2 -7 2 -8 2 -12 2 -14 2 -15 1 -14 2 -10 2 -4 
2 3 2 8 1 10 2 10 2 7 2 1 2 -3 2 -9 
1 -12 2 -15 2 -17 2 -18 2 -17 1 -14 2 -11 2 -5 
2 -2 2 -2 2 -3 1 -7 2 -13 2 -17 2 -21 2 -22 
1 -22 2 -21 2 -19 2 -19 2 -18 2 -19 1 -20 2 -20 
2 -20 2 -19 2 -17 1 -14 2 -10 2 -2 2 7 2 19 
2 32 1 40 2 44 2 42 2 34 2 22 1 12 2 5 
2 0 2 -1 2 -1 2 0 1 1 2 0 2 0 2 -1 
2 -1 1 -1 2 1 2 2 2 4 2 4 2 2 1 -2 
2 -8 2 -16 2 -23 2 -29 2 -32 1 -34 2 -35 2 -31 
2 -23 2 -11 1 4 2 23 2 37 2 45 2 45 2 42 
1 31 2 23 2 16 2 13 2 12 1 13 2 13 2 13 
2 11 2 8 2 4 1 1 2 -1 2 -2 2 -2 2 -3 
1 -1 2 0 2 1 2 3 2 4 2 7 1 8 2 9 
2 10 2 10 2 10 1 8 2 6 2 4 2 0 2 -3 
2 -8 1 -11 2 -16 2 -20 2 -21 2 -22 1 -19 2 -14 
2 -8 2 -2 2 2 2 4 1 4 2 4 2 2 2 1 
2 -2 1 -5 2 -7 2 -8 2 -7 2 -2 2 5 1 13 
2 18 2 19 2 17 2 10 1 0 2 -9 2 -14 2 -17 
2 -18 2 -16 1 -14 2 -12 2 -9 2 -6 2 -4 1 -4 
2 -5 2 -10 2 -15 2 -24 2 -30 1 -34 2 -34 2 -32 
2 -27 2 -20 1 -10 2 2 2 17 2 33 2 43 2 46 
1 41 2 29 2 11 2 -3 2 -13 1 -17 2 -17 2 -12 
2 -9 2 -9 2 -11 1 -16 2 -22 2 -25 2 -24 2 -17 
2 -8 1 5 2 11 2 9 2 -3 2 -22 1 -47 2 -63 
2 -69 2 -63 2 -45 2 -19 1 3 2 18 2 27 2 29 
2 25 1 24 2 24 2 27 2 34 2 40 2 45 1 43 
2 37 2 26 2 10 2 -3 1 -14 2 -23 2 -28 2 -31 
2 -35 2 -37 1 -42 2 -46 2 -49 2 -49 2 -43 1 -33 
2 -17 2 0 2 13 1237 1055 300 MP stroke
2 19 2 17 1 8 2 -5 2 -15 2 -18 2 -15 1 -4 
2 10 2 24 2 34 2 40 2 45 1 45 2 42 2 34 
2 24 2 8 1 -9 2 -23 2 -29 2 -29 2 -25 2 -15 
1 -9 2 -10 2 -15 2 -27 2 -43 1 -50 2 -48 2 -36 
2 -15 2 14 2 38 1 54 2 62 2 62 2 56 2 47 
1 39 2 29 2 20 2 10 2 0 2 -9 1 -16 2 -23 
2 -29 2 -30 2 -28 1 -20 2 -8 2 7 2 19 2 27 
2 31 1 31 2 27 2 21 2 10 2 -2 2 -18 1 -34 
2 -42 2 -41 2 -29 2 -7 1 22 2 45 2 59 2 64 
2 59 2 47 1 33 2 20 2 5 2 -9 2 -24 1 -35 
2 -42 2 -46 2 -45 2 -41 2 -35 1 -26 2 -13 2 0 
2 17 2 26 1 30 2 26 2 16 2 1 2 -10 2 -15 
1 -11 2 -3 2 11 2 23 2 31 1 35 2 34 2 30 
2 25 2 20 2 14 1 7 2 0 2 -6 2 -9 2 -12 
1 -12 2 -11 2 -10 2 -11 2 -12 2 -13 1 -16 2 -15 
2 -14 2 -10 2 -3 1 5 2 11 2 15 2 14 2 13 
2 8 1 3 2 0 2 -4 2 -7 2 -10 1 -13 2 -18 
2 -24 2 -31 2 -39 2 -45 1 -48 2 -50 2 -47 2 -44 
2 -37 1 -26 2 -12 2 4 2 22 2 34 2 38 1 35 
2 24 2 7 2 -4 2 -8 1 -4 2 9 2 26 2 37 
2 39 2 33 1 18 2 -3 2 -19 2 -28 2 -27 1 -19 
2 -6 2 -2 2 -7 2 -26 2 -54 1 -90 2 -109 2 -108 
2 -87 2 -46 2 8 1 52 2 76 2 82 2 69 2 41 
1 20 2 9 2 8 2 17 2 35 2 50 1 62 2 69 
2 71 2 70 2 65 1 57 2 45 2 31 2 14 2 0 
2 -12 1 -18 2 -22 2 -23 2 -24 2 -26 1 -29 2 -32 
2 -37 2 -39 2 -40 2 -39 1 -36 2 -33 2 -28 2 -26 
2 -24 1 -23 2 -24 2 -25 2 -29 2 -34 2 -41 1 -49 
2 -49 2 -39 2 -22 2 5 1 39 2 66 2 85 2 96 
2 97 2 92 1 83 2 72 2 57 2 41 2 22 1 9 
2 2 2 0 2 5 2 13 2 20 1 20 2 16 2 7 
2 -5 2 -14 1 -20 2 -20 2 -17 2 -10 2 -6 2 -4 
1 -7 2 -11 2 -20 2 -27 2 -33 1 -36 2 -38 2 -38 
2 -39 2 -38 2 -38 1 -38 2 -38 2 -39 2 -43 2 -51 
1 -58 2 -70 2 -76 2 -81 2 -80 2 -76 1 -69 2 -57 
2 -42 2 -23 2 -1 722 1681 284 MP stroke
gr

c8
0 sg
 471 1276 mt  -90 rotate
(Speed \(km/h\)) s
90 rotate
1409 1969 mt 
(Time \(s\)) s
1 sg
0 1532 1819 0 0 -1532 3162 1681 4 MP
PP
-1819 0 0 1532 1819 0 0 -1532 3162 1681 5 MP stroke
4 w
DO
SO
6 w
0 sg
3162  149 mt 4981  149 L
3162 1681 mt 4981 1681 L
4981 1681 mt 4981  149 L
3162 1681 mt 3162  149 L
3162 1681 mt 4981 1681 L
3162 1681 mt 3162  149 L
3162 1681 mt 3162 1662 L
3162  150 mt 3162  168 L
3129 1826 mt 
(0) s
3566 1681 mt 3566 1662 L
3566  150 mt 3566  168 L
3466 1826 mt 
(100) s
3970 1681 mt 3970 1662 L
3970  150 mt 3970  168 L
3870 1826 mt 
(200) s
4374 1681 mt 4374 1662 L
4374  150 mt 4374  168 L
4274 1826 mt 
(300) s
4778 1681 mt 4778 1662 L
4778  150 mt 4778  168 L
4678 1826 mt 
(400) s
3162 1681 mt 3180 1681 L
4981 1681 mt 4962 1681 L
3061 1725 mt 
(0) s
3162 1340 mt 3180 1340 L
4981 1340 mt 4962 1340 L
2994 1384 mt 
(20) s
3162 1000 mt 3180 1000 L
4981 1000 mt 4962 1000 L
2994 1044 mt 
(40) s
3162  660 mt 3180  660 L
4981  660 mt 4962  660 L
2994  704 mt 
(60) s
3162  320 mt 3180  320 L
4981  320 mt 4962  320 L
2994  364 mt 
(80) s
3162  149 mt 4981  149 L
3162 1681 mt 4981 1681 L
4981 1681 mt 4981  149 L
3162 1681 mt 3162  149 L
gs 3162 150 1820 1532 rc
c8
4 0 4 0 4 0 4 0 4 0 4 0 4 0 5 0 
4 0 4 0 4 0 4 0 4 0 4 0 4 9 4 93 
4 164 4 123 4 110 4 109 4 82 4 80 4 27 4 49 
4 66 4 60 4 71 4 61 4 43 4 30 4 17 5 5 
4 9 4 2 4 3 4 11 4 0 4 0 4 5 4 -5 
4 -5 4 5 4 8 4 0 4 -3 4 3 4 14 4 0 
4 0 4 -14 4 -19 4 -36 4 -43 4 -39 5 -13 4 -6 
4 -27 4 -11 4 -11 4 -22 4 -11 4 -33 4 -22 4 -30 
4 -16 4 0 4 16 4 0 4 14 4 11 4 14 4 8 
4 8 4 0 4 -8 4 -28 4 -19 4 0 5 -11 4 -11 
4 -8 4 0 4 -5 4 0 4 19 4 24 4 20 4 11 
4 -3 4 -8 4 -9 4 -19 4 -5 4 2 4 0 4 3 
4 -8 4 -19 4 -3 4 -8 4 -22 4 -11 5 0 4 3 
4 -11 4 -22 4 -8 4 -6 4 -8 4 22 4 14 4 13 
4 22 4 -5 4 -28 4 -30 4 -30 4 -46 4 -33 4 -14 
4 -14 4 14 4 -27 4 -39 4 -49 5 -33 4 17 4 71 
4 109 4 88 4 57 4 20 4 -6 4 -25 4 -19 4 -24 
4 -36 4 -38 4 -30 4 -58 4 -57 4 -50 4 -19 4 -5 
4 -80 4 -79 4 -66 4 -41 4 -93 5 -98 4 -61 4 0 
4 0 4 0 4 0 4 0 4 9 4 -9 4 0 4 0 
4 83 4 156 4 191 4 175 4 124 4 54 4 6 4 19 
4 16 4 0 4 20 4 21 4 22 5 36 4 33 4 22 
4 16 4 3 4 0 4 -11 4 -3 4 -11 4 -8 4 -8 
4 -3 4 -3 4 33 4 33 4 8 4 11 4 6 4 -3 
4 -3 4 11 4 19 4 14 5 11 4 27 4 17 4 16 
4 27 4 14 4 25 4 35 4 36 4 22 4 14 4 24 
4 30 4 17 4 5 4 19 4 9 4 5 4 0 4 0 
4 0 4 0 4 -3 4 -5 5 -3 4 -14 4 3 4 -3 
4 0 4 0 4 -13 4 0 4 0 4 0 4 0 4 -3 
4 -16 4 0 4 -11 4 -17 4 -11 4 -3 4 -19 4 -2 
4 0 4 2 4 6 4 0 5 -6 4 -2 4 -3 4 11 
4 3 4 10 4 6 4 5 4 0 4 0 4 -2 4 0 
4 5 4 -8 4 0 4 -16 4 -6 4 -19 4 -11 4 -3 
4 -5 4 -19 4 -17 5 -11 4 0 4 -8 4 -3 4 -11 
4 -8 4 -16 4 -6 4 -16 4 -28 4 -16 4 -14 4 -24 
4 -28 4 -35 4 -22 4 -11 4 11 4 30 4 11 4 -6 
4 3 4 0 4 -16 5 -33 4 -36 4 -22 4 0 4 -13 
4 -28 4 -8 4 -46 3610 848 300 MP stroke
4 -44 4 -52 4 -52 4 -71 4 -72 4 -63 4 -21 4 -22 
4 -6 4 -5 4 -30 4 -9 4 3 4 36 4 71 4 38 
5 -3 4 -8 4 3 4 41 4 118 4 0 4 115 4 60 
4 14 4 5 4 17 4 5 4 14 4 -9 4 -13 4 0 
4 -11 4 -36 4 -13 4 -11 4 -9 4 -41 4 -49 5 -41 
4 -19 4 -27 4 49 4 -41 4 57 4 -13 4 -9 4 -30 
4 -76 4 -88 4 -66 4 -57 4 -14 4 6 4 -39 4 -109 
4 -44 4 0 4 38 4 41 4 -2 4 -14 4 -52 5 -30 
4 -22 4 -33 4 -16 4 -30 4 -25 4 3 4 5 4 -3 
4 -16 4 -6 4 0 4 0 4 0 4 0 4 0 4 0 
4 0 4 53 4 136 4 0 4 33 4 6 4 11 5 2 
4 9 4 0 4 -6 4 -16 4 -63 4 -96 4 -6 4 44 
4 36 4 0 4 -6 4 -8 4 -41 4 -68 4 -20 4 0 
4 0 4 0 4 0 4 0 4 0 4 0 3166 1681 111 MP stroke
gr

c8
0 sg
2912 1276 mt  -90 rotate
(Speed \(km/h\)) s
90 rotate
3850 1969 mt 
(Time \(s\)) s

end %%Color Dict

eplot
%%EndObject

epage
end

showpage

%%Trailer
%%EOF
