%!PS-Adobe-3.0 EPSF-3.0
%%Creator: MATLAB, The MathWorks, Inc. Version 8.0.0.783 (R2012b). Operating System: Microsoft Windows 7.
%%Title: C:\000 Work\00000 paper 2\paper\4d.eps
%%CreationDate: 10/21/2013  01:53:24
%%DocumentNeededFonts: Helvetica
%%DocumentProcessColors: Cyan Magenta Yellow Black
%%LanguageLevel: 2
%%Pages: 1
%%BoundingBox:    74   313   536   479
%%EndComments

%%BeginProlog
% MathWorks dictionary
/MathWorks 160 dict begin
% definition operators
/bdef {bind def} bind def
/ldef {load def} bind def
/xdef {exch def} bdef
/xstore {exch store} bdef
% operator abbreviations
/c  /clip ldef
/cc /concat ldef
/cp /closepath ldef
/gr /grestore ldef
/gs /gsave ldef
/mt /moveto ldef
/np /newpath ldef
/cm /currentmatrix ldef
/sm /setmatrix ldef
/rm /rmoveto ldef
/rl /rlineto ldef
/s {show newpath} bdef
/sc {setcmykcolor} bdef
/sr /setrgbcolor ldef
/sg /setgray ldef
/w /setlinewidth ldef
/j /setlinejoin ldef
/cap /setlinecap ldef
/rc {rectclip} bdef
/rf {rectfill} bdef
% page state control
/pgsv () def
/bpage {/pgsv save def} bdef
/epage {pgsv restore} bdef
/bplot /gsave ldef
/eplot {stroke grestore} bdef
% orientation switch
/portraitMode 0 def /landscapeMode 1 def /rotateMode 2 def
% coordinate system mappings
/dpi2point 0 def
% font control
/FontSize 0 def
/FMS {/FontSize xstore findfont [FontSize 0 0 FontSize neg 0 0]
  makefont setfont} bdef
/ISOLatin1Encoding where {pop /WindowsLatin1Encoding 256 array bdef
ISOLatin1Encoding WindowsLatin1Encoding copy pop
/.notdef/.notdef/quotesinglbase/florin/quotedblbase/ellipsis/dagger
/daggerdbl/circumflex/perthousand/Scaron/guilsinglleft/OE/.notdef/.notdef
/.notdef/.notdef/quoteleft/quoteright/quotedblleft/quotedblright/bullet
/endash/emdash/tilde/trademark/scaron/guilsinglright/oe/.notdef/.notdef
/Ydieresis WindowsLatin1Encoding 128 32 getinterval astore pop}
{/WindowsLatin1Encoding StandardEncoding bdef} ifelse
/reencode {exch dup where {pop load} {pop StandardEncoding} ifelse
  exch dup 3 1 roll findfont dup length dict begin
  { 1 index /FID ne {def}{pop pop} ifelse } forall
  /Encoding exch def currentdict end definefont pop} bdef
/isroman {findfont /CharStrings get /Agrave known} bdef
/FMSR {3 1 roll 1 index dup isroman {reencode} {pop pop} ifelse
  exch FMS} bdef
/csm {1 dpi2point div -1 dpi2point div scale neg translate
 dup landscapeMode eq {pop -90 rotate}
  {rotateMode eq {90 rotate} if} ifelse} bdef
% line types: solid, dotted, dashed, dotdash
/SO { [] 0 setdash } bdef
/DO { [.5 dpi2point mul 4 dpi2point mul] 0 setdash } bdef
/DA { [6 dpi2point mul] 0 setdash } bdef
/DD { [.5 dpi2point mul 4 dpi2point mul 6 dpi2point mul 4
  dpi2point mul] 0 setdash } bdef
% macros for lines and objects
/L {lineto stroke} bdef
/MP {3 1 roll moveto 1 sub {rlineto} repeat} bdef
/AP {{rlineto} repeat} bdef
/PDlw -1 def
/W {/PDlw currentlinewidth def setlinewidth} def
/PP {closepath eofill} bdef
/DP {closepath stroke} bdef
/MR {4 -2 roll moveto dup  0 exch rlineto exch 0 rlineto
  neg 0 exch rlineto closepath} bdef
/FR {MR stroke} bdef
/PR {MR fill} bdef
/L1i {{currentfile picstr readhexstring pop} image} bdef
/tMatrix matrix def
/MakeOval {newpath tMatrix currentmatrix pop translate scale
0 0 1 0 360 arc tMatrix setmatrix} bdef
/FO {MakeOval stroke} bdef
/PO {MakeOval fill} bdef
/PD {currentlinewidth 2 div 0 360 arc fill
   PDlw -1 eq not {PDlw w /PDlw -1 def} if} def
/FA {newpath tMatrix currentmatrix pop translate scale
  0 0 1 5 -2 roll arc tMatrix setmatrix stroke} bdef
/PA {newpath tMatrix currentmatrix pop	translate 0 0 moveto scale
  0 0 1 5 -2 roll arc closepath tMatrix setmatrix fill} bdef
/FAn {newpath tMatrix currentmatrix pop translate scale
  0 0 1 5 -2 roll arcn tMatrix setmatrix stroke} bdef
/PAn {newpath tMatrix currentmatrix pop translate 0 0 moveto scale
  0 0 1 5 -2 roll arcn closepath tMatrix setmatrix fill} bdef
/vradius 0 def /hradius 0 def /lry 0 def
/lrx 0 def /uly 0 def /ulx 0 def /rad 0 def
/MRR {/vradius xdef /hradius xdef /lry xdef /lrx xdef /uly xdef
  /ulx xdef newpath tMatrix currentmatrix pop ulx hradius add uly
  vradius add translate hradius vradius scale 0 0 1 180 270 arc 
  tMatrix setmatrix lrx hradius sub uly vradius add translate
  hradius vradius scale 0 0 1 270 360 arc tMatrix setmatrix
  lrx hradius sub lry vradius sub translate hradius vradius scale
  0 0 1 0 90 arc tMatrix setmatrix ulx hradius add lry vradius sub
  translate hradius vradius scale 0 0 1 90 180 arc tMatrix setmatrix
  closepath} bdef
/FRR {MRR stroke } bdef
/PRR {MRR fill } bdef
/MlrRR {/lry xdef /lrx xdef /uly xdef /ulx xdef /rad lry uly sub 2 div def
  newpath tMatrix currentmatrix pop ulx rad add uly rad add translate
  rad rad scale 0 0 1 90 270 arc tMatrix setmatrix lrx rad sub lry rad
  sub translate rad rad scale 0 0 1 270 90 arc tMatrix setmatrix
  closepath} bdef
/FlrRR {MlrRR stroke } bdef
/PlrRR {MlrRR fill } bdef
/MtbRR {/lry xdef /lrx xdef /uly xdef /ulx xdef /rad lrx ulx sub 2 div def
  newpath tMatrix currentmatrix pop ulx rad add uly rad add translate
  rad rad scale 0 0 1 180 360 arc tMatrix setmatrix lrx rad sub lry rad
  sub translate rad rad scale 0 0 1 0 180 arc tMatrix setmatrix
  closepath} bdef
/FtbRR {MtbRR stroke } bdef
/PtbRR {MtbRR fill } bdef
/stri 6 array def /dtri 6 array def
/smat 6 array def /dmat 6 array def
/tmat1 6 array def /tmat2 6 array def /dif 3 array def
/asub {/ind2 exch def /ind1 exch def dup dup
  ind1 get exch ind2 get sub exch } bdef
/tri_to_matrix {
  2 0 asub 3 1 asub 4 0 asub 5 1 asub
  dup 0 get exch 1 get 7 -1 roll astore } bdef
/compute_transform {
  dmat dtri tri_to_matrix tmat1 invertmatrix 
  smat stri tri_to_matrix tmat2 concatmatrix } bdef
/ds {stri astore pop} bdef
/dt {dtri astore pop} bdef
/db {2 copy /cols xdef /rows xdef mul dup 3 mul string
  currentfile 
  3 index 0 eq {/ASCIIHexDecode filter}
  {/ASCII85Decode filter 3 index 2 eq {/RunLengthDecode filter} if }
  ifelse exch readstring pop
  dup 0 3 index getinterval /rbmap xdef
  dup 2 index dup getinterval /gbmap xdef
  1 index dup 2 mul exch getinterval /bbmap xdef pop pop}bdef
/it {gs np dtri aload pop moveto lineto lineto cp c
  cols rows 8 compute_transform 
  rbmap gbmap bbmap true 3 colorimage gr}bdef
/il {newpath moveto lineto stroke}bdef
currentdict end def
%%EndProlog

%%BeginSetup
MathWorks begin

0 cap

end
%%EndSetup

%%Page: 1 1
%%BeginPageSetup
%%PageBoundingBox:    74   313   536   479
MathWorks begin
bpage
%%EndPageSetup

%%BeginObject: obj1
bplot

/dpi2point 12 def
portraitMode 0888 5748 csm

    0     0  5544  1989 rc
85 dict begin %Colortable dictionary
/c0 { 0.000000 0.000000 0.000000 sr} bdef
/c1 { 1.000000 1.000000 1.000000 sr} bdef
/c2 { 0.900000 0.000000 0.000000 sr} bdef
/c3 { 0.000000 0.820000 0.000000 sr} bdef
/c4 { 0.000000 0.000000 0.800000 sr} bdef
/c5 { 0.910000 0.820000 0.320000 sr} bdef
/c6 { 1.000000 0.260000 0.820000 sr} bdef
/c7 { 0.000000 0.820000 0.820000 sr} bdef
c0
1 j
1 sg
   0    0 5545 1990 rf
6 w
0 1523 1819 0 0 -1523 721 1672 4 MP
PP
-1819 0 0 1523 1819 0 0 -1523 721 1672 5 MP stroke
4 w
DO
SO
6 w
0 sg
 721  149 mt 2540  149 L
 721 1672 mt 2540 1672 L
2540 1672 mt 2540  149 L
 721 1672 mt  721  149 L
 721 1672 mt 2540 1672 L
 721 1672 mt  721  149 L
 721 1672 mt  721 1653 L
 721  149 mt  721  167 L
%%IncludeResource: font Helvetica
/Helvetica /WindowsLatin1Encoding 120 FMSR

 688 1817 mt 
(0) s
1327 1672 mt 1327 1653 L
1327  149 mt 1327  167 L
1227 1817 mt 
(500) s
1933 1672 mt 1933 1653 L
1933  149 mt 1933  167 L
1800 1817 mt 
(1000) s
2540 1672 mt 2540 1653 L
2540  149 mt 2540  167 L
2407 1817 mt 
(1500) s
 721 1672 mt  739 1672 L
2540 1672 mt 2521 1672 L
 620 1716 mt 
(0) s
 721 1367 mt  739 1367 L
2540 1367 mt 2521 1367 L
 553 1411 mt 
(20) s
 721 1062 mt  739 1062 L
2540 1062 mt 2521 1062 L
 553 1106 mt 
(40) s
 721  758 mt  739  758 L
2540  758 mt 2521  758 L
 553  802 mt 
(60) s
 721  453 mt  739  453 L
2540  453 mt 2521  453 L
 553  497 mt 
(80) s
 721  149 mt  739  149 L
2540  149 mt 2521  149 L
 486  193 mt 
(100) s
 721  149 mt 2540  149 L
 721 1672 mt 2540 1672 L
2540 1672 mt 2540  149 L
 721 1672 mt  721  149 L
gs 721 149 1820 1524 rc
/c8 { 0.000000 0.000000 1.000000 sr} bdef
c8
1 0 2 0 1 62 1 66 1 69 1 73 2 74 1 36 
1 25 1 24 1 25 2 27 1 10 1 12 1 15 2 12 
1 10 1 9 1 -7 1 -5 2 -15 1 -24 1 -20 1 -29 
1 -37 2 -41 1 -47 1 -44 1 -81 2 -81 1 -81 1 -37 
1 0 1 0 2 0 1 0 1 0 1 0 1 0 2 0 
1 0 1 0 1 0 2 0 1 0 1 0 1 0 1 0 
2 0 1 0 1 0 1 0 1 0 2 0 1 0 1 0 
1 40 1 81 2 80 1 81 1 81 1 81 2 81 1 81 
1 81 1 24 1 3 2 -3 1 -17 1 -12 1 -20 1 -19 
2 -5 1 -8 1 -2 1 -5 2 -10 1 -7 1 -5 1 -10 
1 -2 2 -13 1 0 1 0 1 0 1 0 2 0 1 13 
1 12 1 0 1 -10 2 -12 1 -15 1 -19 1 -10 2 -20 
1 -37 1 -61 1 -73 1 -74 2 -54 1 -29 1 22 1 24 
1 25 2 -12 1 -49 1 -42 1 -32 2 -24 1 -25 1 -34 
1 -15 1 0 2 0 1 0 1 0 1 -25 1 0 2 0 
1 0 1 0 1 0 2 0 1 0 1 18 1 44 1 37 
2 49 1 49 1 49 1 73 1 61 2 49 1 49 1 13 
1 -5 1 -5 2 -10 1 7 1 15 1 32 2 2 1 0 
1 5 1 5 1 3 2 -5 1 -8 1 -7 1 7 1 8 
2 0 1 -8 1 -12 1 -32 2 -27 1 -39 1 -37 1 -36 
1 -22 2 0 1 -8 1 -5 1 10 1 -2 2 -22 1 -54 
1 -81 1 -74 2 -49 1 -32 1 -5 1 0 1 0 2 0 
1 0 1 0 1 0 1 0 2 0 1 0 1 5 1 81 
1 81 2 81 1 81 1 81 1 81 2 61 1 12 1 12 
1 -12 1 -46 2 -62 1 -81 1 -80 1 -81 1 -81 2 -81 
1 -52 1 0 1 0 2 0 1 0 1 0 1 0 1 0 
2 0 1 0 1 0 1 0 1 0 2 0 1 0 1 0 
1 20 2 81 1 81 1 81 1 81 1 49 2 36 1 62 
1 36 1 49 1 27 2 22 1 13 1 9 1 3 1 7 
2 0 1 3 1 2 1 0 2 0 1 -2 1 -8 1 -5 
1 -9 2 -5 1 -10 1 -10 1 -5 1 3 2 2 1 -12 
1 -17 1 -20 2 -12 1 -20 1 -7 1 -3 1 -2 2 -5 
1 -24 1 -47 1 -51 1 -37 2 -12 1 -30 1 -68 1 -76 
2 -81 1 -49 1 -25 1 -12 1 -3 2 25 1 39 1 39 
1 20 1 49 2 25 1 14 1 3 1 7 1 -5 2 -5 
1 3 1 9 1 10 2 13 1 14 1 13 1 29 1 66 
2 74 1 63 1 22 1 25 1 49 2 44 1 17 1 0 
1 12 2 13 1 7 2019 978 300 MP stroke
1 -10 1 -12 1 -15 2 -7 1 -22 1 -20 1 -19 1 -25 
2 -29 1 -44 1 -37 1 -37 1 -76 2 -81 1 -81 1 -80 
1 -69 2 -30 1 0 1 0 1 0 1 0 2 0 1 0 
1 0 1 0 1 0 2 0 1 0 1 0 1 0 2 0 
1 0 1 0 1 0 1 0 2 0 1 0 1 0 1 0 
1 0 2 0 1 0 1 0 1 0 2 0 1 0 1 25 
1 81 1 81 2 81 1 80 1 81 1 74 1 27 2 10 
1 12 1 10 1 7 1 12 2 10 1 22 1 12 1 3 
2 -3 1 -9 1 -8 1 -5 1 -14 2 -13 1 -19 1 0 
1 0 1 7 2 -5 1 0 1 5 1 -12 2 -17 1 -8 
1 0 1 13 1 49 2 29 1 12 1 8 1 12 1 7 
2 10 1 7 1 5 1 20 2 0 1 0 1 -3 1 -7 
1 -15 2 -29 1 -44 1 -37 1 -24 1 -22 2 -27 1 -35 
1 -27 1 -56 1 -81 2 -81 1 -81 1 -80 1 -50 2 0 
1 0 1 10 1 81 1 81 2 81 1 81 1 81 1 78 
1 47 2 49 1 27 1 12 1 -12 2 -15 1 -10 1 12 
1 0 1 10 2 0 1 -12 1 -5 1 0 1 5 2 5 
1 7 1 0 1 0 2 5 1 7 1 -5 1 -2 1 -2 
2 -5 1 -13 1 -4 1 -5 1 -15 2 -20 1 -22 1 -2 
1 0 1 15 2 31 1 27 1 22 1 8 2 2 1 -7 
1 0 1 7 1 8 2 0 1 2 1 5 1 0 1 0 
2 2 1 8 1 12 1 7 2 8 1 0 1 0 1 -5 
1 5 2 -5 1 -8 1 -12 1 -10 1 15 2 10 1 10 
1 0 1 2 2 10 1 10 1 2 1 3 1 2 2 -5 
1 -15 1 -14 1 -8 1 -14 2 -17 1 -13 1 -5 1 -9 
1 -8 2 -7 1 12 1 20 1 29 2 12 1 15 1 22 
1 3 1 -3 2 -2 1 -3 1 -17 1 -7 1 -15 2 -5 
1 -5 1 -5 1 0 2 -14 1 -25 1 -24 1 -20 1 -15 
2 -14 1 -15 1 -12 1 -20 1 -22 2 0 1 32 1 37 
1 41 1 44 2 37 1 17 1 13 1 17 2 9 1 5 
1 0 1 3 1 7 2 0 1 0 1 0 1 3 1 14 
2 22 1 3 1 7 1 3 2 12 1 12 1 3 1 12 
1 7 2 3 1 0 1 5 1 2 1 -7 2 -10 1 -15 
1 0 1 -24 2 -25 1 -24 1 -37 1 -12 1 -10 2 -3 
1 0 1 0 1 0 1 0 2 0 1 3 1 15 1 2 
1 0 2 0 1 5 1 7 1 3 2 0 1 0 1 -15 
1 -7 1 -13 2 -24 1 -37 1 -44 1 -29 1 -32 2 -30 
1 -27 1 -22 1 -41 1657 1284 300 MP stroke
2 -71 1 -81 1 -81 1 -81 1 -74 2 13 1 24 1 0 
1 37 1 78 2 79 1 76 1 59 1 39 2 61 1 61 
1 49 1 49 1 32 2 17 1 13 1 5 1 2 1 7 
2 0 1 -7 1 -10 1 -7 1 -12 2 -15 1 -25 1 -24 
1 -34 2 -40 1 -46 1 -39 1 -49 1 -49 2 -37 1 -71 
1 -76 1 -81 1 -66 2 0 1 39 1 22 1 37 2 41 
1 69 1 74 1 73 1 74 2 61 1 27 1 22 1 24 
1 -5 2 -14 1 -15 1 10 1 0 2 -25 1 -34 1 -22 
1 -25 1 -41 2 0 1 5 1 -8 1 -44 1 -27 2 -54 
1 -51 1 -66 1 -52 1 -27 2 -46 1 -35 1 0 1 0 
2 0 1 0 1 0 1 0 1 0 2 0 1 0 1 0 
1 0 1 0 2 0 1 50 1 36 1 57 2 71 1 71 
1 71 1 46 1 52 2 71 1 54 1 46 1 13 1 12 
2 0 1 -3 1 -4 1 0 2 -3 1 -2 1 -10 1 -8 
1 -19 2 -30 1 -26 1 -30 1 -34 1 -52 2 -54 1 -31 
1 -37 1 -57 1 -58 2 -81 1 -61 1 -50 1 0 2 0 
1 0 1 0 1 0 1 0 2 0 1 0 1 0 1 0 
1 0 2 0 1 0 1 0 1 0 2 0 1 0 1 0 
1 0 1 0 2 0 1 0 1 0 1 0 1 0 2 74 
1 81 1 81 1 81 1 80 2 81 1 81 1 81 1 22 
2 -12 1 -12 1 -22 1 -35 1 -24 2 -5 1 0 1 0 
1 -3 1 -9 2 -10 1 -10 1 -2 1 -3 2 -19 1 -25 
1 -17 1 -22 1 -15 2 -10 1 -2 1 0 1 2 1 10 
2 3 1 -3 1 -10 1 8 2 2 1 12 1 5 1 0 
1 -5 2 -12 1 0 1 0 1 -24 1 -35 2 -39 1 -76 
1 -81 1 -81 1 -81 2 0 1 0 1 0 1 0 2 0 
1 0 1 0 1 0 1 0 2 0 1 0 1 0 1 0 
1 0 2 0 1 0 1 81 1 81 2 81 1 81 1 81 
1 81 1 81 2 31 1 15 1 0 1 0 1 5 2 10 
1 10 1 -5 1 -5 2 -15 1 0 1 0 1 0 1 0 
2 0 1 -2 1 -10 1 -17 1 -20 2 -24 1 -25 1 -22 
1 -27 1 -32 2 -41 1 -49 1 -52 1 -34 2 -22 1 -27 
1 -49 1 -25 1 -49 2 -56 1 -30 1 0 1 0 1 0 
2 0 1 0 1 25 1 74 2 78 1 76 1 71 1 81 
1 81 2 66 1 73 1 62 1 51 1 47 2 36 1 25 
1 2 1 5 2 5 1 0 1 0 1 5 1 7 2 -7 
1 -2 1 -3 1 5 1 0 2 0 1 0 1 0 1 0 
1 5 2 2 1 3 1294 799 300 MP stroke
1 10 1 0 2 -8 1 8 1 5 1 -3 1 -2 2 2 
1 -12 1 -12 1 -8 1 -29 2 -15 1 -37 1 -58 1 -32 
2 -35 1 -80 1 -81 1 -81 1 -81 2 -81 1 -81 1 -81 
1 -81 1 0 2 0 1 0 1 0 1 0 2 0 1 0 
1 0 1 0 1 0 2 0 1 0 1 0 1 0 1 0 
2 0 1 0 1 0 1 47 1 81 2 81 1 81 1 81 
1 80 2 81 1 81 1 74 1 19 1 12 2 10 1 8 
1 2 1 -2 1 -25 2 -37 1 -46 1 -15 1 -64 2 -80 
1 -81 1 -81 1 -81 1 -81 2 -81 1 -64 1 0 1 0 
1 0 2 0 1 0 1 52 1 81 1 81 2 81 1 61 
1 73 1 69 2 66 1 66 1 81 1 59 1 51 2 15 
1 25 1 22 1 9 1 3 2 -3 1 -7 1 -2 1 0 
2 0 1 0 1 0 1 0 1 -13 2 -19 1 -5 1 7 
1 3 1 -8 2 -2 1 -22 1 -20 1 -17 2 -12 1 -20 
1 -19 1 -47 1 -37 2 -34 1 -37 1 -29 1 -61 1 -67 
2 -76 1 -80 1 -81 1 -81 1 -81 2 -25 1 0 1 0 
1 0 2 0 1 0 1 0 1 0 1 0 2 0 1 0 
1 0 1 0 1 0 2 35 1 81 1 81 1 68 2 42 
1 73 1 37 1 37 1 15 2 24 1 34 1 81 1 66 
1 37 2 25 1 12 1 2 1 22 2 25 1 32 1 34 
1 44 1 37 2 44 1 29 1 27 1 30 1 29 2 27 
1 27 1 22 1 12 1 13 2 10 1 0 1 0 1 2 
2 10 1 2 1 -2 1 2 1 25 2 10 1 0 1 0 
1 24 1 27 2 22 1 17 1 15 1 5 2 0 1 -10 
1 -5 1 -12 1 -22 2 -12 1 -13 1 -12 1 -10 1 -7 
2 -5 1 -2 1 4 1 5 2 3 1 10 1 -8 1 12 
1 10 2 10 1 10 1 7 1 0 1 -2 2 -3 1 -7 
1 2 1 8 1 5 2 9 1 13 1 17 1 7 2 8 
1 2 1 0 1 0 1 0 2 0 1 0 1 5 1 0 
1 -3 2 -7 1 -5 1 -10 1 -4 2 -10 1 -8 1 -5 
1 0 1 8 2 2 1 -2 1 -8 1 -12 1 -22 2 -24 
1 -17 1 -13 1 -10 2 -14 1 -12 1 -10 1 -15 1 -15 
2 -12 1 -5 1 -5 1 0 1 0 2 0 1 0 1 5 
1 3 1 4 2 0 1 -17 1 -19 1 -22 2 -40 1 -34 
1 -39 1 -29 1 -49 2 -27 1 -67 1 -73 1 -79 1 -68 
2 -56 1 -54 1 -35 1 -12 2 -22 1 12 1 42 1 81 
1 32 2 61 1 17 1 -34 1 -10 1 -5 2 -5 1 -7 
1 10 1 14 1 17 932 1025 300 MP stroke
2 -14 1 -37 1 -51 1 -59 2 -81 1 -81 1 -81 1 -81 
1 -81 2 -81 1 0 1 0 1 0 1 0 2 0 1 0 
1 0 1 0 2 0 1 0 1 0 1 0 1 0 2 0 
1 0 1 0 1 0 1 0 2 0 1 0 1 0 1 0 
2 0 1 0 1 0 1 0 1 0 2 0 1 0 1 0 
1 0 1 0 2 0 1 0 1 0 1 0 1 0 2 0 
1 54 1 81 1 81 2 81 1 81 1 81 1 81 1 80 
2 81 1 76 1 13 1 4 1 -4 2 -10 1 -15 1 -12 
1 -12 2 -8 1 -2 1 14 1 13 1 2 2 -2 1 -5 
1 -10 1 -12 1 -8 2 10 1 12 1 10 1 -10 2 -2 
1 2 1 3 1 5 1 0 2 -8 1 -7 1 -7 1 -13 
1 -17 2 -27 1 -19 1 -15 1 -10 1 8 2 0 1 -15 
1 -10 1 -2 2 12 1 7 1 -2 1 -12 1 -13 2 0 
1 3 1 2 1 -2 1 -5 2 2 1 10 1 -2 1 -8 
2 -9 1 -25 1 -39 1 -44 1 -52 2 -46 1 0 1 32 
1 46 1 56 2 32 1 3 1 5 1 -5 2 -39 1 -49 
1 -49 1 -27 1 -13 2 -7 1 -7 1 0 1 51 1 69 
2 14 1 13 1 14 1 15 1 10 2 -3 1 -17 1 -24 
1 -64 2 -20 1 -9 1 -64 1 -69 1 -71 2 -66 1 -71 
1 -74 1 0 1 0 2 0 1 0 1 0 1 0 2 0 
1 0 1 0 1 0 1 0 2 0 1 0 1 0 1 0 
1 0 2 0 1 0 1 0 1 0 722 1672 174 MP stroke
gr

c8
0 sg
 404 1271 mt  -90 rotate
(Speed \(km/h\)) s
90 rotate
1409 1960 mt 
(Time \(s\)) s
1 sg
0 1523 1819 0 0 -1523 3162 1672 4 MP
PP
-1819 0 0 1523 1819 0 0 -1523 3162 1672 5 MP stroke
4 w
DO
SO
6 w
0 sg
3162  149 mt 4981  149 L
3162 1672 mt 4981 1672 L
4981 1672 mt 4981  149 L
3162 1672 mt 3162  149 L
3162 1672 mt 4981 1672 L
3162 1672 mt 3162  149 L
3162 1672 mt 3162 1653 L
3162  149 mt 3162  167 L
3129 1817 mt 
(0) s
3988 1672 mt 3988 1653 L
3988  149 mt 3988  167 L
3888 1817 mt 
(500) s
4815 1672 mt 4815 1653 L
4815  149 mt 4815  167 L
4682 1817 mt 
(1000) s
3162 1672 mt 3180 1672 L
4981 1672 mt 4962 1672 L
3061 1716 mt 
(0) s
3162 1454 mt 3180 1454 L
4981 1454 mt 4962 1454 L
2994 1498 mt 
(10) s
3162 1236 mt 3180 1236 L
4981 1236 mt 4962 1236 L
2994 1280 mt 
(20) s
3162 1019 mt 3180 1019 L
4981 1019 mt 4962 1019 L
2994 1063 mt 
(30) s
3162  801 mt 3180  801 L
4981  801 mt 4962  801 L
2994  845 mt 
(40) s
3162  584 mt 3180  584 L
4981  584 mt 4962  584 L
2994  628 mt 
(50) s
3162  366 mt 3180  366 L
4981  366 mt 4962  366 L
2994  410 mt 
(60) s
3162  149 mt 3180  149 L
4981  149 mt 4962  149 L
2994  193 mt 
(70) s
3162  149 mt 4981  149 L
3162 1672 mt 4981 1672 L
4981 1672 mt 4981  149 L
3162 1672 mt 3162  149 L
gs 3162 149 1820 1524 rc
c8
2 0 2 0 1 0 2 4 2 4 1 1 2 -1 2 -8 
1 0 2 0 2 0 1 0 2 0 2 52 1 72 2 85 
2 91 1 92 2 86 2 83 1 84 2 87 2 95 1 104 
2 106 1 97 2 78 2 50 1 15 2 -12 2 -28 1 -34 
2 -28 2 -13 1 -2 2 5 2 7 1 3 2 -4 2 -13 
1 -18 2 -24 2 -28 1 -31 2 -33 2 -36 1 -36 2 -38 
2 -38 1 -37 2 -36 1 -33 2 -30 2 -26 1 -24 2 -24 
2 -26 1 -30 2 -36 2 -39 1 -38 2 -34 2 -27 1 -18 
2 -11 2 -6 1 -4 2 -5 2 -8 1 -8 2 -3 2 3 
1 16 2 30 2 41 1 48 2 50 1 49 2 42 2 36 
1 27 2 18 2 7 1 -4 2 -13 2 -20 1 -24 2 -26 
2 -26 1 -26 2 -25 2 -27 1 -26 2 -28 2 -25 1 -20 
2 -13 2 -1 1 10 2 19 2 23 1 21 2 14 1 3 
2 -8 2 -19 1 -27 2 -36 2 -43 1 -43 2 -34 2 -18 
1 7 2 36 2 58 1 71 2 74 2 66 1 51 2 38 
2 30 1 27 2 28 2 31 1 33 2 30 2 24 1 12 
2 -1 1 -13 2 -21 2 -26 1 -26 2 -24 2 -24 1 -24 
2 -27 2 -31 1 -37 2 -42 2 -44 1 -47 2 -48 2 -47 
1 -46 2 -44 2 -42 1 -38 2 -35 2 -32 1 -29 2 -29 
2 -28 1 -28 2 -26 1 -24 2 -19 2 -12 1 0 2 0 
2 10 1 15 2 19 2 21 1 20 2 17 2 9 1 -2 
2 -13 2 -23 1 -27 2 -25 2 -21 1 0 2 0 2 0 
1 0 2 0 1 4 2 1 2 -1 1 -1 2 -3 2 0 
1 0 2 0 2 0 1 0 2 7 2 9 1 10 2 10 
2 8 1 6 2 2 2 0 1 -2 2 -6 2 -8 1 -10 
2 -10 2 -9 1 -7 2 0 1 0 2 0 2 0 1 0 
2 0 2 0 1 0 2 0 2 0 1 9 2 12 2 11 
1 9 2 3 2 -4 1 -9 2 -11 2 -11 1 -9 2 0 
2 0 1 0 2 1 2 -1 1 0 2 0 1 0 2 0 
2 0 1 23 2 34 2 45 1 54 2 62 2 69 1 71 
2 66 2 57 1 42 2 21 2 6 1 -5 2 -11 2 -11 
1 -8 2 -6 2 -7 1 -9 2 -14 2 -21 1 -21 2 -16 
1 -3 2 18 2 41 1 57 2 63 2 58 1 42 2 19 
2 1 1 -9 2 -9 2 -2 1 11 2 21 2 23 1 21 
2 11 2 -4 1 -18 2 -28 2 -37 1 -44 2 -47 2 -46 
1 -40 2 -28 1 -13 2 7 2 24 1 39 2 48 2 56 
1 59 2 59 2 56 1 49 2 38 2 26 1 14 2 6 
2 0 1 -2 2 -4 4443 718 300 MP stroke
2 -5 1 -8 2 -11 2 -16 1 -21 2 -26 2 -27 1 -29 
2 -27 1 -25 2 -22 2 -18 1 -13 2 -9 2 -5 1 0 
2 1 2 2 1 2 2 -1 2 1 1 5 2 13 2 25 
1 38 2 47 2 50 1 46 2 37 2 21 1 9 2 -3 
2 -11 1 -16 2 -20 1 -21 2 -20 2 -16 1 -10 2 -4 
2 -1 1 -4 2 -11 2 -24 1 -39 2 -48 2 -45 1 -32 
2 -10 2 20 1 42 2 54 2 55 1 47 2 29 2 15 
1 4 2 -2 1 -3 2 -1 2 0 1 2 2 0 2 -1 
1 -4 2 -6 2 -9 1 -11 2 -13 2 -15 1 -13 2 -11 
2 -6 1 1 2 10 2 16 1 20 2 22 2 19 1 16 
2 11 2 8 1 6 2 3 1 1 2 0 2 -1 1 -1 
2 1 2 1 1 2 2 1 2 -1 1 -3 2 -8 2 -9 
1 -11 2 -9 2 -7 1 -3 2 -2 2 -5 1 -12 2 -21 
2 -34 1 -43 2 -48 2 -49 1 -44 2 -36 1 -28 2 -18 
2 -8 1 3 2 13 2 22 1 29 2 32 2 35 1 34 
2 31 2 28 1 22 2 15 2 6 1 1 2 -3 2 -3 
1 -1 2 5 2 8 1 11 2 10 2 10 1 6 2 3 
1 -1 2 -3 2 -5 1 -9 2 -12 2 -16 1 -22 2 -28 
2 -35 1 -41 2 -45 2 -48 1 -49 2 -48 2 -45 1 -38 
2 -28 2 -15 1 0 2 9 2 8 1 0 2 -17 2 -39 
1 -56 2 -65 1 -65 2 -58 2 -43 1 -30 2 -19 2 -11 
1 -6 2 0 2 0 1 0 2 0 2 0 1 1 2 1 
2 0 1 -1 2 -1 2 0 1 0 2 0 2 0 1 0 
2 4 2 3 1 2 2 -1 1 -8 2 0 2 0 1 0 
2 0 2 44 1 81 2 105 2 117 1 116 2 103 2 79 
1 58 2 39 2 26 1 16 2 9 2 4 1 0 2 -5 
2 -8 1 -12 2 -15 2 -18 1 -20 2 -22 1 -25 2 -26 
2 -27 1 -27 2 -26 2 -24 1 -22 2 -18 2 -14 1 -9 
2 -4 2 -2 1 -5 2 -11 2 -21 1 -35 2 -45 2 -49 
1 -47 2 -42 2 -32 1 -23 2 -18 1 -17 2 -19 2 -22 
1 -25 2 -24 2 -22 1 -16 2 0 2 0 1 0 2 0 
2 0 1 3 2 0 2 0 1 -1 2 -2 2 0 1 0 
2 0 2 0 1 0 2 1 2 0 1 1 2 -1 1 -1 
2 0 2 0 1 0 2 0 2 0 1 6 2 7 2 9 
1 11 2 11 2 12 1 12 2 13 2 14 1 14 2 15 
2 15 1 14 2 12 2 10 1 6 2 3 2 0 1 -3 
2 -6 1 -9 2 -5 2 3 1 17 2 37 2 60 1 76 
2 80 2 74 1 58 3949 1106 300 MP stroke
2 33 2 12 1 -5 2 -17 2 -23 1 -25 2 -26 2 -27 
1 -26 2 -26 2 -26 1 -23 2 -19 2 -13 1 -6 2 2 
1 10 2 18 2 25 1 32 2 37 2 40 1 38 2 34 
2 25 1 13 2 4 2 -3 1 -7 2 -7 2 -7 1 -6 
2 -7 2 -10 1 -14 2 -20 2 -24 1 -27 2 -29 2 -30 
1 -30 2 -28 1 -27 2 -24 2 -22 1 -19 2 -17 2 -16 
1 -17 2 -18 2 -21 1 -22 2 -23 2 -22 1 -21 2 -18 
2 -16 1 -13 2 -10 2 -8 1 -5 2 -2 2 0 1 3 
2 4 2 5 1 5 2 3 1 -3 2 -10 2 -18 1 -19 
2 -7 2 0 1 0 2 36 2 50 1 54 2 48 2 30 
1 6 2 -11 2 -19 1 -16 2 -3 2 16 1 35 2 48 
2 57 1 61 2 61 2 56 1 48 2 35 1 18 2 -2 
2 -18 1 -31 2 -38 2 -42 1 -41 2 -35 2 -22 1 -6 
2 17 2 42 1 57 2 57 2 44 1 18 2 -19 2 -42 
1 -51 2 -43 2 -19 1 15 2 43 1 57 2 57 2 45 
1 23 2 2 2 -14 1 -24 2 -30 2 -32 1 -30 2 -28 
2 -24 1 -17 2 -10 2 -7 1 -5 2 -8 2 -13 1 -22 
2 -22 2 -17 1 -2 2 19 2 46 1 64 2 72 1 68 
2 55 2 31 1 9 2 -11 2 -29 1 -44 2 -57 2 -65 
1 -70 2 -69 2 -65 1 -57 2 -49 2 -42 1 -37 2 -33 
2 -30 1 -26 2 -22 2 -18 1 -13 2 0 2 0 1 0 
2 0 1 0 2 4 2 3 1 1 2 -2 2 -6 1 0 
2 0 2 0 1 6 2 38 2 62 1 75 2 72 2 53 
1 21 2 -23 2 -55 1 -72 2 -74 2 -59 1 -33 2 -9 
2 7 1 16 2 19 1 17 2 19 2 29 1 43 2 66 
2 91 1 106 2 109 2 98 1 75 2 40 2 12 1 -8 
2 -20 2 -24 1 -21 2 -16 2 -10 1 -2 2 5 2 13 
1 19 2 21 2 19 1 15 2 8 1 2 2 -2 2 -4 
1 -4 2 -2 2 2 1 8 2 14 2 22 1 30 2 34 
2 32 1 24 2 10 2 -8 1 -20 2 -25 2 -22 1 -12 
2 4 2 17 1 23 2 24 2 19 1 10 2 5 1 4 
2 8 2 17 1 28 2 38 2 40 1 38 2 30 2 17 
1 7 2 -2 2 -9 1 -13 2 -16 2 -18 1 -18 2 -18 
2 -17 1 -16 2 -18 2 -22 1 -31 2 -44 2 -57 1 -61 
2 -55 1 -37 2 -7 2 28 1 54 2 67 2 64 1 48 
2 20 2 -1 1 -17 2 -23 2 -23 1 -15 2 -10 2 -5 
1 -6 2 -7 2 -12 1 -13 2 -12 2 -8 1 1 2 11 
1 18 2 21 2 21 3454 774 300 MP stroke
1 16 2 9 2 2 1 -2 2 -4 2 -5 1 -4 2 -4 
2 -7 1 -11 2 -17 2 -26 1 -34 2 -43 2 -53 1 -62 
2 -70 2 -68 1 -55 2 -31 2 7 1 49 2 83 1 102 
2 105 2 96 1 73 2 53 2 39 1 28 2 24 2 23 
1 20 2 12 2 2 1 -13 2 -30 2 -43 1 -49 2 -50 
2 -46 1 -36 2 -24 2 -10 1 5 2 22 2 38 1 48 
2 52 1 46 2 33 2 15 1 1 2 -6 2 -8 1 -2 
2 8 2 14 1 14 2 9 2 -1 1 -16 2 -25 2 -26 
1 -18 2 -2 2 17 1 32 2 36 2 30 1 15 2 -7 
2 -26 1 -40 2 -49 1 -52 2 -50 2 -46 1 -38 2 -27 
2 -13 1 3 2 14 2 22 1 25 2 23 2 17 1 10 
2 1 2 -9 1 -19 2 -31 2 -41 1 -53 2 -63 2 -73 
1 -82 2 -87 2 -91 1 -90 2 -85 1 -77 2 -59 2 -32 
1 6 2 53 2 105 1 141 2 153 2 143 1 111 2 61 
2 14 1 -29 2 -63 2 -92 1 -113 2 -123 2 -121 1 -107 
2 -80 2 -43 1 -8 2 25 2 54 1 81 2 103 1 116 
2 119 2 112 1 94 2 68 2 45 1 26 2 12 2 1 
1 -5 2 -9 2 -10 1 -11 2 -8 2 -5 1 -2 2 1 
2 2 1 4 2 2 2 -3 1 -16 2 -34 2 -58 1 -85 
2 -97 1 -92 2 -69 2 -27 1 25 2 62 2 75 1 65 
2 34 2 -15 1 -55 2 -80 2 -90 1 -86 2 -70 2 -54 
1 -40 2 -31 2 -23 1 -18 2 -18 2 -18 1 -24 2 -31 
3163 1672 177 MP stroke
gr

c8
0 sg
2912 1271 mt  -90 rotate
(Speed \(km/h\)) s
90 rotate
3850 1960 mt 
(Time \(s\)) s

end %%Color Dict

eplot
%%EndObject

epage
end

showpage

%%Trailer
%%EOF
