%!PS-Adobe-3.0 EPSF-3.0
%%Creator: MATLAB, The MathWorks, Inc. Version 8.0.0.783 (R2012b). Operating System: Microsoft Windows 7.
%%Title: C:\000 Work\00000 paper 2\Program\Vehicle Application\3com4class\all.eps
%%CreationDate: 01/15/2014  20:47:11
%%DocumentNeededFonts: Helvetica
%%DocumentProcessColors: Cyan Magenta Yellow Black
%%LanguageLevel: 2
%%Pages: 1
%%BoundingBox:   -44   242   656   548
%%EndComments

%%BeginProlog
% MathWorks dictionary
/MathWorks 160 dict begin
% definition operators
/bdef {bind def} bind def
/ldef {load def} bind def
/xdef {exch def} bdef
/xstore {exch store} bdef
% operator abbreviations
/c  /clip ldef
/cc /concat ldef
/cp /closepath ldef
/gr /grestore ldef
/gs /gsave ldef
/mt /moveto ldef
/np /newpath ldef
/cm /currentmatrix ldef
/sm /setmatrix ldef
/rm /rmoveto ldef
/rl /rlineto ldef
/s {show newpath} bdef
/sc {setcmykcolor} bdef
/sr /setrgbcolor ldef
/sg /setgray ldef
/w /setlinewidth ldef
/j /setlinejoin ldef
/cap /setlinecap ldef
/rc {rectclip} bdef
/rf {rectfill} bdef
% page state control
/pgsv () def
/bpage {/pgsv save def} bdef
/epage {pgsv restore} bdef
/bplot /gsave ldef
/eplot {stroke grestore} bdef
% orientation switch
/portraitMode 0 def /landscapeMode 1 def /rotateMode 2 def
% coordinate system mappings
/dpi2point 0 def
% font control
/FontSize 0 def
/FMS {/FontSize xstore findfont [FontSize 0 0 FontSize neg 0 0]
  makefont setfont} bdef
/ISOLatin1Encoding where {pop /WindowsLatin1Encoding 256 array bdef
ISOLatin1Encoding WindowsLatin1Encoding copy pop
/.notdef/.notdef/quotesinglbase/florin/quotedblbase/ellipsis/dagger
/daggerdbl/circumflex/perthousand/Scaron/guilsinglleft/OE/.notdef/.notdef
/.notdef/.notdef/quoteleft/quoteright/quotedblleft/quotedblright/bullet
/endash/emdash/tilde/trademark/scaron/guilsinglright/oe/.notdef/.notdef
/Ydieresis WindowsLatin1Encoding 128 32 getinterval astore pop}
{/WindowsLatin1Encoding StandardEncoding bdef} ifelse
/reencode {exch dup where {pop load} {pop StandardEncoding} ifelse
  exch dup 3 1 roll findfont dup length dict begin
  { 1 index /FID ne {def}{pop pop} ifelse } forall
  /Encoding exch def currentdict end definefont pop} bdef
/isroman {findfont /CharStrings get /Agrave known} bdef
/FMSR {3 1 roll 1 index dup isroman {reencode} {pop pop} ifelse
  exch FMS} bdef
/csm {1 dpi2point div -1 dpi2point div scale neg translate
 dup landscapeMode eq {pop -90 rotate}
  {rotateMode eq {90 rotate} if} ifelse} bdef
% line types: solid, dotted, dashed, dotdash
/SO { [] 0 setdash } bdef
/DO { [.5 dpi2point mul 4 dpi2point mul] 0 setdash } bdef
/DA { [6 dpi2point mul] 0 setdash } bdef
/DD { [.5 dpi2point mul 4 dpi2point mul 6 dpi2point mul 4
  dpi2point mul] 0 setdash } bdef
% macros for lines and objects
/L {lineto stroke} bdef
/MP {3 1 roll moveto 1 sub {rlineto} repeat} bdef
/AP {{rlineto} repeat} bdef
/PDlw -1 def
/W {/PDlw currentlinewidth def setlinewidth} def
/PP {closepath eofill} bdef
/DP {closepath stroke} bdef
/MR {4 -2 roll moveto dup  0 exch rlineto exch 0 rlineto
  neg 0 exch rlineto closepath} bdef
/FR {MR stroke} bdef
/PR {MR fill} bdef
/L1i {{currentfile picstr readhexstring pop} image} bdef
/tMatrix matrix def
/MakeOval {newpath tMatrix currentmatrix pop translate scale
0 0 1 0 360 arc tMatrix setmatrix} bdef
/FO {MakeOval stroke} bdef
/PO {MakeOval fill} bdef
/PD {currentlinewidth 2 div 0 360 arc fill
   PDlw -1 eq not {PDlw w /PDlw -1 def} if} def
/FA {newpath tMatrix currentmatrix pop translate scale
  0 0 1 5 -2 roll arc tMatrix setmatrix stroke} bdef
/PA {newpath tMatrix currentmatrix pop	translate 0 0 moveto scale
  0 0 1 5 -2 roll arc closepath tMatrix setmatrix fill} bdef
/FAn {newpath tMatrix currentmatrix pop translate scale
  0 0 1 5 -2 roll arcn tMatrix setmatrix stroke} bdef
/PAn {newpath tMatrix currentmatrix pop translate 0 0 moveto scale
  0 0 1 5 -2 roll arcn closepath tMatrix setmatrix fill} bdef
/vradius 0 def /hradius 0 def /lry 0 def
/lrx 0 def /uly 0 def /ulx 0 def /rad 0 def
/MRR {/vradius xdef /hradius xdef /lry xdef /lrx xdef /uly xdef
  /ulx xdef newpath tMatrix currentmatrix pop ulx hradius add uly
  vradius add translate hradius vradius scale 0 0 1 180 270 arc 
  tMatrix setmatrix lrx hradius sub uly vradius add translate
  hradius vradius scale 0 0 1 270 360 arc tMatrix setmatrix
  lrx hradius sub lry vradius sub translate hradius vradius scale
  0 0 1 0 90 arc tMatrix setmatrix ulx hradius add lry vradius sub
  translate hradius vradius scale 0 0 1 90 180 arc tMatrix setmatrix
  closepath} bdef
/FRR {MRR stroke } bdef
/PRR {MRR fill } bdef
/MlrRR {/lry xdef /lrx xdef /uly xdef /ulx xdef /rad lry uly sub 2 div def
  newpath tMatrix currentmatrix pop ulx rad add uly rad add translate
  rad rad scale 0 0 1 90 270 arc tMatrix setmatrix lrx rad sub lry rad
  sub translate rad rad scale 0 0 1 270 90 arc tMatrix setmatrix
  closepath} bdef
/FlrRR {MlrRR stroke } bdef
/PlrRR {MlrRR fill } bdef
/MtbRR {/lry xdef /lrx xdef /uly xdef /ulx xdef /rad lrx ulx sub 2 div def
  newpath tMatrix currentmatrix pop ulx rad add uly rad add translate
  rad rad scale 0 0 1 180 360 arc tMatrix setmatrix lrx rad sub lry rad
  sub translate rad rad scale 0 0 1 0 180 arc tMatrix setmatrix
  closepath} bdef
/FtbRR {MtbRR stroke } bdef
/PtbRR {MtbRR fill } bdef
/stri 6 array def /dtri 6 array def
/smat 6 array def /dmat 6 array def
/tmat1 6 array def /tmat2 6 array def /dif 3 array def
/asub {/ind2 exch def /ind1 exch def dup dup
  ind1 get exch ind2 get sub exch } bdef
/tri_to_matrix {
  2 0 asub 3 1 asub 4 0 asub 5 1 asub
  dup 0 get exch 1 get 7 -1 roll astore } bdef
/compute_transform {
  dmat dtri tri_to_matrix tmat1 invertmatrix 
  smat stri tri_to_matrix tmat2 concatmatrix } bdef
/ds {stri astore pop} bdef
/dt {dtri astore pop} bdef
/db {2 copy /cols xdef /rows xdef mul dup 3 mul string
  currentfile 
  3 index 0 eq {/ASCIIHexDecode filter}
  {/ASCII85Decode filter 3 index 2 eq {/RunLengthDecode filter} if }
  ifelse exch readstring pop
  dup 0 3 index getinterval /rbmap xdef
  dup 2 index dup getinterval /gbmap xdef
  1 index dup 2 mul exch getinterval /bbmap xdef pop pop}bdef
/it {gs np dtri aload pop moveto lineto lineto cp c
  cols rows 8 compute_transform 
  rbmap gbmap bbmap true 3 colorimage gr}bdef
/il {newpath moveto lineto stroke}bdef
currentdict end def
%%EndProlog

%%BeginSetup
MathWorks begin

0 cap

end
%%EndSetup

%%Page: 1 1
%%BeginPageSetup
%%PageBoundingBox:   -44   242   656   548
MathWorks begin
bpage
%%EndPageSetup

%%BeginObject: obj1
bplot

/dpi2point 12 def
portraitMode -0528 6576 csm

    0     0  8404  3672 rc
85 dict begin %Colortable dictionary
/c0 { 0.000000 0.000000 0.000000 sr} bdef
/c1 { 1.000000 1.000000 1.000000 sr} bdef
/c2 { 0.900000 0.000000 0.000000 sr} bdef
/c3 { 0.000000 0.820000 0.000000 sr} bdef
/c4 { 0.000000 0.000000 0.800000 sr} bdef
/c5 { 0.910000 0.820000 0.320000 sr} bdef
/c6 { 1.000000 0.260000 0.820000 sr} bdef
/c7 { 0.000000 0.820000 0.820000 sr} bdef
c0
1 j
1 sg
   0    0 8405 3673 rf
6 w
0 2993 2811 0 0 -2993 1093 3268 4 MP
PP
-2811 0 0 2993 2811 0 0 -2993 1093 3268 5 MP stroke
4 w
DO
0 sg
1093 3268 mt 1093  275 L
1093  275 mt 1093  275 L
1717 3268 mt 1717  275 L
1717  275 mt 1717  275 L
2342 3268 mt 2342  275 L
2342  275 mt 2342  275 L
2967 3268 mt 2967  275 L
2967  275 mt 2967  275 L
3592 3268 mt 3592  275 L
3592  275 mt 3592  275 L
1093 3268 mt 3905 3268 L
3905 3268 mt 3905 3268 L
1093 2893 mt 3905 2893 L
3905 2893 mt 3905 2893 L
1093 2519 mt 3905 2519 L
3905 2519 mt 3905 2519 L
1093 2145 mt 3905 2145 L
3905 2145 mt 3905 2145 L
1093 1771 mt 3905 1771 L
3905 1771 mt 3905 1771 L
1093 1397 mt 3905 1397 L
3905 1397 mt 3905 1397 L
1093 1023 mt 3905 1023 L
3905 1023 mt 3905 1023 L
1093  649 mt 3905  649 L
3905  649 mt 3905  649 L
1093  275 mt 3905  275 L
3905  275 mt 3905  275 L
SO
6 w
1093  275 mt 3904  275 L
1093 3268 mt 3904 3268 L
3904 3268 mt 3904  275 L
1093 3268 mt 1093  275 L
1093 3268 mt 3904 3268 L
1093 3268 mt 1093  275 L
1093 3268 mt 1093 3238 L
1093  275 mt 1093  304 L
%%IncludeResource: font Helvetica
/Helvetica /WindowsLatin1Encoding 144 FMSR

1053 3436 mt 
(0) s
1717 3268 mt 1717 3238 L
1717  275 mt 1717  304 L
1677 3436 mt 
(2) s
2342 3268 mt 2342 3238 L
2342  275 mt 2342  304 L
2302 3436 mt 
(4) s
2967 3268 mt 2967 3238 L
2967  275 mt 2967  304 L
2927 3436 mt 
(6) s
3592 3268 mt 3592 3238 L
3592  275 mt 3592  304 L
3552 3436 mt 
(8) s
1093 3268 mt 1122 3268 L
3905 3268 mt 3875 3268 L
 978 3321 mt 
(0) s
1093 2893 mt 1122 2893 L
3905 2893 mt 3875 2893 L
 978 2946 mt 
(5) s
1093 2519 mt 1122 2519 L
3905 2519 mt 3875 2519 L
 898 2572 mt 
(10) s
1093 2145 mt 1122 2145 L
3905 2145 mt 3875 2145 L
 898 2198 mt 
(15) s
1093 1771 mt 1122 1771 L
3905 1771 mt 3875 1771 L
 898 1824 mt 
(20) s
1093 1397 mt 1122 1397 L
3905 1397 mt 3875 1397 L
 898 1450 mt 
(25) s
1093 1023 mt 1122 1023 L
3905 1023 mt 3875 1023 L
 898 1076 mt 
(30) s
1093  649 mt 1122  649 L
3905  649 mt 3875  649 L
 898  702 mt 
(35) s
1093  275 mt 1122  275 L
3905  275 mt 3875  275 L
 898  328 mt 
(40) s
1093  275 mt 3904  275 L
1093 3268 mt 3904 3268 L
3904 3268 mt 3904  275 L
1093 3268 mt 1093  275 L
gs 1093 275 2813 2994 rc
/c8 { 0.000000 0.000000 1.000000 sr} bdef
c8
312 0 312 0 313 0 312 0 313 0 312 0 313 0 312 0 
312 0 1093 2729 10 MP stroke
gr

c8
0 j
-41 71 -41 -71 82 0 1052 2753 4 MP
DP
-41 71 -41 -71 82 0 1364 2753 4 MP
DP
-41 71 -41 -71 82 0 1676 2753 4 MP
DP
-41 71 -41 -71 82 0 1989 2753 4 MP
DP
-41 71 -41 -71 82 0 2301 2753 4 MP
DP
-41 71 -41 -71 82 0 2614 2753 4 MP
DP
-41 71 -41 -71 82 0 2926 2753 4 MP
DP
-41 71 -41 -71 82 0 3239 2753 4 MP
DP
-41 71 -41 -71 82 0 3551 2753 4 MP
DP
-41 71 -41 -71 82 0 3863 2753 4 MP
DP
gs 1093 275 2813 2994 rc
/c9 { 1.000000 0.000000 0.000000 sr} bdef
c9
312 -120 312 15 313 30 312 -15 313 -15 312 0 313 0 312 15 
312 -75 1093 2669 10 MP stroke
gr

c9
0 -58 -58 0 0 58 58 0 1064 2640 5 MP
DP
0 -58 -58 0 0 58 58 0 1376 2565 5 MP
DP
0 -58 -58 0 0 58 58 0 1688 2580 5 MP
DP
0 -58 -58 0 0 58 58 0 2001 2580 5 MP
DP
0 -58 -58 0 0 58 58 0 2313 2580 5 MP
DP
0 -58 -58 0 0 58 58 0 2626 2565 5 MP
DP
0 -58 -58 0 0 58 58 0 2938 2550 5 MP
DP
0 -58 -58 0 0 58 58 0 3251 2580 5 MP
DP
0 -58 -58 0 0 58 58 0 3563 2595 5 MP
DP
0 -58 -58 0 0 58 58 0 3875 2475 5 MP
DP
gs 1093 275 2813 2994 rc
gr

0 sg
2454 3597 mt 
(T) s
 811 2056 mt  -90 rotate
(Error [%]) s
90 rotate
gs 1093 275 2813 2994 rc
2 0 312 -30 312 -45 313 -15 312 -29 313 -15 312 -105 313 -105 
312 -105 1405 2759 10 MP stroke
gr

1369 2759 mt 1441 2759 L
1405 2723 mt 1405 2795 L
1681 2654 mt 1753 2654 L
1717 2618 mt 1717 2690 L
1994 2549 mt 2066 2549 L
2030 2513 mt 2030 2585 L
2306 2444 mt 2378 2444 L
2342 2408 mt 2342 2480 L
2619 2429 mt 2691 2429 L
2655 2393 mt 2655 2465 L
2931 2400 mt 3003 2400 L
2967 2364 mt 2967 2436 L
3244 2385 mt 3316 2385 L
3280 2349 mt 3280 2421 L
3556 2340 mt 3628 2340 L
3592 2304 mt 3592 2376 L
3868 2310 mt 3940 2310 L
3904 2274 mt 3904 2346 L
1380 2734 mt 1430 2784 L
1430 2734 mt 1380 2784 L
1692 2629 mt 1742 2679 L
1742 2629 mt 1692 2679 L
2005 2524 mt 2055 2574 L
2055 2524 mt 2005 2574 L
2317 2419 mt 2367 2469 L
2367 2419 mt 2317 2469 L
2630 2404 mt 2680 2454 L
2680 2404 mt 2630 2454 L
2942 2375 mt 2992 2425 L
2992 2375 mt 2942 2425 L
3255 2360 mt 3305 2410 L
3305 2360 mt 3255 2410 L
3567 2315 mt 3617 2365 L
3617 2315 mt 3567 2365 L
3879 2285 mt 3929 2335 L
3929 2285 mt 3879 2335 L
gs 1093 275 2813 2994 rc
gr

%%IncludeResource: font Helvetica
/Helvetica /WindowsLatin1Encoding 120 FMSR

1076 3311 mt 
( ) s
3889  317 mt 
( ) s
1 sg
0 2993 2813 0 0 -2993 4793 3268 4 MP
PP
-2813 0 0 2993 2813 0 0 -2993 4793 3268 5 MP stroke
4 w
DO
0 sg
4793 3268 mt 4793  275 L
4793  275 mt 4793  275 L
5418 3268 mt 5418  275 L
5418  275 mt 5418  275 L
6043 3268 mt 6043  275 L
6043  275 mt 6043  275 L
6668 3268 mt 6668  275 L
6668  275 mt 6668  275 L
7293 3268 mt 7293  275 L
7293  275 mt 7293  275 L
4793 3268 mt 7606 3268 L
7606 3268 mt 7606 3268 L
4793 2270 mt 7606 2270 L
7606 2270 mt 7606 2270 L
4793 1272 mt 7606 1272 L
7606 1272 mt 7606 1272 L
4793  275 mt 7606  275 L
7606  275 mt 7606  275 L
SO
6 w
4793  275 mt 7606  275 L
4793 3268 mt 7606 3268 L
7606 3268 mt 7606  275 L
4793 3268 mt 4793  275 L
4793 3268 mt 7606 3268 L
4793 3268 mt 4793  275 L
4793 3268 mt 4793 3238 L
4793  275 mt 4793  304 L
%%IncludeResource: font Helvetica
/Helvetica /WindowsLatin1Encoding 144 FMSR

4753 3436 mt 
(0) s
5418 3268 mt 5418 3238 L
5418  275 mt 5418  304 L
5378 3436 mt 
(2) s
6043 3268 mt 6043 3238 L
6043  275 mt 6043  304 L
6003 3436 mt 
(4) s
6668 3268 mt 6668 3238 L
6668  275 mt 6668  304 L
6628 3436 mt 
(6) s
7293 3268 mt 7293 3238 L
7293  275 mt 7293  304 L
7253 3436 mt 
(8) s
4793 3268 mt 4822 3268 L
7606 3268 mt 7576 3268 L
4678 3321 mt 
(0) s
4793 2270 mt 4822 2270 L
7606 2270 mt 7576 2270 L
4678 2323 mt 
(5) s
4793 1272 mt 4822 1272 L
7606 1272 mt 7576 1272 L
4598 1325 mt 
(10) s
4793  275 mt 4822  275 L
7606  275 mt 7576  275 L
4598  328 mt 
(15) s
4793  275 mt 7606  275 L
4793 3268 mt 7606 3268 L
7606 3268 mt 7606  275 L
4793 3268 mt 4793  275 L
gs 4793 275 2814 2994 rc
c8
313 0 313 0 312 0 313 0 312 0 313 0 312 0 313 0 
312 0 4793 873 10 MP stroke
gr

c8
-41 71 -41 -71 82 0 4752 897 4 MP
DP
-41 71 -41 -71 82 0 5064 897 4 MP
DP
-41 71 -41 -71 82 0 5377 897 4 MP
DP
-41 71 -41 -71 82 0 5689 897 4 MP
DP
-41 71 -41 -71 82 0 6002 897 4 MP
DP
-41 71 -41 -71 82 0 6314 897 4 MP
DP
-41 71 -41 -71 82 0 6627 897 4 MP
DP
-41 71 -41 -71 82 0 6939 897 4 MP
DP
-41 71 -41 -71 82 0 7252 897 4 MP
DP
-41 71 -41 -71 82 0 7565 897 4 MP
DP
gs 4793 275 2814 2994 rc
c9
313 0 313 40 312 0 313 0 312 0 313 0 312 0 313 0 
312 599 4793 873 10 MP stroke
gr

c9
0 -58 -58 0 0 58 58 0 4764 844 5 MP
DP
0 -58 -58 0 0 58 58 0 5076 1443 5 MP
DP
0 -58 -58 0 0 58 58 0 5389 1443 5 MP
DP
0 -58 -58 0 0 58 58 0 5701 1443 5 MP
DP
0 -58 -58 0 0 58 58 0 6014 1443 5 MP
DP
0 -58 -58 0 0 58 58 0 6326 1443 5 MP
DP
0 -58 -58 0 0 58 58 0 6639 1443 5 MP
DP
0 -58 -58 0 0 58 58 0 6951 1443 5 MP
DP
0 -58 -58 0 0 58 58 0 7264 1483 5 MP
DP
0 -58 -58 0 0 58 58 0 7577 1483 5 MP
DP
gs 4793 275 2814 2994 rc
gr

0 sg
6154 3597 mt 
(T) s
4511 2506 mt  -90 rotate
(Non-zeros entries in w) s
90 rotate
gs 4793 275 2814 2994 rc
1 1 313 40 313 -80 312 40 313 -40 312 -40 313 -40 312 120 
313 319 5105 1392 10 MP stroke
gr

5069 1392 mt 5141 1392 L
5105 1356 mt 5105 1428 L
5382 1711 mt 5454 1711 L
5418 1675 mt 5418 1747 L
5694 1831 mt 5766 1831 L
5730 1795 mt 5730 1867 L
6007 1791 mt 6079 1791 L
6043 1755 mt 6043 1827 L
6319 1751 mt 6391 1751 L
6355 1715 mt 6355 1787 L
6632 1711 mt 6704 1711 L
6668 1675 mt 6668 1747 L
6944 1751 mt 7016 1751 L
6980 1715 mt 6980 1787 L
7257 1671 mt 7329 1671 L
7293 1635 mt 7293 1707 L
7570 1711 mt 7642 1711 L
7606 1675 mt 7606 1747 L
5080 1367 mt 5130 1417 L
5130 1367 mt 5080 1417 L
5393 1686 mt 5443 1736 L
5443 1686 mt 5393 1736 L
5705 1806 mt 5755 1856 L
5755 1806 mt 5705 1856 L
6018 1766 mt 6068 1816 L
6068 1766 mt 6018 1816 L
6330 1726 mt 6380 1776 L
6380 1726 mt 6330 1776 L
6643 1686 mt 6693 1736 L
6693 1686 mt 6643 1736 L
6955 1726 mt 7005 1776 L
7005 1726 mt 6955 1776 L
7268 1646 mt 7318 1696 L
7318 1646 mt 7268 1696 L
7581 1686 mt 7631 1736 L
7631 1686 mt 7581 1736 L
gs 4793 275 2814 2994 rc
gr

%%IncludeResource: font Helvetica
/Helvetica /WindowsLatin1Encoding 120 FMSR

4776 3311 mt 
( ) s
7590  317 mt 
( ) s
1 sg
0 564 1475 0 0 -564 2371 899 4 MP
PP
-1475 0 0 564 1475 0 0 -564 2371 899 5 MP stroke
4 w
DO
SO
6 w
0 sg
2371  335 mt 3846  335 L
2371  899 mt 3846  899 L
3846  899 mt 3846  335 L
2371  899 mt 2371  335 L
2371  899 mt 3846  899 L
2371  899 mt 2371  335 L
2371  335 mt 3846  335 L
2371  899 mt 3846  899 L
3846  899 mt 3846  335 L
2371  899 mt 2371  335 L
%%IncludeResource: font Helvetica
/Helvetica /WindowsLatin1Encoding 144 FMSR

2833  493 mt 
(2-norm SVM) s
gs 2371 335 1476 565 rc
c8
355 0 2442 442 2 MP stroke
gs 2546 369 147 147 rc
-41 71 -41 -71 82 0 2578 466 4 MP
DP
gr

gr

c8
0 sg
2833  669 mt 
(Proposed SVM) s
gs 2371 335 1476 565 rc
c9
355 0 2442 617 2 MP stroke
gs 2546 544 147 147 rc
0 -58 -58 0 0 58 58 0 2590 588 5 MP
DP
gr

gr

c9
0 sg
2833  844 mt 
(1-norm SVM) s
gs 2371 335 1476 565 rc
355 0 2442 791 2 MP stroke
gs 2546 718 147 147 rc
2583  791 mt 2655  791 L
2619  755 mt 2619  827 L
2594  766 mt 2644  816 L
2644  766 mt 2594  816 L
gr

gr

1 sg
0 600 1494 0 0 -600 6058 3144 4 MP
PP
-1494 0 0 600 1494 0 0 -600 6058 3144 5 MP stroke
4 w
DO
SO
6 w
0 sg
6058 2544 mt 7552 2544 L
6058 3144 mt 7552 3144 L
7552 3144 mt 7552 2544 L
6058 3144 mt 6058 2544 L
6058 3144 mt 7552 3144 L
6058 3144 mt 6058 2544 L
6058 2544 mt 7552 2544 L
6058 3144 mt 7552 3144 L
7552 3144 mt 7552 2544 L
6058 3144 mt 6058 2544 L
6526 2709 mt 
(2-norm SVM) s
gs 6058 2544 1495 601 rc
c8
360 0 6130 2658 2 MP stroke
gs 6237 2585 147 147 rc
-41 71 -41 -71 82 0 6269 2682 4 MP
DP
gr

gr

c8
0 sg
6526 2896 mt 
(Proposed SVM) s
gs 6058 2544 1495 601 rc
c9
360 0 6130 2844 2 MP stroke
gs 6237 2771 147 147 rc
0 -58 -58 0 0 58 58 0 6281 2815 5 MP
DP
gr

gr

c9
0 sg
6526 3082 mt 
(1-norm SVM) s
gs 6058 2544 1495 601 rc
360 0 6130 3030 2 MP stroke
gs 6237 2957 147 147 rc
6274 3030 mt 6346 3030 L
6310 2994 mt 6310 3066 L
6285 3005 mt 6335 3055 L
6335 3005 mt 6285 3055 L
gr

gr


end %%Color Dict

eplot
%%EndObject

epage
end

showpage

%%Trailer
%%EOF
