%!PS-Adobe-3.0 EPSF-3.0
%%Creator: MATLAB, The MathWorks, Inc. Version 8.0.0.783 (R2012b). Operating System: Microsoft Windows 7.
%%Title: C:\000 Work\00000 paper 2\Program\Vehicle Application\3com4class\all1.eps
%%CreationDate: 01/15/2014  21:14:02
%%DocumentNeededFonts: Helvetica
%%DocumentProcessColors: Cyan Magenta Yellow Black
%%LanguageLevel: 2
%%Pages: 1
%%BoundingBox:    96   238   515   553
%%EndComments

%%BeginProlog
% MathWorks dictionary
/MathWorks 160 dict begin
% definition operators
/bdef {bind def} bind def
/ldef {load def} bind def
/xdef {exch def} bdef
/xstore {exch store} bdef
% operator abbreviations
/c  /clip ldef
/cc /concat ldef
/cp /closepath ldef
/gr /grestore ldef
/gs /gsave ldef
/mt /moveto ldef
/np /newpath ldef
/cm /currentmatrix ldef
/sm /setmatrix ldef
/rm /rmoveto ldef
/rl /rlineto ldef
/s {show newpath} bdef
/sc {setcmykcolor} bdef
/sr /setrgbcolor ldef
/sg /setgray ldef
/w /setlinewidth ldef
/j /setlinejoin ldef
/cap /setlinecap ldef
/rc {rectclip} bdef
/rf {rectfill} bdef
% page state control
/pgsv () def
/bpage {/pgsv save def} bdef
/epage {pgsv restore} bdef
/bplot /gsave ldef
/eplot {stroke grestore} bdef
% orientation switch
/portraitMode 0 def /landscapeMode 1 def /rotateMode 2 def
% coordinate system mappings
/dpi2point 0 def
% font control
/FontSize 0 def
/FMS {/FontSize xstore findfont [FontSize 0 0 FontSize neg 0 0]
  makefont setfont} bdef
/ISOLatin1Encoding where {pop /WindowsLatin1Encoding 256 array bdef
ISOLatin1Encoding WindowsLatin1Encoding copy pop
/.notdef/.notdef/quotesinglbase/florin/quotedblbase/ellipsis/dagger
/daggerdbl/circumflex/perthousand/Scaron/guilsinglleft/OE/.notdef/.notdef
/.notdef/.notdef/quoteleft/quoteright/quotedblleft/quotedblright/bullet
/endash/emdash/tilde/trademark/scaron/guilsinglright/oe/.notdef/.notdef
/Ydieresis WindowsLatin1Encoding 128 32 getinterval astore pop}
{/WindowsLatin1Encoding StandardEncoding bdef} ifelse
/reencode {exch dup where {pop load} {pop StandardEncoding} ifelse
  exch dup 3 1 roll findfont dup length dict begin
  { 1 index /FID ne {def}{pop pop} ifelse } forall
  /Encoding exch def currentdict end definefont pop} bdef
/isroman {findfont /CharStrings get /Agrave known} bdef
/FMSR {3 1 roll 1 index dup isroman {reencode} {pop pop} ifelse
  exch FMS} bdef
/csm {1 dpi2point div -1 dpi2point div scale neg translate
 dup landscapeMode eq {pop -90 rotate}
  {rotateMode eq {90 rotate} if} ifelse} bdef
% line types: solid, dotted, dashed, dotdash
/SO { [] 0 setdash } bdef
/DO { [.5 dpi2point mul 4 dpi2point mul] 0 setdash } bdef
/DA { [6 dpi2point mul] 0 setdash } bdef
/DD { [.5 dpi2point mul 4 dpi2point mul 6 dpi2point mul 4
  dpi2point mul] 0 setdash } bdef
% macros for lines and objects
/L {lineto stroke} bdef
/MP {3 1 roll moveto 1 sub {rlineto} repeat} bdef
/AP {{rlineto} repeat} bdef
/PDlw -1 def
/W {/PDlw currentlinewidth def setlinewidth} def
/PP {closepath eofill} bdef
/DP {closepath stroke} bdef
/MR {4 -2 roll moveto dup  0 exch rlineto exch 0 rlineto
  neg 0 exch rlineto closepath} bdef
/FR {MR stroke} bdef
/PR {MR fill} bdef
/L1i {{currentfile picstr readhexstring pop} image} bdef
/tMatrix matrix def
/MakeOval {newpath tMatrix currentmatrix pop translate scale
0 0 1 0 360 arc tMatrix setmatrix} bdef
/FO {MakeOval stroke} bdef
/PO {MakeOval fill} bdef
/PD {currentlinewidth 2 div 0 360 arc fill
   PDlw -1 eq not {PDlw w /PDlw -1 def} if} def
/FA {newpath tMatrix currentmatrix pop translate scale
  0 0 1 5 -2 roll arc tMatrix setmatrix stroke} bdef
/PA {newpath tMatrix currentmatrix pop	translate 0 0 moveto scale
  0 0 1 5 -2 roll arc closepath tMatrix setmatrix fill} bdef
/FAn {newpath tMatrix currentmatrix pop translate scale
  0 0 1 5 -2 roll arcn tMatrix setmatrix stroke} bdef
/PAn {newpath tMatrix currentmatrix pop translate 0 0 moveto scale
  0 0 1 5 -2 roll arcn closepath tMatrix setmatrix fill} bdef
/vradius 0 def /hradius 0 def /lry 0 def
/lrx 0 def /uly 0 def /ulx 0 def /rad 0 def
/MRR {/vradius xdef /hradius xdef /lry xdef /lrx xdef /uly xdef
  /ulx xdef newpath tMatrix currentmatrix pop ulx hradius add uly
  vradius add translate hradius vradius scale 0 0 1 180 270 arc 
  tMatrix setmatrix lrx hradius sub uly vradius add translate
  hradius vradius scale 0 0 1 270 360 arc tMatrix setmatrix
  lrx hradius sub lry vradius sub translate hradius vradius scale
  0 0 1 0 90 arc tMatrix setmatrix ulx hradius add lry vradius sub
  translate hradius vradius scale 0 0 1 90 180 arc tMatrix setmatrix
  closepath} bdef
/FRR {MRR stroke } bdef
/PRR {MRR fill } bdef
/MlrRR {/lry xdef /lrx xdef /uly xdef /ulx xdef /rad lry uly sub 2 div def
  newpath tMatrix currentmatrix pop ulx rad add uly rad add translate
  rad rad scale 0 0 1 90 270 arc tMatrix setmatrix lrx rad sub lry rad
  sub translate rad rad scale 0 0 1 270 90 arc tMatrix setmatrix
  closepath} bdef
/FlrRR {MlrRR stroke } bdef
/PlrRR {MlrRR fill } bdef
/MtbRR {/lry xdef /lrx xdef /uly xdef /ulx xdef /rad lrx ulx sub 2 div def
  newpath tMatrix currentmatrix pop ulx rad add uly rad add translate
  rad rad scale 0 0 1 180 360 arc tMatrix setmatrix lrx rad sub lry rad
  sub translate rad rad scale 0 0 1 0 180 arc tMatrix setmatrix
  closepath} bdef
/FtbRR {MtbRR stroke } bdef
/PtbRR {MtbRR fill } bdef
/stri 6 array def /dtri 6 array def
/smat 6 array def /dmat 6 array def
/tmat1 6 array def /tmat2 6 array def /dif 3 array def
/asub {/ind2 exch def /ind1 exch def dup dup
  ind1 get exch ind2 get sub exch } bdef
/tri_to_matrix {
  2 0 asub 3 1 asub 4 0 asub 5 1 asub
  dup 0 get exch 1 get 7 -1 roll astore } bdef
/compute_transform {
  dmat dtri tri_to_matrix tmat1 invertmatrix 
  smat stri tri_to_matrix tmat2 concatmatrix } bdef
/ds {stri astore pop} bdef
/dt {dtri astore pop} bdef
/db {2 copy /cols xdef /rows xdef mul dup 3 mul string
  currentfile 
  3 index 0 eq {/ASCIIHexDecode filter}
  {/ASCII85Decode filter 3 index 2 eq {/RunLengthDecode filter} if }
  ifelse exch readstring pop
  dup 0 3 index getinterval /rbmap xdef
  dup 2 index dup getinterval /gbmap xdef
  1 index dup 2 mul exch getinterval /bbmap xdef pop pop}bdef
/it {gs np dtri aload pop moveto lineto lineto cp c
  cols rows 8 compute_transform 
  rbmap gbmap bbmap true 3 colorimage gr}bdef
/il {newpath moveto lineto stroke}bdef
currentdict end def
%%EndProlog

%%BeginSetup
MathWorks begin

0 cap

end
%%EndSetup

%%Page: 1 1
%%BeginPageSetup
%%PageBoundingBox:    96   238   515   553
MathWorks begin
bpage
%%EndPageSetup

%%BeginObject: obj1
bplot

/dpi2point 12 def
portraitMode 1152 6636 csm

    0     0  5039  3780 rc
85 dict begin %Colortable dictionary
/c0 { 0.000000 0.000000 0.000000 sr} bdef
/c1 { 1.000000 1.000000 1.000000 sr} bdef
/c2 { 0.900000 0.000000 0.000000 sr} bdef
/c3 { 0.000000 0.820000 0.000000 sr} bdef
/c4 { 0.000000 0.000000 0.800000 sr} bdef
/c5 { 0.910000 0.820000 0.320000 sr} bdef
/c6 { 1.000000 0.260000 0.820000 sr} bdef
/c7 { 0.000000 0.820000 0.820000 sr} bdef
c0
1 j
1 sg
   0    0 5040 3781 rf
6 w
0 3081 3905 0 0 -3081 655 3364 4 MP
PP
-3905 0 0 3081 3905 0 0 -3081 655 3364 5 MP stroke
4 w
DO
0 sg
 655 3364 mt  655  283 L
 655  283 mt  655  283 L
1088 3364 mt 1088  283 L
1088  283 mt 1088  283 L
1522 3364 mt 1522  283 L
1522  283 mt 1522  283 L
1956 3364 mt 1956  283 L
1956  283 mt 1956  283 L
2390 3364 mt 2390  283 L
2390  283 mt 2390  283 L
2824 3364 mt 2824  283 L
2824  283 mt 2824  283 L
3258 3364 mt 3258  283 L
3258  283 mt 3258  283 L
3692 3364 mt 3692  283 L
3692  283 mt 3692  283 L
4126 3364 mt 4126  283 L
4126  283 mt 4126  283 L
4560 3364 mt 4560  283 L
4560  283 mt 4560  283 L
 655 3364 mt 4560 3364 L
4560 3364 mt 4560 3364 L
 655 2978 mt 4560 2978 L
4560 2978 mt 4560 2978 L
 655 2593 mt 4560 2593 L
4560 2593 mt 4560 2593 L
 655 2208 mt 4560 2208 L
4560 2208 mt 4560 2208 L
 655 1823 mt 4560 1823 L
4560 1823 mt 4560 1823 L
 655 1438 mt 4560 1438 L
4560 1438 mt 4560 1438 L
 655 1053 mt 4560 1053 L
4560 1053 mt 4560 1053 L
 655  668 mt 4560  668 L
4560  668 mt 4560  668 L
 655  283 mt 4560  283 L
4560  283 mt 4560  283 L
SO
6 w
 655  283 mt 4560  283 L
 655 3364 mt 4560 3364 L
4560 3364 mt 4560  283 L
 655 3364 mt  655  283 L
 655 3364 mt 4560 3364 L
 655 3364 mt  655  283 L
 655 3364 mt  655 3324 L
 655  283 mt  655  322 L
%%IncludeResource: font Helvetica
/Helvetica /WindowsLatin1Encoding 144 FMSR

 615 3532 mt 
(0) s
1088 3364 mt 1088 3324 L
1088  283 mt 1088  322 L
1048 3532 mt 
(1) s
1522 3364 mt 1522 3324 L
1522  283 mt 1522  322 L
1482 3532 mt 
(2) s
1956 3364 mt 1956 3324 L
1956  283 mt 1956  322 L
1916 3532 mt 
(3) s
2390 3364 mt 2390 3324 L
2390  283 mt 2390  322 L
2350 3532 mt 
(4) s
2824 3364 mt 2824 3324 L
2824  283 mt 2824  322 L
2784 3532 mt 
(5) s
3258 3364 mt 3258 3324 L
3258  283 mt 3258  322 L
3218 3532 mt 
(6) s
3692 3364 mt 3692 3324 L
3692  283 mt 3692  322 L
3652 3532 mt 
(7) s
4126 3364 mt 4126 3324 L
4126  283 mt 4126  322 L
4086 3532 mt 
(8) s
4560 3364 mt 4560 3324 L
4560  283 mt 4560  322 L
4520 3532 mt 
(9) s
 655 3364 mt  694 3364 L
4560 3364 mt 4520 3364 L
 540 3417 mt 
(0) s
 655 2978 mt  694 2978 L
4560 2978 mt 4520 2978 L
 540 3031 mt 
(5) s
 655 2593 mt  694 2593 L
4560 2593 mt 4520 2593 L
 460 2646 mt 
(10) s
 655 2208 mt  694 2208 L
4560 2208 mt 4520 2208 L
 460 2261 mt 
(15) s
 655 1823 mt  694 1823 L
4560 1823 mt 4520 1823 L
 460 1876 mt 
(20) s
 655 1438 mt  694 1438 L
4560 1438 mt 4520 1438 L
 460 1491 mt 
(25) s
 655 1053 mt  694 1053 L
4560 1053 mt 4520 1053 L
 460 1106 mt 
(30) s
 655  668 mt  694  668 L
4560  668 mt 4520  668 L
 460  721 mt 
(35) s
 655  283 mt  694  283 L
4560  283 mt 4520  283 L
 460  336 mt 
(40) s
 655  283 mt 4560  283 L
 655 3364 mt 4560 3364 L
4560 3364 mt 4560  283 L
 655 3364 mt  655  283 L
gs 655 283 3906 3082 rc
/c8 { 0.000000 0.000000 1.000000 sr} bdef
c8
434 0 434 0 434 0 434 0 434 0 434 0 434 0 434 0 
433 0 655 2809 10 MP stroke
gr

c8
0 j
-41 71 -41 -71 82 0 614 2833 4 MP
DP
-41 71 -41 -71 82 0 1047 2833 4 MP
DP
-41 71 -41 -71 82 0 1481 2833 4 MP
DP
-41 71 -41 -71 82 0 1915 2833 4 MP
DP
-41 71 -41 -71 82 0 2349 2833 4 MP
DP
-41 71 -41 -71 82 0 2783 2833 4 MP
DP
-41 71 -41 -71 82 0 3217 2833 4 MP
DP
-41 71 -41 -71 82 0 3651 2833 4 MP
DP
-41 71 -41 -71 82 0 4085 2833 4 MP
DP
-41 71 -41 -71 82 0 4519 2833 4 MP
DP
gs 655 283 3906 3082 rc
/c9 { 1.000000 0.000000 0.000000 sr} bdef
c9
434 -123 434 15 434 31 434 -15 434 -16 434 0 434 0 434 16 
433 -77 655 2747 10 MP stroke
gr

c9
0 -58 -58 0 0 58 58 0 626 2718 5 MP
DP
0 -58 -58 0 0 58 58 0 1059 2641 5 MP
DP
0 -58 -58 0 0 58 58 0 1493 2657 5 MP
DP
0 -58 -58 0 0 58 58 0 1927 2657 5 MP
DP
0 -58 -58 0 0 58 58 0 2361 2657 5 MP
DP
0 -58 -58 0 0 58 58 0 2795 2641 5 MP
DP
0 -58 -58 0 0 58 58 0 3229 2626 5 MP
DP
0 -58 -58 0 0 58 58 0 3663 2657 5 MP
DP
0 -58 -58 0 0 58 58 0 4097 2672 5 MP
DP
0 -58 -58 0 0 58 58 0 4531 2549 5 MP
DP
gs 655 283 3906 3082 rc
0 sg
1 0 434 -30 434 -47 434 -15 434 -31 434 -15 434 -108 434 -108 
434 -108 1088 2840 10 MP stroke
gr

0 sg
1052 2840 mt 1124 2840 L
1088 2804 mt 1088 2876 L
1486 2732 mt 1558 2732 L
1522 2696 mt 1522 2768 L
1920 2624 mt 1992 2624 L
1956 2588 mt 1956 2660 L
2354 2516 mt 2426 2516 L
2390 2480 mt 2390 2552 L
2788 2501 mt 2860 2501 L
2824 2465 mt 2824 2537 L
3222 2470 mt 3294 2470 L
3258 2434 mt 3258 2506 L
3656 2455 mt 3728 2455 L
3692 2419 mt 3692 2491 L
4090 2408 mt 4162 2408 L
4126 2372 mt 4126 2444 L
4524 2378 mt 4596 2378 L
4560 2342 mt 4560 2414 L
1063 2815 mt 1113 2865 L
1113 2815 mt 1063 2865 L
1497 2707 mt 1547 2757 L
1547 2707 mt 1497 2757 L
1931 2599 mt 1981 2649 L
1981 2599 mt 1931 2649 L
2365 2491 mt 2415 2541 L
2415 2491 mt 2365 2541 L
2799 2476 mt 2849 2526 L
2849 2476 mt 2799 2526 L
3233 2445 mt 3283 2495 L
3283 2445 mt 3233 2495 L
3667 2430 mt 3717 2480 L
3717 2430 mt 3667 2480 L
4101 2383 mt 4151 2433 L
4151 2383 mt 4101 2433 L
4535 2353 mt 4585 2403 L
4585 2353 mt 4535 2403 L
gs 655 283 3906 3082 rc
gr

2562 3693 mt 
(T) s
 373 2108 mt  -90 rotate
(Error [%]) s
90 rotate
%%IncludeResource: font Helvetica
/Helvetica /WindowsLatin1Encoding 120 FMSR

 638 3407 mt 
( ) s
4544  325 mt 
( ) s
1 sg
0 564 1475 0 0 -564 3026 907 4 MP
PP
-1475 0 0 564 1475 0 0 -564 3026 907 5 MP stroke
4 w
DO
SO
6 w
0 sg
3026  343 mt 4501  343 L
3026  907 mt 4501  907 L
4501  907 mt 4501  343 L
3026  907 mt 3026  343 L
3026  907 mt 4501  907 L
3026  907 mt 3026  343 L
3026  343 mt 4501  343 L
3026  907 mt 4501  907 L
4501  907 mt 4501  343 L
3026  907 mt 3026  343 L
%%IncludeResource: font Helvetica
/Helvetica /WindowsLatin1Encoding 144 FMSR

3488  501 mt 
(2-norm SVM) s
gs 3026 343 1476 565 rc
c8
355 0 3097 450 2 MP stroke
gs 3201 377 147 147 rc
-41 71 -41 -71 82 0 3233 474 4 MP
DP
gr

gr

c8
0 sg
3488  677 mt 
(Proposed SVM) s
gs 3026 343 1476 565 rc
c9
355 0 3097 625 2 MP stroke
gs 3201 552 147 147 rc
0 -58 -58 0 0 58 58 0 3245 596 5 MP
DP
gr

gr

c9
0 sg
3488  852 mt 
(1-norm SVM) s
gs 3026 343 1476 565 rc
355 0 3097 799 2 MP stroke
gs 3201 726 147 147 rc
3238  799 mt 3310  799 L
3274  763 mt 3274  835 L
3249  774 mt 3299  824 L
3299  774 mt 3249  824 L
gr

gr


end %%Color Dict

eplot
%%EndObject

epage
end

showpage

%%Trailer
%%EOF
