%!PS-Adobe-3.0 EPSF-3.0
%%Creator: MATLAB, The MathWorks, Inc. Version 8.0.0.783 (R2012b). Operating System: Microsoft Windows 7.
%%Title: C:\000 Work\00000 paper 2\Program\Vehicle Application\3com4class\all2.eps
%%CreationDate: 01/15/2014  21:14:21
%%DocumentNeededFonts: Helvetica
%%DocumentProcessColors: Cyan Magenta Yellow Black
%%LanguageLevel: 2
%%Pages: 1
%%BoundingBox:    96   238   515   553
%%EndComments

%%BeginProlog
% MathWorks dictionary
/MathWorks 160 dict begin
% definition operators
/bdef {bind def} bind def
/ldef {load def} bind def
/xdef {exch def} bdef
/xstore {exch store} bdef
% operator abbreviations
/c  /clip ldef
/cc /concat ldef
/cp /closepath ldef
/gr /grestore ldef
/gs /gsave ldef
/mt /moveto ldef
/np /newpath ldef
/cm /currentmatrix ldef
/sm /setmatrix ldef
/rm /rmoveto ldef
/rl /rlineto ldef
/s {show newpath} bdef
/sc {setcmykcolor} bdef
/sr /setrgbcolor ldef
/sg /setgray ldef
/w /setlinewidth ldef
/j /setlinejoin ldef
/cap /setlinecap ldef
/rc {rectclip} bdef
/rf {rectfill} bdef
% page state control
/pgsv () def
/bpage {/pgsv save def} bdef
/epage {pgsv restore} bdef
/bplot /gsave ldef
/eplot {stroke grestore} bdef
% orientation switch
/portraitMode 0 def /landscapeMode 1 def /rotateMode 2 def
% coordinate system mappings
/dpi2point 0 def
% font control
/FontSize 0 def
/FMS {/FontSize xstore findfont [FontSize 0 0 FontSize neg 0 0]
  makefont setfont} bdef
/ISOLatin1Encoding where {pop /WindowsLatin1Encoding 256 array bdef
ISOLatin1Encoding WindowsLatin1Encoding copy pop
/.notdef/.notdef/quotesinglbase/florin/quotedblbase/ellipsis/dagger
/daggerdbl/circumflex/perthousand/Scaron/guilsinglleft/OE/.notdef/.notdef
/.notdef/.notdef/quoteleft/quoteright/quotedblleft/quotedblright/bullet
/endash/emdash/tilde/trademark/scaron/guilsinglright/oe/.notdef/.notdef
/Ydieresis WindowsLatin1Encoding 128 32 getinterval astore pop}
{/WindowsLatin1Encoding StandardEncoding bdef} ifelse
/reencode {exch dup where {pop load} {pop StandardEncoding} ifelse
  exch dup 3 1 roll findfont dup length dict begin
  { 1 index /FID ne {def}{pop pop} ifelse } forall
  /Encoding exch def currentdict end definefont pop} bdef
/isroman {findfont /CharStrings get /Agrave known} bdef
/FMSR {3 1 roll 1 index dup isroman {reencode} {pop pop} ifelse
  exch FMS} bdef
/csm {1 dpi2point div -1 dpi2point div scale neg translate
 dup landscapeMode eq {pop -90 rotate}
  {rotateMode eq {90 rotate} if} ifelse} bdef
% line types: solid, dotted, dashed, dotdash
/SO { [] 0 setdash } bdef
/DO { [.5 dpi2point mul 4 dpi2point mul] 0 setdash } bdef
/DA { [6 dpi2point mul] 0 setdash } bdef
/DD { [.5 dpi2point mul 4 dpi2point mul 6 dpi2point mul 4
  dpi2point mul] 0 setdash } bdef
% macros for lines and objects
/L {lineto stroke} bdef
/MP {3 1 roll moveto 1 sub {rlineto} repeat} bdef
/AP {{rlineto} repeat} bdef
/PDlw -1 def
/W {/PDlw currentlinewidth def setlinewidth} def
/PP {closepath eofill} bdef
/DP {closepath stroke} bdef
/MR {4 -2 roll moveto dup  0 exch rlineto exch 0 rlineto
  neg 0 exch rlineto closepath} bdef
/FR {MR stroke} bdef
/PR {MR fill} bdef
/L1i {{currentfile picstr readhexstring pop} image} bdef
/tMatrix matrix def
/MakeOval {newpath tMatrix currentmatrix pop translate scale
0 0 1 0 360 arc tMatrix setmatrix} bdef
/FO {MakeOval stroke} bdef
/PO {MakeOval fill} bdef
/PD {currentlinewidth 2 div 0 360 arc fill
   PDlw -1 eq not {PDlw w /PDlw -1 def} if} def
/FA {newpath tMatrix currentmatrix pop translate scale
  0 0 1 5 -2 roll arc tMatrix setmatrix stroke} bdef
/PA {newpath tMatrix currentmatrix pop	translate 0 0 moveto scale
  0 0 1 5 -2 roll arc closepath tMatrix setmatrix fill} bdef
/FAn {newpath tMatrix currentmatrix pop translate scale
  0 0 1 5 -2 roll arcn tMatrix setmatrix stroke} bdef
/PAn {newpath tMatrix currentmatrix pop translate 0 0 moveto scale
  0 0 1 5 -2 roll arcn closepath tMatrix setmatrix fill} bdef
/vradius 0 def /hradius 0 def /lry 0 def
/lrx 0 def /uly 0 def /ulx 0 def /rad 0 def
/MRR {/vradius xdef /hradius xdef /lry xdef /lrx xdef /uly xdef
  /ulx xdef newpath tMatrix currentmatrix pop ulx hradius add uly
  vradius add translate hradius vradius scale 0 0 1 180 270 arc 
  tMatrix setmatrix lrx hradius sub uly vradius add translate
  hradius vradius scale 0 0 1 270 360 arc tMatrix setmatrix
  lrx hradius sub lry vradius sub translate hradius vradius scale
  0 0 1 0 90 arc tMatrix setmatrix ulx hradius add lry vradius sub
  translate hradius vradius scale 0 0 1 90 180 arc tMatrix setmatrix
  closepath} bdef
/FRR {MRR stroke } bdef
/PRR {MRR fill } bdef
/MlrRR {/lry xdef /lrx xdef /uly xdef /ulx xdef /rad lry uly sub 2 div def
  newpath tMatrix currentmatrix pop ulx rad add uly rad add translate
  rad rad scale 0 0 1 90 270 arc tMatrix setmatrix lrx rad sub lry rad
  sub translate rad rad scale 0 0 1 270 90 arc tMatrix setmatrix
  closepath} bdef
/FlrRR {MlrRR stroke } bdef
/PlrRR {MlrRR fill } bdef
/MtbRR {/lry xdef /lrx xdef /uly xdef /ulx xdef /rad lrx ulx sub 2 div def
  newpath tMatrix currentmatrix pop ulx rad add uly rad add translate
  rad rad scale 0 0 1 180 360 arc tMatrix setmatrix lrx rad sub lry rad
  sub translate rad rad scale 0 0 1 0 180 arc tMatrix setmatrix
  closepath} bdef
/FtbRR {MtbRR stroke } bdef
/PtbRR {MtbRR fill } bdef
/stri 6 array def /dtri 6 array def
/smat 6 array def /dmat 6 array def
/tmat1 6 array def /tmat2 6 array def /dif 3 array def
/asub {/ind2 exch def /ind1 exch def dup dup
  ind1 get exch ind2 get sub exch } bdef
/tri_to_matrix {
  2 0 asub 3 1 asub 4 0 asub 5 1 asub
  dup 0 get exch 1 get 7 -1 roll astore } bdef
/compute_transform {
  dmat dtri tri_to_matrix tmat1 invertmatrix 
  smat stri tri_to_matrix tmat2 concatmatrix } bdef
/ds {stri astore pop} bdef
/dt {dtri astore pop} bdef
/db {2 copy /cols xdef /rows xdef mul dup 3 mul string
  currentfile 
  3 index 0 eq {/ASCIIHexDecode filter}
  {/ASCII85Decode filter 3 index 2 eq {/RunLengthDecode filter} if }
  ifelse exch readstring pop
  dup 0 3 index getinterval /rbmap xdef
  dup 2 index dup getinterval /gbmap xdef
  1 index dup 2 mul exch getinterval /bbmap xdef pop pop}bdef
/it {gs np dtri aload pop moveto lineto lineto cp c
  cols rows 8 compute_transform 
  rbmap gbmap bbmap true 3 colorimage gr}bdef
/il {newpath moveto lineto stroke}bdef
currentdict end def
%%EndProlog

%%BeginSetup
MathWorks begin

0 cap

end
%%EndSetup

%%Page: 1 1
%%BeginPageSetup
%%PageBoundingBox:    96   238   515   553
MathWorks begin
bpage
%%EndPageSetup

%%BeginObject: obj1
bplot

/dpi2point 12 def
portraitMode 1152 6636 csm

    0     0  5039  3780 rc
85 dict begin %Colortable dictionary
/c0 { 0.000000 0.000000 0.000000 sr} bdef
/c1 { 1.000000 1.000000 1.000000 sr} bdef
/c2 { 0.900000 0.000000 0.000000 sr} bdef
/c3 { 0.000000 0.820000 0.000000 sr} bdef
/c4 { 0.000000 0.000000 0.800000 sr} bdef
/c5 { 0.910000 0.820000 0.320000 sr} bdef
/c6 { 1.000000 0.260000 0.820000 sr} bdef
/c7 { 0.000000 0.820000 0.820000 sr} bdef
c0
1 j
1 sg
   0    0 5040 3781 rf
6 w
0 3081 3905 0 0 -3081 655 3364 4 MP
PP
-3905 0 0 3081 3905 0 0 -3081 655 3364 5 MP stroke
4 w
DO
0 sg
 655 3364 mt  655  283 L
 655  283 mt  655  283 L
1088 3364 mt 1088  283 L
1088  283 mt 1088  283 L
1522 3364 mt 1522  283 L
1522  283 mt 1522  283 L
1956 3364 mt 1956  283 L
1956  283 mt 1956  283 L
2390 3364 mt 2390  283 L
2390  283 mt 2390  283 L
2824 3364 mt 2824  283 L
2824  283 mt 2824  283 L
3258 3364 mt 3258  283 L
3258  283 mt 3258  283 L
3692 3364 mt 3692  283 L
3692  283 mt 3692  283 L
4126 3364 mt 4126  283 L
4126  283 mt 4126  283 L
4560 3364 mt 4560  283 L
4560  283 mt 4560  283 L
 655 3364 mt 4560 3364 L
4560 3364 mt 4560 3364 L
 655 2337 mt 4560 2337 L
4560 2337 mt 4560 2337 L
 655 1310 mt 4560 1310 L
4560 1310 mt 4560 1310 L
 655  283 mt 4560  283 L
4560  283 mt 4560  283 L
SO
6 w
 655  283 mt 4560  283 L
 655 3364 mt 4560 3364 L
4560 3364 mt 4560  283 L
 655 3364 mt  655  283 L
 655 3364 mt 4560 3364 L
 655 3364 mt  655  283 L
 655 3364 mt  655 3324 L
 655  283 mt  655  322 L
%%IncludeResource: font Helvetica
/Helvetica /WindowsLatin1Encoding 144 FMSR

 615 3532 mt 
(0) s
1088 3364 mt 1088 3324 L
1088  283 mt 1088  322 L
1048 3532 mt 
(1) s
1522 3364 mt 1522 3324 L
1522  283 mt 1522  322 L
1482 3532 mt 
(2) s
1956 3364 mt 1956 3324 L
1956  283 mt 1956  322 L
1916 3532 mt 
(3) s
2390 3364 mt 2390 3324 L
2390  283 mt 2390  322 L
2350 3532 mt 
(4) s
2824 3364 mt 2824 3324 L
2824  283 mt 2824  322 L
2784 3532 mt 
(5) s
3258 3364 mt 3258 3324 L
3258  283 mt 3258  322 L
3218 3532 mt 
(6) s
3692 3364 mt 3692 3324 L
3692  283 mt 3692  322 L
3652 3532 mt 
(7) s
4126 3364 mt 4126 3324 L
4126  283 mt 4126  322 L
4086 3532 mt 
(8) s
4560 3364 mt 4560 3324 L
4560  283 mt 4560  322 L
4520 3532 mt 
(9) s
 655 3364 mt  694 3364 L
4560 3364 mt 4520 3364 L
 540 3417 mt 
(0) s
 655 2337 mt  694 2337 L
4560 2337 mt 4520 2337 L
 540 2390 mt 
(5) s
 655 1310 mt  694 1310 L
4560 1310 mt 4520 1310 L
 460 1363 mt 
(10) s
 655  283 mt  694  283 L
4560  283 mt 4520  283 L
 460  336 mt 
(15) s
 655  283 mt 4560  283 L
 655 3364 mt 4560 3364 L
4560 3364 mt 4560  283 L
 655 3364 mt  655  283 L
gs 655 283 3906 3082 rc
/c8 { 0.000000 0.000000 1.000000 sr} bdef
c8
434 0 434 0 434 0 434 0 434 0 434 0 434 0 434 0 
433 0 655 899 10 MP stroke
gr

c8
0 j
-41 71 -41 -71 82 0 614 923 4 MP
DP
-41 71 -41 -71 82 0 1047 923 4 MP
DP
-41 71 -41 -71 82 0 1481 923 4 MP
DP
-41 71 -41 -71 82 0 1915 923 4 MP
DP
-41 71 -41 -71 82 0 2349 923 4 MP
DP
-41 71 -41 -71 82 0 2783 923 4 MP
DP
-41 71 -41 -71 82 0 3217 923 4 MP
DP
-41 71 -41 -71 82 0 3651 923 4 MP
DP
-41 71 -41 -71 82 0 4085 923 4 MP
DP
-41 71 -41 -71 82 0 4519 923 4 MP
DP
gs 655 283 3906 3082 rc
/c9 { 1.000000 0.000000 0.000000 sr} bdef
c9
434 0 434 41 434 0 434 0 434 0 434 0 434 0 434 0 
433 616 655 899 10 MP stroke
gr

c9
0 -58 -58 0 0 58 58 0 626 870 5 MP
DP
0 -58 -58 0 0 58 58 0 1059 1486 5 MP
DP
0 -58 -58 0 0 58 58 0 1493 1486 5 MP
DP
0 -58 -58 0 0 58 58 0 1927 1486 5 MP
DP
0 -58 -58 0 0 58 58 0 2361 1486 5 MP
DP
0 -58 -58 0 0 58 58 0 2795 1486 5 MP
DP
0 -58 -58 0 0 58 58 0 3229 1486 5 MP
DP
0 -58 -58 0 0 58 58 0 3663 1486 5 MP
DP
0 -58 -58 0 0 58 58 0 4097 1527 5 MP
DP
0 -58 -58 0 0 58 58 0 4531 1527 5 MP
DP
gs 655 283 3906 3082 rc
0 sg
1 1 434 41 434 -82 434 41 434 -41 434 -42 434 -41 434 124 
434 328 1088 1433 10 MP stroke
gr

0 sg
1052 1433 mt 1124 1433 L
1088 1397 mt 1088 1469 L
1486 1761 mt 1558 1761 L
1522 1725 mt 1522 1797 L
1920 1885 mt 1992 1885 L
1956 1849 mt 1956 1921 L
2354 1844 mt 2426 1844 L
2390 1808 mt 2390 1880 L
2788 1802 mt 2860 1802 L
2824 1766 mt 2824 1838 L
3222 1761 mt 3294 1761 L
3258 1725 mt 3258 1797 L
3656 1802 mt 3728 1802 L
3692 1766 mt 3692 1838 L
4090 1720 mt 4162 1720 L
4126 1684 mt 4126 1756 L
4524 1761 mt 4596 1761 L
4560 1725 mt 4560 1797 L
1063 1408 mt 1113 1458 L
1113 1408 mt 1063 1458 L
1497 1736 mt 1547 1786 L
1547 1736 mt 1497 1786 L
1931 1860 mt 1981 1910 L
1981 1860 mt 1931 1910 L
2365 1819 mt 2415 1869 L
2415 1819 mt 2365 1869 L
2799 1777 mt 2849 1827 L
2849 1777 mt 2799 1827 L
3233 1736 mt 3283 1786 L
3283 1736 mt 3233 1786 L
3667 1777 mt 3717 1827 L
3717 1777 mt 3667 1827 L
4101 1695 mt 4151 1745 L
4151 1695 mt 4101 1745 L
4535 1736 mt 4585 1786 L
4585 1736 mt 4535 1786 L
gs 655 283 3906 3082 rc
gr

2562 3693 mt 
(T) s
 373 2558 mt  -90 rotate
(Non-zeros entries in w) s
90 rotate
%%IncludeResource: font Helvetica
/Helvetica /WindowsLatin1Encoding 120 FMSR

 638 3407 mt 
( ) s
4544  325 mt 
( ) s
1 sg
0 600 1494 0 0 -600 2959 3248 4 MP
PP
-1494 0 0 600 1494 0 0 -600 2959 3248 5 MP stroke
4 w
DO
SO
6 w
0 sg
2959 2648 mt 4453 2648 L
2959 3248 mt 4453 3248 L
4453 3248 mt 4453 2648 L
2959 3248 mt 2959 2648 L
2959 3248 mt 4453 3248 L
2959 3248 mt 2959 2648 L
2959 2648 mt 4453 2648 L
2959 3248 mt 4453 3248 L
4453 3248 mt 4453 2648 L
2959 3248 mt 2959 2648 L
%%IncludeResource: font Helvetica
/Helvetica /WindowsLatin1Encoding 144 FMSR

3427 2813 mt 
(2-norm SVM) s
gs 2959 2648 1495 601 rc
c8
360 0 3031 2762 2 MP stroke
gr

c8
-41 71 -41 -71 82 0 3170 2786 4 MP
DP
gs 2959 2648 1495 601 rc
gr

0 sg
3427 3000 mt 
(Proposed SVM) s
gs 2959 2648 1495 601 rc
c9
360 0 3031 2948 2 MP stroke
gr

c9
0 -58 -58 0 0 58 58 0 3182 2919 5 MP
DP
gs 2959 2648 1495 601 rc
gr

0 sg
3427 3186 mt 
(1-norm SVM) s
gs 2959 2648 1495 601 rc
360 0 3031 3134 2 MP stroke
gr

3175 3134 mt 3247 3134 L
3211 3098 mt 3211 3170 L
3186 3109 mt 3236 3159 L
3236 3109 mt 3186 3159 L
gs 2959 2648 1495 601 rc
gr


end %%Color Dict

eplot
%%EndObject

epage
end

showpage

%%Trailer
%%EOF
