%!PS-Adobe-3.0 EPSF-3.0
%%Creator: MATLAB, The MathWorks, Inc. Version 8.0.0.783 (R2012b). Operating System: Microsoft Windows 7.
%%Title: C:\000 Work\00000 paper 2\Program\Vehicle Application\3com2class\an1.eps
%%CreationDate: 10/21/2013  22:06:12
%%DocumentNeededFonts: Helvetica
%%DocumentProcessColors: Cyan Magenta Yellow Black
%%LanguageLevel: 2
%%Pages: 1
%%BoundingBox:    47   292   564   499
%%EndComments

%%BeginProlog
% MathWorks dictionary
/MathWorks 160 dict begin
% definition operators
/bdef {bind def} bind def
/ldef {load def} bind def
/xdef {exch def} bdef
/xstore {exch store} bdef
% operator abbreviations
/c  /clip ldef
/cc /concat ldef
/cp /closepath ldef
/gr /grestore ldef
/gs /gsave ldef
/mt /moveto ldef
/np /newpath ldef
/cm /currentmatrix ldef
/sm /setmatrix ldef
/rm /rmoveto ldef
/rl /rlineto ldef
/s {show newpath} bdef
/sc {setcmykcolor} bdef
/sr /setrgbcolor ldef
/sg /setgray ldef
/w /setlinewidth ldef
/j /setlinejoin ldef
/cap /setlinecap ldef
/rc {rectclip} bdef
/rf {rectfill} bdef
% page state control
/pgsv () def
/bpage {/pgsv save def} bdef
/epage {pgsv restore} bdef
/bplot /gsave ldef
/eplot {stroke grestore} bdef
% orientation switch
/portraitMode 0 def /landscapeMode 1 def /rotateMode 2 def
% coordinate system mappings
/dpi2point 0 def
% font control
/FontSize 0 def
/FMS {/FontSize xstore findfont [FontSize 0 0 FontSize neg 0 0]
  makefont setfont} bdef
/ISOLatin1Encoding where {pop /WindowsLatin1Encoding 256 array bdef
ISOLatin1Encoding WindowsLatin1Encoding copy pop
/.notdef/.notdef/quotesinglbase/florin/quotedblbase/ellipsis/dagger
/daggerdbl/circumflex/perthousand/Scaron/guilsinglleft/OE/.notdef/.notdef
/.notdef/.notdef/quoteleft/quoteright/quotedblleft/quotedblright/bullet
/endash/emdash/tilde/trademark/scaron/guilsinglright/oe/.notdef/.notdef
/Ydieresis WindowsLatin1Encoding 128 32 getinterval astore pop}
{/WindowsLatin1Encoding StandardEncoding bdef} ifelse
/reencode {exch dup where {pop load} {pop StandardEncoding} ifelse
  exch dup 3 1 roll findfont dup length dict begin
  { 1 index /FID ne {def}{pop pop} ifelse } forall
  /Encoding exch def currentdict end definefont pop} bdef
/isroman {findfont /CharStrings get /Agrave known} bdef
/FMSR {3 1 roll 1 index dup isroman {reencode} {pop pop} ifelse
  exch FMS} bdef
/csm {1 dpi2point div -1 dpi2point div scale neg translate
 dup landscapeMode eq {pop -90 rotate}
  {rotateMode eq {90 rotate} if} ifelse} bdef
% line types: solid, dotted, dashed, dotdash
/SO { [] 0 setdash } bdef
/DO { [.5 dpi2point mul 4 dpi2point mul] 0 setdash } bdef
/DA { [6 dpi2point mul] 0 setdash } bdef
/DD { [.5 dpi2point mul 4 dpi2point mul 6 dpi2point mul 4
  dpi2point mul] 0 setdash } bdef
% macros for lines and objects
/L {lineto stroke} bdef
/MP {3 1 roll moveto 1 sub {rlineto} repeat} bdef
/AP {{rlineto} repeat} bdef
/PDlw -1 def
/W {/PDlw currentlinewidth def setlinewidth} def
/PP {closepath eofill} bdef
/DP {closepath stroke} bdef
/MR {4 -2 roll moveto dup  0 exch rlineto exch 0 rlineto
  neg 0 exch rlineto closepath} bdef
/FR {MR stroke} bdef
/PR {MR fill} bdef
/L1i {{currentfile picstr readhexstring pop} image} bdef
/tMatrix matrix def
/MakeOval {newpath tMatrix currentmatrix pop translate scale
0 0 1 0 360 arc tMatrix setmatrix} bdef
/FO {MakeOval stroke} bdef
/PO {MakeOval fill} bdef
/PD {currentlinewidth 2 div 0 360 arc fill
   PDlw -1 eq not {PDlw w /PDlw -1 def} if} def
/FA {newpath tMatrix currentmatrix pop translate scale
  0 0 1 5 -2 roll arc tMatrix setmatrix stroke} bdef
/PA {newpath tMatrix currentmatrix pop	translate 0 0 moveto scale
  0 0 1 5 -2 roll arc closepath tMatrix setmatrix fill} bdef
/FAn {newpath tMatrix currentmatrix pop translate scale
  0 0 1 5 -2 roll arcn tMatrix setmatrix stroke} bdef
/PAn {newpath tMatrix currentmatrix pop translate 0 0 moveto scale
  0 0 1 5 -2 roll arcn closepath tMatrix setmatrix fill} bdef
/vradius 0 def /hradius 0 def /lry 0 def
/lrx 0 def /uly 0 def /ulx 0 def /rad 0 def
/MRR {/vradius xdef /hradius xdef /lry xdef /lrx xdef /uly xdef
  /ulx xdef newpath tMatrix currentmatrix pop ulx hradius add uly
  vradius add translate hradius vradius scale 0 0 1 180 270 arc 
  tMatrix setmatrix lrx hradius sub uly vradius add translate
  hradius vradius scale 0 0 1 270 360 arc tMatrix setmatrix
  lrx hradius sub lry vradius sub translate hradius vradius scale
  0 0 1 0 90 arc tMatrix setmatrix ulx hradius add lry vradius sub
  translate hradius vradius scale 0 0 1 90 180 arc tMatrix setmatrix
  closepath} bdef
/FRR {MRR stroke } bdef
/PRR {MRR fill } bdef
/MlrRR {/lry xdef /lrx xdef /uly xdef /ulx xdef /rad lry uly sub 2 div def
  newpath tMatrix currentmatrix pop ulx rad add uly rad add translate
  rad rad scale 0 0 1 90 270 arc tMatrix setmatrix lrx rad sub lry rad
  sub translate rad rad scale 0 0 1 270 90 arc tMatrix setmatrix
  closepath} bdef
/FlrRR {MlrRR stroke } bdef
/PlrRR {MlrRR fill } bdef
/MtbRR {/lry xdef /lrx xdef /uly xdef /ulx xdef /rad lrx ulx sub 2 div def
  newpath tMatrix currentmatrix pop ulx rad add uly rad add translate
  rad rad scale 0 0 1 180 360 arc tMatrix setmatrix lrx rad sub lry rad
  sub translate rad rad scale 0 0 1 0 180 arc tMatrix setmatrix
  closepath} bdef
/FtbRR {MtbRR stroke } bdef
/PtbRR {MtbRR fill } bdef
/stri 6 array def /dtri 6 array def
/smat 6 array def /dmat 6 array def
/tmat1 6 array def /tmat2 6 array def /dif 3 array def
/asub {/ind2 exch def /ind1 exch def dup dup
  ind1 get exch ind2 get sub exch } bdef
/tri_to_matrix {
  2 0 asub 3 1 asub 4 0 asub 5 1 asub
  dup 0 get exch 1 get 7 -1 roll astore } bdef
/compute_transform {
  dmat dtri tri_to_matrix tmat1 invertmatrix 
  smat stri tri_to_matrix tmat2 concatmatrix } bdef
/ds {stri astore pop} bdef
/dt {dtri astore pop} bdef
/db {2 copy /cols xdef /rows xdef mul dup 3 mul string
  currentfile 
  3 index 0 eq {/ASCIIHexDecode filter}
  {/ASCII85Decode filter 3 index 2 eq {/RunLengthDecode filter} if }
  ifelse exch readstring pop
  dup 0 3 index getinterval /rbmap xdef
  dup 2 index dup getinterval /gbmap xdef
  1 index dup 2 mul exch getinterval /bbmap xdef pop pop}bdef
/it {gs np dtri aload pop moveto lineto lineto cp c
  cols rows 8 compute_transform 
  rbmap gbmap bbmap true 3 colorimage gr}bdef
/il {newpath moveto lineto stroke}bdef
currentdict end def
%%EndProlog

%%BeginSetup
MathWorks begin

0 cap

end
%%EndSetup

%%Page: 1 1
%%BeginPageSetup
%%PageBoundingBox:    47   292   564   499
MathWorks begin
bpage
%%EndPageSetup

%%BeginObject: obj1
bplot

/dpi2point 12 def
portraitMode 0564 5988 csm

    0     0  6210  2484 rc
85 dict begin %Colortable dictionary
/c0 { 0.000000 0.000000 0.000000 sr} bdef
/c1 { 1.000000 1.000000 1.000000 sr} bdef
/c2 { 0.900000 0.000000 0.000000 sr} bdef
/c3 { 0.000000 0.820000 0.000000 sr} bdef
/c4 { 0.000000 0.000000 0.800000 sr} bdef
/c5 { 0.910000 0.820000 0.320000 sr} bdef
/c6 { 1.000000 0.260000 0.820000 sr} bdef
/c7 { 0.000000 0.820000 0.820000 sr} bdef
c0
1 j
1 sg
   0    0 6211 2485 rf
6 w
0 1935 2079 0 0 -1935 807 2121 4 MP
PP
-2079 0 0 1935 2079 0 0 -1935 807 2121 5 MP stroke
4 w
DO
0 sg
1014 2121 mt 1014  186 L
1014  186 mt 1014  186 L
1430 2121 mt 1430  186 L
1430  186 mt 1430  186 L
1846 2121 mt 1846  186 L
1846  186 mt 1846  186 L
2262 2121 mt 2262  186 L
2262  186 mt 2262  186 L
2678 2121 mt 2678  186 L
2678  186 mt 2678  186 L
 807 2121 mt 2886 2121 L
2886 2121 mt 2886 2121 L
 807 1637 mt 2886 1637 L
2886 1637 mt 2886 1637 L
 807 1153 mt 2886 1153 L
2886 1153 mt 2886 1153 L
 807  669 mt 2886  669 L
2886  669 mt 2886  669 L
 807  186 mt 2886  186 L
2886  186 mt 2886  186 L
SO
6 w
 807  186 mt 2886  186 L
 807 2121 mt 2886 2121 L
2886 2121 mt 2886  186 L
 807 2121 mt  807  186 L
 807 2121 mt 2886 2121 L
 807 2121 mt  807  186 L
1014 2121 mt 1014 2100 L
1014  186 mt 1014  206 L
%%IncludeResource: font Helvetica
/Helvetica /WindowsLatin1Encoding 144 FMSR

 974 2289 mt 
(2) s
1430 2121 mt 1430 2100 L
1430  186 mt 1430  206 L
1390 2289 mt 
(4) s
1846 2121 mt 1846 2100 L
1846  186 mt 1846  206 L
1806 2289 mt 
(6) s
2262 2121 mt 2262 2100 L
2262  186 mt 2262  206 L
2222 2289 mt 
(8) s
2678 2121 mt 2678 2100 L
2678  186 mt 2678  206 L
2598 2289 mt 
(10) s
 807 2121 mt  827 2121 L
2886 2121 mt 2865 2121 L
 692 2174 mt 
(0) s
 807 1637 mt  827 1637 L
2886 1637 mt 2865 1637 L
 612 1690 mt 
(10) s
 807 1153 mt  827 1153 L
2886 1153 mt 2865 1153 L
 612 1206 mt 
(20) s
 807  669 mt  827  669 L
2886  669 mt 2865  669 L
 612  722 mt 
(30) s
 807  186 mt  827  186 L
2886  186 mt 2865  186 L
 612  239 mt 
(40) s
 807  186 mt 2886  186 L
 807 2121 mt 2886 2121 L
2886 2121 mt 2886  186 L
 807 2121 mt  807  186 L
gs 807 186 2080 1936 rc
208 -174 208 270 208 -290 208 -155 208 175 208 58 208 77 208 -155 
208 -251 207 387 807 1172 11 MP stroke
gr

gs 734 945 2226 688 rc
 771 1172 mt  843 1172 L
 807 1136 mt  807 1208 L
 978 1559 mt 1050 1559 L
1014 1523 mt 1014 1595 L
1186 1308 mt 1258 1308 L
1222 1272 mt 1222 1344 L
1394 1153 mt 1466 1153 L
1430 1117 mt 1430 1189 L
1602 1230 mt 1674 1230 L
1638 1194 mt 1638 1266 L
1810 1288 mt 1882 1288 L
1846 1252 mt 1846 1324 L
2018 1463 mt 2090 1463 L
2054 1427 mt 2054 1499 L
2226 1308 mt 2298 1308 L
2262 1272 mt 2262 1344 L
2434 1018 mt 2506 1018 L
2470  982 mt 2470 1054 L
2642 1288 mt 2714 1288 L
2678 1252 mt 2678 1324 L
2850 1114 mt 2922 1114 L
2886 1078 mt 2886 1150 L
 782 1147 mt  832 1197 L
 832 1147 mt  782 1197 L
 989 1534 mt 1039 1584 L
1039 1534 mt  989 1584 L
1197 1283 mt 1247 1333 L
1247 1283 mt 1197 1333 L
1405 1128 mt 1455 1178 L
1455 1128 mt 1405 1178 L
1613 1205 mt 1663 1255 L
1663 1205 mt 1613 1255 L
1821 1263 mt 1871 1313 L
1871 1263 mt 1821 1313 L
2029 1438 mt 2079 1488 L
2079 1438 mt 2029 1488 L
2237 1283 mt 2287 1333 L
2287 1283 mt 2237 1333 L
2445  993 mt 2495 1043 L
2495  993 mt 2445 1043 L
2653 1263 mt 2703 1313 L
2703 1263 mt 2653 1313 L
2861 1089 mt 2911 1139 L
2911 1089 mt 2861 1139 L
gr

gs 807 186 2080 1936 rc
/c8 { 1.000000 0.000000 0.000000 sr} bdef
c8
208 -58 208 116 208 -194 208 -135 208 193 208 -39 208 194 208 -426 
208 -96 207 483 807 1192 11 MP stroke
gr

c8
gs 734 1080 2226 669 rc
0 j
0 -58 -58 0 0 58 58 0 778 1163 5 MP
DP
0 -58 -58 0 0 58 58 0 985 1646 5 MP
DP
0 -58 -58 0 0 58 58 0 1193 1550 5 MP
DP
0 -58 -58 0 0 58 58 0 1401 1124 5 MP
DP
0 -58 -58 0 0 58 58 0 1609 1318 5 MP
DP
0 -58 -58 0 0 58 58 0 1817 1279 5 MP
DP
0 -58 -58 0 0 58 58 0 2025 1472 5 MP
DP
0 -58 -58 0 0 58 58 0 2233 1337 5 MP
DP
0 -58 -58 0 0 58 58 0 2441 1143 5 MP
DP
0 -58 -58 0 0 58 58 0 2649 1259 5 MP
DP
0 -58 -58 0 0 58 58 0 2857 1201 5 MP
DP
gr

gs 807 186 2080 1936 rc
gr

0 sg
1801 2450 mt 
(T) s
 525 1438 mt  -90 rotate
(Error [%]) s
90 rotate
%%IncludeResource: font Helvetica
/Helvetica /WindowsLatin1Encoding 120 FMSR

 790 2164 mt 
( ) s
2870  228 mt 
( ) s
1 sg
0 390 1475 0 0 -390 1352 636 4 MP
PP
-1475 0 0 390 1475 0 0 -390 1352 636 5 MP stroke
4 w
DO
SO
6 w
0 sg
1352  246 mt 2827  246 L
1352  636 mt 2827  636 L
2827  636 mt 2827  246 L
1352  636 mt 1352  246 L
1352  636 mt 2827  636 L
1352  636 mt 1352  246 L
1352  246 mt 2827  246 L
1352  636 mt 2827  636 L
2827  636 mt 2827  246 L
1352  636 mt 1352  246 L
%%IncludeResource: font Helvetica
/Helvetica /WindowsLatin1Encoding 144 FMSR

1814  405 mt 
(1-norm SVM) s
gs 1352 246 1476 391 rc
355 0 1423 353 2 MP stroke
gs 1527 280 147 147 rc
1564  353 mt 1636  353 L
1600  317 mt 1600  389 L
1575  328 mt 1625  378 L
1625  328 mt 1575  378 L
gr

gr

1814  580 mt 
(Proposed SVM) s
gs 1352 246 1476 391 rc
c8
355 0 1423 528 2 MP stroke
gs 1527 455 147 147 rc
0 j
0 -58 -58 0 0 58 58 0 1571 499 5 MP
DP
gr

gr

c8
1 sg
0 1935 2078 0 0 -1935 3542 2121 4 MP
PP
-2078 0 0 1935 2078 0 0 -1935 3542 2121 5 MP stroke
4 w
DO
0 sg
3749 2121 mt 3749  186 L
3749  186 mt 3749  186 L
4165 2121 mt 4165  186 L
4165  186 mt 4165  186 L
4581 2121 mt 4581  186 L
4581  186 mt 4581  186 L
4996 2121 mt 4996  186 L
4996  186 mt 4996  186 L
5412 2121 mt 5412  186 L
5412  186 mt 5412  186 L
3542 2121 mt 5620 2121 L
5620 2121 mt 5620 2121 L
3542 1476 mt 5620 1476 L
5620 1476 mt 5620 1476 L
3542  831 mt 5620  831 L
5620  831 mt 5620  831 L
3542  186 mt 5620  186 L
5620  186 mt 5620  186 L
SO
6 w
3542  186 mt 5620  186 L
3542 2121 mt 5620 2121 L
5620 2121 mt 5620  186 L
3542 2121 mt 3542  186 L
3542 2121 mt 5620 2121 L
3542 2121 mt 3542  186 L
3749 2121 mt 3749 2100 L
3749  186 mt 3749  206 L
3709 2289 mt 
(2) s
4165 2121 mt 4165 2100 L
4165  186 mt 4165  206 L
4125 2289 mt 
(4) s
4581 2121 mt 4581 2100 L
4581  186 mt 4581  206 L
4541 2289 mt 
(6) s
4996 2121 mt 4996 2100 L
4996  186 mt 4996  206 L
4956 2289 mt 
(8) s
5412 2121 mt 5412 2100 L
5412  186 mt 5412  206 L
5332 2289 mt 
(10) s
3542 2121 mt 3562 2121 L
5620 2121 mt 5599 2121 L
3427 2174 mt 
(0) s
3542 1476 mt 3562 1476 L
5620 1476 mt 5599 1476 L
3427 1529 mt 
(5) s
3542  831 mt 3562  831 L
5620  831 mt 5599  831 L
3347  884 mt 
(10) s
3542  186 mt 3562  186 L
5620  186 mt 5599  186 L
3347  239 mt 
(15) s
3542  186 mt 5620  186 L
3542 2121 mt 5620 2121 L
5620 2121 mt 5620  186 L
3542 2121 mt 3542  186 L
gs 3542 186 2079 1936 rc
208 -103 208 129 208 -258 208 206 207 207 208 -155 208 52 208 154 
208 0 207 -129 3542 1347 11 MP stroke
gr

gs 3469 1145 2225 611 rc
3506 1347 mt 3578 1347 L
3542 1311 mt 3542 1383 L
3713 1218 mt 3785 1218 L
3749 1182 mt 3749 1254 L
3921 1218 mt 3993 1218 L
3957 1182 mt 3957 1254 L
4129 1372 mt 4201 1372 L
4165 1336 mt 4165 1408 L
4337 1424 mt 4409 1424 L
4373 1388 mt 4373 1460 L
4545 1269 mt 4617 1269 L
4581 1233 mt 4581 1305 L
4752 1476 mt 4824 1476 L
4788 1440 mt 4788 1512 L
4960 1682 mt 5032 1682 L
4996 1646 mt 4996 1718 L
5168 1424 mt 5240 1424 L
5204 1388 mt 5204 1460 L
5376 1553 mt 5448 1553 L
5412 1517 mt 5412 1589 L
5584 1450 mt 5656 1450 L
5620 1414 mt 5620 1486 L
3517 1322 mt 3567 1372 L
3567 1322 mt 3517 1372 L
3724 1193 mt 3774 1243 L
3774 1193 mt 3724 1243 L
3932 1193 mt 3982 1243 L
3982 1193 mt 3932 1243 L
4140 1347 mt 4190 1397 L
4190 1347 mt 4140 1397 L
4348 1399 mt 4398 1449 L
4398 1399 mt 4348 1449 L
4556 1244 mt 4606 1294 L
4606 1244 mt 4556 1294 L
4763 1451 mt 4813 1501 L
4813 1451 mt 4763 1501 L
4971 1657 mt 5021 1707 L
5021 1657 mt 4971 1707 L
5179 1399 mt 5229 1449 L
5229 1399 mt 5179 1449 L
5387 1528 mt 5437 1578 L
5437 1528 mt 5387 1578 L
5595 1425 mt 5645 1475 L
5645 1425 mt 5595 1475 L
gr

gs 3542 186 2079 1936 rc
c8
208 -52 208 181 208 -207 208 232 207 233 208 -207 208 78 208 206 
208 181 207 51 3542 805 11 MP stroke
gr

c8
gs 3469 732 2225 921 rc
0 j
0 -58 -58 0 0 58 58 0 3513 776 5 MP
DP
0 -58 -58 0 0 58 58 0 3720 827 5 MP
DP
0 -58 -58 0 0 58 58 0 3928 1008 5 MP
DP
0 -58 -58 0 0 58 58 0 4136 1214 5 MP
DP
0 -58 -58 0 0 58 58 0 4344 1292 5 MP
DP
0 -58 -58 0 0 58 58 0 4552 1085 5 MP
DP
0 -58 -58 0 0 58 58 0 4759 1318 5 MP
DP
0 -58 -58 0 0 58 58 0 4967 1550 5 MP
DP
0 -58 -58 0 0 58 58 0 5175 1343 5 MP
DP
0 -58 -58 0 0 58 58 0 5383 1524 5 MP
DP
0 -58 -58 0 0 58 58 0 5591 1472 5 MP
DP
gr

gs 3542 186 2079 1936 rc
gr

0 sg
4536 2450 mt 
(T) s
3260 1888 mt  -90 rotate
(Non-zeros entries in w) s
90 rotate
%%IncludeResource: font Helvetica
/Helvetica /WindowsLatin1Encoding 120 FMSR

3525 2164 mt 
( ) s
5604  228 mt 
( ) s
1 sg
0 390 1475 0 0 -390 4086 636 4 MP
PP
-1475 0 0 390 1475 0 0 -390 4086 636 5 MP stroke
4 w
DO
SO
6 w
0 sg
4086  246 mt 5561  246 L
4086  636 mt 5561  636 L
5561  636 mt 5561  246 L
4086  636 mt 4086  246 L
4086  636 mt 5561  636 L
4086  636 mt 4086  246 L
4086  246 mt 5561  246 L
4086  636 mt 5561  636 L
5561  636 mt 5561  246 L
4086  636 mt 4086  246 L
%%IncludeResource: font Helvetica
/Helvetica /WindowsLatin1Encoding 144 FMSR

4548  405 mt 
(1-norm SVM) s
gs 4086 246 1476 391 rc
355 0 4157 353 2 MP stroke
gs 4261 280 147 147 rc
4298  353 mt 4370  353 L
4334  317 mt 4334  389 L
4309  328 mt 4359  378 L
4359  328 mt 4309  378 L
gr

gr

4548  580 mt 
(Proposed SVM) s
gs 4086 246 1476 391 rc
c8
355 0 4157 528 2 MP stroke
gs 4261 455 147 147 rc
0 j
0 -58 -58 0 0 58 58 0 4305 499 5 MP
DP
gr

gr

c8

end %%Color Dict

eplot
%%EndObject

epage
end

showpage

%%Trailer
%%EOF
