%!PS-Adobe-3.0 EPSF-3.0
%%Creator: MATLAB, The MathWorks, Inc. Version 8.0.0.783 (R2012b). Operating System: Microsoft Windows 7.
%%Title: C:\000 Work\00000 paper 2\Program\Vehicle Application\3com2class\an2.eps
%%CreationDate: 10/21/2013  22:05:55
%%DocumentNeededFonts: Helvetica
%%DocumentProcessColors: Cyan Magenta Yellow Black
%%LanguageLevel: 2
%%Pages: 1
%%BoundingBox:    45   291   565   500
%%EndComments

%%BeginProlog
% MathWorks dictionary
/MathWorks 160 dict begin
% definition operators
/bdef {bind def} bind def
/ldef {load def} bind def
/xdef {exch def} bdef
/xstore {exch store} bdef
% operator abbreviations
/c  /clip ldef
/cc /concat ldef
/cp /closepath ldef
/gr /grestore ldef
/gs /gsave ldef
/mt /moveto ldef
/np /newpath ldef
/cm /currentmatrix ldef
/sm /setmatrix ldef
/rm /rmoveto ldef
/rl /rlineto ldef
/s {show newpath} bdef
/sc {setcmykcolor} bdef
/sr /setrgbcolor ldef
/sg /setgray ldef
/w /setlinewidth ldef
/j /setlinejoin ldef
/cap /setlinecap ldef
/rc {rectclip} bdef
/rf {rectfill} bdef
% page state control
/pgsv () def
/bpage {/pgsv save def} bdef
/epage {pgsv restore} bdef
/bplot /gsave ldef
/eplot {stroke grestore} bdef
% orientation switch
/portraitMode 0 def /landscapeMode 1 def /rotateMode 2 def
% coordinate system mappings
/dpi2point 0 def
% font control
/FontSize 0 def
/FMS {/FontSize xstore findfont [FontSize 0 0 FontSize neg 0 0]
  makefont setfont} bdef
/ISOLatin1Encoding where {pop /WindowsLatin1Encoding 256 array bdef
ISOLatin1Encoding WindowsLatin1Encoding copy pop
/.notdef/.notdef/quotesinglbase/florin/quotedblbase/ellipsis/dagger
/daggerdbl/circumflex/perthousand/Scaron/guilsinglleft/OE/.notdef/.notdef
/.notdef/.notdef/quoteleft/quoteright/quotedblleft/quotedblright/bullet
/endash/emdash/tilde/trademark/scaron/guilsinglright/oe/.notdef/.notdef
/Ydieresis WindowsLatin1Encoding 128 32 getinterval astore pop}
{/WindowsLatin1Encoding StandardEncoding bdef} ifelse
/reencode {exch dup where {pop load} {pop StandardEncoding} ifelse
  exch dup 3 1 roll findfont dup length dict begin
  { 1 index /FID ne {def}{pop pop} ifelse } forall
  /Encoding exch def currentdict end definefont pop} bdef
/isroman {findfont /CharStrings get /Agrave known} bdef
/FMSR {3 1 roll 1 index dup isroman {reencode} {pop pop} ifelse
  exch FMS} bdef
/csm {1 dpi2point div -1 dpi2point div scale neg translate
 dup landscapeMode eq {pop -90 rotate}
  {rotateMode eq {90 rotate} if} ifelse} bdef
% line types: solid, dotted, dashed, dotdash
/SO { [] 0 setdash } bdef
/DO { [.5 dpi2point mul 4 dpi2point mul] 0 setdash } bdef
/DA { [6 dpi2point mul] 0 setdash } bdef
/DD { [.5 dpi2point mul 4 dpi2point mul 6 dpi2point mul 4
  dpi2point mul] 0 setdash } bdef
% macros for lines and objects
/L {lineto stroke} bdef
/MP {3 1 roll moveto 1 sub {rlineto} repeat} bdef
/AP {{rlineto} repeat} bdef
/PDlw -1 def
/W {/PDlw currentlinewidth def setlinewidth} def
/PP {closepath eofill} bdef
/DP {closepath stroke} bdef
/MR {4 -2 roll moveto dup  0 exch rlineto exch 0 rlineto
  neg 0 exch rlineto closepath} bdef
/FR {MR stroke} bdef
/PR {MR fill} bdef
/L1i {{currentfile picstr readhexstring pop} image} bdef
/tMatrix matrix def
/MakeOval {newpath tMatrix currentmatrix pop translate scale
0 0 1 0 360 arc tMatrix setmatrix} bdef
/FO {MakeOval stroke} bdef
/PO {MakeOval fill} bdef
/PD {currentlinewidth 2 div 0 360 arc fill
   PDlw -1 eq not {PDlw w /PDlw -1 def} if} def
/FA {newpath tMatrix currentmatrix pop translate scale
  0 0 1 5 -2 roll arc tMatrix setmatrix stroke} bdef
/PA {newpath tMatrix currentmatrix pop	translate 0 0 moveto scale
  0 0 1 5 -2 roll arc closepath tMatrix setmatrix fill} bdef
/FAn {newpath tMatrix currentmatrix pop translate scale
  0 0 1 5 -2 roll arcn tMatrix setmatrix stroke} bdef
/PAn {newpath tMatrix currentmatrix pop translate 0 0 moveto scale
  0 0 1 5 -2 roll arcn closepath tMatrix setmatrix fill} bdef
/vradius 0 def /hradius 0 def /lry 0 def
/lrx 0 def /uly 0 def /ulx 0 def /rad 0 def
/MRR {/vradius xdef /hradius xdef /lry xdef /lrx xdef /uly xdef
  /ulx xdef newpath tMatrix currentmatrix pop ulx hradius add uly
  vradius add translate hradius vradius scale 0 0 1 180 270 arc 
  tMatrix setmatrix lrx hradius sub uly vradius add translate
  hradius vradius scale 0 0 1 270 360 arc tMatrix setmatrix
  lrx hradius sub lry vradius sub translate hradius vradius scale
  0 0 1 0 90 arc tMatrix setmatrix ulx hradius add lry vradius sub
  translate hradius vradius scale 0 0 1 90 180 arc tMatrix setmatrix
  closepath} bdef
/FRR {MRR stroke } bdef
/PRR {MRR fill } bdef
/MlrRR {/lry xdef /lrx xdef /uly xdef /ulx xdef /rad lry uly sub 2 div def
  newpath tMatrix currentmatrix pop ulx rad add uly rad add translate
  rad rad scale 0 0 1 90 270 arc tMatrix setmatrix lrx rad sub lry rad
  sub translate rad rad scale 0 0 1 270 90 arc tMatrix setmatrix
  closepath} bdef
/FlrRR {MlrRR stroke } bdef
/PlrRR {MlrRR fill } bdef
/MtbRR {/lry xdef /lrx xdef /uly xdef /ulx xdef /rad lrx ulx sub 2 div def
  newpath tMatrix currentmatrix pop ulx rad add uly rad add translate
  rad rad scale 0 0 1 180 360 arc tMatrix setmatrix lrx rad sub lry rad
  sub translate rad rad scale 0 0 1 0 180 arc tMatrix setmatrix
  closepath} bdef
/FtbRR {MtbRR stroke } bdef
/PtbRR {MtbRR fill } bdef
/stri 6 array def /dtri 6 array def
/smat 6 array def /dmat 6 array def
/tmat1 6 array def /tmat2 6 array def /dif 3 array def
/asub {/ind2 exch def /ind1 exch def dup dup
  ind1 get exch ind2 get sub exch } bdef
/tri_to_matrix {
  2 0 asub 3 1 asub 4 0 asub 5 1 asub
  dup 0 get exch 1 get 7 -1 roll astore } bdef
/compute_transform {
  dmat dtri tri_to_matrix tmat1 invertmatrix 
  smat stri tri_to_matrix tmat2 concatmatrix } bdef
/ds {stri astore pop} bdef
/dt {dtri astore pop} bdef
/db {2 copy /cols xdef /rows xdef mul dup 3 mul string
  currentfile 
  3 index 0 eq {/ASCIIHexDecode filter}
  {/ASCII85Decode filter 3 index 2 eq {/RunLengthDecode filter} if }
  ifelse exch readstring pop
  dup 0 3 index getinterval /rbmap xdef
  dup 2 index dup getinterval /gbmap xdef
  1 index dup 2 mul exch getinterval /bbmap xdef pop pop}bdef
/it {gs np dtri aload pop moveto lineto lineto cp c
  cols rows 8 compute_transform 
  rbmap gbmap bbmap true 3 colorimage gr}bdef
/il {newpath moveto lineto stroke}bdef
currentdict end def
%%EndProlog

%%BeginSetup
MathWorks begin

0 cap

end
%%EndSetup

%%Page: 1 1
%%BeginPageSetup
%%PageBoundingBox:    45   291   565   500
MathWorks begin
bpage
%%EndPageSetup

%%BeginObject: obj1
bplot

/dpi2point 12 def
portraitMode 0540 6000 csm

    0     0  6245  2501 rc
85 dict begin %Colortable dictionary
/c0 { 0.000000 0.000000 0.000000 sr} bdef
/c1 { 1.000000 1.000000 1.000000 sr} bdef
/c2 { 0.900000 0.000000 0.000000 sr} bdef
/c3 { 0.000000 0.820000 0.000000 sr} bdef
/c4 { 0.000000 0.000000 0.800000 sr} bdef
/c5 { 0.910000 0.820000 0.320000 sr} bdef
/c6 { 1.000000 0.260000 0.820000 sr} bdef
/c7 { 0.000000 0.820000 0.820000 sr} bdef
c0
1 j
1 sg
   0    0 6246 2502 rf
6 w
0 1950 2090 0 0 -1950 812 2138 4 MP
PP
-2090 0 0 1950 2090 0 0 -1950 812 2138 5 MP stroke
4 w
DO
0 sg
 812 2138 mt  812  188 L
 812  188 mt  812  188 L
1857 2138 mt 1857  188 L
1857  188 mt 1857  188 L
2902 2138 mt 2902  188 L
2902  188 mt 2902  188 L
 812 2138 mt 2902 2138 L
2902 2138 mt 2902 2138 L
 812 1650 mt 2902 1650 L
2902 1650 mt 2902 1650 L
 812 1163 mt 2902 1163 L
2902 1163 mt 2902 1163 L
 812  675 mt 2902  675 L
2902  675 mt 2902  675 L
 812  188 mt 2902  188 L
2902  188 mt 2902  188 L
SO
6 w
 812  188 mt 2902  188 L
 812 2138 mt 2902 2138 L
2902 2138 mt 2902  188 L
 812 2138 mt  812  188 L
 812 2138 mt 2902 2138 L
 812 2138 mt  812  188 L
 812 2138 mt  812 2117 L
 812  188 mt  812  208 L
%%IncludeResource: font Helvetica
/Helvetica /WindowsLatin1Encoding 144 FMSR

 772 2306 mt 
(0) s
1857 2138 mt 1857 2117 L
1857  188 mt 1857  208 L
1817 2306 mt 
(5) s
2902 2138 mt 2902 2117 L
2902  188 mt 2902  208 L
2822 2306 mt 
(10) s
 812 2138 mt  832 2138 L
2902 2138 mt 2881 2138 L
 697 2191 mt 
(0) s
 812 1650 mt  832 1650 L
2902 1650 mt 2881 1650 L
 617 1703 mt 
(10) s
 812 1163 mt  832 1163 L
2902 1163 mt 2881 1163 L
 617 1216 mt 
(20) s
 812  675 mt  832  675 L
2902  675 mt 2881  675 L
 617  728 mt 
(30) s
 812  188 mt  832  188 L
2902  188 mt 2881  188 L
 617  241 mt 
(40) s
 812  188 mt 2902  188 L
 812 2138 mt 2902 2138 L
2902 2138 mt 2902  188 L
 812 2138 mt  812  188 L
gs 812 188 2091 1951 rc
209 -78 209 -292 209 370 209 -253 209 175 209 -97 209 -20 209 -58 
209 19 209 -195 812 1826 11 MP stroke
gr

gs 739 1324 2237 576 rc
 776 1826 mt  848 1826 L
 812 1790 mt  812 1862 L
 985 1631 mt 1057 1631 L
1021 1595 mt 1021 1667 L
1194 1650 mt 1266 1650 L
1230 1614 mt 1230 1686 L
1403 1592 mt 1475 1592 L
1439 1556 mt 1439 1628 L
1612 1572 mt 1684 1572 L
1648 1536 mt 1648 1608 L
1821 1475 mt 1893 1475 L
1857 1439 mt 1857 1511 L
2030 1650 mt 2102 1650 L
2066 1614 mt 2066 1686 L
2239 1397 mt 2311 1397 L
2275 1361 mt 2275 1433 L
2448 1767 mt 2520 1767 L
2484 1731 mt 2484 1803 L
2657 1475 mt 2729 1475 L
2693 1439 mt 2693 1511 L
2866 1397 mt 2938 1397 L
2902 1361 mt 2902 1433 L
 787 1801 mt  837 1851 L
 837 1801 mt  787 1851 L
 996 1606 mt 1046 1656 L
1046 1606 mt  996 1656 L
1205 1625 mt 1255 1675 L
1255 1625 mt 1205 1675 L
1414 1567 mt 1464 1617 L
1464 1567 mt 1414 1617 L
1623 1547 mt 1673 1597 L
1673 1547 mt 1623 1597 L
1832 1450 mt 1882 1500 L
1882 1450 mt 1832 1500 L
2041 1625 mt 2091 1675 L
2091 1625 mt 2041 1675 L
2250 1372 mt 2300 1422 L
2300 1372 mt 2250 1422 L
2459 1742 mt 2509 1792 L
2509 1742 mt 2459 1792 L
2668 1450 mt 2718 1500 L
2718 1450 mt 2668 1500 L
2877 1372 mt 2927 1422 L
2927 1372 mt 2877 1422 L
gr

gs 812 188 2091 1951 rc
/c8 { 1.000000 0.000000 0.000000 sr} bdef
c8
209 -214 209 -59 209 98 209 -176 209 332 209 -195 209 78 209 -176 
209 -117 209 -175 812 1728 11 MP stroke
gr

c8
gs 739 1051 2237 751 rc
0 j
0 -58 -58 0 0 58 58 0 783 1699 5 MP
DP
0 -58 -58 0 0 58 58 0 992 1524 5 MP
DP
0 -58 -58 0 0 58 58 0 1201 1407 5 MP
DP
0 -58 -58 0 0 58 58 0 1410 1231 5 MP
DP
0 -58 -58 0 0 58 58 0 1619 1309 5 MP
DP
0 -58 -58 0 0 58 58 0 1828 1114 5 MP
DP
0 -58 -58 0 0 58 58 0 2037 1446 5 MP
DP
0 -58 -58 0 0 58 58 0 2246 1270 5 MP
DP
0 -58 -58 0 0 58 58 0 2455 1368 5 MP
DP
0 -58 -58 0 0 58 58 0 2664 1309 5 MP
DP
0 -58 -58 0 0 58 58 0 2873 1095 5 MP
DP
gr

gs 812 188 2091 1951 rc
gr

0 sg
1812 2467 mt 
(T) s
 530 1448 mt  -90 rotate
(Error [%]) s
90 rotate
%%IncludeResource: font Helvetica
/Helvetica /WindowsLatin1Encoding 120 FMSR

 795 2181 mt 
( ) s
2886  230 mt 
( ) s
1 sg
0 390 1475 0 0 -390 1368 638 4 MP
PP
-1475 0 0 390 1475 0 0 -390 1368 638 5 MP stroke
4 w
DO
SO
6 w
0 sg
1368  248 mt 2843  248 L
1368  638 mt 2843  638 L
2843  638 mt 2843  248 L
1368  638 mt 1368  248 L
1368  638 mt 2843  638 L
1368  638 mt 1368  248 L
1368  248 mt 2843  248 L
1368  638 mt 2843  638 L
2843  638 mt 2843  248 L
1368  638 mt 1368  248 L
%%IncludeResource: font Helvetica
/Helvetica /WindowsLatin1Encoding 144 FMSR

1830  407 mt 
(2-norm SVM) s
gs 1368 248 1476 391 rc
355 0 1439 355 2 MP stroke
gs 1543 282 147 147 rc
1580  355 mt 1652  355 L
1616  319 mt 1616  391 L
1591  330 mt 1641  380 L
1641  330 mt 1591  380 L
gr

gr

1830  582 mt 
(Proposed SVM) s
gs 1368 248 1476 391 rc
c8
355 0 1439 530 2 MP stroke
gs 1543 457 147 147 rc
0 j
0 -58 -58 0 0 58 58 0 1587 501 5 MP
DP
gr

gr

c8
1 sg
0 1950 2090 0 0 -1950 3562 2138 4 MP
PP
-2090 0 0 1950 2090 0 0 -1950 3562 2138 5 MP stroke
4 w
DO
0 sg
3562 2138 mt 3562  188 L
3562  188 mt 3562  188 L
4607 2138 mt 4607  188 L
4607  188 mt 4607  188 L
5652 2138 mt 5652  188 L
5652  188 mt 5652  188 L
3562 2138 mt 5652 2138 L
5652 2138 mt 5652 2138 L
3562 1488 mt 5652 1488 L
5652 1488 mt 5652 1488 L
3562  838 mt 5652  838 L
5652  838 mt 5652  838 L
3562  188 mt 5652  188 L
5652  188 mt 5652  188 L
SO
6 w
3562  188 mt 5652  188 L
3562 2138 mt 5652 2138 L
5652 2138 mt 5652  188 L
3562 2138 mt 3562  188 L
3562 2138 mt 5652 2138 L
3562 2138 mt 3562  188 L
3562 2138 mt 3562 2117 L
3562  188 mt 3562  208 L
3522 2306 mt 
(0) s
4607 2138 mt 4607 2117 L
4607  188 mt 4607  208 L
4567 2306 mt 
(5) s
5652 2138 mt 5652 2117 L
5652  188 mt 5652  208 L
5572 2306 mt 
(10) s
3562 2138 mt 3582 2138 L
5652 2138 mt 5631 2138 L
3447 2191 mt 
(0) s
3562 1488 mt 3582 1488 L
5652 1488 mt 5631 1488 L
3447 1541 mt 
(5) s
3562  838 mt 3582  838 L
5652  838 mt 5631  838 L
3367  891 mt 
(10) s
3562  188 mt 3582  188 L
5652  188 mt 5631  188 L
3367  241 mt 
(15) s
3562  188 mt 5652  188 L
3562 2138 mt 5652 2138 L
5652 2138 mt 5652  188 L
3562 2138 mt 3562  188 L
gs 3562 188 2091 1951 rc
209 0 209 0 209 0 209 0 209 0 209 0 209 0 209 0 
209 0 209 0 3562 578 11 MP stroke
gr

gs 3489 505 2237 147 rc
3526  578 mt 3598  578 L
3562  542 mt 3562  614 L
3735  578 mt 3807  578 L
3771  542 mt 3771  614 L
3944  578 mt 4016  578 L
3980  542 mt 3980  614 L
4153  578 mt 4225  578 L
4189  542 mt 4189  614 L
4362  578 mt 4434  578 L
4398  542 mt 4398  614 L
4571  578 mt 4643  578 L
4607  542 mt 4607  614 L
4780  578 mt 4852  578 L
4816  542 mt 4816  614 L
4989  578 mt 5061  578 L
5025  542 mt 5025  614 L
5198  578 mt 5270  578 L
5234  542 mt 5234  614 L
5407  578 mt 5479  578 L
5443  542 mt 5443  614 L
5616  578 mt 5688  578 L
5652  542 mt 5652  614 L
3537  553 mt 3587  603 L
3587  553 mt 3537  603 L
3746  553 mt 3796  603 L
3796  553 mt 3746  603 L
3955  553 mt 4005  603 L
4005  553 mt 3955  603 L
4164  553 mt 4214  603 L
4214  553 mt 4164  603 L
4373  553 mt 4423  603 L
4423  553 mt 4373  603 L
4582  553 mt 4632  603 L
4632  553 mt 4582  603 L
4791  553 mt 4841  603 L
4841  553 mt 4791  603 L
5000  553 mt 5050  603 L
5050  553 mt 5000  603 L
5209  553 mt 5259  603 L
5259  553 mt 5209  603 L
5418  553 mt 5468  603 L
5468  553 mt 5418  603 L
5627  553 mt 5677  603 L
5677  553 mt 5627  603 L
gr

gs 3562 188 2091 1951 rc
c8
209 26 209 0 209 130 209 26 209 0 209 260 209 -182 209 104 
209 130 209 26 3562 968 11 MP stroke
gr

c8
gs 3489 895 2237 667 rc
0 j
0 -58 -58 0 0 58 58 0 3533 939 5 MP
DP
0 -58 -58 0 0 58 58 0 3742 965 5 MP
DP
0 -58 -58 0 0 58 58 0 3951 1095 5 MP
DP
0 -58 -58 0 0 58 58 0 4160 1199 5 MP
DP
0 -58 -58 0 0 58 58 0 4369 1017 5 MP
DP
0 -58 -58 0 0 58 58 0 4578 1277 5 MP
DP
0 -58 -58 0 0 58 58 0 4787 1277 5 MP
DP
0 -58 -58 0 0 58 58 0 4996 1303 5 MP
DP
0 -58 -58 0 0 58 58 0 5205 1433 5 MP
DP
0 -58 -58 0 0 58 58 0 5414 1433 5 MP
DP
0 -58 -58 0 0 58 58 0 5623 1459 5 MP
DP
gr

gs 3562 188 2091 1951 rc
gr

0 sg
4562 2467 mt 
(T) s
3280 1898 mt  -90 rotate
(Non-zeros entries in w) s
90 rotate
%%IncludeResource: font Helvetica
/Helvetica /WindowsLatin1Encoding 120 FMSR

3545 2181 mt 
( ) s
5636  230 mt 
( ) s
1 sg
0 414 1494 0 0 -414 3674 2012 4 MP
PP
-1494 0 0 414 1494 0 0 -414 3674 2012 5 MP stroke
4 w
DO
SO
6 w
0 sg
3674 1598 mt 5168 1598 L
3674 2012 mt 5168 2012 L
5168 2012 mt 5168 1598 L
3674 2012 mt 3674 1598 L
3674 2012 mt 5168 2012 L
3674 2012 mt 3674 1598 L
3674 1598 mt 5168 1598 L
3674 2012 mt 5168 2012 L
5168 2012 mt 5168 1598 L
3674 2012 mt 3674 1598 L
%%IncludeResource: font Helvetica
/Helvetica /WindowsLatin1Encoding 144 FMSR

4142 1763 mt 
(2-norm SVM) s
gs 3674 1598 1495 415 rc
360 0 3746 1712 2 MP stroke
gr

3890 1712 mt 3962 1712 L
3926 1676 mt 3926 1748 L
3901 1687 mt 3951 1737 L
3951 1687 mt 3901 1737 L
gs 3674 1598 1495 415 rc
gr

4142 1950 mt 
(Proposed SVM) s
gs 3674 1598 1495 415 rc
c8
360 0 3746 1898 2 MP stroke
gr

c8
0 j
0 -58 -58 0 0 58 58 0 3897 1869 5 MP
DP
gs 3674 1598 1495 415 rc
gr


end %%Color Dict

eplot
%%EndObject

epage
end

showpage

%%Trailer
%%EOF
