%!PS-Adobe-3.0 EPSF-3.0
%%Creator: MATLAB, The MathWorks, Inc. Version 8.0.0.783 (R2012b). Operating System: Microsoft Windows 7.
%%Title: C:\000 Work\00000 paper 2\Program\Vehicle Application\2class\ch4.eps
%%CreationDate: 01/14/2014  00:54:40
%%DocumentNeededFonts: Helvetica
%%DocumentProcessColors: Cyan Magenta Yellow Black
%%LanguageLevel: 2
%%Pages: 1
%%BoundingBox:   -44   244   656   548
%%EndComments

%%BeginProlog
% MathWorks dictionary
/MathWorks 160 dict begin
% definition operators
/bdef {bind def} bind def
/ldef {load def} bind def
/xdef {exch def} bdef
/xstore {exch store} bdef
% operator abbreviations
/c  /clip ldef
/cc /concat ldef
/cp /closepath ldef
/gr /grestore ldef
/gs /gsave ldef
/mt /moveto ldef
/np /newpath ldef
/cm /currentmatrix ldef
/sm /setmatrix ldef
/rm /rmoveto ldef
/rl /rlineto ldef
/s {show newpath} bdef
/sc {setcmykcolor} bdef
/sr /setrgbcolor ldef
/sg /setgray ldef
/w /setlinewidth ldef
/j /setlinejoin ldef
/cap /setlinecap ldef
/rc {rectclip} bdef
/rf {rectfill} bdef
% page state control
/pgsv () def
/bpage {/pgsv save def} bdef
/epage {pgsv restore} bdef
/bplot /gsave ldef
/eplot {stroke grestore} bdef
% orientation switch
/portraitMode 0 def /landscapeMode 1 def /rotateMode 2 def
% coordinate system mappings
/dpi2point 0 def
% font control
/FontSize 0 def
/FMS {/FontSize xstore findfont [FontSize 0 0 FontSize neg 0 0]
  makefont setfont} bdef
/ISOLatin1Encoding where {pop /WindowsLatin1Encoding 256 array bdef
ISOLatin1Encoding WindowsLatin1Encoding copy pop
/.notdef/.notdef/quotesinglbase/florin/quotedblbase/ellipsis/dagger
/daggerdbl/circumflex/perthousand/Scaron/guilsinglleft/OE/.notdef/.notdef
/.notdef/.notdef/quoteleft/quoteright/quotedblleft/quotedblright/bullet
/endash/emdash/tilde/trademark/scaron/guilsinglright/oe/.notdef/.notdef
/Ydieresis WindowsLatin1Encoding 128 32 getinterval astore pop}
{/WindowsLatin1Encoding StandardEncoding bdef} ifelse
/reencode {exch dup where {pop load} {pop StandardEncoding} ifelse
  exch dup 3 1 roll findfont dup length dict begin
  { 1 index /FID ne {def}{pop pop} ifelse } forall
  /Encoding exch def currentdict end definefont pop} bdef
/isroman {findfont /CharStrings get /Agrave known} bdef
/FMSR {3 1 roll 1 index dup isroman {reencode} {pop pop} ifelse
  exch FMS} bdef
/csm {1 dpi2point div -1 dpi2point div scale neg translate
 dup landscapeMode eq {pop -90 rotate}
  {rotateMode eq {90 rotate} if} ifelse} bdef
% line types: solid, dotted, dashed, dotdash
/SO { [] 0 setdash } bdef
/DO { [.5 dpi2point mul 4 dpi2point mul] 0 setdash } bdef
/DA { [6 dpi2point mul] 0 setdash } bdef
/DD { [.5 dpi2point mul 4 dpi2point mul 6 dpi2point mul 4
  dpi2point mul] 0 setdash } bdef
% macros for lines and objects
/L {lineto stroke} bdef
/MP {3 1 roll moveto 1 sub {rlineto} repeat} bdef
/AP {{rlineto} repeat} bdef
/PDlw -1 def
/W {/PDlw currentlinewidth def setlinewidth} def
/PP {closepath eofill} bdef
/DP {closepath stroke} bdef
/MR {4 -2 roll moveto dup  0 exch rlineto exch 0 rlineto
  neg 0 exch rlineto closepath} bdef
/FR {MR stroke} bdef
/PR {MR fill} bdef
/L1i {{currentfile picstr readhexstring pop} image} bdef
/tMatrix matrix def
/MakeOval {newpath tMatrix currentmatrix pop translate scale
0 0 1 0 360 arc tMatrix setmatrix} bdef
/FO {MakeOval stroke} bdef
/PO {MakeOval fill} bdef
/PD {currentlinewidth 2 div 0 360 arc fill
   PDlw -1 eq not {PDlw w /PDlw -1 def} if} def
/FA {newpath tMatrix currentmatrix pop translate scale
  0 0 1 5 -2 roll arc tMatrix setmatrix stroke} bdef
/PA {newpath tMatrix currentmatrix pop	translate 0 0 moveto scale
  0 0 1 5 -2 roll arc closepath tMatrix setmatrix fill} bdef
/FAn {newpath tMatrix currentmatrix pop translate scale
  0 0 1 5 -2 roll arcn tMatrix setmatrix stroke} bdef
/PAn {newpath tMatrix currentmatrix pop translate 0 0 moveto scale
  0 0 1 5 -2 roll arcn closepath tMatrix setmatrix fill} bdef
/vradius 0 def /hradius 0 def /lry 0 def
/lrx 0 def /uly 0 def /ulx 0 def /rad 0 def
/MRR {/vradius xdef /hradius xdef /lry xdef /lrx xdef /uly xdef
  /ulx xdef newpath tMatrix currentmatrix pop ulx hradius add uly
  vradius add translate hradius vradius scale 0 0 1 180 270 arc 
  tMatrix setmatrix lrx hradius sub uly vradius add translate
  hradius vradius scale 0 0 1 270 360 arc tMatrix setmatrix
  lrx hradius sub lry vradius sub translate hradius vradius scale
  0 0 1 0 90 arc tMatrix setmatrix ulx hradius add lry vradius sub
  translate hradius vradius scale 0 0 1 90 180 arc tMatrix setmatrix
  closepath} bdef
/FRR {MRR stroke } bdef
/PRR {MRR fill } bdef
/MlrRR {/lry xdef /lrx xdef /uly xdef /ulx xdef /rad lry uly sub 2 div def
  newpath tMatrix currentmatrix pop ulx rad add uly rad add translate
  rad rad scale 0 0 1 90 270 arc tMatrix setmatrix lrx rad sub lry rad
  sub translate rad rad scale 0 0 1 270 90 arc tMatrix setmatrix
  closepath} bdef
/FlrRR {MlrRR stroke } bdef
/PlrRR {MlrRR fill } bdef
/MtbRR {/lry xdef /lrx xdef /uly xdef /ulx xdef /rad lrx ulx sub 2 div def
  newpath tMatrix currentmatrix pop ulx rad add uly rad add translate
  rad rad scale 0 0 1 180 360 arc tMatrix setmatrix lrx rad sub lry rad
  sub translate rad rad scale 0 0 1 0 180 arc tMatrix setmatrix
  closepath} bdef
/FtbRR {MtbRR stroke } bdef
/PtbRR {MtbRR fill } bdef
/stri 6 array def /dtri 6 array def
/smat 6 array def /dmat 6 array def
/tmat1 6 array def /tmat2 6 array def /dif 3 array def
/asub {/ind2 exch def /ind1 exch def dup dup
  ind1 get exch ind2 get sub exch } bdef
/tri_to_matrix {
  2 0 asub 3 1 asub 4 0 asub 5 1 asub
  dup 0 get exch 1 get 7 -1 roll astore } bdef
/compute_transform {
  dmat dtri tri_to_matrix tmat1 invertmatrix 
  smat stri tri_to_matrix tmat2 concatmatrix } bdef
/ds {stri astore pop} bdef
/dt {dtri astore pop} bdef
/db {2 copy /cols xdef /rows xdef mul dup 3 mul string
  currentfile 
  3 index 0 eq {/ASCIIHexDecode filter}
  {/ASCII85Decode filter 3 index 2 eq {/RunLengthDecode filter} if }
  ifelse exch readstring pop
  dup 0 3 index getinterval /rbmap xdef
  dup 2 index dup getinterval /gbmap xdef
  1 index dup 2 mul exch getinterval /bbmap xdef pop pop}bdef
/it {gs np dtri aload pop moveto lineto lineto cp c
  cols rows 8 compute_transform 
  rbmap gbmap bbmap true 3 colorimage gr}bdef
/il {newpath moveto lineto stroke}bdef
currentdict end def
%%EndProlog

%%BeginSetup
MathWorks begin

0 cap

end
%%EndSetup

%%Page: 1 1
%%BeginPageSetup
%%PageBoundingBox:   -44   244   656   548
MathWorks begin
bpage
%%EndPageSetup

%%BeginObject: obj1
bplot

/dpi2point 12 def
portraitMode -0528 6576 csm

    0     0  8404  3645 rc
86 dict begin %Colortable dictionary
/c0 { 0.000000 0.000000 0.000000 sr} bdef
/c1 { 1.000000 1.000000 1.000000 sr} bdef
/c2 { 0.900000 0.000000 0.000000 sr} bdef
/c3 { 0.000000 0.820000 0.000000 sr} bdef
/c4 { 0.000000 0.000000 0.800000 sr} bdef
/c5 { 0.910000 0.820000 0.320000 sr} bdef
/c6 { 1.000000 0.260000 0.820000 sr} bdef
/c7 { 0.000000 0.820000 0.820000 sr} bdef
c0
1 j
1 sg
   0    0 8405 3646 rf
6 w
0 2971 2812 0 0 -2971 1093 3244 4 MP
PP
-2812 0 0 2971 2812 0 0 -2971 1093 3244 5 MP stroke
4 w
DO
0 sg
1093 3244 mt 1093  273 L
1093  273 mt 1093  273 L
1655 3244 mt 1655  273 L
1655  273 mt 1655  273 L
2217 3244 mt 2217  273 L
2217  273 mt 2217  273 L
2780 3244 mt 2780  273 L
2780  273 mt 2780  273 L
3342 3244 mt 3342  273 L
3342  273 mt 3342  273 L
3905 3244 mt 3905  273 L
3905  273 mt 3905  273 L
1093 3244 mt 3905 3244 L
3905 3244 mt 3905 3244 L
1093 2872 mt 3905 2872 L
3905 2872 mt 3905 2872 L
1093 2501 mt 3905 2501 L
3905 2501 mt 3905 2501 L
1093 2129 mt 3905 2129 L
3905 2129 mt 3905 2129 L
1093 1758 mt 3905 1758 L
3905 1758 mt 3905 1758 L
1093 1387 mt 3905 1387 L
3905 1387 mt 3905 1387 L
1093 1015 mt 3905 1015 L
3905 1015 mt 3905 1015 L
1093  644 mt 3905  644 L
3905  644 mt 3905  644 L
1093  273 mt 3905  273 L
3905  273 mt 3905  273 L
SO
6 w
1093  273 mt 3905  273 L
1093 3244 mt 3905 3244 L
3905 3244 mt 3905  273 L
1093 3244 mt 1093  273 L
1093 3244 mt 3905 3244 L
1093 3244 mt 1093  273 L
1093 3244 mt 1093 3214 L
1093  273 mt 1093  302 L
%%IncludeResource: font Helvetica
/Helvetica /WindowsLatin1Encoding 156 FMSR

1050 3423 mt 
(0) s
1655 3244 mt 1655 3214 L
1655  273 mt 1655  302 L
1612 3423 mt 
(2) s
2217 3244 mt 2217 3214 L
2217  273 mt 2217  302 L
2174 3423 mt 
(4) s
2780 3244 mt 2780 3214 L
2780  273 mt 2780  302 L
2737 3423 mt 
(6) s
3342 3244 mt 3342 3214 L
3342  273 mt 3342  302 L
3299 3423 mt 
(8) s
3905 3244 mt 3905 3214 L
3905  273 mt 3905  302 L
3819 3423 mt 
(10) s
1093 3244 mt 1122 3244 L
3905 3244 mt 3875 3244 L
 972 3302 mt 
(0) s
1093 2872 mt 1122 2872 L
3905 2872 mt 3875 2872 L
 972 2930 mt 
(5) s
1093 2501 mt 1122 2501 L
3905 2501 mt 3875 2501 L
 885 2559 mt 
(10) s
1093 2129 mt 1122 2129 L
3905 2129 mt 3875 2129 L
 885 2187 mt 
(15) s
1093 1758 mt 1122 1758 L
3905 1758 mt 3875 1758 L
 885 1816 mt 
(20) s
1093 1387 mt 1122 1387 L
3905 1387 mt 3875 1387 L
 885 1445 mt 
(25) s
1093 1015 mt 1122 1015 L
3905 1015 mt 3875 1015 L
 885 1073 mt 
(30) s
1093  644 mt 1122  644 L
3905  644 mt 3875  644 L
 885  702 mt 
(35) s
1093  273 mt 1122  273 L
3905  273 mt 3875  273 L
 885  331 mt 
(40) s
1093  273 mt 3905  273 L
1093 3244 mt 3905 3244 L
3905 3244 mt 3905  273 L
1093 3244 mt 1093  273 L
gs 1093 273 2813 2972 rc
282 -30 281 0 281 -29 281 -89 281 0 282 0 281 -90 281 0 
281 0 281 0 1093 3244 11 MP stroke
gr

gs 1020 2933 2959 385 rc
1057 3244 mt 1129 3244 L
1093 3208 mt 1093 3280 L
1338 3244 mt 1410 3244 L
1374 3208 mt 1374 3280 L
1619 3244 mt 1691 3244 L
1655 3208 mt 1655 3280 L
1900 3244 mt 1972 3244 L
1936 3208 mt 1936 3280 L
2181 3154 mt 2253 3154 L
2217 3118 mt 2217 3190 L
2463 3154 mt 2535 3154 L
2499 3118 mt 2499 3190 L
2744 3154 mt 2816 3154 L
2780 3118 mt 2780 3190 L
3025 3065 mt 3097 3065 L
3061 3029 mt 3061 3101 L
3306 3036 mt 3378 3036 L
3342 3000 mt 3342 3072 L
3587 3036 mt 3659 3036 L
3623 3000 mt 3623 3072 L
3869 3006 mt 3941 3006 L
3905 2970 mt 3905 3042 L
1068 3219 mt 1118 3269 L
1118 3219 mt 1068 3269 L
1349 3219 mt 1399 3269 L
1399 3219 mt 1349 3269 L
1630 3219 mt 1680 3269 L
1680 3219 mt 1630 3269 L
1911 3219 mt 1961 3269 L
1961 3219 mt 1911 3269 L
2192 3129 mt 2242 3179 L
2242 3129 mt 2192 3179 L
2474 3129 mt 2524 3179 L
2524 3129 mt 2474 3179 L
2755 3129 mt 2805 3179 L
2805 3129 mt 2755 3179 L
3036 3040 mt 3086 3090 L
3086 3040 mt 3036 3090 L
3317 3011 mt 3367 3061 L
3367 3011 mt 3317 3061 L
3598 3011 mt 3648 3061 L
3648 3011 mt 3598 3061 L
3880 2981 mt 3930 3031 L
3930 2981 mt 3880 3031 L
gr

gs 1093 273 2813 2972 rc
/c8 { 1.000000 0.000000 0.000000 sr} bdef
c8
282 0 281 0 281 0 281 0 281 0 282 0 281 0 281 0 
281 0 281 0 1093 3244 11 MP stroke
gr

c8
gs 1020 3171 2959 147 rc
0 j
36 47 -36 47 -36 -47 36 -47 1093 3291 5 MP
DP
36 47 -36 47 -36 -47 36 -47 1374 3291 5 MP
DP
36 47 -36 47 -36 -47 36 -47 1655 3291 5 MP
DP
36 47 -36 47 -36 -47 36 -47 1936 3291 5 MP
DP
36 47 -36 47 -36 -47 36 -47 2217 3291 5 MP
DP
36 47 -36 47 -36 -47 36 -47 2499 3291 5 MP
DP
36 47 -36 47 -36 -47 36 -47 2780 3291 5 MP
DP
36 47 -36 47 -36 -47 36 -47 3061 3291 5 MP
DP
36 47 -36 47 -36 -47 36 -47 3342 3291 5 MP
DP
36 47 -36 47 -36 -47 36 -47 3623 3291 5 MP
DP
36 47 -36 47 -36 -47 36 -47 3905 3291 5 MP
DP
gr

gs 1093 273 2813 2972 rc
/c9 { 1.000000 0.000000 1.000000 sr} bdef
c9
282 0 281 0 281 0 281 0 281 0 282 0 281 0 281 0 
281 0 281 0 1093 3244 11 MP stroke
gr

c9
gs 1020 3171 2959 147 rc
0 j
-41 71 -41 -71 82 0 1052 3268 4 MP
DP
-41 71 -41 -71 82 0 1333 3268 4 MP
DP
-41 71 -41 -71 82 0 1614 3268 4 MP
DP
-41 71 -41 -71 82 0 1895 3268 4 MP
DP
-41 71 -41 -71 82 0 2176 3268 4 MP
DP
-41 71 -41 -71 82 0 2458 3268 4 MP
DP
-41 71 -41 -71 82 0 2739 3268 4 MP
DP
-41 71 -41 -71 82 0 3020 3268 4 MP
DP
-41 71 -41 -71 82 0 3301 3268 4 MP
DP
-41 71 -41 -71 82 0 3582 3268 4 MP
DP
-41 71 -41 -71 82 0 3864 3268 4 MP
DP
gr

gs 1093 273 2813 2972 rc
/c10 { 0.000000 0.000000 1.000000 sr} bdef
c10
282 0 281 0 281 0 281 30 281 30 282 -89 281 -30 281 0 
281 -60 1374 3244 10 MP stroke
gr

c10
gs 1301 2992 2678 326 rc
0 j
0 -58 -58 0 0 58 58 0 1345 3215 5 MP
DP
0 -58 -58 0 0 58 58 0 1626 3155 5 MP
DP
0 -58 -58 0 0 58 58 0 1907 3155 5 MP
DP
0 -58 -58 0 0 58 58 0 2188 3125 5 MP
DP
0 -58 -58 0 0 58 58 0 2470 3036 5 MP
DP
0 -58 -58 0 0 58 58 0 2751 3066 5 MP
DP
0 -58 -58 0 0 58 58 0 3032 3096 5 MP
DP
0 -58 -58 0 0 58 58 0 3313 3096 5 MP
DP
0 -58 -58 0 0 58 58 0 3594 3096 5 MP
DP
0 -58 -58 0 0 58 58 0 3876 3096 5 MP
DP
gr

gs 1093 273 2813 2972 rc
gr

0 sg
2450 3592 mt 
(T) s
 795 2067 mt  -90 rotate
(Error [%]) s
90 rotate
%%IncludeResource: font Helvetica
/Helvetica /WindowsLatin1Encoding 120 FMSR

1076 3287 mt 
( ) s
3889  315 mt 
( ) s
1 sg
0 894 1827 0 0 -894 2009 1557 4 MP
PP
-1827 0 0 894 1827 0 0 -894 2009 1557 5 MP stroke
4 w
DO
SO
6 w
0 sg
2009  663 mt 3836  663 L
2009 1557 mt 3836 1557 L
3836 1557 mt 3836  663 L
2009 1557 mt 2009  663 L
2009 1557 mt 3836 1557 L
2009 1557 mt 2009  663 L
2009  663 mt 3836  663 L
2009 1557 mt 3836 1557 L
3836 1557 mt 3836  663 L
2009 1557 mt 2009  663 L
%%IncludeResource: font Helvetica
/Helvetica /WindowsLatin1Encoding 156 FMSR

2477  846 mt 
(No Observability) s
gs 2009 663 1828 895 rc
360 0 2081 790 2 MP stroke
gs 2188 717 147 147 rc
2225  790 mt 2297  790 L
2261  754 mt 2261  826 L
2236  765 mt 2286  815 L
2286  765 mt 2236  815 L
gr

gr

2477 1059 mt 
(With Observability) s
gs 2009 663 1828 895 rc
c8
360 0 2081 1003 2 MP stroke
gs 2188 930 147 147 rc
0 j
36 47 -36 47 -36 -47 36 -47 2261 1050 5 MP
DP
gr

gr

c8
0 sg
2477 1272 mt 
(2-norm SVM) s
gs 2009 663 1828 895 rc
c9
360 0 2081 1216 2 MP stroke
gs 2188 1143 147 147 rc
0 j
-41 71 -41 -71 82 0 2220 1240 4 MP
DP
gr

gr

c9
0 sg
2477 1485 mt 
(1-norm SVM) s
gs 2009 663 1828 895 rc
c10
360 0 2081 1429 2 MP stroke
gs 2188 1356 147 147 rc
0 j
0 -58 -58 0 0 58 58 0 2232 1400 5 MP
DP
gr

gr

c10
1 sg
0 2971 2813 0 0 -2971 4793 3244 4 MP
PP
-2813 0 0 2971 2813 0 0 -2971 4793 3244 5 MP stroke
4 w
DO
0 sg
4793 3244 mt 4793  273 L
4793  273 mt 4793  273 L
5355 3244 mt 5355  273 L
5355  273 mt 5355  273 L
5918 3244 mt 5918  273 L
5918  273 mt 5918  273 L
6480 3244 mt 6480  273 L
6480  273 mt 6480  273 L
7043 3244 mt 7043  273 L
7043  273 mt 7043  273 L
7606 3244 mt 7606  273 L
7606  273 mt 7606  273 L
4793 3244 mt 7606 3244 L
7606 3244 mt 7606 3244 L
4793 2253 mt 7606 2253 L
7606 2253 mt 7606 2253 L
4793 1263 mt 7606 1263 L
7606 1263 mt 7606 1263 L
4793  273 mt 7606  273 L
7606  273 mt 7606  273 L
SO
6 w
4793  273 mt 7606  273 L
4793 3244 mt 7606 3244 L
7606 3244 mt 7606  273 L
4793 3244 mt 4793  273 L
4793 3244 mt 7606 3244 L
4793 3244 mt 4793  273 L
4793 3244 mt 4793 3214 L
4793  273 mt 4793  302 L
4750 3423 mt 
(0) s
5355 3244 mt 5355 3214 L
5355  273 mt 5355  302 L
5312 3423 mt 
(2) s
5918 3244 mt 5918 3214 L
5918  273 mt 5918  302 L
5875 3423 mt 
(4) s
6480 3244 mt 6480 3214 L
6480  273 mt 6480  302 L
6437 3423 mt 
(6) s
7043 3244 mt 7043 3214 L
7043  273 mt 7043  302 L
7000 3423 mt 
(8) s
7606 3244 mt 7606 3214 L
7606  273 mt 7606  302 L
7520 3423 mt 
(10) s
4793 3244 mt 4822 3244 L
7606 3244 mt 7576 3244 L
4672 3302 mt 
(0) s
4793 2253 mt 4822 2253 L
7606 2253 mt 7576 2253 L
4672 2311 mt 
(5) s
4793 1263 mt 4822 1263 L
7606 1263 mt 7576 1263 L
4585 1321 mt 
(10) s
4793  273 mt 4822  273 L
7606  273 mt 7576  273 L
4585  331 mt 
(15) s
4793  273 mt 7606  273 L
4793 3244 mt 7606 3244 L
7606 3244 mt 7606  273 L
4793 3244 mt 4793  273 L
gs 4793 273 2814 2972 rc
282 40 281 0 281 -40 282 40 281 39 281 159 282 39 281 278 
281 237 281 832 4793 1065 11 MP stroke
gr

gs 4720 992 2960 1771 rc
4757 1065 mt 4829 1065 L
4793 1029 mt 4793 1101 L
5038 1897 mt 5110 1897 L
5074 1861 mt 5074 1933 L
5319 2134 mt 5391 2134 L
5355 2098 mt 5355 2170 L
5600 2412 mt 5672 2412 L
5636 2376 mt 5636 2448 L
5882 2451 mt 5954 2451 L
5918 2415 mt 5918 2487 L
6163 2610 mt 6235 2610 L
6199 2574 mt 6199 2646 L
6444 2649 mt 6516 2649 L
6480 2613 mt 6480 2685 L
6726 2689 mt 6798 2689 L
6762 2653 mt 6762 2725 L
7007 2649 mt 7079 2649 L
7043 2613 mt 7043 2685 L
7288 2649 mt 7360 2649 L
7324 2613 mt 7324 2685 L
7570 2689 mt 7642 2689 L
7606 2653 mt 7606 2725 L
4768 1040 mt 4818 1090 L
4818 1040 mt 4768 1090 L
5049 1872 mt 5099 1922 L
5099 1872 mt 5049 1922 L
5330 2109 mt 5380 2159 L
5380 2109 mt 5330 2159 L
5611 2387 mt 5661 2437 L
5661 2387 mt 5611 2437 L
5893 2426 mt 5943 2476 L
5943 2426 mt 5893 2476 L
6174 2585 mt 6224 2635 L
6224 2585 mt 6174 2635 L
6455 2624 mt 6505 2674 L
6505 2624 mt 6455 2674 L
6737 2664 mt 6787 2714 L
6787 2664 mt 6737 2714 L
7018 2624 mt 7068 2674 L
7068 2624 mt 7018 2674 L
7299 2624 mt 7349 2674 L
7349 2624 mt 7299 2674 L
7581 2664 mt 7631 2714 L
7631 2664 mt 7581 2714 L
gr

gs 4793 273 2814 2972 rc
c8
282 79 281 40 281 39 282 0 281 119 281 119 282 159 281 39 
281 436 281 277 4793 1065 11 MP stroke
gr

c8
gs 4720 992 2960 1454 rc
0 j
36 47 -36 47 -36 -47 36 -47 4793 1112 5 MP
DP
36 47 -36 47 -36 -47 36 -47 5074 1389 5 MP
DP
36 47 -36 47 -36 -47 36 -47 5355 1825 5 MP
DP
36 47 -36 47 -36 -47 36 -47 5636 1864 5 MP
DP
36 47 -36 47 -36 -47 36 -47 5918 2023 5 MP
DP
36 47 -36 47 -36 -47 36 -47 6199 2142 5 MP
DP
36 47 -36 47 -36 -47 36 -47 6480 2261 5 MP
DP
36 47 -36 47 -36 -47 36 -47 6762 2261 5 MP
DP
36 47 -36 47 -36 -47 36 -47 7043 2300 5 MP
DP
36 47 -36 47 -36 -47 36 -47 7324 2340 5 MP
DP
36 47 -36 47 -36 -47 36 -47 7606 2419 5 MP
DP
gr

gs 4793 273 2814 2972 rc
c9
282 0 281 0 281 0 282 0 281 0 281 0 282 0 281 0 
281 0 281 0 4793 867 11 MP stroke
gr

c9
gs 4720 794 2960 147 rc
0 j
-41 71 -41 -71 82 0 4752 891 4 MP
DP
-41 71 -41 -71 82 0 5033 891 4 MP
DP
-41 71 -41 -71 82 0 5314 891 4 MP
DP
-41 71 -41 -71 82 0 5595 891 4 MP
DP
-41 71 -41 -71 82 0 5877 891 4 MP
DP
-41 71 -41 -71 82 0 6158 891 4 MP
DP
-41 71 -41 -71 82 0 6439 891 4 MP
DP
-41 71 -41 -71 82 0 6721 891 4 MP
DP
-41 71 -41 -71 82 0 7002 891 4 MP
DP
-41 71 -41 -71 82 0 7283 891 4 MP
DP
-41 71 -41 -71 82 0 7565 891 4 MP
DP
gr

gs 4793 273 2814 2972 rc
c10
282 79 281 40 281 39 282 0 281 79 281 40 282 0 281 40 
281 0 5074 2649 10 MP stroke
gr

c10
gs 5001 2576 2679 464 rc
0 j
0 -58 -58 0 0 58 58 0 5045 2620 5 MP
DP
0 -58 -58 0 0 58 58 0 5326 2620 5 MP
DP
0 -58 -58 0 0 58 58 0 5607 2660 5 MP
DP
0 -58 -58 0 0 58 58 0 5889 2660 5 MP
DP
0 -58 -58 0 0 58 58 0 6170 2700 5 MP
DP
0 -58 -58 0 0 58 58 0 6451 2779 5 MP
DP
0 -58 -58 0 0 58 58 0 6733 2779 5 MP
DP
0 -58 -58 0 0 58 58 0 7014 2818 5 MP
DP
0 -58 -58 0 0 58 58 0 7295 2858 5 MP
DP
0 -58 -58 0 0 58 58 0 7577 2937 5 MP
DP
gr

gs 4793 273 2814 2972 rc
gr

0 sg
6150 3592 mt 
(T) s
4495 2554 mt  -90 rotate
(Non-zeros entries in w) s
90 rotate
%%IncludeResource: font Helvetica
/Helvetica /WindowsLatin1Encoding 120 FMSR

4776 3287 mt 
( ) s
7590  315 mt 
( ) s
1 sg
0 894 1827 0 0 -894 5752 1845 4 MP
PP
-1827 0 0 894 1827 0 0 -894 5752 1845 5 MP stroke
4 w
DO
SO
6 w
0 sg
5752  951 mt 7579  951 L
5752 1845 mt 7579 1845 L
7579 1845 mt 7579  951 L
5752 1845 mt 5752  951 L
5752 1845 mt 7579 1845 L
5752 1845 mt 5752  951 L
5752  951 mt 7579  951 L
5752 1845 mt 7579 1845 L
7579 1845 mt 7579  951 L
5752 1845 mt 5752  951 L
%%IncludeResource: font Helvetica
/Helvetica /WindowsLatin1Encoding 156 FMSR

6220 1134 mt 
(No Observability) s
gs 5752 951 1828 895 rc
360 0 5824 1078 2 MP stroke
gs 5931 1005 147 147 rc
5968 1078 mt 6040 1078 L
6004 1042 mt 6004 1114 L
5979 1053 mt 6029 1103 L
6029 1053 mt 5979 1103 L
gr

gr

6220 1347 mt 
(With Observability) s
gs 5752 951 1828 895 rc
c8
360 0 5824 1291 2 MP stroke
gs 5931 1218 147 147 rc
0 j
36 47 -36 47 -36 -47 36 -47 6004 1338 5 MP
DP
gr

gr

c8
0 sg
6220 1560 mt 
(2-norm SVM) s
gs 5752 951 1828 895 rc
c9
360 0 5824 1504 2 MP stroke
gs 5931 1431 147 147 rc
0 j
-41 71 -41 -71 82 0 5963 1528 4 MP
DP
gr

gr

c9
0 sg
6220 1773 mt 
(1-norm SVM) s
gs 5752 951 1828 895 rc
c10
360 0 5824 1717 2 MP stroke
gs 5931 1644 147 147 rc
0 j
0 -58 -58 0 0 58 58 0 5975 1688 5 MP
DP
gr

gr

c10

end %%Color Dict

eplot
%%EndObject

epage
end

showpage

%%Trailer
%%EOF
