%!PS-Adobe-3.0 EPSF-3.0
%%Creator: MATLAB, The MathWorks, Inc. Version 8.0.0.783 (R2012b). Operating System: Microsoft Windows 7.
%%Title: C:\000 Work\00000 paper 2\Program\Vehicle Application\2class\contf4.eps
%%CreationDate: 01/14/2014  00:53:58
%%DocumentNeededFonts: Helvetica
%%DocumentProcessColors: Cyan Magenta Yellow Black
%%LanguageLevel: 2
%%Pages: 1
%%BoundingBox:   -44   243   656   548
%%EndComments

%%BeginProlog
% MathWorks dictionary
/MathWorks 160 dict begin
% definition operators
/bdef {bind def} bind def
/ldef {load def} bind def
/xdef {exch def} bdef
/xstore {exch store} bdef
% operator abbreviations
/c  /clip ldef
/cc /concat ldef
/cp /closepath ldef
/gr /grestore ldef
/gs /gsave ldef
/mt /moveto ldef
/np /newpath ldef
/cm /currentmatrix ldef
/sm /setmatrix ldef
/rm /rmoveto ldef
/rl /rlineto ldef
/s {show newpath} bdef
/sc {setcmykcolor} bdef
/sr /setrgbcolor ldef
/sg /setgray ldef
/w /setlinewidth ldef
/j /setlinejoin ldef
/cap /setlinecap ldef
/rc {rectclip} bdef
/rf {rectfill} bdef
% page state control
/pgsv () def
/bpage {/pgsv save def} bdef
/epage {pgsv restore} bdef
/bplot /gsave ldef
/eplot {stroke grestore} bdef
% orientation switch
/portraitMode 0 def /landscapeMode 1 def /rotateMode 2 def
% coordinate system mappings
/dpi2point 0 def
% font control
/FontSize 0 def
/FMS {/FontSize xstore findfont [FontSize 0 0 FontSize neg 0 0]
  makefont setfont} bdef
/ISOLatin1Encoding where {pop /WindowsLatin1Encoding 256 array bdef
ISOLatin1Encoding WindowsLatin1Encoding copy pop
/.notdef/.notdef/quotesinglbase/florin/quotedblbase/ellipsis/dagger
/daggerdbl/circumflex/perthousand/Scaron/guilsinglleft/OE/.notdef/.notdef
/.notdef/.notdef/quoteleft/quoteright/quotedblleft/quotedblright/bullet
/endash/emdash/tilde/trademark/scaron/guilsinglright/oe/.notdef/.notdef
/Ydieresis WindowsLatin1Encoding 128 32 getinterval astore pop}
{/WindowsLatin1Encoding StandardEncoding bdef} ifelse
/reencode {exch dup where {pop load} {pop StandardEncoding} ifelse
  exch dup 3 1 roll findfont dup length dict begin
  { 1 index /FID ne {def}{pop pop} ifelse } forall
  /Encoding exch def currentdict end definefont pop} bdef
/isroman {findfont /CharStrings get /Agrave known} bdef
/FMSR {3 1 roll 1 index dup isroman {reencode} {pop pop} ifelse
  exch FMS} bdef
/csm {1 dpi2point div -1 dpi2point div scale neg translate
 dup landscapeMode eq {pop -90 rotate}
  {rotateMode eq {90 rotate} if} ifelse} bdef
% line types: solid, dotted, dashed, dotdash
/SO { [] 0 setdash } bdef
/DO { [.5 dpi2point mul 4 dpi2point mul] 0 setdash } bdef
/DA { [6 dpi2point mul] 0 setdash } bdef
/DD { [.5 dpi2point mul 4 dpi2point mul 6 dpi2point mul 4
  dpi2point mul] 0 setdash } bdef
% macros for lines and objects
/L {lineto stroke} bdef
/MP {3 1 roll moveto 1 sub {rlineto} repeat} bdef
/AP {{rlineto} repeat} bdef
/PDlw -1 def
/W {/PDlw currentlinewidth def setlinewidth} def
/PP {closepath eofill} bdef
/DP {closepath stroke} bdef
/MR {4 -2 roll moveto dup  0 exch rlineto exch 0 rlineto
  neg 0 exch rlineto closepath} bdef
/FR {MR stroke} bdef
/PR {MR fill} bdef
/L1i {{currentfile picstr readhexstring pop} image} bdef
/tMatrix matrix def
/MakeOval {newpath tMatrix currentmatrix pop translate scale
0 0 1 0 360 arc tMatrix setmatrix} bdef
/FO {MakeOval stroke} bdef
/PO {MakeOval fill} bdef
/PD {currentlinewidth 2 div 0 360 arc fill
   PDlw -1 eq not {PDlw w /PDlw -1 def} if} def
/FA {newpath tMatrix currentmatrix pop translate scale
  0 0 1 5 -2 roll arc tMatrix setmatrix stroke} bdef
/PA {newpath tMatrix currentmatrix pop	translate 0 0 moveto scale
  0 0 1 5 -2 roll arc closepath tMatrix setmatrix fill} bdef
/FAn {newpath tMatrix currentmatrix pop translate scale
  0 0 1 5 -2 roll arcn tMatrix setmatrix stroke} bdef
/PAn {newpath tMatrix currentmatrix pop translate 0 0 moveto scale
  0 0 1 5 -2 roll arcn closepath tMatrix setmatrix fill} bdef
/vradius 0 def /hradius 0 def /lry 0 def
/lrx 0 def /uly 0 def /ulx 0 def /rad 0 def
/MRR {/vradius xdef /hradius xdef /lry xdef /lrx xdef /uly xdef
  /ulx xdef newpath tMatrix currentmatrix pop ulx hradius add uly
  vradius add translate hradius vradius scale 0 0 1 180 270 arc 
  tMatrix setmatrix lrx hradius sub uly vradius add translate
  hradius vradius scale 0 0 1 270 360 arc tMatrix setmatrix
  lrx hradius sub lry vradius sub translate hradius vradius scale
  0 0 1 0 90 arc tMatrix setmatrix ulx hradius add lry vradius sub
  translate hradius vradius scale 0 0 1 90 180 arc tMatrix setmatrix
  closepath} bdef
/FRR {MRR stroke } bdef
/PRR {MRR fill } bdef
/MlrRR {/lry xdef /lrx xdef /uly xdef /ulx xdef /rad lry uly sub 2 div def
  newpath tMatrix currentmatrix pop ulx rad add uly rad add translate
  rad rad scale 0 0 1 90 270 arc tMatrix setmatrix lrx rad sub lry rad
  sub translate rad rad scale 0 0 1 270 90 arc tMatrix setmatrix
  closepath} bdef
/FlrRR {MlrRR stroke } bdef
/PlrRR {MlrRR fill } bdef
/MtbRR {/lry xdef /lrx xdef /uly xdef /ulx xdef /rad lrx ulx sub 2 div def
  newpath tMatrix currentmatrix pop ulx rad add uly rad add translate
  rad rad scale 0 0 1 180 360 arc tMatrix setmatrix lrx rad sub lry rad
  sub translate rad rad scale 0 0 1 0 180 arc tMatrix setmatrix
  closepath} bdef
/FtbRR {MtbRR stroke } bdef
/PtbRR {MtbRR fill } bdef
/stri 6 array def /dtri 6 array def
/smat 6 array def /dmat 6 array def
/tmat1 6 array def /tmat2 6 array def /dif 3 array def
/asub {/ind2 exch def /ind1 exch def dup dup
  ind1 get exch ind2 get sub exch } bdef
/tri_to_matrix {
  2 0 asub 3 1 asub 4 0 asub 5 1 asub
  dup 0 get exch 1 get 7 -1 roll astore } bdef
/compute_transform {
  dmat dtri tri_to_matrix tmat1 invertmatrix 
  smat stri tri_to_matrix tmat2 concatmatrix } bdef
/ds {stri astore pop} bdef
/dt {dtri astore pop} bdef
/db {2 copy /cols xdef /rows xdef mul dup 3 mul string
  currentfile 
  3 index 0 eq {/ASCIIHexDecode filter}
  {/ASCII85Decode filter 3 index 2 eq {/RunLengthDecode filter} if }
  ifelse exch readstring pop
  dup 0 3 index getinterval /rbmap xdef
  dup 2 index dup getinterval /gbmap xdef
  1 index dup 2 mul exch getinterval /bbmap xdef pop pop}bdef
/it {gs np dtri aload pop moveto lineto lineto cp c
  cols rows 8 compute_transform 
  rbmap gbmap bbmap true 3 colorimage gr}bdef
/il {newpath moveto lineto stroke}bdef
currentdict end def
%%EndProlog

%%BeginSetup
MathWorks begin

0 cap

end
%%EndSetup

%%Page: 1 1
%%BeginPageSetup
%%PageBoundingBox:   -44   243   656   548
MathWorks begin
bpage
%%EndPageSetup

%%BeginObject: obj1
bplot

/dpi2point 12 def
portraitMode -0528 6576 csm

    0     0  8404  3654 rc
86 dict begin %Colortable dictionary
/c0 { 0.000000 0.000000 0.000000 sr} bdef
/c1 { 1.000000 1.000000 1.000000 sr} bdef
/c2 { 0.900000 0.000000 0.000000 sr} bdef
/c3 { 0.000000 0.820000 0.000000 sr} bdef
/c4 { 0.000000 0.000000 0.800000 sr} bdef
/c5 { 0.910000 0.820000 0.320000 sr} bdef
/c6 { 1.000000 0.260000 0.820000 sr} bdef
/c7 { 0.000000 0.820000 0.820000 sr} bdef
c0
1 j
1 sg
   0    0 8405 3655 rf
6 w
0 2978 2812 0 0 -2978 1093 3252 4 MP
PP
-2812 0 0 2978 2812 0 0 -2978 1093 3252 5 MP stroke
4 w
DO
0 sg
1093 3252 mt 1093  274 L
1093  274 mt 1093  274 L
1655 3252 mt 1655  274 L
1655  274 mt 1655  274 L
2217 3252 mt 2217  274 L
2217  274 mt 2217  274 L
2780 3252 mt 2780  274 L
2780  274 mt 2780  274 L
3342 3252 mt 3342  274 L
3342  274 mt 3342  274 L
3905 3252 mt 3905  274 L
3905  274 mt 3905  274 L
1093 3252 mt 3905 3252 L
3905 3252 mt 3905 3252 L
1093 2879 mt 3905 2879 L
3905 2879 mt 3905 2879 L
1093 2507 mt 3905 2507 L
3905 2507 mt 3905 2507 L
1093 2135 mt 3905 2135 L
3905 2135 mt 3905 2135 L
1093 1763 mt 3905 1763 L
3905 1763 mt 3905 1763 L
1093 1390 mt 3905 1390 L
3905 1390 mt 3905 1390 L
1093 1018 mt 3905 1018 L
3905 1018 mt 3905 1018 L
1093  646 mt 3905  646 L
3905  646 mt 3905  646 L
1093  274 mt 3905  274 L
3905  274 mt 3905  274 L
SO
6 w
1093  274 mt 3905  274 L
1093 3252 mt 3905 3252 L
3905 3252 mt 3905  274 L
1093 3252 mt 1093  274 L
1093 3252 mt 3905 3252 L
1093 3252 mt 1093  274 L
1093 3252 mt 1093 3222 L
1093  274 mt 1093  303 L
%%IncludeResource: font Helvetica
/Helvetica /WindowsLatin1Encoding 156 FMSR

1050 3431 mt 
(0) s
1655 3252 mt 1655 3222 L
1655  274 mt 1655  303 L
1612 3431 mt 
(2) s
2217 3252 mt 2217 3222 L
2217  274 mt 2217  303 L
2174 3431 mt 
(4) s
2780 3252 mt 2780 3222 L
2780  274 mt 2780  303 L
2737 3431 mt 
(6) s
3342 3252 mt 3342 3222 L
3342  274 mt 3342  303 L
3299 3431 mt 
(8) s
3905 3252 mt 3905 3222 L
3905  274 mt 3905  303 L
3819 3431 mt 
(10) s
1093 3252 mt 1122 3252 L
3905 3252 mt 3875 3252 L
 972 3310 mt 
(0) s
1093 2879 mt 1122 2879 L
3905 2879 mt 3875 2879 L
 972 2937 mt 
(5) s
1093 2507 mt 1122 2507 L
3905 2507 mt 3875 2507 L
 885 2565 mt 
(10) s
1093 2135 mt 1122 2135 L
3905 2135 mt 3875 2135 L
 885 2193 mt 
(15) s
1093 1763 mt 1122 1763 L
3905 1763 mt 3875 1763 L
 885 1821 mt 
(20) s
1093 1390 mt 1122 1390 L
3905 1390 mt 3875 1390 L
 885 1448 mt 
(25) s
1093 1018 mt 1122 1018 L
3905 1018 mt 3875 1018 L
 885 1076 mt 
(30) s
1093  646 mt 1122  646 L
3905  646 mt 3875  646 L
 885  704 mt 
(35) s
1093  274 mt 1122  274 L
3905  274 mt 3875  274 L
 885  332 mt 
(40) s
1093  274 mt 3905  274 L
1093 3252 mt 3905 3252 L
3905 3252 mt 3905  274 L
1093 3252 mt 1093  274 L
gs 1093 274 2813 2979 rc
282 0 281 0 281 0 281 -30 281 -30 282 0 281 -29 281 29 
281 0 281 -149 1093 2567 11 MP stroke
gr

gs 1020 2285 2959 356 rc
1057 2567 mt 1129 2567 L
1093 2531 mt 1093 2603 L
1338 2418 mt 1410 2418 L
1374 2382 mt 1374 2454 L
1619 2418 mt 1691 2418 L
1655 2382 mt 1655 2454 L
1900 2447 mt 1972 2447 L
1936 2411 mt 1936 2483 L
2181 2418 mt 2253 2418 L
2217 2382 mt 2217 2454 L
2463 2418 mt 2535 2418 L
2499 2382 mt 2499 2454 L
2744 2388 mt 2816 2388 L
2780 2352 mt 2780 2424 L
3025 2358 mt 3097 2358 L
3061 2322 mt 3061 2394 L
3306 2358 mt 3378 2358 L
3342 2322 mt 3342 2394 L
3587 2358 mt 3659 2358 L
3623 2322 mt 3623 2394 L
3869 2358 mt 3941 2358 L
3905 2322 mt 3905 2394 L
1068 2542 mt 1118 2592 L
1118 2542 mt 1068 2592 L
1349 2393 mt 1399 2443 L
1399 2393 mt 1349 2443 L
1630 2393 mt 1680 2443 L
1680 2393 mt 1630 2443 L
1911 2422 mt 1961 2472 L
1961 2422 mt 1911 2472 L
2192 2393 mt 2242 2443 L
2242 2393 mt 2192 2443 L
2474 2393 mt 2524 2443 L
2524 2393 mt 2474 2443 L
2755 2363 mt 2805 2413 L
2805 2363 mt 2755 2413 L
3036 2333 mt 3086 2383 L
3086 2333 mt 3036 2383 L
3317 2333 mt 3367 2383 L
3367 2333 mt 3317 2383 L
3598 2333 mt 3648 2383 L
3648 2333 mt 3598 2383 L
3880 2333 mt 3930 2383 L
3930 2333 mt 3880 2383 L
gr

gs 1093 274 2813 2979 rc
/c8 { 1.000000 0.000000 0.000000 sr} bdef
c8
282 -30 281 0 281 0 281 0 281 0 282 0 281 0 281 0 
281 -29 281 -120 1093 2567 11 MP stroke
gr

c8
gs 1020 2315 2959 326 rc
0 j
36 47 -36 47 -36 -47 36 -47 1093 2614 5 MP
DP
36 47 -36 47 -36 -47 36 -47 1374 2494 5 MP
DP
36 47 -36 47 -36 -47 36 -47 1655 2465 5 MP
DP
36 47 -36 47 -36 -47 36 -47 1936 2465 5 MP
DP
36 47 -36 47 -36 -47 36 -47 2217 2465 5 MP
DP
36 47 -36 47 -36 -47 36 -47 2499 2465 5 MP
DP
36 47 -36 47 -36 -47 36 -47 2780 2465 5 MP
DP
36 47 -36 47 -36 -47 36 -47 3061 2465 5 MP
DP
36 47 -36 47 -36 -47 36 -47 3342 2465 5 MP
DP
36 47 -36 47 -36 -47 36 -47 3623 2465 5 MP
DP
36 47 -36 47 -36 -47 36 -47 3905 2435 5 MP
DP
gr

gs 1093 274 2813 2979 rc
/c9 { 1.000000 0.000000 1.000000 sr} bdef
c9
282 0 281 0 281 0 281 0 281 0 282 0 281 0 281 0 
281 0 281 0 1093 2507 11 MP stroke
gr

c9
gs 1020 2434 2959 147 rc
0 j
-41 71 -41 -71 82 0 1052 2531 4 MP
DP
-41 71 -41 -71 82 0 1333 2531 4 MP
DP
-41 71 -41 -71 82 0 1614 2531 4 MP
DP
-41 71 -41 -71 82 0 1895 2531 4 MP
DP
-41 71 -41 -71 82 0 2176 2531 4 MP
DP
-41 71 -41 -71 82 0 2458 2531 4 MP
DP
-41 71 -41 -71 82 0 2739 2531 4 MP
DP
-41 71 -41 -71 82 0 3020 2531 4 MP
DP
-41 71 -41 -71 82 0 3301 2531 4 MP
DP
-41 71 -41 -71 82 0 3582 2531 4 MP
DP
-41 71 -41 -71 82 0 3864 2531 4 MP
DP
gr

gs 1093 274 2813 2979 rc
/c10 { 0.000000 0.000000 1.000000 sr} bdef
c10
282 0 281 0 281 30 281 -30 281 0 282 -30 281 -30 281 30 
281 -89 1374 2090 10 MP stroke
gr

c10
gs 1301 1868 2678 296 rc
0 j
0 -58 -58 0 0 58 58 0 1345 2061 5 MP
DP
0 -58 -58 0 0 58 58 0 1626 1972 5 MP
DP
0 -58 -58 0 0 58 58 0 1907 2002 5 MP
DP
0 -58 -58 0 0 58 58 0 2188 1972 5 MP
DP
0 -58 -58 0 0 58 58 0 2470 1942 5 MP
DP
0 -58 -58 0 0 58 58 0 2751 1942 5 MP
DP
0 -58 -58 0 0 58 58 0 3032 1912 5 MP
DP
0 -58 -58 0 0 58 58 0 3313 1942 5 MP
DP
0 -58 -58 0 0 58 58 0 3594 1942 5 MP
DP
0 -58 -58 0 0 58 58 0 3876 1942 5 MP
DP
gr

gs 1093 274 2813 2979 rc
gr

0 sg
2450 3600 mt 
(T) s
 795 2072 mt  -90 rotate
(Error [%]) s
90 rotate
%%IncludeResource: font Helvetica
/Helvetica /WindowsLatin1Encoding 120 FMSR

1076 3295 mt 
( ) s
3889  316 mt 
( ) s
1 sg
0 794 1764 0 0 -794 2082 1128 4 MP
PP
-1764 0 0 794 1764 0 0 -794 2082 1128 5 MP stroke
4 w
DO
SO
6 w
0 sg
2082  334 mt 3846  334 L
2082 1128 mt 3846 1128 L
3846 1128 mt 3846  334 L
2082 1128 mt 2082  334 L
2082 1128 mt 3846 1128 L
2082 1128 mt 2082  334 L
2082  334 mt 3846  334 L
2082 1128 mt 3846 1128 L
3846 1128 mt 3846  334 L
2082 1128 mt 2082  334 L
%%IncludeResource: font Helvetica
/Helvetica /WindowsLatin1Encoding 156 FMSR

2534  502 mt 
(No Observability) s
gs 2082 334 1765 795 rc
348 0 2151 447 2 MP stroke
gs 2252 374 147 147 rc
2289  447 mt 2361  447 L
2325  411 mt 2325  483 L
2300  422 mt 2350  472 L
2350  422 mt 2300  472 L
gr

gr

2534  692 mt 
(With Observability) s
gs 2082 334 1765 795 rc
c8
348 0 2151 636 2 MP stroke
gs 2252 563 147 147 rc
0 j
36 47 -36 47 -36 -47 36 -47 2325 683 5 MP
DP
gr

gr

c8
0 sg
2534  881 mt 
(2-norm SVM) s
gs 2082 334 1765 795 rc
c9
348 0 2151 825 2 MP stroke
gs 2252 752 147 147 rc
0 j
-41 71 -41 -71 82 0 2284 849 4 MP
DP
gr

gr

c9
0 sg
2534 1071 mt 
(1-norm SVM) s
gs 2082 334 1765 795 rc
c10
348 0 2151 1014 2 MP stroke
gs 2252 941 147 147 rc
0 j
0 -58 -58 0 0 58 58 0 2296 985 5 MP
DP
gr

gr

c10
1 sg
0 2978 2813 0 0 -2978 4793 3252 4 MP
PP
-2813 0 0 2978 2813 0 0 -2978 4793 3252 5 MP stroke
4 w
DO
0 sg
4793 3252 mt 4793  274 L
4793  274 mt 4793  274 L
5355 3252 mt 5355  274 L
5355  274 mt 5355  274 L
5918 3252 mt 5918  274 L
5918  274 mt 5918  274 L
6480 3252 mt 6480  274 L
6480  274 mt 6480  274 L
7043 3252 mt 7043  274 L
7043  274 mt 7043  274 L
7606 3252 mt 7606  274 L
7606  274 mt 7606  274 L
4793 3252 mt 7606 3252 L
7606 3252 mt 7606 3252 L
4793 2259 mt 7606 2259 L
7606 2259 mt 7606 2259 L
4793 1266 mt 7606 1266 L
7606 1266 mt 7606 1266 L
4793  274 mt 7606  274 L
7606  274 mt 7606  274 L
SO
6 w
4793  274 mt 7606  274 L
4793 3252 mt 7606 3252 L
7606 3252 mt 7606  274 L
4793 3252 mt 4793  274 L
4793 3252 mt 7606 3252 L
4793 3252 mt 4793  274 L
4793 3252 mt 4793 3222 L
4793  274 mt 4793  303 L
4750 3431 mt 
(0) s
5355 3252 mt 5355 3222 L
5355  274 mt 5355  303 L
5312 3431 mt 
(2) s
5918 3252 mt 5918 3222 L
5918  274 mt 5918  303 L
5875 3431 mt 
(4) s
6480 3252 mt 6480 3222 L
6480  274 mt 6480  303 L
6437 3431 mt 
(6) s
7043 3252 mt 7043 3222 L
7043  274 mt 7043  303 L
7000 3431 mt 
(8) s
7606 3252 mt 7606 3222 L
7606  274 mt 7606  303 L
7520 3431 mt 
(10) s
4793 3252 mt 4822 3252 L
7606 3252 mt 7576 3252 L
4672 3310 mt 
(0) s
4793 2259 mt 4822 2259 L
7606 2259 mt 7576 2259 L
4672 2317 mt 
(5) s
4793 1266 mt 4822 1266 L
7606 1266 mt 7576 1266 L
4585 1324 mt 
(10) s
4793  274 mt 4822  274 L
7606  274 mt 7576  274 L
4585  332 mt 
(15) s
4793  274 mt 7606  274 L
4793 3252 mt 7606 3252 L
7606 3252 mt 7606  274 L
4793 3252 mt 4793  274 L
gs 4793 274 2814 2979 rc
282 0 281 0 281 79 282 40 281 80 281 79 282 40 281 79 
281 199 281 913 4793 869 11 MP stroke
gr

gs 4720 796 2960 1656 rc
4757  869 mt 4829  869 L
4793  833 mt 4793  905 L
5038 1782 mt 5110 1782 L
5074 1746 mt 5074 1818 L
5319 1981 mt 5391 1981 L
5355 1945 mt 5355 2017 L
5600 2060 mt 5672 2060 L
5636 2024 mt 5636 2096 L
5882 2100 mt 5954 2100 L
5918 2064 mt 5918 2136 L
6163 2179 mt 6235 2179 L
6199 2143 mt 6199 2215 L
6444 2259 mt 6516 2259 L
6480 2223 mt 6480 2295 L
6726 2299 mt 6798 2299 L
6762 2263 mt 6762 2335 L
7007 2378 mt 7079 2378 L
7043 2342 mt 7043 2414 L
7288 2378 mt 7360 2378 L
7324 2342 mt 7324 2414 L
7570 2378 mt 7642 2378 L
7606 2342 mt 7606 2414 L
4768  844 mt 4818  894 L
4818  844 mt 4768  894 L
5049 1757 mt 5099 1807 L
5099 1757 mt 5049 1807 L
5330 1956 mt 5380 2006 L
5380 1956 mt 5330 2006 L
5611 2035 mt 5661 2085 L
5661 2035 mt 5611 2085 L
5893 2075 mt 5943 2125 L
5943 2075 mt 5893 2125 L
6174 2154 mt 6224 2204 L
6224 2154 mt 6174 2204 L
6455 2234 mt 6505 2284 L
6505 2234 mt 6455 2284 L
6737 2274 mt 6787 2324 L
6787 2274 mt 6737 2324 L
7018 2353 mt 7068 2403 L
7068 2353 mt 7018 2403 L
7299 2353 mt 7349 2403 L
7349 2353 mt 7299 2403 L
7581 2353 mt 7631 2403 L
7631 2353 mt 7581 2403 L
gr

gs 4793 274 2814 2979 rc
c8
282 -39 281 79 281 40 282 0 281 40 281 79 282 278 281 0 
281 238 281 715 4793 869 11 MP stroke
gr

c8
gs 4720 796 2960 1616 rc
0 j
36 47 -36 47 -36 -47 36 -47 4793 916 5 MP
DP
36 47 -36 47 -36 -47 36 -47 5074 1631 5 MP
DP
36 47 -36 47 -36 -47 36 -47 5355 1869 5 MP
DP
36 47 -36 47 -36 -47 36 -47 5636 1869 5 MP
DP
36 47 -36 47 -36 -47 36 -47 5918 2147 5 MP
DP
36 47 -36 47 -36 -47 36 -47 6199 2226 5 MP
DP
36 47 -36 47 -36 -47 36 -47 6480 2266 5 MP
DP
36 47 -36 47 -36 -47 36 -47 6762 2266 5 MP
DP
36 47 -36 47 -36 -47 36 -47 7043 2306 5 MP
DP
36 47 -36 47 -36 -47 36 -47 7324 2385 5 MP
DP
36 47 -36 47 -36 -47 36 -47 7606 2346 5 MP
DP
gr

gs 4793 274 2814 2979 rc
c9
282 0 281 0 281 0 282 0 281 0 281 0 282 0 281 0 
281 0 281 0 4793 869 11 MP stroke
gr

c9
gs 4720 796 2960 147 rc
0 j
-41 71 -41 -71 82 0 4752 893 4 MP
DP
-41 71 -41 -71 82 0 5033 893 4 MP
DP
-41 71 -41 -71 82 0 5314 893 4 MP
DP
-41 71 -41 -71 82 0 5595 893 4 MP
DP
-41 71 -41 -71 82 0 5877 893 4 MP
DP
-41 71 -41 -71 82 0 6158 893 4 MP
DP
-41 71 -41 -71 82 0 6439 893 4 MP
DP
-41 71 -41 -71 82 0 6721 893 4 MP
DP
-41 71 -41 -71 82 0 7002 893 4 MP
DP
-41 71 -41 -71 82 0 7283 893 4 MP
DP
-41 71 -41 -71 82 0 7565 893 4 MP
DP
gr

gs 4793 274 2814 2979 rc
c10
282 80 281 0 281 0 282 39 281 40 281 79 282 -39 281 0 
281 198 5074 2140 10 MP stroke
gr

c10
gs 5001 2067 2679 544 rc
0 j
0 -58 -58 0 0 58 58 0 5045 2111 5 MP
DP
0 -58 -58 0 0 58 58 0 5326 2309 5 MP
DP
0 -58 -58 0 0 58 58 0 5607 2309 5 MP
DP
0 -58 -58 0 0 58 58 0 5889 2270 5 MP
DP
0 -58 -58 0 0 58 58 0 6170 2349 5 MP
DP
0 -58 -58 0 0 58 58 0 6451 2389 5 MP
DP
0 -58 -58 0 0 58 58 0 6733 2428 5 MP
DP
0 -58 -58 0 0 58 58 0 7014 2428 5 MP
DP
0 -58 -58 0 0 58 58 0 7295 2428 5 MP
DP
0 -58 -58 0 0 58 58 0 7577 2508 5 MP
DP
gr

gs 4793 274 2814 2979 rc
gr

0 sg
6150 3600 mt 
(T) s
4495 2559 mt  -90 rotate
(Non-zeros entries in w) s
90 rotate
%%IncludeResource: font Helvetica
/Helvetica /WindowsLatin1Encoding 120 FMSR

4776 3295 mt 
( ) s
7590  316 mt 
( ) s
1 sg
0 894 1827 0 0 -894 5734 1890 4 MP
PP
-1827 0 0 894 1827 0 0 -894 5734 1890 5 MP stroke
4 w
DO
SO
6 w
0 sg
5734  996 mt 7561  996 L
5734 1890 mt 7561 1890 L
7561 1890 mt 7561  996 L
5734 1890 mt 5734  996 L
5734 1890 mt 7561 1890 L
5734 1890 mt 5734  996 L
5734  996 mt 7561  996 L
5734 1890 mt 7561 1890 L
7561 1890 mt 7561  996 L
5734 1890 mt 5734  996 L
%%IncludeResource: font Helvetica
/Helvetica /WindowsLatin1Encoding 156 FMSR

6202 1179 mt 
(No Observability) s
gs 5734 996 1828 895 rc
360 0 5806 1123 2 MP stroke
gs 5913 1050 147 147 rc
5950 1123 mt 6022 1123 L
5986 1087 mt 5986 1159 L
5961 1098 mt 6011 1148 L
6011 1098 mt 5961 1148 L
gr

gr

6202 1392 mt 
(With Observability) s
gs 5734 996 1828 895 rc
c8
360 0 5806 1336 2 MP stroke
gs 5913 1263 147 147 rc
0 j
36 47 -36 47 -36 -47 36 -47 5986 1383 5 MP
DP
gr

gr

c8
0 sg
6202 1605 mt 
(2-norm SVM) s
gs 5734 996 1828 895 rc
c9
360 0 5806 1549 2 MP stroke
gs 5913 1476 147 147 rc
0 j
-41 71 -41 -71 82 0 5945 1573 4 MP
DP
gr

gr

c9
0 sg
6202 1818 mt 
(1-norm SVM) s
gs 5734 996 1828 895 rc
c10
360 0 5806 1762 2 MP stroke
gs 5913 1689 147 147 rc
0 j
0 -58 -58 0 0 58 58 0 5957 1733 5 MP
DP
gr

gr

c10

end %%Color Dict

eplot
%%EndObject

epage
end

showpage

%%Trailer
%%EOF
