%!PS-Adobe-3.0 EPSF-3.0
%%Creator: MATLAB, The MathWorks, Inc. Version 8.0.0.783 (R2012b). Operating System: Microsoft Windows 7.
%%Title: C:\000 Work\00000 paper 2\Program\Norm1 VS C change\error2.eps
%%CreationDate: 10/12/2013  15:42:01
%%DocumentNeededFonts: Helvetica
%%DocumentProcessColors: Cyan Magenta Yellow Black
%%LanguageLevel: 2
%%Pages: 1
%%BoundingBox:    96   238   515   553
%%EndComments

%%BeginProlog
% MathWorks dictionary
/MathWorks 160 dict begin
% definition operators
/bdef {bind def} bind def
/ldef {load def} bind def
/xdef {exch def} bdef
/xstore {exch store} bdef
% operator abbreviations
/c  /clip ldef
/cc /concat ldef
/cp /closepath ldef
/gr /grestore ldef
/gs /gsave ldef
/mt /moveto ldef
/np /newpath ldef
/cm /currentmatrix ldef
/sm /setmatrix ldef
/rm /rmoveto ldef
/rl /rlineto ldef
/s {show newpath} bdef
/sc {setcmykcolor} bdef
/sr /setrgbcolor ldef
/sg /setgray ldef
/w /setlinewidth ldef
/j /setlinejoin ldef
/cap /setlinecap ldef
/rc {rectclip} bdef
/rf {rectfill} bdef
% page state control
/pgsv () def
/bpage {/pgsv save def} bdef
/epage {pgsv restore} bdef
/bplot /gsave ldef
/eplot {stroke grestore} bdef
% orientation switch
/portraitMode 0 def /landscapeMode 1 def /rotateMode 2 def
% coordinate system mappings
/dpi2point 0 def
% font control
/FontSize 0 def
/FMS {/FontSize xstore findfont [FontSize 0 0 FontSize neg 0 0]
  makefont setfont} bdef
/ISOLatin1Encoding where {pop /WindowsLatin1Encoding 256 array bdef
ISOLatin1Encoding WindowsLatin1Encoding copy pop
/.notdef/.notdef/quotesinglbase/florin/quotedblbase/ellipsis/dagger
/daggerdbl/circumflex/perthousand/Scaron/guilsinglleft/OE/.notdef/.notdef
/.notdef/.notdef/quoteleft/quoteright/quotedblleft/quotedblright/bullet
/endash/emdash/tilde/trademark/scaron/guilsinglright/oe/.notdef/.notdef
/Ydieresis WindowsLatin1Encoding 128 32 getinterval astore pop}
{/WindowsLatin1Encoding StandardEncoding bdef} ifelse
/reencode {exch dup where {pop load} {pop StandardEncoding} ifelse
  exch dup 3 1 roll findfont dup length dict begin
  { 1 index /FID ne {def}{pop pop} ifelse } forall
  /Encoding exch def currentdict end definefont pop} bdef
/isroman {findfont /CharStrings get /Agrave known} bdef
/FMSR {3 1 roll 1 index dup isroman {reencode} {pop pop} ifelse
  exch FMS} bdef
/csm {1 dpi2point div -1 dpi2point div scale neg translate
 dup landscapeMode eq {pop -90 rotate}
  {rotateMode eq {90 rotate} if} ifelse} bdef
% line types: solid, dotted, dashed, dotdash
/SO { [] 0 setdash } bdef
/DO { [.5 dpi2point mul 4 dpi2point mul] 0 setdash } bdef
/DA { [6 dpi2point mul] 0 setdash } bdef
/DD { [.5 dpi2point mul 4 dpi2point mul 6 dpi2point mul 4
  dpi2point mul] 0 setdash } bdef
% macros for lines and objects
/L {lineto stroke} bdef
/MP {3 1 roll moveto 1 sub {rlineto} repeat} bdef
/AP {{rlineto} repeat} bdef
/PDlw -1 def
/W {/PDlw currentlinewidth def setlinewidth} def
/PP {closepath eofill} bdef
/DP {closepath stroke} bdef
/MR {4 -2 roll moveto dup  0 exch rlineto exch 0 rlineto
  neg 0 exch rlineto closepath} bdef
/FR {MR stroke} bdef
/PR {MR fill} bdef
/L1i {{currentfile picstr readhexstring pop} image} bdef
/tMatrix matrix def
/MakeOval {newpath tMatrix currentmatrix pop translate scale
0 0 1 0 360 arc tMatrix setmatrix} bdef
/FO {MakeOval stroke} bdef
/PO {MakeOval fill} bdef
/PD {currentlinewidth 2 div 0 360 arc fill
   PDlw -1 eq not {PDlw w /PDlw -1 def} if} def
/FA {newpath tMatrix currentmatrix pop translate scale
  0 0 1 5 -2 roll arc tMatrix setmatrix stroke} bdef
/PA {newpath tMatrix currentmatrix pop	translate 0 0 moveto scale
  0 0 1 5 -2 roll arc closepath tMatrix setmatrix fill} bdef
/FAn {newpath tMatrix currentmatrix pop translate scale
  0 0 1 5 -2 roll arcn tMatrix setmatrix stroke} bdef
/PAn {newpath tMatrix currentmatrix pop translate 0 0 moveto scale
  0 0 1 5 -2 roll arcn closepath tMatrix setmatrix fill} bdef
/vradius 0 def /hradius 0 def /lry 0 def
/lrx 0 def /uly 0 def /ulx 0 def /rad 0 def
/MRR {/vradius xdef /hradius xdef /lry xdef /lrx xdef /uly xdef
  /ulx xdef newpath tMatrix currentmatrix pop ulx hradius add uly
  vradius add translate hradius vradius scale 0 0 1 180 270 arc 
  tMatrix setmatrix lrx hradius sub uly vradius add translate
  hradius vradius scale 0 0 1 270 360 arc tMatrix setmatrix
  lrx hradius sub lry vradius sub translate hradius vradius scale
  0 0 1 0 90 arc tMatrix setmatrix ulx hradius add lry vradius sub
  translate hradius vradius scale 0 0 1 90 180 arc tMatrix setmatrix
  closepath} bdef
/FRR {MRR stroke } bdef
/PRR {MRR fill } bdef
/MlrRR {/lry xdef /lrx xdef /uly xdef /ulx xdef /rad lry uly sub 2 div def
  newpath tMatrix currentmatrix pop ulx rad add uly rad add translate
  rad rad scale 0 0 1 90 270 arc tMatrix setmatrix lrx rad sub lry rad
  sub translate rad rad scale 0 0 1 270 90 arc tMatrix setmatrix
  closepath} bdef
/FlrRR {MlrRR stroke } bdef
/PlrRR {MlrRR fill } bdef
/MtbRR {/lry xdef /lrx xdef /uly xdef /ulx xdef /rad lrx ulx sub 2 div def
  newpath tMatrix currentmatrix pop ulx rad add uly rad add translate
  rad rad scale 0 0 1 180 360 arc tMatrix setmatrix lrx rad sub lry rad
  sub translate rad rad scale 0 0 1 0 180 arc tMatrix setmatrix
  closepath} bdef
/FtbRR {MtbRR stroke } bdef
/PtbRR {MtbRR fill } bdef
/stri 6 array def /dtri 6 array def
/smat 6 array def /dmat 6 array def
/tmat1 6 array def /tmat2 6 array def /dif 3 array def
/asub {/ind2 exch def /ind1 exch def dup dup
  ind1 get exch ind2 get sub exch } bdef
/tri_to_matrix {
  2 0 asub 3 1 asub 4 0 asub 5 1 asub
  dup 0 get exch 1 get 7 -1 roll astore } bdef
/compute_transform {
  dmat dtri tri_to_matrix tmat1 invertmatrix 
  smat stri tri_to_matrix tmat2 concatmatrix } bdef
/ds {stri astore pop} bdef
/dt {dtri astore pop} bdef
/db {2 copy /cols xdef /rows xdef mul dup 3 mul string
  currentfile 
  3 index 0 eq {/ASCIIHexDecode filter}
  {/ASCII85Decode filter 3 index 2 eq {/RunLengthDecode filter} if }
  ifelse exch readstring pop
  dup 0 3 index getinterval /rbmap xdef
  dup 2 index dup getinterval /gbmap xdef
  1 index dup 2 mul exch getinterval /bbmap xdef pop pop}bdef
/it {gs np dtri aload pop moveto lineto lineto cp c
  cols rows 8 compute_transform 
  rbmap gbmap bbmap true 3 colorimage gr}bdef
/il {newpath moveto lineto stroke}bdef
currentdict end def
%%EndProlog

%%BeginSetup
MathWorks begin

0 cap

end
%%EndSetup

%%Page: 1 1
%%BeginPageSetup
%%PageBoundingBox:    96   238   515   553
MathWorks begin
bpage
%%EndPageSetup

%%BeginObject: obj1
bplot

/dpi2point 12 def
portraitMode 1152 6636 csm

    0     0  5039  3780 rc
85 dict begin %Colortable dictionary
/c0 { 0.000000 0.000000 0.000000 sr} bdef
/c1 { 1.000000 1.000000 1.000000 sr} bdef
/c2 { 0.900000 0.000000 0.000000 sr} bdef
/c3 { 0.000000 0.820000 0.000000 sr} bdef
/c4 { 0.000000 0.000000 0.800000 sr} bdef
/c5 { 0.910000 0.820000 0.320000 sr} bdef
/c6 { 1.000000 0.260000 0.820000 sr} bdef
/c7 { 0.000000 0.820000 0.820000 sr} bdef
c0
1 j
1 sg
   0    0 5040 3781 rf
6 w
-1833 -734 -2072 649 1834 734 2726 1980 4 MP
PP
2071 -649 -1833 -734 -2072 649 1834 734 2726 1980 5 MP stroke
0 1697 1834 735 0 -1698 2726 1980 4 MP
PP
-1834 -734 0 1697 1834 735 0 -1698 2726 1980 5 MP stroke
0 1697 -2071 650 0 -1698 2726 1980 4 MP
PP
2071 -649 0 1697 -2071 650 0 -1698 2726 1980 5 MP stroke
4 w
DO
0 sg
4560 2714 mt 2726 1980 L
2726 1980 mt 2726  282 L
4145 2844 mt 2312 2110 L
2312 2110 mt 2312  412 L
3731 2974 mt 1898 2240 L
1898 2240 mt 1898  542 L
3316 3104 mt 1483 2370 L
1483 2370 mt 1483  672 L
2902 3234 mt 1069 2500 L
1069 2500 mt 1069  802 L
2488 3363 mt  655 2629 L
 655 2629 mt  655  932 L
 655 2629 mt 2726 1980 L
2726 1980 mt 2726  282 L
1266 2874 mt 3337 2225 L
3337 2225 mt 3337  527 L
1877 3119 mt 3948 2469 L
3948 2469 mt 3948  772 L
2488 3363 mt 4560 2714 L
4560 2714 mt 4560 1017 L
 655 2629 mt 2726 1980 L
2726 1980 mt 4560 2714 L
 655 2064 mt 2726 1414 L
2726 1414 mt 4560 2148 L
 655 1498 mt 2726  848 L
2726  848 mt 4560 1582 L
 655  932 mt 2726  282 L
2726  282 mt 4560 1017 L
SO
6 w
4560 2714 mt 2488 3363 L
 655 2629 mt 2488 3363 L
 655 2629 mt  655  932 L
4560 2714 mt 4610 2734 L
%%IncludeResource: font Helvetica
/Helvetica /WindowsLatin1Encoding 120 FMSR

4642 2858 mt 
(0) s
4145 2844 mt 4195 2864 L
4228 2988 mt 
(2) s
3731 2974 mt 3781 2994 L
3813 3118 mt 
(4) s
3316 3104 mt 3367 3124 L
3399 3248 mt 
(6) s
2902 3234 mt 2952 3254 L
2984 3378 mt 
(8) s
2488 3363 mt 2538 3384 L
2570 3508 mt 
(10) s
 655 2629 mt  603 2646 L
 504 2767 mt 
(0) s
1266 2874 mt 1214 2890 L
1115 3012 mt 
(2) s
1877 3119 mt 1825 3135 L
1726 3256 mt 
(4) s
2488 3363 mt 2436 3380 L
2337 3501 mt 
(6) s
 655 2629 mt  604 2609 L
 406 2640 mt 
(0.1) s
 655 2064 mt  604 2043 L
 339 2075 mt 
(0.15) s
 655 1498 mt  604 1478 L
 406 1509 mt 
(0.2) s
 655  932 mt  604  912 L
 339  943 mt 
(0.25) s
gs 655 282 3906 3083 rc
/c8 { 0.000000 0.000000 0.937500 sr} bdef
c8
-104 32 76 63 4380 2526 3 MP
PP
0 sg
4380 2526 mt 4456 2589 L
4456 2589 mt 4352 2621 L
/c9 { 0.000000 0.000000 0.875000 sr} bdef
c9
-104 129 77 -1 4303 2527 3 MP
PP
0 sg
4303 2527 mt 4380 2526 L
4380 2526 mt 4276 2655 L
c8
76 -34 -104 129 4380 2526 3 MP
PP
0 sg
4380 2526 mt 4276 2655 L
4276 2655 mt 4352 2621 L
/c10 { 0.000000 0.000000 0.687500 sr} bdef
c10
-103 162 76 -34 4276 2655 3 MP
PP
0 sg
4276 2655 mt 4352 2621 L
4352 2621 mt 4249 2783 L
/c11 { 0.000000 0.000000 1.000000 sr} bdef
c11
-103 33 76 94 4227 2433 3 MP
PP
0 sg
4227 2433 mt 4303 2527 L
4303 2527 mt 4200 2560 L
c9
76 95 -103 33 4303 2527 3 MP
PP
0 sg
4303 2527 mt 4200 2560 L
4200 2560 mt 4276 2655 L
c10
77 63 -104 65 4276 2655 3 MP
PP
0 sg
4276 2655 mt 4172 2720 L
4172 2720 mt 4249 2783 L
c9
-104 65 76 95 4200 2560 3 MP
PP
0 sg
4200 2560 mt 4276 2655 L
4276 2655 mt 4172 2720 L
c9
76 63 -104 97 4200 2560 3 MP
PP
0 sg
4200 2560 mt 4096 2657 L
4096 2657 mt 4172 2720 L
/c12 { 0.000000 0.000000 0.625000 sr} bdef
c12
-104 -97 77 63 4172 2720 3 MP
PP
0 sg
4172 2720 mt 4249 2783 L
4249 2783 mt 4145 2686 L
c11
77 63 -104 64 4227 2433 3 MP
PP
0 sg
4227 2433 mt 4123 2497 L
4123 2497 mt 4200 2560 L
/c13 { 0.000000 0.125000 1.000000 sr} bdef
c13
-104 64 77 63 4150 2370 3 MP
PP
0 sg
4150 2370 mt 4227 2433 L
4227 2433 mt 4123 2497 L
c8
-104 97 77 63 4123 2497 3 MP
PP
0 sg
4123 2497 mt 4200 2560 L
4200 2560 mt 4096 2657 L
c10
-103 0 76 63 4096 2657 3 MP
PP
0 sg
4096 2657 mt 4172 2720 L
4172 2720 mt 4069 2720 L
c12
76 -34 -103 0 4172 2720 3 MP
PP
0 sg
4172 2720 mt 4069 2720 L
4069 2720 mt 4145 2686 L
c13
76 -2 -103 129 4150 2370 3 MP
PP
0 sg
4150 2370 mt 4047 2499 L
4047 2499 mt 4123 2497 L
c11
-103 129 76 -1 4074 2371 3 MP
PP
0 sg
4074 2371 mt 4150 2370 L
4150 2370 mt 4047 2499 L
c10
-103 98 76 -34 4069 2720 3 MP
PP
0 sg
4069 2720 mt 4145 2686 L
4145 2686 mt 4042 2784 L
c9
-103 98 76 -2 4047 2499 3 MP
PP
0 sg
4047 2499 mt 4123 2497 L
4123 2497 mt 4020 2595 L
c8
76 62 -103 98 4123 2497 3 MP
PP
0 sg
4123 2497 mt 4020 2595 L
4020 2595 mt 4096 2657 L
/c14 { 0.000000 0.000000 0.750000 sr} bdef
c14
-104 33 76 62 4020 2595 3 MP
PP
0 sg
4020 2595 mt 4096 2657 L
4096 2657 mt 3992 2690 L
c10
77 30 -104 33 4096 2657 3 MP
PP
0 sg
4096 2657 mt 3992 2690 L
3992 2690 mt 4069 2720 L
c8
-104 129 76 -1 3998 2372 3 MP
PP
0 sg
3998 2372 mt 4074 2371 L
4074 2371 mt 3970 2500 L
c11
77 -1 -104 129 4074 2371 3 MP
PP
0 sg
4074 2371 mt 3970 2500 L
3970 2500 mt 4047 2499 L
c14
-103 32 76 63 3916 2627 3 MP
PP
0 sg
3916 2627 mt 3992 2690 L
3992 2690 mt 3889 2722 L
c10
76 -34 -103 32 3992 2690 3 MP
PP
0 sg
3992 2690 mt 3889 2722 L
3889 2722 mt 3965 2688 L
c10
77 96 -104 -32 4069 2720 3 MP
PP
0 sg
4069 2720 mt 3965 2688 L
3965 2688 mt 4042 2784 L
c10
-104 -32 77 30 3992 2690 3 MP
PP
0 sg
3992 2690 mt 4069 2720 L
4069 2720 mt 3965 2688 L
c9
77 31 -104 65 4047 2499 3 MP
PP
0 sg
4047 2499 mt 3943 2564 L
3943 2564 mt 4020 2595 L
c14
-104 65 77 -1 3970 2500 3 MP
PP
0 sg
3970 2500 mt 4047 2499 L
4047 2499 mt 3943 2564 L
c9
-104 32 77 96 3965 2688 3 MP
PP
0 sg
3965 2688 mt 4042 2784 L
4042 2784 mt 3938 2816 L
c14
-104 32 77 31 3943 2564 3 MP
PP
0 sg
3943 2564 mt 4020 2595 L
4020 2595 mt 3916 2627 L
c14
76 63 -104 32 4020 2595 3 MP
PP
0 sg
4020 2595 mt 3916 2627 L
3916 2627 mt 3992 2690 L
c13
-104 195 77 95 3921 2277 3 MP
PP
0 sg
3921 2277 mt 3998 2372 L
3998 2372 mt 3894 2567 L
c8
76 -67 -104 195 3998 2372 3 MP
PP
0 sg
3998 2372 mt 3894 2567 L
3894 2567 mt 3970 2500 L
c13
76 31 -103 259 3921 2277 3 MP
PP
0 sg
3921 2277 mt 3818 2536 L
3818 2536 mt 3894 2567 L
/c15 { 0.000000 0.000000 0.562500 sr} bdef
c15
-103 33 76 -67 3894 2567 3 MP
PP
0 sg
3894 2567 mt 3970 2500 L
3970 2500 mt 3867 2533 L
c14
76 31 -103 33 3970 2500 3 MP
PP
0 sg
3970 2500 mt 3867 2533 L
3867 2533 mt 3943 2564 L
c9
76 31 -103 97 3965 2688 3 MP
PP
0 sg
3965 2688 mt 3862 2785 L
3862 2785 mt 3938 2816 L
c10
-103 97 76 -34 3889 2722 3 MP
PP
0 sg
3889 2722 mt 3965 2688 L
3965 2688 mt 3862 2785 L
c14
76 -2 -103 65 3943 2564 3 MP
PP
0 sg
3943 2564 mt 3840 2629 L
3840 2629 mt 3916 2627 L
c15
-104 0 76 31 3818 2536 3 MP
PP
0 sg
3818 2536 mt 3894 2567 L
3894 2567 mt 3790 2567 L
c15
77 -34 -104 0 3894 2567 3 MP
PP
0 sg
3894 2567 mt 3790 2567 L
3790 2567 mt 3867 2533 L
c14
-103 65 76 31 3867 2533 3 MP
PP
0 sg
3867 2533 mt 3943 2564 L
3943 2564 mt 3840 2629 L
c10
-104 0 76 31 3862 2785 3 MP
PP
0 sg
3862 2785 mt 3938 2816 L
3938 2816 mt 3834 2816 L
/c16 { 0.000000 0.187500 1.000000 sr} bdef
c16
-103 259 76 62 3845 2215 3 MP
PP
0 sg
3845 2215 mt 3921 2277 L
3921 2277 mt 3818 2536 L
c10
-104 65 76 -2 3840 2629 3 MP
PP
0 sg
3840 2629 mt 3916 2627 L
3916 2627 mt 3812 2692 L
c14
77 30 -104 65 3916 2627 3 MP
PP
0 sg
3916 2627 mt 3812 2692 L
3812 2692 mt 3889 2722 L
c10
-104 1 77 30 3812 2692 3 MP
PP
0 sg
3812 2692 mt 3889 2722 L
3889 2722 mt 3785 2723 L
c10
77 62 -104 1 3889 2722 3 MP
PP
0 sg
3889 2722 mt 3785 2723 L
3785 2723 mt 3862 2785 L
c12
-104 65 77 -34 3790 2567 3 MP
PP
0 sg
3790 2567 mt 3867 2533 L
3867 2533 mt 3763 2598 L
c14
77 31 -104 65 3867 2533 3 MP
PP
0 sg
3867 2533 mt 3763 2598 L
3763 2598 mt 3840 2629 L
c10
76 63 -104 -32 3862 2785 3 MP
PP
0 sg
3862 2785 mt 3758 2753 L
3758 2753 mt 3834 2816 L
c14
-104 -32 77 62 3785 2723 3 MP
PP
0 sg
3785 2723 mt 3862 2785 L
3862 2785 mt 3758 2753 L
c8
-104 291 77 -65 3768 2280 3 MP
PP
0 sg
3768 2280 mt 3845 2215 L
3845 2215 mt 3741 2506 L
c16
77 30 -104 291 3845 2215 3 MP
PP
0 sg
3845 2215 mt 3741 2506 L
3741 2506 mt 3818 2536 L
c10
76 31 -104 32 3840 2629 3 MP
PP
0 sg
3840 2629 mt 3736 2661 L
3736 2661 mt 3812 2692 L
c10
-104 32 77 31 3763 2598 3 MP
PP
0 sg
3763 2598 mt 3840 2629 L
3840 2629 mt 3736 2661 L
c9
-103 -32 76 63 3758 2753 3 MP
PP
0 sg
3758 2753 mt 3834 2816 L
3834 2816 mt 3731 2784 L
c15
76 63 -104 -32 3818 2536 3 MP
PP
0 sg
3818 2536 mt 3714 2504 L
3714 2504 mt 3790 2567 L
c15
-104 -32 77 30 3741 2506 3 MP
PP
0 sg
3741 2506 mt 3818 2536 L
3818 2536 mt 3714 2504 L
c10
76 31 -103 0 3812 2692 3 MP
PP
0 sg
3812 2692 mt 3709 2692 L
3709 2692 mt 3785 2723 L
c10
-103 0 76 31 3736 2661 3 MP
PP
0 sg
3736 2661 mt 3812 2692 L
3812 2692 mt 3709 2692 L
c10
-103 -32 76 63 3714 2504 3 MP
PP
0 sg
3714 2504 mt 3790 2567 L
3790 2567 mt 3687 2535 L
c12
76 63 -103 -32 3790 2567 3 MP
PP
0 sg
3790 2567 mt 3687 2535 L
3687 2535 mt 3763 2598 L
c14
-103 0 76 31 3709 2692 3 MP
PP
0 sg
3709 2692 mt 3785 2723 L
3785 2723 mt 3682 2723 L
c14
76 30 -103 0 3785 2723 3 MP
PP
0 sg
3785 2723 mt 3682 2723 L
3682 2723 mt 3758 2753 L
c8
76 63 -103 163 3768 2280 3 MP
PP
0 sg
3768 2280 mt 3665 2443 L
3665 2443 mt 3741 2506 L
c8
-103 163 76 30 3692 2250 3 MP
PP
0 sg
3692 2250 mt 3768 2280 L
3768 2280 mt 3665 2443 L
c14
-103 -32 76 63 3687 2535 3 MP
PP
0 sg
3687 2535 mt 3763 2598 L
3763 2598 mt 3660 2566 L
c10
76 95 -103 -32 3763 2598 3 MP
PP
0 sg
3763 2598 mt 3660 2566 L
3660 2566 mt 3736 2661 L
c9
-104 0 77 31 3605 2692 3 MP
PP
0 sg
3605 2692 mt 3682 2723 L
3682 2723 mt 3578 2723 L
c9
76 -2 -104 0 3682 2723 3 MP
PP
0 sg
3682 2723 mt 3578 2723 L
3578 2723 mt 3654 2721 L
c9
-104 -32 76 30 3682 2723 3 MP
PP
0 sg
3682 2723 mt 3758 2753 L
3758 2753 mt 3654 2721 L
c9
77 63 -104 -32 3758 2753 3 MP
PP
0 sg
3758 2753 mt 3654 2721 L
3654 2721 mt 3731 2784 L
c12
-103 -32 76 63 3665 2443 3 MP
PP
0 sg
3665 2443 mt 3741 2506 L
3741 2506 mt 3638 2474 L
c15
76 30 -103 -32 3741 2506 3 MP
PP
0 sg
3741 2506 mt 3638 2474 L
3638 2474 mt 3714 2504 L
c9
-104 -32 76 95 3660 2566 3 MP
PP
0 sg
3660 2566 mt 3736 2661 L
3736 2661 mt 3632 2629 L
c10
77 63 -104 -32 3736 2661 3 MP
PP
0 sg
3736 2661 mt 3632 2629 L
3632 2629 mt 3709 2692 L
c11
-104 1 77 63 3654 2721 3 MP
PP
0 sg
3654 2721 mt 3731 2784 L
3731 2784 mt 3627 2785 L
c10
77 30 -104 1 3714 2504 3 MP
PP
0 sg
3714 2504 mt 3610 2505 L
3610 2505 mt 3687 2535 L
c10
-104 1 76 30 3638 2474 3 MP
PP
0 sg
3638 2474 mt 3714 2504 L
3714 2504 mt 3610 2505 L
c9
-104 0 77 63 3632 2629 3 MP
PP
0 sg
3632 2629 mt 3709 2692 L
3709 2692 mt 3605 2692 L
c14
77 31 -104 0 3709 2692 3 MP
PP
0 sg
3709 2692 mt 3605 2692 L
3605 2692 mt 3682 2723 L
c8
76 127 -103 66 3692 2250 3 MP
PP
0 sg
3692 2250 mt 3589 2316 L
3589 2316 mt 3665 2443 L
c9
-103 66 76 -2 3616 2252 3 MP
PP
0 sg
3616 2252 mt 3692 2250 L
3692 2250 mt 3589 2316 L
c14
77 -2 -104 33 3687 2535 3 MP
PP
0 sg
3687 2535 mt 3583 2568 L
3583 2568 mt 3660 2566 L
c14
-104 33 77 30 3610 2505 3 MP
PP
0 sg
3610 2505 mt 3687 2535 L
3687 2535 mt 3583 2568 L
c12
77 63 -104 -32 3665 2443 3 MP
PP
0 sg
3665 2443 mt 3561 2411 L
3561 2411 mt 3638 2474 L
c9
-104 -32 76 127 3589 2316 3 MP
PP
0 sg
3589 2316 mt 3665 2443 L
3665 2443 mt 3561 2411 L
c14
-104 32 77 -2 3583 2568 3 MP
PP
0 sg
3583 2568 mt 3660 2566 L
3660 2566 mt 3556 2598 L
c9
76 31 -104 32 3660 2566 3 MP
PP
0 sg
3660 2566 mt 3556 2598 L
3556 2598 mt 3632 2629 L
c8
-103 65 76 -2 3578 2723 3 MP
PP
0 sg
3578 2723 mt 3654 2721 L
3654 2721 mt 3551 2786 L
c11
76 -1 -103 65 3654 2721 3 MP
PP
0 sg
3654 2721 mt 3551 2786 L
3551 2786 mt 3627 2785 L
c14
-104 0 77 63 3561 2411 3 MP
PP
0 sg
3561 2411 mt 3638 2474 L
3638 2474 mt 3534 2474 L
c10
76 31 -104 0 3638 2474 3 MP
PP
0 sg
3638 2474 mt 3534 2474 L
3534 2474 mt 3610 2505 L
c9
-103 0 76 31 3556 2598 3 MP
PP
0 sg
3556 2598 mt 3632 2629 L
3632 2629 mt 3529 2629 L
c9
76 63 -103 0 3632 2629 3 MP
PP
0 sg
3632 2629 mt 3529 2629 L
3529 2629 mt 3605 2692 L
c8
-103 64 76 -1 3551 2786 3 MP
PP
0 sg
3551 2786 mt 3627 2785 L
3627 2785 mt 3524 2849 L
c9
77 -34 -104 98 3616 2252 3 MP
PP
0 sg
3616 2252 mt 3512 2350 L
3512 2350 mt 3589 2316 L
c8
-104 98 77 63 3539 2189 3 MP
PP
0 sg
3539 2189 mt 3616 2252 L
3616 2252 mt 3512 2350 L
c14
-103 0 76 31 3534 2474 3 MP
PP
0 sg
3534 2474 mt 3610 2505 L
3610 2505 mt 3507 2505 L
c14
76 63 -103 0 3610 2505 3 MP
PP
0 sg
3610 2505 mt 3507 2505 L
3507 2505 mt 3583 2568 L
c9
76 30 -103 1 3605 2692 3 MP
PP
0 sg
3605 2692 mt 3502 2693 L
3502 2693 mt 3578 2723 L
c8
-103 1 76 63 3529 2629 3 MP
PP
0 sg
3529 2629 mt 3605 2692 L
3605 2692 mt 3502 2693 L
c9
76 31 -104 64 3589 2316 3 MP
PP
0 sg
3589 2316 mt 3485 2380 L
3485 2380 mt 3561 2411 L
c10
-104 64 77 -34 3512 2350 3 MP
PP
0 sg
3512 2350 mt 3589 2316 L
3589 2316 mt 3485 2380 L
c9
-104 0 77 31 3430 2474 3 MP
PP
0 sg
3430 2474 mt 3507 2505 L
3507 2505 mt 3403 2505 L
c9
77 -2 -104 0 3507 2505 3 MP
PP
0 sg
3507 2505 mt 3403 2505 L
3403 2505 mt 3480 2503 L
c14
76 95 -103 -65 3583 2568 3 MP
PP
0 sg
3583 2568 mt 3480 2503 L
3480 2503 mt 3556 2598 L
c9
-103 -65 76 63 3507 2505 3 MP
PP
0 sg
3507 2505 mt 3583 2568 L
3583 2568 mt 3480 2503 L
c8
77 -2 -104 65 3578 2723 3 MP
PP
0 sg
3578 2723 mt 3474 2788 L
3474 2788 mt 3551 2786 L
c8
-104 65 76 30 3502 2693 3 MP
PP
0 sg
3502 2693 mt 3578 2723 L
3578 2723 mt 3474 2788 L
c14
76 95 -103 -32 3561 2411 3 MP
PP
0 sg
3561 2411 mt 3458 2379 L
3458 2379 mt 3534 2474 L
c14
-103 -32 76 31 3485 2380 3 MP
PP
0 sg
3485 2380 mt 3561 2411 L
3561 2411 mt 3458 2379 L
c11
-104 -31 76 95 3480 2503 3 MP
PP
0 sg
3480 2503 mt 3556 2598 L
3556 2598 mt 3452 2567 L
c9
77 62 -104 -31 3556 2598 3 MP
PP
0 sg
3556 2598 mt 3452 2567 L
3452 2567 mt 3529 2629 L
c8
77 -2 -104 65 3551 2786 3 MP
PP
0 sg
3551 2786 mt 3447 2851 L
3447 2851 mt 3524 2849 L
c9
-104 65 77 -2 3474 2788 3 MP
PP
0 sg
3474 2788 mt 3551 2786 L
3551 2786 mt 3447 2851 L
c8
76 31 -103 130 3539 2189 3 MP
PP
0 sg
3539 2189 mt 3436 2319 L
3436 2319 mt 3512 2350 L
c10
-103 130 76 -66 3463 2255 3 MP
PP
0 sg
3463 2255 mt 3539 2189 L
3539 2189 mt 3436 2319 L
c14
77 31 -104 0 3534 2474 3 MP
PP
0 sg
3534 2474 mt 3430 2474 L
3430 2474 mt 3507 2505 L
c8
-104 0 76 95 3458 2379 3 MP
PP
0 sg
3458 2379 mt 3534 2474 L
3534 2474 mt 3430 2474 L
c11
-104 65 77 62 3452 2567 3 MP
PP
0 sg
3452 2567 mt 3529 2629 L
3529 2629 mt 3425 2694 L
c8
77 -1 -104 65 3529 2629 3 MP
PP
0 sg
3529 2629 mt 3425 2694 L
3425 2694 mt 3502 2693 L
c9
-104 130 77 -2 3447 2851 3 MP
PP
0 sg
3447 2851 mt 3524 2849 L
3524 2849 mt 3420 2979 L
c10
76 30 -103 0 3512 2350 3 MP
PP
0 sg
3512 2350 mt 3409 2350 L
3409 2350 mt 3485 2380 L
c10
-103 0 76 31 3436 2319 3 MP
PP
0 sg
3436 2319 mt 3512 2350 L
3512 2350 mt 3409 2350 L
c9
-104 64 77 -1 3425 2694 3 MP
PP
0 sg
3425 2694 mt 3502 2693 L
3502 2693 mt 3398 2757 L
c8
76 31 -104 64 3502 2693 3 MP
PP
0 sg
3502 2693 mt 3398 2757 L
3398 2757 mt 3474 2788 L
c14
-104 0 77 31 3332 2319 3 MP
PP
0 sg
3332 2319 mt 3409 2350 L
3409 2350 mt 3305 2350 L
c14
76 -2 -104 0 3409 2350 3 MP
PP
0 sg
3409 2350 mt 3305 2350 L
3305 2350 mt 3381 2348 L
c14
-104 -32 76 30 3409 2350 3 MP
PP
0 sg
3409 2350 mt 3485 2380 L
3485 2380 mt 3381 2348 L
c14
77 31 -104 -32 3485 2380 3 MP
PP
0 sg
3485 2380 mt 3381 2348 L
3381 2348 mt 3458 2379 L
c8
-104 98 77 -2 3403 2505 3 MP
PP
0 sg
3403 2505 mt 3480 2503 L
3480 2503 mt 3376 2601 L
c11
76 -34 -104 98 3480 2503 3 MP
PP
0 sg
3480 2503 mt 3376 2601 L
3376 2601 mt 3452 2567 L
c9
-103 97 76 31 3398 2757 3 MP
PP
0 sg
3398 2757 mt 3474 2788 L
3474 2788 mt 3371 2885 L
c9
76 -34 -103 97 3474 2788 3 MP
PP
0 sg
3474 2788 mt 3371 2885 L
3371 2885 mt 3447 2851 L
c10
77 63 -104 1 3463 2255 3 MP
PP
0 sg
3463 2255 mt 3359 2256 L
3359 2256 mt 3436 2319 L
c10
-104 1 76 30 3387 2225 3 MP
PP
0 sg
3387 2225 mt 3463 2255 L
3463 2255 mt 3359 2256 L
c8
-104 0 77 31 3381 2348 3 MP
PP
0 sg
3381 2348 mt 3458 2379 L
3458 2379 mt 3354 2379 L
c8
76 95 -104 0 3458 2379 3 MP
PP
0 sg
3458 2379 mt 3354 2379 L
3354 2379 mt 3430 2474 L
gr

3456 3574 mt 
(T) s
gs 655 282 3906 3083 rc
c11
76 62 -103 65 3452 2567 3 MP
PP
0 sg
3452 2567 mt 3349 2632 L
3349 2632 mt 3425 2694 L
c9
-103 65 76 -34 3376 2601 3 MP
PP
0 sg
3376 2601 mt 3452 2567 L
3452 2567 mt 3349 2632 L
c9
76 63 -103 65 3447 2851 3 MP
PP
0 sg
3447 2851 mt 3344 2916 L
3344 2916 mt 3420 2979 L
c10
-103 65 76 -34 3371 2885 3 MP
PP
0 sg
3371 2885 mt 3447 2851 L
3447 2851 mt 3344 2916 L
c10
77 31 -104 0 3436 2319 3 MP
PP
0 sg
3436 2319 mt 3332 2319 L
3332 2319 mt 3409 2350 L
c14
-104 0 77 63 3359 2256 3 MP
PP
0 sg
3359 2256 mt 3436 2319 L
3436 2319 mt 3332 2319 L
c9
76 30 -103 1 3430 2474 3 MP
PP
0 sg
3430 2474 mt 3327 2475 L
3327 2475 mt 3403 2505 L
c11
-103 1 76 95 3354 2379 3 MP
PP
0 sg
3354 2379 mt 3430 2474 L
3430 2474 mt 3327 2475 L
c8
-103 98 76 62 3349 2632 3 MP
PP
0 sg
3349 2632 mt 3425 2694 L
3425 2694 mt 3322 2792 L
c9
76 -35 -103 98 3425 2694 3 MP
PP
0 sg
3425 2694 mt 3322 2792 L
3322 2792 mt 3398 2757 L
c14
-104 -32 76 63 3344 2916 3 MP
PP
0 sg
3344 2916 mt 3420 2979 L
3420 2979 mt 3316 2947 L
c8
-103 33 76 30 3327 2475 3 MP
PP
0 sg
3327 2475 mt 3403 2505 L
3403 2505 mt 3300 2538 L
c8
76 63 -103 33 3403 2505 3 MP
PP
0 sg
3403 2505 mt 3300 2538 L
3300 2538 mt 3376 2601 L
c10
-104 65 76 -35 3322 2792 3 MP
PP
0 sg
3322 2792 mt 3398 2757 L
3398 2757 mt 3294 2822 L
c9
77 63 -104 65 3398 2757 3 MP
PP
0 sg
3398 2757 mt 3294 2822 L
3294 2822 mt 3371 2885 L
c10
76 30 -104 1 3387 2225 3 MP
PP
0 sg
3387 2225 mt 3283 2226 L
3283 2226 mt 3359 2256 L
c10
-104 1 77 31 3310 2194 3 MP
PP
0 sg
3310 2194 mt 3387 2225 L
3387 2225 mt 3283 2226 L
c14
76 63 -103 -32 3332 2319 3 MP
PP
0 sg
3332 2319 mt 3229 2287 L
3229 2287 mt 3305 2350 L
c9
-103 -31 76 -2 3305 2350 3 MP
PP
0 sg
3305 2350 mt 3381 2348 L
3381 2348 mt 3278 2317 L
c8
76 62 -103 -31 3381 2348 3 MP
PP
0 sg
3381 2348 mt 3278 2317 L
3278 2317 mt 3354 2379 L
c9
77 -65 -104 96 3376 2601 3 MP
PP
0 sg
3376 2601 mt 3272 2697 L
3272 2697 mt 3349 2632 L
c8
-104 96 76 63 3300 2538 3 MP
PP
0 sg
3300 2538 mt 3376 2601 L
3376 2601 mt 3272 2697 L
c11
-104 -32 77 95 3092 2571 3 MP
PP
0 sg
3092 2571 mt 3169 2666 L
3169 2666 mt 3065 2634 L
c9
77 31 -104 -32 3169 2666 3 MP
PP
0 sg
3169 2666 mt 3065 2634 L
3065 2634 mt 3142 2665 L
c14
77 95 -104 -64 3196 2635 3 MP
PP
0 sg
3196 2635 mt 3092 2571 L
3092 2571 mt 3169 2666 L
c9
-103 -32 76 31 3169 2666 3 MP
PP
0 sg
3169 2666 mt 3245 2697 L
3245 2697 mt 3142 2665 L
c10
76 31 -103 -31 3272 2697 3 MP
PP
0 sg
3272 2697 mt 3169 2666 L
3169 2666 mt 3245 2697 L
c14
-103 -31 76 62 3196 2635 3 MP
PP
0 sg
3196 2635 mt 3272 2697 L
3272 2697 mt 3169 2666 L
c9
76 -2 -103 -32 3245 2697 3 MP
PP
0 sg
3245 2697 mt 3142 2665 L
3142 2665 mt 3218 2663 L
c13
-103 -64 76 159 3218 2663 3 MP
PP
0 sg
3218 2663 mt 3294 2822 L
3294 2822 mt 3191 2758 L
c14
76 31 -103 -64 3294 2822 3 MP
PP
0 sg
3294 2822 mt 3191 2758 L
3191 2758 mt 3267 2789 L
c8
76 62 -104 97 3300 2538 3 MP
PP
0 sg
3300 2538 mt 3196 2635 L
3196 2635 mt 3272 2697 L
c10
-104 65 77 -65 3272 2697 3 MP
PP
0 sg
3272 2697 mt 3349 2632 L
3349 2632 mt 3245 2697 L
c8
77 95 -104 65 3349 2632 3 MP
PP
0 sg
3349 2632 mt 3245 2697 L
3245 2697 mt 3322 2792 L
c9
-104 -129 77 95 3245 2697 3 MP
PP
0 sg
3245 2697 mt 3322 2792 L
3322 2792 mt 3218 2663 L
c10
76 159 -104 -129 3322 2792 3 MP
PP
0 sg
3322 2792 mt 3218 2663 L
3218 2663 mt 3294 2822 L
c14
-104 -96 77 63 3294 2822 3 MP
PP
0 sg
3294 2822 mt 3371 2885 L
3371 2885 mt 3267 2789 L
c10
77 127 -104 -96 3371 2885 3 MP
PP
0 sg
3371 2885 mt 3267 2789 L
3267 2789 mt 3344 2916 L
c14
76 30 -103 33 3359 2256 3 MP
PP
0 sg
3359 2256 mt 3256 2289 L
3256 2289 mt 3332 2319 L
c14
-103 33 76 30 3283 2226 3 MP
PP
0 sg
3283 2226 mt 3359 2256 L
3359 2256 mt 3256 2289 L
c11
76 -2 -103 98 3354 2379 3 MP
PP
0 sg
3354 2379 mt 3251 2477 L
3251 2477 mt 3327 2475 L
c8
-104 1 76 63 3229 2287 3 MP
PP
0 sg
3229 2287 mt 3305 2350 L
3305 2350 mt 3201 2351 L
c9
77 -34 -104 1 3305 2350 3 MP
PP
0 sg
3305 2350 mt 3201 2351 L
3201 2351 mt 3278 2317 L
c13
-103 98 76 62 3278 2317 3 MP
PP
0 sg
3278 2317 mt 3354 2379 L
3354 2379 mt 3251 2477 L
c14
76 0 -104 31 3344 2916 3 MP
PP
0 sg
3344 2916 mt 3240 2947 L
3240 2947 mt 3316 2947 L
c11
-104 31 77 127 3267 2789 3 MP
PP
0 sg
3267 2789 mt 3344 2916 L
3344 2916 mt 3240 2947 L
c14
-103 -32 76 30 3256 2289 3 MP
PP
0 sg
3256 2289 mt 3332 2319 L
3332 2319 mt 3229 2287 L
c9
-104 65 76 -2 3251 2477 3 MP
PP
0 sg
3251 2477 mt 3327 2475 L
3327 2475 mt 3223 2540 L
c8
77 -2 -104 65 3327 2475 3 MP
PP
0 sg
3327 2475 mt 3223 2540 L
3223 2540 mt 3300 2538 L
c11
-104 -95 76 126 3164 2821 3 MP
PP
0 sg
3164 2821 mt 3240 2947 L
3240 2947 mt 3136 2852 L
c11
76 126 -103 32 3267 2789 3 MP
PP
0 sg
3267 2789 mt 3164 2821 L
3164 2821 mt 3240 2947 L
c14
-103 -32 76 0 3240 2947 3 MP
PP
0 sg
3240 2947 mt 3316 2947 L
3316 2947 mt 3213 2915 L
c8
-103 -31 76 127 3234 2067 3 MP
PP
0 sg
3234 2067 mt 3310 2194 L
3310 2194 mt 3207 2163 L
c10
76 63 -103 -31 3310 2194 3 MP
PP
0 sg
3310 2194 mt 3207 2163 L
3207 2163 mt 3283 2226 L
c9
-104 97 77 -2 3223 2540 3 MP
PP
0 sg
3223 2540 mt 3300 2538 L
3300 2538 mt 3196 2635 L
c9
-104 0 76 63 3207 2163 3 MP
PP
0 sg
3207 2163 mt 3283 2226 L
3283 2226 mt 3179 2226 L
c14
77 63 -104 0 3283 2226 3 MP
PP
0 sg
3283 2226 mt 3179 2226 L
3179 2226 mt 3256 2289 L
c13
77 63 -104 97 3278 2317 3 MP
PP
0 sg
3278 2317 mt 3174 2414 L
3174 2414 mt 3251 2477 L
c8
-104 97 77 -34 3201 2351 3 MP
PP
0 sg
3201 2351 mt 3278 2317 L
3278 2317 mt 3174 2414 L
c11
-103 32 76 31 3191 2758 3 MP
PP
0 sg
3191 2758 mt 3267 2789 L
3267 2789 mt 3164 2821 L
c9
-104 -32 77 63 3179 2226 3 MP
PP
0 sg
3179 2226 mt 3256 2289 L
3256 2289 mt 3152 2257 L
c14
77 30 -104 -32 3256 2289 3 MP
PP
0 sg
3256 2289 mt 3152 2257 L
3152 2257 mt 3229 2287 L
c9
76 31 -104 32 3251 2477 3 MP
PP
0 sg
3251 2477 mt 3147 2509 L
3147 2509 mt 3223 2540 L
c8
-104 32 77 63 3174 2414 3 MP
PP
0 sg
3174 2414 mt 3251 2477 L
3251 2477 mt 3147 2509 L
c14
77 63 -104 -95 3240 2947 3 MP
PP
0 sg
3240 2947 mt 3136 2852 L
3136 2852 mt 3213 2915 L
c14
-103 -64 76 63 3081 2071 3 MP
PP
0 sg
3081 2071 mt 3157 2134 L
3157 2134 mt 3054 2070 L
c10
76 63 -103 -64 3157 2134 3 MP
PP
0 sg
3157 2134 mt 3054 2070 L
3054 2070 mt 3130 2133 L
c10
-104 66 77 -67 3157 2134 3 MP
PP
0 sg
3157 2134 mt 3234 2067 L
3234 2067 mt 3130 2133 L
c8
77 30 -104 66 3234 2067 3 MP
PP
0 sg
3234 2067 mt 3130 2133 L
3130 2133 mt 3207 2163 L
c8
76 -1 -104 65 3229 2287 3 MP
PP
0 sg
3229 2287 mt 3125 2352 L
3125 2352 mt 3201 2351 L
c8
-104 65 77 30 3152 2257 3 MP
PP
0 sg
3152 2257 mt 3229 2287 L
3229 2287 mt 3125 2352 L
c9
76 127 -103 -32 3223 2540 3 MP
PP
0 sg
3223 2540 mt 3120 2508 L
3120 2508 mt 3196 2635 L
c9
-103 -32 76 31 3147 2509 3 MP
PP
0 sg
3147 2509 mt 3223 2540 L
3223 2540 mt 3120 2508 L
c13
77 30 -104 65 3218 2663 3 MP
PP
0 sg
3218 2663 mt 3114 2728 L
3114 2728 mt 3191 2758 L
c11
-104 65 76 -2 3142 2665 3 MP
PP
0 sg
3142 2665 mt 3218 2663 L
3218 2663 mt 3114 2728 L
c13
-104 32 77 63 3136 2852 3 MP
PP
0 sg
3136 2852 mt 3213 2915 L
3213 2915 mt 3109 2947 L
c9
-104 0 77 30 3130 2133 3 MP
PP
0 sg
3130 2133 mt 3207 2163 L
3207 2163 mt 3103 2163 L
c9
76 63 -104 0 3207 2163 3 MP
PP
0 sg
3207 2163 mt 3103 2163 L
3103 2163 mt 3179 2226 L
c8
76 -66 -103 129 3201 2351 3 MP
PP
0 sg
3201 2351 mt 3098 2480 L
3098 2480 mt 3174 2414 L
c9
-103 129 76 -1 3125 2352 3 MP
PP
0 sg
3125 2352 mt 3201 2351 L
3201 2351 mt 3098 2480 L
c11
-104 -64 76 127 3120 2508 3 MP
PP
0 sg
3120 2508 mt 3196 2635 L
3196 2635 mt 3092 2571 L
c11
77 -34 -104 97 3191 2758 3 MP
PP
0 sg
3191 2758 mt 3087 2855 L
3087 2855 mt 3164 2821 L
c11
-104 97 77 30 3114 2728 3 MP
PP
0 sg
3114 2728 mt 3191 2758 L
3191 2758 mt 3087 2855 L
c8
-103 0 76 63 3103 2163 3 MP
PP
0 sg
3103 2163 mt 3179 2226 L
3179 2226 mt 3076 2226 L
c9
76 31 -103 0 3179 2226 3 MP
PP
0 sg
3179 2226 mt 3076 2226 L
3076 2226 mt 3152 2257 L
c14
76 62 -104 -64 3049 2354 3 MP
PP
0 sg
3049 2354 mt 2945 2290 L
2945 2290 mt 3021 2352 L
c8
-104 -64 77 95 2972 2259 3 MP
PP
0 sg
2972 2259 mt 3049 2354 L
3049 2354 mt 2945 2290 L
c8
77 95 -104 33 3076 2226 3 MP
PP
0 sg
3076 2226 mt 2972 2259 L
2972 2259 mt 3049 2354 L
c8
76 -2 -103 97 3152 2257 3 MP
PP
0 sg
3152 2257 mt 3049 2354 L
3049 2354 mt 3125 2352 L
c8
-103 97 76 31 3076 2226 3 MP
PP
0 sg
3076 2226 mt 3152 2257 L
3152 2257 mt 3049 2354 L
c14
-104 0 76 -2 3049 2354 3 MP
PP
0 sg
3049 2354 mt 3125 2352 L
3125 2352 mt 3021 2352 L
c9
77 128 -104 0 3125 2352 3 MP
PP
0 sg
3125 2352 mt 3021 2352 L
3021 2352 mt 3098 2480 L
c10
-103 0 76 -66 3098 2480 3 MP
PP
0 sg
3098 2480 mt 3174 2414 L
3174 2414 mt 3071 2414 L
c8
76 95 -103 0 3174 2414 3 MP
PP
0 sg
3174 2414 mt 3071 2414 L
3071 2414 mt 3147 2509 L
c9
-104 65 77 -34 3087 2855 3 MP
PP
0 sg
3087 2855 mt 3164 2821 L
3164 2821 mt 3060 2886 L
c11
76 -34 -104 65 3164 2821 3 MP
PP
0 sg
3164 2821 mt 3060 2886 L
3060 2886 mt 3136 2852 L
c9
77 31 -104 -32 3147 2509 3 MP
PP
0 sg
3147 2509 mt 3043 2477 L
3043 2477 mt 3120 2508 L
c8
-104 -64 77 128 3021 2352 3 MP
PP
0 sg
3021 2352 mt 3098 2480 L
3098 2480 mt 2994 2416 L
c10
77 -2 -104 -64 3098 2480 3 MP
PP
0 sg
3098 2480 mt 2994 2416 L
2994 2416 mt 3071 2414 L
c11
-104 -32 76 95 3071 2414 3 MP
PP
0 sg
3071 2414 mt 3147 2509 L
3147 2509 mt 3043 2477 L
c11
-104 0 77 31 3065 2634 3 MP
PP
0 sg
3065 2634 mt 3142 2665 L
3142 2665 mt 3038 2665 L
c11
76 63 -104 0 3142 2665 3 MP
PP
0 sg
3142 2665 mt 3038 2665 L
3038 2665 mt 3114 2728 L
c8
-103 130 76 -34 3060 2886 3 MP
PP
0 sg
3060 2886 mt 3136 2852 L
3136 2852 mt 3033 2982 L
c13
76 -35 -103 130 3136 2852 3 MP
PP
0 sg
3136 2852 mt 3033 2982 L
3033 2982 mt 3109 2947 L
c9
76 30 -103 0 3130 2133 3 MP
PP
0 sg
3130 2133 mt 3027 2133 L
3027 2133 mt 3103 2163 L
c8
-103 0 76 63 3054 2070 3 MP
PP
0 sg
3054 2070 mt 3130 2133 L
3130 2133 mt 3027 2133 L
c11
76 -2 -104 65 3120 2508 3 MP
PP
0 sg
3120 2508 mt 3016 2573 L
3016 2573 mt 3092 2571 L
c11
-104 65 77 31 3043 2477 3 MP
PP
0 sg
3043 2477 mt 3120 2508 L
3120 2508 mt 3016 2573 L
c13
-103 -32 76 63 3038 2665 3 MP
PP
0 sg
3038 2665 mt 3114 2728 L
3114 2728 mt 3011 2696 L
c11
76 159 -103 -32 3114 2728 3 MP
PP
0 sg
3114 2728 mt 3011 2696 L
3011 2696 mt 3087 2855 L
c13
-104 1 77 94 2907 2761 3 MP
PP
0 sg
2907 2761 mt 2984 2855 L
2984 2855 mt 2880 2856 L
c8
76 -2 -104 1 2984 2855 3 MP
PP
0 sg
2984 2855 mt 2880 2856 L
2880 2856 mt 2956 2854 L
c13
-104 128 77 128 2956 2854 3 MP
PP
0 sg
2956 2854 mt 3033 2982 L
3033 2982 mt 2929 3110 L
c9
77 -98 -104 128 3033 2982 3 MP
PP
0 sg
3033 2982 mt 2929 3110 L
2929 3110 mt 3006 3012 L
c9
-103 65 76 -35 3033 2982 3 MP
PP
0 sg
3033 2982 mt 3109 2947 L
3109 2947 mt 3006 3012 L
c8
-104 33 76 30 3027 2133 3 MP
PP
0 sg
3027 2133 mt 3103 2163 L
3103 2163 mt 2999 2196 L
c8
77 30 -104 33 3103 2163 3 MP
PP
0 sg
3103 2163 mt 2999 2196 L
2999 2196 mt 3076 2226 L
c11
-103 32 76 63 2940 2510 3 MP
PP
0 sg
2940 2510 mt 3016 2573 L
3016 2573 mt 2913 2605 L
c11
76 63 -103 33 3043 2477 3 MP
PP
0 sg
3043 2477 mt 2940 2510 L
2940 2510 mt 3016 2573 L
c8
-103 0 76 -2 3016 2573 3 MP
PP
0 sg
3016 2573 mt 3092 2571 L
3092 2571 mt 2989 2571 L
c8
76 -34 -103 32 3016 2573 3 MP
PP
0 sg
3016 2573 mt 2913 2605 L
2913 2605 mt 2989 2571 L
c11
76 63 -103 0 3092 2571 3 MP
PP
0 sg
3092 2571 mt 2989 2571 L
2989 2571 mt 3065 2634 L
c16
-103 0 76 159 3011 2696 3 MP
PP
0 sg
3011 2696 mt 3087 2855 L
3087 2855 mt 2984 2855 L
c9
76 31 -103 0 3087 2855 3 MP
PP
0 sg
3087 2855 mt 2984 2855 L
2984 2855 mt 3060 2886 L
c9
-104 -32 76 63 3005 2008 3 MP
PP
0 sg
3005 2008 mt 3081 2071 L
3081 2071 mt 2977 2039 L
c14
77 31 -104 -32 3081 2071 3 MP
PP
0 sg
3081 2071 mt 2977 2039 L
2977 2039 mt 3054 2070 L
c8
-104 33 77 30 2999 2196 3 MP
PP
0 sg
2999 2196 mt 3076 2226 L
3076 2226 mt 2972 2259 L
c11
76 30 -104 33 3071 2414 3 MP
PP
0 sg
3071 2414 mt 2967 2447 L
2967 2447 mt 3043 2477 L
c8
-104 33 77 -2 2994 2416 3 MP
PP
0 sg
2994 2416 mt 3071 2414 L
3071 2414 mt 2967 2447 L
c13
-103 32 76 63 2989 2571 3 MP
PP
0 sg
2989 2571 mt 3065 2634 L
3065 2634 mt 2962 2666 L
c11
76 -1 -103 32 3065 2634 3 MP
PP
0 sg
3065 2634 mt 2962 2666 L
2962 2666 mt 3038 2665 L
c8
-104 -32 76 31 2984 2855 3 MP
PP
0 sg
2984 2855 mt 3060 2886 L
3060 2886 mt 2956 2854 L
c8
77 128 -104 -32 3060 2886 3 MP
PP
0 sg
3060 2886 mt 2956 2854 L
2956 2854 mt 3033 2982 L
c8
-104 33 77 31 2977 2039 3 MP
PP
0 sg
2977 2039 mt 3054 2070 L
3054 2070 mt 2950 2103 L
c8
77 30 -104 33 3054 2070 3 MP
PP
0 sg
3054 2070 mt 2950 2103 L
2950 2103 mt 3027 2133 L
c11
-103 33 76 30 2967 2447 3 MP
PP
0 sg
2967 2447 mt 3043 2477 L
3043 2477 mt 2940 2510 L
c11
-104 1 77 30 2885 2636 3 MP
PP
0 sg
2885 2636 mt 2962 2666 L
2962 2666 mt 2858 2667 L
c13
77 30 -104 65 2989 2571 3 MP
PP
0 sg
2989 2571 mt 2885 2636 L
2885 2636 mt 2962 2666 L
c11
-104 0 76 -1 2962 2666 3 MP
PP
0 sg
2962 2666 mt 3038 2665 L
3038 2665 mt 2934 2665 L
c11
76 -2 -104 1 2962 2666 3 MP
PP
0 sg
2962 2666 mt 2858 2667 L
2858 2667 mt 2934 2665 L
c13
77 31 -104 0 3038 2665 3 MP
PP
0 sg
3038 2665 mt 2934 2665 L
2934 2665 mt 3011 2696 L
c8
76 63 -103 1 2977 2039 3 MP
PP
0 sg
2977 2039 mt 2874 2040 L
2874 2040 mt 2950 2103 L
c8
-104 -64 77 30 2950 2103 3 MP
PP
0 sg
2950 2103 mt 3027 2133 L
3027 2133 mt 2923 2069 L
c11
-103 0 76 63 2874 2040 3 MP
PP
0 sg
2874 2040 mt 2950 2103 L
2950 2103 mt 2847 2103 L
c8
76 -34 -103 0 2950 2103 3 MP
PP
0 sg
2950 2103 mt 2847 2103 L
2847 2103 mt 2923 2069 L
c8
76 127 -104 -64 3027 2133 3 MP
PP
0 sg
3027 2133 mt 2923 2069 L
2923 2069 mt 2999 2196 L
c11
-103 1 76 62 2945 2290 3 MP
PP
0 sg
2945 2290 mt 3021 2352 L
3021 2352 mt 2918 2353 L
c8
76 63 -103 1 3021 2352 3 MP
PP
0 sg
3021 2352 mt 2918 2353 L
2918 2353 mt 2994 2416 L
c16
-104 65 77 31 2934 2665 3 MP
PP
0 sg
2934 2665 mt 3011 2696 L
3011 2696 mt 2907 2761 L
c16
77 94 -104 65 3011 2696 3 MP
PP
0 sg
3011 2696 mt 2907 2761 L
2907 2761 mt 2984 2855 L
c13
76 191 -103 65 2956 2854 3 MP
PP
0 sg
2956 2854 mt 2853 2919 L
2853 2919 mt 2929 3110 L
c12
-104 -32 77 -98 2929 3110 3 MP
PP
0 sg
2929 3110 mt 3006 3012 L
3006 3012 mt 2902 2980 L
c9
76 95 -104 -64 3005 2008 3 MP
PP
0 sg
3005 2008 mt 2901 1944 L
2901 1944 mt 2977 2039 L
c11
-104 -64 77 95 2928 1913 3 MP
PP
0 sg
2928 1913 mt 3005 2008 L
3005 2008 mt 2901 1944 L
c16
-103 -32 76 127 2923 2069 3 MP
PP
0 sg
2923 2069 mt 2999 2196 L
2999 2196 mt 2896 2164 L
c8
76 95 -103 -32 2999 2196 3 MP
PP
0 sg
2999 2196 mt 2896 2164 L
2896 2164 mt 2972 2259 L
c11
-104 1 76 31 2869 2259 3 MP
PP
0 sg
2869 2259 mt 2945 2290 L
2945 2290 mt 2841 2291 L
c11
77 62 -104 1 2945 2290 3 MP
PP
0 sg
2945 2290 mt 2841 2291 L
2841 2291 mt 2918 2353 L
c8
76 31 -103 0 2972 2259 3 MP
PP
0 sg
2972 2259 mt 2869 2259 L
2869 2259 mt 2945 2290 L
c13
-103 0 76 95 2896 2164 3 MP
PP
0 sg
2896 2164 mt 2972 2259 L
2972 2259 mt 2869 2259 L
c11
-103 -161 76 63 2918 2353 3 MP
PP
0 sg
2918 2353 mt 2994 2416 L
2994 2416 mt 2891 2255 L
c8
76 192 -103 -161 2994 2416 3 MP
PP
0 sg
2994 2416 mt 2891 2255 L
2891 2255 mt 2967 2447 L
c8
-104 65 76 -34 2913 2605 3 MP
PP
0 sg
2913 2605 mt 2989 2571 L
2989 2571 mt 2885 2636 L
c13
-103 1 76 95 2901 1944 3 MP
PP
0 sg
2901 1944 mt 2977 2039 L
2977 2039 mt 2874 2040 L
c13
-104 -32 77 62 2841 2291 3 MP
PP
0 sg
2841 2291 mt 2918 2353 L
2918 2353 mt 2814 2321 L
c11
77 -66 -104 -32 2918 2353 3 MP
PP
0 sg
2918 2353 mt 2814 2321 L
2814 2321 mt 2891 2255 L
/c17 { 0.000000 0.437500 1.000000 sr} bdef
c17
-104 64 76 192 2891 2255 3 MP
PP
0 sg
2891 2255 mt 2967 2447 L
2967 2447 mt 2863 2511 L
c11
77 -1 -104 64 2967 2447 3 MP
PP
0 sg
2967 2447 mt 2863 2511 L
2863 2511 mt 2940 2510 L
c11
-103 65 76 -2 2880 2856 3 MP
PP
0 sg
2880 2856 mt 2956 2854 L
2956 2854 mt 2853 2919 L
c11
77 62 -104 33 2940 2510 3 MP
PP
0 sg
2940 2510 mt 2836 2543 L
2836 2543 mt 2913 2605 L
c8
-104 33 77 -1 2863 2511 3 MP
PP
0 sg
2863 2511 mt 2940 2510 L
2940 2510 mt 2836 2543 L
c13
-103 97 76 -2 2858 2667 3 MP
PP
0 sg
2858 2667 mt 2934 2665 L
2934 2665 mt 2831 2762 L
c16
76 -1 -103 97 2934 2665 3 MP
PP
0 sg
2934 2665 mt 2831 2762 L
2831 2762 mt 2907 2761 L
c11
-103 -128 76 191 2853 2919 3 MP
PP
0 sg
2853 2919 mt 2929 3110 L
2929 3110 mt 2826 2982 L
c12
76 -2 -103 -128 2929 3110 3 MP
PP
0 sg
2929 3110 mt 2826 2982 L
2826 2982 mt 2902 2980 L
c11
-103 -96 76 31 2852 1882 3 MP
PP
0 sg
2852 1882 mt 2928 1913 L
2928 1913 mt 2825 1817 L
c11
76 127 -103 -96 2928 1913 3 MP
PP
0 sg
2928 1913 mt 2825 1817 L
2825 1817 mt 2901 1944 L
c11
-104 65 76 -34 2847 2103 3 MP
PP
0 sg
2847 2103 mt 2923 2069 L
2923 2069 mt 2819 2134 L
c16
77 30 -104 65 2923 2069 3 MP
PP
0 sg
2923 2069 mt 2819 2134 L
2819 2134 mt 2896 2164 L
c13
-103 32 76 63 2760 2480 3 MP
PP
0 sg
2760 2480 mt 2836 2543 L
2836 2543 mt 2733 2575 L
c11
76 -34 -103 32 2836 2543 3 MP
PP
0 sg
2836 2543 mt 2733 2575 L
2733 2575 mt 2809 2541 L
c11
-104 -64 77 62 2836 2543 3 MP
PP
0 sg
2836 2543 mt 2913 2605 L
2913 2605 mt 2809 2541 L
c8
76 95 -104 -64 2913 2605 3 MP
PP
0 sg
2913 2605 mt 2809 2541 L
2809 2541 mt 2885 2636 L
c11
-103 64 76 -1 2831 2762 3 MP
PP
0 sg
2831 2762 mt 2907 2761 L
2907 2761 mt 2804 2825 L
c13
76 31 -103 64 2907 2761 3 MP
PP
0 sg
2907 2761 mt 2804 2825 L
2804 2825 mt 2880 2856 L
c11
-104 65 76 -2 2826 2982 3 MP
PP
0 sg
2826 2982 mt 2902 2980 L
2902 2980 mt 2798 3045 L
c13
76 63 -103 33 2901 1944 3 MP
PP
0 sg
2901 1944 mt 2798 1977 L
2798 1977 mt 2874 2040 L
c13
-104 32 77 96 2699 1789 3 MP
PP
0 sg
2699 1789 mt 2776 1885 L
2776 1885 mt 2672 1917 L
c11
77 -34 -104 -31 2852 1882 3 MP
PP
0 sg
2852 1882 mt 2748 1851 L
2748 1851 mt 2825 1817 L
c8
-104 -31 76 -3 2776 1885 3 MP
PP
0 sg
2776 1885 mt 2852 1882 L
2852 1882 mt 2748 1851 L
/c18 { 0.000000 0.375000 1.000000 sr} bdef
c18
-103 33 76 127 2825 1817 3 MP
PP
0 sg
2825 1817 mt 2901 1944 L
2901 1944 mt 2798 1977 L
c13
-104 32 77 30 2819 2134 3 MP
PP
0 sg
2819 2134 mt 2896 2164 L
2896 2164 mt 2792 2196 L
c13
77 63 -104 32 2896 2164 3 MP
PP
0 sg
2896 2164 mt 2792 2196 L
2792 2196 mt 2869 2259 L
c16
-104 162 77 -66 2814 2321 3 MP
PP
0 sg
2814 2321 mt 2891 2255 L
2891 2255 mt 2787 2417 L
c17
76 94 -104 162 2891 2255 3 MP
PP
0 sg
2891 2255 mt 2787 2417 L
2787 2417 mt 2863 2511 L
c16
-103 97 76 95 2809 2541 3 MP
PP
0 sg
2809 2541 mt 2885 2636 L
2885 2636 mt 2782 2733 L
c11
76 -66 -103 97 2885 2636 3 MP
PP
0 sg
2885 2636 mt 2782 2733 L
2782 2733 mt 2858 2667 L
c11
77 63 -104 0 2880 2856 3 MP
PP
0 sg
2880 2856 mt 2776 2856 L
2776 2856 mt 2853 2919 L
c11
-104 0 76 31 2804 2825 3 MP
PP
0 sg
2804 2825 mt 2880 2856 L
2880 2856 mt 2776 2856 L
c13
-104 0 76 63 2798 1977 3 MP
PP
0 sg
2798 1977 mt 2874 2040 L
2874 2040 mt 2770 2040 L
c11
77 63 -104 0 2874 2040 3 MP
PP
0 sg
2874 2040 mt 2770 2040 L
2770 2040 mt 2847 2103 L
c11
76 63 -104 -31 2869 2259 3 MP
PP
0 sg
2869 2259 mt 2765 2228 L
2765 2228 mt 2841 2291 L
c13
-104 -31 77 63 2792 2196 3 MP
PP
0 sg
2792 2196 mt 2869 2259 L
2869 2259 mt 2765 2228 L
c8
76 63 -103 -31 2863 2511 3 MP
PP
0 sg
2863 2511 mt 2760 2480 L
2760 2480 mt 2836 2543 L
c13
-103 -31 76 94 2787 2417 3 MP
PP
0 sg
2787 2417 mt 2863 2511 L
2863 2511 mt 2760 2480 L
c11
-103 32 76 -1 2629 2607 3 MP
PP
0 sg
2629 2607 mt 2705 2606 L
2705 2606 mt 2602 2638 L
c11
76 -1 -104 32 2733 2575 3 MP
PP
0 sg
2733 2575 mt 2629 2607 L
2629 2607 mt 2705 2606 L
c13
76 -34 -103 32 2705 2606 3 MP
PP
0 sg
2705 2606 mt 2602 2638 L
2602 2638 mt 2678 2604 L
c9
76 95 -104 -129 2782 2733 3 MP
PP
0 sg
2782 2733 mt 2678 2604 L
2678 2604 mt 2754 2699 L
c13
-104 -129 77 127 2705 2606 3 MP
PP
0 sg
2705 2606 mt 2782 2733 L
2782 2733 mt 2678 2604 L
c16
77 127 -104 65 2809 2541 3 MP
PP
0 sg
2809 2541 mt 2705 2606 L
2705 2606 mt 2782 2733 L
c9
-104 32 76 -66 2782 2733 3 MP
PP
0 sg
2782 2733 mt 2858 2667 L
2858 2667 mt 2754 2699 L
c13
77 63 -104 32 2858 2667 3 MP
PP
0 sg
2858 2667 mt 2754 2699 L
2754 2699 mt 2831 2762 L
c11
77 63 -104 0 2853 2919 3 MP
PP
0 sg
2853 2919 mt 2749 2919 L
2749 2919 mt 2826 2982 L
c13
-104 0 77 63 2776 2856 3 MP
PP
0 sg
2776 2856 mt 2853 2919 L
2853 2919 mt 2749 2919 L
c13
-104 -32 77 63 2770 2040 3 MP
PP
0 sg
2770 2040 mt 2847 2103 L
2847 2103 mt 2743 2071 L
c11
76 63 -104 -32 2847 2103 3 MP
PP
0 sg
2847 2103 mt 2743 2071 L
2743 2071 mt 2819 2134 L
c13
76 -34 -103 64 2841 2291 3 MP
PP
0 sg
2841 2291 mt 2738 2355 L
2738 2355 mt 2814 2321 L
c16
-103 64 76 63 2765 2228 3 MP
PP
0 sg
2765 2228 mt 2841 2291 L
2841 2291 mt 2738 2355 L
c11
77 62 -104 1 2831 2762 3 MP
PP
0 sg
2831 2762 mt 2727 2763 L
2727 2763 mt 2804 2825 L
c13
-104 1 77 63 2754 2699 3 MP
PP
0 sg
2754 2699 mt 2831 2762 L
2831 2762 mt 2727 2763 L
c13
-104 -32 77 63 2749 2919 3 MP
PP
0 sg
2749 2919 mt 2826 2982 L
2826 2982 mt 2722 2950 L
c11
76 95 -104 -32 2826 2982 3 MP
PP
0 sg
2826 2982 mt 2722 2950 L
2722 2950 mt 2798 3045 L
c16
-104 32 77 -34 2748 1851 3 MP
PP
0 sg
2748 1851 mt 2825 1817 L
2825 1817 mt 2721 1849 L
c8
76 -66 -104 32 2776 1885 3 MP
PP
0 sg
2776 1885 mt 2672 1917 L
2672 1917 mt 2748 1851 L
c8
-103 129 76 -66 2672 1917 3 MP
PP
0 sg
2672 1917 mt 2748 1851 L
2748 1851 mt 2645 1980 L
c16
76 -131 -103 129 2748 1851 3 MP
PP
0 sg
2748 1851 mt 2645 1980 L
2645 1980 mt 2721 1849 L
c18
77 128 -104 32 2825 1817 3 MP
PP
0 sg
2825 1817 mt 2721 1849 L
2721 1849 mt 2798 1977 L
c16
-103 32 76 63 2743 2071 3 MP
PP
0 sg
2743 2071 mt 2819 2134 L
2819 2134 mt 2716 2166 L
c13
76 30 -103 32 2819 2134 3 MP
PP
0 sg
2819 2134 mt 2716 2166 L
2716 2166 mt 2792 2196 L
c11
-103 65 76 -34 2738 2355 3 MP
PP
0 sg
2738 2355 mt 2814 2321 L
2814 2321 mt 2711 2386 L
c16
76 31 -103 65 2814 2321 3 MP
PP
0 sg
2814 2321 mt 2711 2386 L
2711 2386 mt 2787 2417 L
c11
-104 65 76 -34 2733 2575 3 MP
PP
0 sg
2733 2575 mt 2809 2541 L
2809 2541 mt 2705 2606 L
c11
76 63 -104 -32 2804 2825 3 MP
PP
0 sg
2804 2825 mt 2700 2793 L
2700 2793 mt 2776 2856 L
c13
-104 -32 77 62 2727 2763 3 MP
PP
0 sg
2727 2763 mt 2804 2825 L
2804 2825 mt 2700 2793 L
c16
-103 0 76 95 2722 2950 3 MP
PP
0 sg
2722 2950 mt 2798 3045 L
2798 3045 mt 2695 3045 L
c13
76 63 -104 0 2798 1977 3 MP
PP
0 sg
2798 1977 mt 2694 1977 L
2694 1977 mt 2770 2040 L
c18
-104 0 77 128 2721 1849 3 MP
PP
0 sg
2721 1849 mt 2798 1977 L
2798 1977 mt 2694 1977 L
c13
-103 33 76 30 2716 2166 3 MP
PP
0 sg
2716 2166 mt 2792 2196 L
2792 2196 mt 2689 2229 L
c13
76 -1 -103 33 2792 2196 3 MP
PP
0 sg
2792 2196 mt 2689 2229 L
2689 2229 mt 2765 2228 L
c13
-104 0 76 31 2711 2386 3 MP
PP
0 sg
2711 2386 mt 2787 2417 L
2787 2417 mt 2683 2417 L
c13
77 63 -104 0 2787 2417 3 MP
PP
0 sg
2787 2417 mt 2683 2417 L
2683 2417 mt 2760 2480 L
c13
76 63 -103 0 2776 2856 3 MP
PP
0 sg
2776 2856 mt 2673 2856 L
2673 2856 mt 2749 2919 L
c16
-103 0 76 63 2700 2793 3 MP
PP
0 sg
2700 2793 mt 2776 2856 L
2776 2856 mt 2673 2856 L
c16
-104 -65 77 193 2541 1915 3 MP
PP
0 sg
2541 1915 mt 2618 2108 L
2618 2108 mt 2514 2043 L
c14
76 63 -104 -65 2618 2108 3 MP
PP
0 sg
2618 2108 mt 2514 2043 L
2514 2043 mt 2590 2106 L
c8
77 193 -104 -65 2645 1980 3 MP
PP
0 sg
2645 1980 mt 2541 1915 L
2541 1915 mt 2618 2108 L
c18
76 -131 -103 259 2721 1849 3 MP
PP
0 sg
2721 1849 mt 2618 2108 L
2618 2108 mt 2694 1977 L
c8
-103 259 76 -131 2645 1980 3 MP
PP
0 sg
2645 1980 mt 2721 1849 L
2721 1849 mt 2618 2108 L
c16
77 -130 -104 129 2694 1977 3 MP
PP
0 sg
2694 1977 mt 2590 2106 L
2590 2106 mt 2667 1976 L
c14
-104 129 76 -131 2618 2108 3 MP
PP
0 sg
2618 2108 mt 2694 1977 L
2694 1977 mt 2590 2106 L
c16
-103 -64 76 63 2694 1977 3 MP
PP
0 sg
2694 1977 mt 2770 2040 L
2770 2040 mt 2667 1976 L
c13
76 95 -103 -64 2770 2040 3 MP
PP
0 sg
2770 2040 mt 2667 1976 L
2667 1976 mt 2743 2071 L
c16
77 63 -104 64 2765 2228 3 MP
PP
0 sg
2765 2228 mt 2661 2292 L
2661 2292 mt 2738 2355 L
c13
-104 64 76 -1 2689 2229 3 MP
PP
0 sg
2689 2229 mt 2765 2228 L
2765 2228 mt 2661 2292 L
c16
-104 32 77 63 2683 2417 3 MP
PP
0 sg
2683 2417 mt 2760 2480 L
2760 2480 mt 2656 2512 L
c13
77 63 -104 32 2760 2480 3 MP
PP
0 sg
2760 2480 mt 2656 2512 L
2656 2512 mt 2733 2575 L
/c19 { 0.000000 0.250000 1.000000 sr} bdef
c19
-103 65 76 95 2678 2604 3 MP
PP
0 sg
2678 2604 mt 2754 2699 L
2754 2699 mt 2651 2764 L
c13
76 -1 -103 65 2754 2699 3 MP
PP
0 sg
2754 2699 mt 2651 2764 L
2651 2764 mt 2727 2763 L
c16
-103 33 76 63 2673 2856 3 MP
PP
0 sg
2673 2856 mt 2749 2919 L
2749 2919 mt 2646 2952 L
c13
76 -2 -103 33 2749 2919 3 MP
PP
0 sg
2749 2919 mt 2646 2952 L
2646 2952 mt 2722 2950 L
c18
-104 64 76 95 2667 1976 3 MP
PP
0 sg
2667 1976 mt 2743 2071 L
2743 2071 mt 2639 2135 L
c16
77 31 -104 64 2743 2071 3 MP
PP
0 sg
2743 2071 mt 2639 2135 L
2639 2135 mt 2716 2166 L
c11
77 30 -104 1 2738 2355 3 MP
PP
0 sg
2738 2355 mt 2634 2356 L
2634 2356 mt 2711 2386 L
c13
-104 1 77 63 2661 2292 3 MP
PP
0 sg
2661 2292 mt 2738 2355 L
2738 2355 mt 2634 2356 L
c13
-104 32 77 63 2656 2512 3 MP
PP
0 sg
2656 2512 mt 2733 2575 L
2733 2575 mt 2629 2607 L
c11
-104 65 76 30 2575 2734 3 MP
PP
0 sg
2575 2734 mt 2651 2764 L
2651 2764 mt 2547 2829 L
c19
76 30 -103 130 2678 2604 3 MP
PP
0 sg
2678 2604 mt 2575 2734 L
2575 2734 mt 2651 2764 L
c11
-103 0 76 -1 2651 2764 3 MP
PP
0 sg
2651 2764 mt 2727 2763 L
2727 2763 mt 2624 2763 L
c11
77 -66 -104 65 2651 2764 3 MP
PP
0 sg
2651 2764 mt 2547 2829 L
2547 2829 mt 2624 2763 L
c13
76 30 -103 0 2727 2763 3 MP
PP
0 sg
2727 2763 mt 2624 2763 L
2624 2763 mt 2700 2793 L
c16
77 -2 -104 97 2722 2950 3 MP
PP
0 sg
2722 2950 mt 2618 3047 L
2618 3047 mt 2695 3045 L
c13
-104 97 76 -2 2646 2952 3 MP
PP
0 sg
2646 2952 mt 2722 2950 L
2722 2950 mt 2618 3047 L
c13
-104 32 77 31 2639 2135 3 MP
PP
0 sg
2639 2135 mt 2716 2166 L
2716 2166 mt 2612 2198 L
c13
77 31 -104 32 2716 2166 3 MP
PP
0 sg
2716 2166 mt 2612 2198 L
2612 2198 mt 2689 2229 L
c13
76 -34 -104 65 2711 2386 3 MP
PP
0 sg
2711 2386 mt 2607 2451 L
2607 2451 mt 2683 2417 L
c13
-104 65 77 30 2634 2356 3 MP
PP
0 sg
2634 2356 mt 2711 2386 L
2711 2386 mt 2607 2451 L
c16
-104 33 76 30 2624 2763 3 MP
PP
0 sg
2624 2763 mt 2700 2793 L
2700 2793 mt 2596 2826 L
c16
77 30 -104 33 2700 2793 3 MP
PP
0 sg
2700 2793 mt 2596 2826 L
2596 2826 mt 2673 2856 L
c13
76 193 -103 -65 2699 1789 3 MP
PP
0 sg
2699 1789 mt 2596 1724 L
2596 1724 mt 2672 1917 L
c11
-104 33 77 -2 2618 3047 3 MP
PP
0 sg
2618 3047 mt 2695 3045 L
2695 3045 mt 2591 3078 L
c13
-104 0 77 31 2612 2198 3 MP
PP
0 sg
2612 2198 mt 2689 2229 L
2689 2229 mt 2585 2229 L
c13
76 63 -104 0 2689 2229 3 MP
PP
0 sg
2689 2229 mt 2585 2229 L
2585 2229 mt 2661 2292 L
c13
76 63 -103 32 2634 2356 3 MP
PP
0 sg
2634 2356 mt 2531 2388 L
2531 2388 mt 2607 2451 L
c11
-103 0 76 -34 2607 2451 3 MP
PP
0 sg
2607 2451 mt 2683 2417 L
2683 2417 mt 2580 2417 L
c16
76 95 -103 0 2683 2417 3 MP
PP
0 sg
2683 2417 mt 2580 2417 L
2580 2417 mt 2656 2512 L
c13
-103 130 76 -34 2602 2638 3 MP
PP
0 sg
2602 2638 mt 2678 2604 L
2678 2604 mt 2575 2734 L
c16
77 31 -104 65 2673 2856 3 MP
PP
0 sg
2673 2856 mt 2569 2921 L
2569 2921 mt 2646 2952 L
c16
-104 65 77 30 2596 2826 3 MP
PP
0 sg
2596 2826 mt 2673 2856 L
2673 2856 mt 2569 2921 L
c8
77 225 -104 -162 2672 1917 3 MP
PP
0 sg
2672 1917 mt 2568 1755 L
2568 1755 mt 2645 1980 L
c18
-104 -162 76 193 2596 1724 3 MP
PP
0 sg
2596 1724 mt 2672 1917 L
2672 1917 mt 2568 1755 L
c8
-104 193 77 -130 2590 2106 3 MP
PP
0 sg
2590 2106 mt 2667 1976 L
2667 1976 mt 2563 2169 L
c18
76 -34 -104 193 2667 1976 3 MP
PP
0 sg
2667 1976 mt 2563 2169 L
2563 2169 mt 2639 2135 L
c13
76 -1 -103 65 2661 2292 3 MP
PP
0 sg
2661 2292 mt 2558 2357 L
2558 2357 mt 2634 2356 L
c16
-103 65 76 63 2585 2229 3 MP
PP
0 sg
2585 2229 mt 2661 2292 L
2661 2292 mt 2558 2357 L
c13
-104 32 76 63 2531 2388 3 MP
PP
0 sg
2531 2388 mt 2607 2451 L
2607 2451 mt 2503 2483 L
c11
77 -66 -104 32 2607 2451 3 MP
PP
0 sg
2607 2451 mt 2503 2483 L
2503 2483 mt 2580 2417 L
c19
-103 33 76 95 2580 2417 3 MP
PP
0 sg
2580 2417 mt 2656 2512 L
2656 2512 mt 2553 2545 L
c13
76 62 -103 33 2656 2512 3 MP
PP
0 sg
2656 2512 mt 2553 2545 L
2553 2545 mt 2629 2607 L
c13
-104 32 77 31 2569 2921 3 MP
PP
0 sg
2569 2921 mt 2646 2952 L
2646 2952 mt 2542 2984 L
c13
76 63 -104 32 2646 2952 3 MP
PP
0 sg
2646 2952 mt 2542 2984 L
2542 2984 mt 2618 3047 L
c17
-104 -65 77 225 2568 1755 3 MP
PP
0 sg
2568 1755 mt 2645 1980 L
2645 1980 mt 2541 1915 L
c8
-103 130 76 -34 2563 2169 3 MP
PP
0 sg
2563 2169 mt 2639 2135 L
2639 2135 mt 2536 2265 L
c13
76 -67 -103 130 2639 2135 3 MP
PP
0 sg
2639 2135 mt 2536 2265 L
2536 2265 mt 2612 2198 L
c11
-103 32 76 -1 2558 2357 3 MP
PP
0 sg
2558 2357 mt 2634 2356 L
2634 2356 mt 2531 2388 L
c8
76 63 -103 32 2454 2422 3 MP
PP
0 sg
2454 2422 mt 2351 2454 L
2351 2454 mt 2427 2517 L
c13
76 -34 -104 129 2531 2388 3 MP
PP
0 sg
2531 2388 mt 2427 2517 L
2427 2517 mt 2503 2483 L
c8
-104 129 77 -34 2454 2422 3 MP
PP
0 sg
2454 2422 mt 2531 2388 L
2531 2388 mt 2427 2517 L
c9
-103 0 76 -34 2427 2517 3 MP
PP
0 sg
2427 2517 mt 2503 2483 L
2503 2483 mt 2400 2483 L
c11
76 -34 -103 0 2503 2483 3 MP
PP
0 sg
2503 2483 mt 2400 2483 L
2400 2483 mt 2476 2449 L
c11
-104 32 77 -66 2503 2483 3 MP
PP
0 sg
2503 2483 mt 2580 2417 L
2580 2417 mt 2476 2449 L
c19
-104 64 77 96 2476 2449 3 MP
PP
0 sg
2476 2449 mt 2553 2545 L
2553 2545 mt 2449 2609 L
c13
76 -66 -104 64 2553 2545 3 MP
PP
0 sg
2553 2545 mt 2449 2609 L
2449 2609 mt 2525 2543 L
c11
77 95 -104 -64 2629 2607 3 MP
PP
0 sg
2629 2607 mt 2525 2543 L
2525 2543 mt 2602 2638 L
c13
-104 -64 76 62 2553 2545 3 MP
PP
0 sg
2553 2545 mt 2629 2607 L
2629 2607 mt 2525 2543 L
c8
-104 161 77 -66 2547 2829 3 MP
PP
0 sg
2547 2829 mt 2624 2763 L
2624 2763 mt 2520 2924 L
c16
76 -98 -104 161 2624 2763 3 MP
PP
0 sg
2624 2763 mt 2520 2924 L
2520 2924 mt 2596 2826 L
c11
76 63 -103 -32 2618 3047 3 MP
PP
0 sg
2618 3047 mt 2515 3015 L
2515 3015 mt 2591 3078 L
c13
-103 -32 76 63 2542 2984 3 MP
PP
0 sg
2542 2984 mt 2618 3047 L
2618 3047 mt 2515 3015 L
c8
76 31 -103 65 2563 2169 3 MP
PP
0 sg
2563 2169 mt 2460 2234 L
2460 2234 mt 2536 2265 L
c9
-103 33 76 -67 2536 2265 3 MP
PP
0 sg
2536 2265 mt 2612 2198 L
2612 2198 mt 2509 2231 L
c13
76 -2 -103 33 2612 2198 3 MP
PP
0 sg
2612 2198 mt 2509 2231 L
2509 2231 mt 2585 2229 L
c13
77 31 -104 65 2602 2638 3 MP
PP
0 sg
2602 2638 mt 2498 2703 L
2498 2703 mt 2575 2734 L
c19
-104 65 77 95 2525 2543 3 MP
PP
0 sg
2525 2543 mt 2602 2638 L
2602 2638 mt 2498 2703 L
c13
-104 -65 76 127 2444 2797 3 MP
PP
0 sg
2444 2797 mt 2520 2924 L
2520 2924 mt 2416 2859 L
c8
76 127 -103 -32 2547 2829 3 MP
PP
0 sg
2547 2829 mt 2444 2797 L
2444 2797 mt 2520 2924 L
c9
-103 65 76 -98 2520 2924 3 MP
PP
0 sg
2520 2924 mt 2596 2826 L
2596 2826 mt 2493 2891 L
c16
76 30 -103 65 2596 2826 3 MP
PP
0 sg
2596 2826 mt 2493 2891 L
2493 2891 mt 2569 2921 L
c18
76 -34 -104 65 2596 1724 3 MP
PP
0 sg
2596 1724 mt 2492 1789 L
2492 1789 mt 2568 1755 L
c16
-103 32 76 63 2515 3015 3 MP
PP
0 sg
2515 3015 mt 2591 3078 L
2591 3078 mt 2488 3110 L
c11
-103 33 76 63 2514 2043 3 MP
PP
0 sg
2514 2043 mt 2590 2106 L
2590 2106 mt 2487 2139 L
c8
76 30 -103 33 2590 2106 3 MP
PP
0 sg
2590 2106 mt 2487 2139 L
2487 2139 mt 2563 2169 L
c16
77 -2 -104 130 2585 2229 3 MP
PP
0 sg
2585 2229 mt 2481 2359 L
2481 2359 mt 2558 2357 L
c9
-104 65 76 31 2460 2234 3 MP
PP
0 sg
2460 2234 mt 2536 2265 L
2536 2265 mt 2432 2330 L
c9
77 -99 -104 65 2536 2265 3 MP
PP
0 sg
2536 2265 mt 2432 2330 L
2432 2330 mt 2509 2231 L
c13
-104 130 76 -2 2509 2231 3 MP
PP
0 sg
2509 2231 mt 2585 2229 L
2585 2229 mt 2481 2359 L
c19
77 96 -104 32 2580 2417 3 MP
PP
0 sg
2580 2417 mt 2476 2449 L
2476 2449 mt 2553 2545 L
c11
-104 32 77 31 2498 2703 3 MP
PP
0 sg
2498 2703 mt 2575 2734 L
2575 2734 mt 2471 2766 L
c11
76 63 -104 32 2575 2734 3 MP
PP
0 sg
2575 2734 mt 2471 2766 L
2471 2766 mt 2547 2829 L
c13
76 -1 -103 64 2569 2921 3 MP
PP
0 sg
2569 2921 mt 2466 2985 L
2466 2985 mt 2542 2984 L
c9
77 32 -104 -65 2520 2924 3 MP
PP
0 sg
2520 2924 mt 2416 2859 L
2416 2859 mt 2493 2891 L
c13
-103 64 76 30 2493 2891 3 MP
PP
0 sg
2493 2891 mt 2569 2921 L
2569 2921 mt 2466 2985 L
c17
76 95 -103 65 2568 1755 3 MP
PP
0 sg
2568 1755 mt 2465 1820 L
2465 1820 mt 2541 1915 L
c19
-103 65 76 -34 2492 1789 3 MP
PP
0 sg
2492 1789 mt 2568 1755 L
2568 1755 mt 2465 1820 L
c8
-103 65 76 30 2487 2139 3 MP
PP
0 sg
2487 2139 mt 2563 2169 L
2563 2169 mt 2460 2234 L
c11
77 -34 -104 65 2558 2357 3 MP
PP
0 sg
2558 2357 mt 2454 2422 L
2454 2422 mt 2531 2388 L
c8
-104 65 77 -2 2481 2359 3 MP
PP
0 sg
2481 2359 mt 2558 2357 L
2558 2357 mt 2454 2422 L
c11
-103 -32 76 63 2471 2766 3 MP
PP
0 sg
2471 2766 mt 2547 2829 L
2547 2829 mt 2444 2797 L
c11
76 31 -104 -32 2466 2985 3 MP
PP
0 sg
2466 2985 mt 2362 2953 L
2362 2953 mt 2438 2984 L
c11
-104 -32 77 62 2318 2705 3 MP
PP
0 sg
2318 2705 mt 2395 2767 L
2395 2767 mt 2291 2735 L
c8
77 62 -104 1 2422 2704 3 MP
PP
0 sg
2422 2704 mt 2318 2705 L
2318 2705 mt 2395 2767 L
c13
-104 1 77 95 2345 2609 3 MP
PP
0 sg
2345 2609 mt 2422 2704 L
2422 2704 mt 2318 2705 L
c8
76 -33 -104 -32 2395 2767 3 MP
PP
0 sg
2395 2767 mt 2291 2735 L
2291 2735 mt 2367 2702 L
c19
76 160 -103 96 2367 2702 3 MP
PP
0 sg
2367 2702 mt 2264 2798 L
2264 2798 mt 2340 2958 L
c8
-103 64 76 -1 2422 2704 3 MP
PP
0 sg
2422 2704 mt 2498 2703 L
2498 2703 mt 2395 2767 L
c11
76 -1 -103 64 2498 2703 3 MP
PP
0 sg
2498 2703 mt 2395 2767 L
2395 2767 mt 2471 2766 L
c8
-104 -64 76 -1 2395 2767 3 MP
PP
0 sg
2395 2767 mt 2471 2766 L
2471 2766 mt 2367 2702 L
c19
-104 161 77 95 2367 2702 3 MP
PP
0 sg
2367 2702 mt 2444 2797 L
2444 2797 mt 2340 2958 L
c13
76 -99 -104 161 2444 2797 3 MP
PP
0 sg
2444 2797 mt 2340 2958 L
2340 2958 mt 2416 2859 L
c14
-103 33 76 -99 2340 2958 3 MP
PP
0 sg
2340 2958 mt 2416 2859 L
2416 2859 mt 2313 2892 L
c13
76 -34 -103 33 2416 2859 3 MP
PP
0 sg
2416 2859 mt 2313 2892 L
2313 2892 mt 2389 2858 L
c19
-104 -32 77 127 2389 2858 3 MP
PP
0 sg
2389 2858 mt 2466 2985 L
2466 2985 mt 2362 2953 L
c13
77 127 -104 -33 2493 2891 3 MP
PP
0 sg
2493 2891 mt 2389 2858 L
2389 2858 mt 2466 2985 L
c11
-104 0 76 -1 2466 2985 3 MP
PP
0 sg
2466 2985 mt 2542 2984 L
2542 2984 mt 2438 2984 L
c13
77 31 -104 0 2542 2984 3 MP
PP
0 sg
2542 2984 mt 2438 2984 L
2438 2984 mt 2515 3015 L
c18
-103 -64 76 95 2465 1820 3 MP
PP
0 sg
2465 1820 mt 2541 1915 L
2541 1915 mt 2438 1851 L
c16
76 192 -103 -64 2541 1915 3 MP
PP
0 sg
2541 1915 mt 2438 1851 L
2438 1851 mt 2514 2043 L
c11
-103 161 76 -66 2449 2609 3 MP
PP
0 sg
2449 2609 mt 2525 2543 L
2525 2543 mt 2422 2704 L
c19
76 -1 -103 161 2525 2543 3 MP
PP
0 sg
2525 2543 mt 2422 2704 L
2422 2704 mt 2498 2703 L
c16
-104 65 77 31 2438 2984 3 MP
PP
0 sg
2438 2984 mt 2515 3015 L
2515 3015 mt 2411 3080 L
c16
77 30 -104 65 2515 3015 3 MP
PP
0 sg
2515 3015 mt 2411 3080 L
2411 3080 mt 2488 3110 L
c17
-104 -97 76 192 2438 1851 3 MP
PP
0 sg
2438 1851 mt 2514 2043 L
2514 2043 mt 2410 1946 L
c11
77 193 -104 -97 2514 2043 3 MP
PP
0 sg
2514 2043 mt 2410 1946 L
2410 1946 mt 2487 2139 L
c19
-104 -64 76 192 2280 2074 3 MP
PP
0 sg
2280 2074 mt 2356 2266 L
2356 2266 mt 2252 2202 L
c9
77 31 -104 -64 2356 2266 3 MP
PP
0 sg
2356 2266 mt 2252 2202 L
2252 2202 mt 2329 2233 L
c11
76 192 -103 -64 2383 2138 3 MP
PP
0 sg
2383 2138 mt 2280 2074 L
2280 2074 mt 2356 2266 L
c11
-104 32 77 96 2383 2138 3 MP
PP
0 sg
2383 2138 mt 2460 2234 L
2460 2234 mt 2356 2266 L
c9
76 64 -104 32 2460 2234 3 MP
PP
0 sg
2460 2234 mt 2356 2266 L
2356 2266 mt 2432 2330 L
c9
-103 -97 76 64 2356 2266 3 MP
PP
0 sg
2356 2266 mt 2432 2330 L
2432 2330 mt 2329 2233 L
c14
76 95 -103 -97 2432 2330 3 MP
PP
0 sg
2432 2330 mt 2329 2233 L
2329 2233 mt 2405 2328 L
c14
-104 97 77 -99 2432 2330 3 MP
PP
0 sg
2432 2330 mt 2509 2231 L
2509 2231 mt 2405 2328 L
c13
76 31 -104 97 2509 2231 3 MP
PP
0 sg
2509 2231 mt 2405 2328 L
2405 2328 mt 2481 2359 L
c13
-104 -33 77 32 2416 2859 3 MP
PP
0 sg
2416 2859 mt 2493 2891 L
2493 2891 mt 2389 2858 L
c19
77 192 -104 -161 2492 1789 3 MP
PP
0 sg
2492 1789 mt 2388 1628 L
2388 1628 mt 2465 1820 L
c8
77 96 -104 -1 2487 2139 3 MP
PP
0 sg
2487 2139 mt 2383 2138 L
2383 2138 mt 2460 2234 L
c18
-104 -1 77 193 2410 1946 3 MP
PP
0 sg
2410 1946 mt 2487 2139 L
2487 2139 mt 2383 2138 L
c8
-103 32 76 31 2405 2328 3 MP
PP
0 sg
2405 2328 mt 2481 2359 L
2481 2359 mt 2378 2391 L
c8
76 31 -103 32 2481 2359 3 MP
PP
0 sg
2481 2359 mt 2378 2391 L
2378 2391 mt 2454 2422 L
c8
-104 32 76 63 2351 2454 3 MP
PP
0 sg
2351 2454 mt 2427 2517 L
2427 2517 mt 2323 2549 L
c9
77 -66 -104 32 2427 2517 3 MP
PP
0 sg
2427 2517 mt 2323 2549 L
2323 2549 mt 2400 2483 L
c19
76 31 -103 129 2476 2449 3 MP
PP
0 sg
2476 2449 mt 2373 2578 L
2373 2578 mt 2449 2609 L
c13
-103 129 76 -34 2400 2483 3 MP
PP
0 sg
2400 2483 mt 2476 2449 L
2476 2449 mt 2373 2578 L
c11
77 95 -104 -64 2471 2766 3 MP
PP
0 sg
2471 2766 mt 2367 2702 L
2367 2702 mt 2444 2797 L
/c20 { 0.000000 0.750000 1.000000 sr} bdef
c20
-104 32 77 192 2388 1628 3 MP
PP
0 sg
2388 1628 mt 2465 1820 L
2465 1820 mt 2361 1852 L
c18
77 -1 -104 32 2465 1820 3 MP
PP
0 sg
2465 1820 mt 2361 1852 L
2361 1852 mt 2438 1851 L
c8
-103 32 76 31 2378 2391 3 MP
PP
0 sg
2378 2391 mt 2454 2422 L
2454 2422 mt 2351 2454 L
c11
-104 0 76 31 2373 2578 3 MP
PP
0 sg
2373 2578 mt 2449 2609 L
2449 2609 mt 2345 2609 L
c11
77 95 -104 0 2449 2609 3 MP
PP
0 sg
2449 2609 mt 2345 2609 L
2345 2609 mt 2422 2704 L
c16
76 0 -103 96 2438 2984 3 MP
PP
0 sg
2438 2984 mt 2335 3080 L
2335 3080 mt 2411 3080 L
c16
-103 96 76 31 2362 2953 3 MP
PP
0 sg
2362 2953 mt 2438 2984 L
2438 2984 mt 2335 3080 L
c18
-104 128 77 -1 2361 1852 3 MP
PP
0 sg
2361 1852 mt 2438 1851 L
2438 1851 mt 2334 1979 L
c17
76 -33 -104 128 2438 1851 3 MP
PP
0 sg
2438 1851 mt 2334 1979 L
2334 1979 mt 2410 1946 L
c18
76 63 -103 129 2410 1946 3 MP
PP
0 sg
2410 1946 mt 2307 2075 L
2307 2075 mt 2383 2138 L
c16
-103 129 76 -33 2334 1979 3 MP
PP
0 sg
2334 1979 mt 2410 1946 L
2410 1946 mt 2307 2075 L
c13
-104 32 76 95 2329 2233 3 MP
PP
0 sg
2329 2233 mt 2405 2328 L
2405 2328 mt 2301 2360 L
c8
77 31 -104 32 2405 2328 3 MP
PP
0 sg
2405 2328 mt 2301 2360 L
2301 2360 mt 2378 2391 L
c13
77 -2 -104 97 2400 2483 3 MP
PP
0 sg
2400 2483 mt 2296 2580 L
2296 2580 mt 2373 2578 L
c9
-104 97 77 -66 2323 2549 3 MP
PP
0 sg
2323 2549 mt 2400 2483 L
2400 2483 mt 2296 2580 L
c13
-103 -65 76 -34 2313 2892 3 MP
PP
0 sg
2313 2892 mt 2389 2858 L
2389 2858 mt 2286 2793 L
c19
76 160 -103 -65 2389 2858 3 MP
PP
0 sg
2389 2858 mt 2286 2793 L
2286 2793 mt 2362 2953 L
c20
76 127 -103 97 2388 1628 3 MP
PP
0 sg
2388 1628 mt 2285 1725 L
2285 1725 mt 2361 1852 L
c13
-103 -64 76 63 2307 2075 3 MP
PP
0 sg
2307 2075 mt 2383 2138 L
2383 2138 mt 2280 2074 L
c8
-104 32 77 31 2301 2360 3 MP
PP
0 sg
2301 2360 mt 2378 2391 L
2378 2391 mt 2274 2423 L
c8
77 31 -104 32 2378 2391 3 MP
PP
0 sg
2378 2391 mt 2274 2423 L
2274 2423 mt 2351 2454 L
c8
-104 65 77 -2 2296 2580 3 MP
PP
0 sg
2296 2580 mt 2373 2578 L
2373 2578 mt 2269 2643 L
c11
76 -34 -104 65 2373 2578 3 MP
PP
0 sg
2373 2578 mt 2269 2643 L
2269 2643 mt 2345 2609 L
c13
-103 96 76 -33 2291 2735 3 MP
PP
0 sg
2291 2735 mt 2367 2702 L
2367 2702 mt 2264 2798 L
c16
77 30 -104 97 2362 2953 3 MP
PP
0 sg
2362 2953 mt 2258 3050 L
2258 3050 mt 2335 3080 L
c13
77 -2 -104 130 2264 2798 3 MP
PP
0 sg
2264 2798 mt 2160 2928 L
2160 2928 mt 2237 2926 L
c13
-103 -32 76 160 2264 2798 3 MP
PP
0 sg
2264 2798 mt 2340 2958 L
2340 2958 mt 2237 2926 L
c8
-104 32 76 -34 2237 2926 3 MP
PP
0 sg
2237 2926 mt 2313 2892 L
2313 2892 mt 2209 2924 L
c13
77 -131 -104 32 2313 2892 3 MP
PP
0 sg
2313 2892 mt 2209 2924 L
2209 2924 mt 2286 2793 L
c14
76 -34 -103 -32 2340 2958 3 MP
PP
0 sg
2340 2958 mt 2237 2926 L
2237 2926 mt 2313 2892 L
/c21 { 0.000000 0.500000 1.000000 sr} bdef
c21
-104 97 76 160 2286 2793 3 MP
PP
0 sg
2286 2793 mt 2362 2953 L
2362 2953 mt 2258 3050 L
c18
76 94 -103 33 2361 1852 3 MP
PP
0 sg
2361 1852 mt 2258 1885 L
2258 1885 mt 2334 1979 L
/c22 { 0.000000 0.625000 1.000000 sr} bdef
c22
-103 33 76 127 2285 1725 3 MP
PP
0 sg
2285 1725 mt 2361 1852 L
2361 1852 mt 2258 1885 L
c8
-104 33 77 31 2274 2423 3 MP
PP
0 sg
2274 2423 mt 2351 2454 L
2351 2454 mt 2247 2487 L
c8
76 62 -104 33 2351 2454 3 MP
PP
0 sg
2351 2454 mt 2247 2487 L
2247 2487 mt 2323 2549 L
c13
76 -1 -103 97 2345 2609 3 MP
PP
0 sg
2345 2609 mt 2242 2706 L
2242 2706 mt 2318 2705 L
c8
-103 97 76 -34 2269 2643 3 MP
PP
0 sg
2269 2643 mt 2345 2609 L
2345 2609 mt 2242 2706 L
c18
-104 33 76 94 2258 1885 3 MP
PP
0 sg
2258 1885 mt 2334 1979 L
2334 1979 mt 2230 2012 L
c16
77 63 -104 33 2334 1979 3 MP
PP
0 sg
2334 1979 mt 2230 2012 L
2230 2012 mt 2307 2075 L
c13
76 95 -104 32 2329 2233 3 MP
PP
0 sg
2329 2233 mt 2225 2265 L
2225 2265 mt 2301 2360 L
c13
-104 32 77 31 2252 2202 3 MP
PP
0 sg
2252 2202 mt 2329 2233 L
2329 2233 mt 2225 2265 L
c9
76 63 -103 -32 2323 2549 3 MP
PP
0 sg
2323 2549 mt 2220 2517 L
2220 2517 mt 2296 2580 L
c8
-103 -32 76 62 2247 2487 3 MP
PP
0 sg
2247 2487 mt 2323 2549 L
2323 2549 mt 2220 2517 L
c11
-104 -97 77 127 2116 2550 3 MP
PP
0 sg
2116 2550 mt 2193 2677 L
2193 2677 mt 2089 2580 L
c14
76 63 -104 -97 2193 2677 3 MP
PP
0 sg
2193 2677 mt 2089 2580 L
2089 2580 mt 2165 2643 L
c11
77 127 -104 33 2220 2517 3 MP
PP
0 sg
2220 2517 mt 2116 2550 L
2116 2550 mt 2193 2677 L
c11
-103 97 76 63 2220 2517 3 MP
PP
0 sg
2220 2517 mt 2296 2580 L
2296 2580 mt 2193 2677 L
c8
76 -34 -103 97 2296 2580 3 MP
PP
0 sg
2296 2580 mt 2193 2677 L
2193 2677 mt 2269 2643 L
c14
-104 0 76 -34 2193 2677 3 MP
PP
0 sg
2193 2677 mt 2269 2643 L
2269 2643 mt 2165 2643 L
c11
-104 33 77 63 2165 2643 3 MP
PP
0 sg
2165 2643 mt 2242 2706 L
2242 2706 mt 2138 2739 L
c8
77 -34 -104 33 2242 2706 3 MP
PP
0 sg
2242 2706 mt 2138 2739 L
2138 2739 mt 2215 2705 L
c8
77 63 -104 0 2269 2643 3 MP
PP
0 sg
2269 2643 mt 2165 2643 L
2165 2643 mt 2242 2706 L
c8
-103 0 76 -1 2242 2706 3 MP
PP
0 sg
2242 2706 mt 2318 2705 L
2318 2705 mt 2215 2705 L
c11
76 30 -103 0 2318 2705 3 MP
PP
0 sg
2318 2705 mt 2215 2705 L
2215 2705 mt 2291 2735 L
c16
-104 -33 77 63 2230 2012 3 MP
PP
0 sg
2230 2012 mt 2307 2075 L
2307 2075 mt 2203 2042 L
c13
77 32 -104 -33 2307 2075 3 MP
PP
0 sg
2307 2075 mt 2203 2042 L
2203 2042 mt 2280 2074 L
c8
76 31 -103 32 2301 2360 3 MP
PP
0 sg
2301 2360 mt 2198 2392 L
2198 2392 mt 2274 2423 L
c13
-103 32 76 95 2225 2265 3 MP
PP
0 sg
2225 2265 mt 2301 2360 L
2301 2360 mt 2198 2392 L
c13
77 -2 -104 65 2291 2735 3 MP
PP
0 sg
2291 2735 mt 2187 2800 L
2187 2800 mt 2264 2798 L
c13
-104 65 76 30 2215 2705 3 MP
PP
0 sg
2215 2705 mt 2291 2735 L
2291 2735 mt 2187 2800 L
c9
-104 160 77 -2 2160 2928 3 MP
PP
0 sg
2160 2928 mt 2237 2926 L
2237 2926 mt 2133 3086 L
c8
76 -162 -104 160 2237 2926 3 MP
PP
0 sg
2237 2926 mt 2133 3086 L
2133 3086 mt 2209 2924 L
c21
76 -2 -104 259 2286 2793 3 MP
PP
0 sg
2286 2793 mt 2182 3052 L
2182 3052 mt 2258 3050 L
c13
-104 259 77 -131 2209 2924 3 MP
PP
0 sg
2209 2924 mt 2286 2793 L
2286 2793 mt 2182 3052 L
c22
77 353 -104 -193 2285 1725 3 MP
PP
0 sg
2285 1725 mt 2181 1532 L
2181 1532 mt 2258 1885 L
c19
76 63 -104 65 2280 2074 3 MP
PP
0 sg
2280 2074 mt 2176 2139 L
2176 2139 mt 2252 2202 L
c19
-104 65 77 32 2203 2042 3 MP
PP
0 sg
2203 2042 mt 2280 2074 L
2280 2074 mt 2176 2139 L
c8
76 63 -103 1 2274 2423 3 MP
PP
0 sg
2274 2423 mt 2171 2424 L
2171 2424 mt 2247 2487 L
c8
-103 1 76 31 2198 2392 3 MP
PP
0 sg
2198 2392 mt 2274 2423 L
2274 2423 mt 2171 2424 L
c11
-104 130 77 -2 2187 2800 3 MP
PP
0 sg
2187 2800 mt 2264 2798 L
2264 2798 mt 2160 2928 L
c18
76 224 -104 -97 2258 1885 3 MP
PP
0 sg
2258 1885 mt 2154 1788 L
2154 1788 mt 2230 2012 L
/c23 { 0.187500 1.000000 0.812500 sr} bdef
c23
-104 -97 77 353 2181 1532 3 MP
PP
0 sg
2181 1532 mt 2258 1885 L
2258 1885 mt 2154 1788 L
c13
76 63 -103 0 2252 2202 3 MP
PP
0 sg
2252 2202 mt 2149 2202 L
2149 2202 mt 2225 2265 L
c16
-103 0 76 63 2176 2139 3 MP
PP
0 sg
2176 2139 mt 2252 2202 L
2252 2202 mt 2149 2202 L
c11
-104 0 76 63 2171 2424 3 MP
PP
0 sg
2171 2424 mt 2247 2487 L
2247 2487 mt 2143 2487 L
c8
77 30 -104 0 2247 2487 3 MP
PP
0 sg
2247 2487 mt 2143 2487 L
2143 2487 mt 2220 2517 L
c16
76 62 -103 -32 2230 2012 3 MP
PP
0 sg
2230 2012 mt 2127 1980 L
2127 1980 mt 2203 2042 L
/c24 { 0.000000 0.687500 1.000000 sr} bdef
c24
-103 -32 76 224 2154 1788 3 MP
PP
0 sg
2154 1788 mt 2230 2012 L
2230 2012 mt 2127 1980 L
c13
76 62 -103 65 2225 2265 3 MP
PP
0 sg
2225 2265 mt 2122 2330 L
2122 2330 mt 2198 2392 L
c16
-103 65 76 63 2149 2202 3 MP
PP
0 sg
2149 2202 mt 2225 2265 L
2225 2265 mt 2122 2330 L
c11
-104 33 77 30 2143 2487 3 MP
PP
0 sg
2143 2487 mt 2220 2517 L
2220 2517 mt 2116 2550 L
c8
-104 97 77 -34 2138 2739 3 MP
PP
0 sg
2138 2739 mt 2215 2705 L
2215 2705 mt 2111 2802 L
c13
76 -2 -104 97 2215 2705 3 MP
PP
0 sg
2215 2705 mt 2111 2802 L
2111 2802 mt 2187 2800 L
c11
-104 -160 76 190 2057 2896 3 MP
PP
0 sg
2057 2896 mt 2133 3086 L
2133 3086 mt 2029 2926 L
c9
76 190 -103 -32 2160 2928 3 MP
PP
0 sg
2160 2928 mt 2057 2896 L
2057 2896 mt 2133 3086 L
c12
-103 98 76 -162 2133 3086 3 MP
PP
0 sg
2133 3086 mt 2209 2924 L
2209 2924 mt 2106 3022 L
c13
76 30 -103 98 2209 2924 3 MP
PP
0 sg
2209 2924 mt 2106 3022 L
2106 3022 mt 2182 3052 L
c18
-103 162 76 62 2127 1980 3 MP
PP
0 sg
2127 1980 mt 2203 2042 L
2203 2042 mt 2100 2204 L
c19
76 -65 -103 162 2203 2042 3 MP
PP
0 sg
2203 2042 mt 2100 2204 L
2100 2204 mt 2176 2139 L
c8
77 64 -104 -32 2198 2392 3 MP
PP
0 sg
2198 2392 mt 2094 2360 L
2094 2360 mt 2171 2424 L
c11
-104 -32 76 62 2122 2330 3 MP
PP
0 sg
2122 2330 mt 2198 2392 L
2198 2392 mt 2094 2360 L
c11
76 95 -103 33 2187 2800 3 MP
PP
0 sg
2187 2800 mt 2084 2833 L
2084 2833 mt 2160 2928 L
c8
-103 33 76 -2 2111 2802 3 MP
PP
0 sg
2111 2802 mt 2187 2800 L
2187 2800 mt 2084 2833 L
c23
76 256 -103 0 2181 1532 3 MP
PP
0 sg
2181 1532 mt 2078 1532 L
2078 1532 mt 2154 1788 L
c16
-104 -128 77 127 2023 2077 3 MP
PP
0 sg
2023 2077 mt 2100 2204 L
2100 2204 mt 1996 2076 L
c18
77 127 -104 97 2127 1980 3 MP
PP
0 sg
2127 1980 mt 2023 2077 L
2023 2077 mt 2100 2204 L
c8
-104 31 76 -65 2100 2204 3 MP
PP
0 sg
2100 2204 mt 2176 2139 L
2176 2139 mt 2072 2170 L
c16
77 32 -104 31 2176 2139 3 MP
PP
0 sg
2176 2139 mt 2072 2170 L
2072 2170 mt 2149 2202 L
c13
-104 96 77 64 2094 2360 3 MP
PP
0 sg
2094 2360 mt 2171 2424 L
2171 2424 mt 2067 2520 L
c11
76 -33 -104 96 2171 2424 3 MP
PP
0 sg
2171 2424 mt 2067 2520 L
2067 2520 mt 2143 2487 L
c11
76 63 -103 33 2165 2643 3 MP
PP
0 sg
2165 2643 mt 2062 2676 L
2062 2676 mt 2138 2739 L
c13
-103 33 76 63 2089 2580 3 MP
PP
0 sg
2089 2580 mt 2165 2643 L
2165 2643 mt 2062 2676 L
c11
-103 -32 76 95 2084 2833 3 MP
PP
0 sg
2084 2833 mt 2160 2928 L
2160 2928 mt 2057 2896 L
c24
77 63 -104 129 2154 1788 3 MP
PP
0 sg
2154 1788 mt 2050 1917 L
2050 1917 mt 2127 1980 L
/c25 { 0.250000 1.000000 0.750000 sr} bdef
c25
-104 129 76 256 2078 1532 3 MP
PP
0 sg
2078 1532 mt 2154 1788 L
2154 1788 mt 2050 1917 L
c16
77 64 -104 64 2149 2202 3 MP
PP
0 sg
2149 2202 mt 2045 2266 L
2045 2266 mt 2122 2330 L
c8
76 94 -104 -128 2100 2204 3 MP
PP
0 sg
2100 2204 mt 1996 2076 L
1996 2076 mt 2072 2170 L
c16
-104 64 77 32 2072 2170 3 MP
PP
0 sg
2072 2170 mt 2149 2202 L
2149 2202 mt 2045 2266 L
c9
-103 64 76 -33 2067 2520 3 MP
PP
0 sg
2067 2520 mt 2143 2487 L
2143 2487 mt 2040 2551 L
c11
76 -1 -103 64 2143 2487 3 MP
PP
0 sg
2143 2487 mt 2040 2551 L
2040 2551 mt 2116 2550 L
c13
-104 32 77 64 1985 2612 3 MP
PP
0 sg
1985 2612 mt 2062 2676 L
2062 2676 mt 1958 2708 L
c11
77 -34 -104 32 2062 2676 3 MP
PP
0 sg
2062 2676 mt 1958 2708 L
1958 2708 mt 2035 2674 L
c11
-103 -65 76 63 2062 2676 3 MP
PP
0 sg
2062 2676 mt 2138 2739 L
2138 2739 mt 2035 2674 L
c8
76 128 -103 -65 2138 2739 3 MP
PP
0 sg
2138 2739 mt 2035 2674 L
2035 2674 mt 2111 2802 L
c12
77 96 -104 -160 2133 3086 3 MP
PP
0 sg
2133 3086 mt 2029 2926 L
2029 2926 mt 2106 3022 L
c17
-104 97 77 63 2050 1917 3 MP
PP
0 sg
2050 1917 mt 2127 1980 L
2127 1980 mt 2023 2077 L
c13
-104 -33 77 64 2045 2266 3 MP
PP
0 sg
2045 2266 mt 2122 2330 L
2122 2330 mt 2018 2297 L
c11
76 63 -104 -33 2122 2330 3 MP
PP
0 sg
2122 2330 mt 2018 2297 L
2018 2297 mt 2094 2360 L
c8
77 31 -104 -32 2040 2551 3 MP
PP
0 sg
2040 2551 mt 1936 2519 L
1936 2519 mt 2013 2550 L
c11
-104 -32 77 63 1963 2488 3 MP
PP
0 sg
1963 2488 mt 2040 2551 L
2040 2551 mt 1936 2519 L
c9
77 63 -104 -32 2067 2520 3 MP
PP
0 sg
2067 2520 mt 1963 2488 L
1963 2488 mt 2040 2551 L
c8
-103 0 76 -1 2040 2551 3 MP
PP
0 sg
2040 2551 mt 2116 2550 L
2116 2550 mt 2013 2550 L
c11
76 30 -103 0 2116 2550 3 MP
PP
0 sg
2116 2550 mt 2013 2550 L
2013 2550 mt 2089 2580 L
c8
77 96 -104 -65 2111 2802 3 MP
PP
0 sg
2111 2802 mt 2007 2737 L
2007 2737 mt 2084 2833 L
c16
-104 -65 76 128 2035 2674 3 MP
PP
0 sg
2035 2674 mt 2111 2802 L
2111 2802 mt 2007 2737 L
c13
76 160 -103 0 2094 2360 3 MP
PP
0 sg
2094 2360 mt 1991 2360 L
1991 2360 mt 2067 2520 L
c16
-103 0 76 63 2018 2297 3 MP
PP
0 sg
2018 2297 mt 2094 2360 L
2094 2360 mt 1991 2360 L
c13
-104 32 76 30 2013 2550 3 MP
PP
0 sg
2013 2550 mt 2089 2580 L
2089 2580 mt 1985 2612 L
c13
77 64 -104 32 2089 2580 3 MP
PP
0 sg
2089 2580 mt 1985 2612 L
1985 2612 mt 2062 2676 L
c16
-104 64 77 96 2007 2737 3 MP
PP
0 sg
2007 2737 mt 2084 2833 L
2084 2833 mt 1980 2897 L
c11
77 -1 -104 64 2084 2833 3 MP
PP
0 sg
2084 2833 mt 1980 2897 L
1980 2897 mt 2057 2896 L
c25
76 384 -104 1 2078 1532 3 MP
PP
0 sg
2078 1532 mt 1974 1533 L
1974 1533 mt 2050 1917 L
c18
-103 -63 76 94 1996 2076 3 MP
PP
0 sg
1996 2076 mt 2072 2170 L
2072 2170 mt 1969 2107 L
c16
76 159 -103 -63 2072 2170 3 MP
PP
0 sg
2072 2170 mt 1969 2107 L
1969 2107 mt 2045 2266 L
c16
-104 -32 76 160 1991 2360 3 MP
PP
0 sg
1991 2360 mt 2067 2520 L
2067 2520 mt 1963 2488 L
c8
-104 97 77 -1 1980 2897 3 MP
PP
0 sg
1980 2897 mt 2057 2896 L
2057 2896 mt 1953 2993 L
c11
76 -67 -104 97 2057 2896 3 MP
PP
0 sg
2057 2896 mt 1953 2993 L
1953 2993 mt 2029 2926 L
c17
76 288 -103 -128 2050 1917 3 MP
PP
0 sg
2050 1917 mt 1947 1789 L
1947 1789 mt 2023 2077 L
/c26 { 0.312500 1.000000 0.687500 sr} bdef
c26
-103 -128 76 384 1974 1533 3 MP
PP
0 sg
1974 1533 mt 2050 1917 L
2050 1917 mt 1947 1789 L
c13
76 63 -103 -32 2045 2266 3 MP
PP
0 sg
2045 2266 mt 1942 2234 L
1942 2234 mt 2018 2297 L
c17
-103 -32 76 159 1969 2107 3 MP
PP
0 sg
1969 2107 mt 2045 2266 L
2045 2266 mt 1942 2234 L
c16
76 -99 -104 162 2035 2674 3 MP
PP
0 sg
2035 2674 mt 1931 2836 L
1931 2836 mt 2007 2737 L
c11
-104 162 77 -34 1958 2708 3 MP
PP
0 sg
1958 2708 mt 2035 2674 L
2035 2674 mt 1931 2836 L
/c27 { 0.000000 0.812500 1.000000 sr} bdef
c27
-103 -64 76 288 1947 1789 3 MP
PP
0 sg
1947 1789 mt 2023 2077 L
2023 2077 mt 1920 2013 L
c16
76 63 -103 -64 2023 2077 3 MP
PP
0 sg
2023 2077 mt 1920 2013 L
1920 2013 mt 1996 2076 L
c16
77 -1 -104 64 2018 2297 3 MP
PP
0 sg
2018 2297 mt 1914 2361 L
1914 2361 mt 1991 2360 L
c19
-104 64 76 63 1942 2234 3 MP
PP
0 sg
1942 2234 mt 2018 2297 L
2018 2297 mt 1914 2361 L
c13
76 -66 -104 128 2013 2550 3 MP
PP
0 sg
2013 2550 mt 1909 2678 L
1909 2678 mt 1985 2612 L
c13
-104 128 77 31 1936 2519 3 MP
PP
0 sg
1936 2519 mt 2013 2550 L
2013 2550 mt 1909 2678 L
c16
-104 0 76 160 1855 2676 3 MP
PP
0 sg
1855 2676 mt 1931 2836 L
1931 2836 mt 1827 2836 L
c11
76 160 -103 -32 1958 2708 3 MP
PP
0 sg
1958 2708 mt 1855 2676 L
1855 2676 mt 1931 2836 L
c9
-103 97 76 -99 1931 2836 3 MP
PP
0 sg
1931 2836 mt 2007 2737 L
2007 2737 mt 1904 2834 L
c9
77 -2 -104 0 1931 2836 3 MP
PP
0 sg
1931 2836 mt 1827 2836 L
1827 2836 mt 1904 2834 L
c16
76 63 -103 97 2007 2737 3 MP
PP
0 sg
2007 2737 mt 1904 2834 L
1904 2834 mt 1980 2897 L
c17
-104 97 76 63 1920 2013 3 MP
PP
0 sg
1920 2013 mt 1996 2076 L
1996 2076 mt 1892 2173 L
c18
77 -66 -104 97 1996 2076 3 MP
PP
0 sg
1996 2076 mt 1892 2173 L
1892 2173 mt 1969 2107 L
c16
76 95 -104 33 1991 2360 3 MP
PP
0 sg
1991 2360 mt 1887 2393 L
1887 2393 mt 1963 2488 L
c13
-104 33 77 -1 1914 2361 3 MP
PP
0 sg
1914 2361 mt 1991 2360 L
1991 2360 mt 1887 2393 L
c13
-104 -64 76 127 1833 2551 3 MP
PP
0 sg
1833 2551 mt 1909 2678 L
1909 2678 mt 1805 2614 L
c13
76 127 -103 32 1936 2519 3 MP
PP
0 sg
1936 2519 mt 1833 2551 L
1833 2551 mt 1909 2678 L
c9
-103 33 76 -66 1909 2678 3 MP
PP
0 sg
1909 2678 mt 1985 2612 L
1985 2612 mt 1882 2645 L
c13
76 63 -103 33 1985 2612 3 MP
PP
0 sg
1985 2612 mt 1882 2645 L
1882 2645 mt 1958 2708 L
c11
-103 -32 76 63 1904 2834 3 MP
PP
0 sg
1904 2834 mt 1980 2897 L
1980 2897 mt 1877 2865 L
c8
76 128 -103 -32 1980 2897 3 MP
PP
0 sg
1980 2897 mt 1877 2865 L
1877 2865 mt 1953 2993 L
c26
77 256 -104 0 1974 1533 3 MP
PP
0 sg
1974 1533 mt 1870 1533 L
1870 1533 mt 1947 1789 L
c17
77 -2 -104 129 1969 2107 3 MP
PP
0 sg
1969 2107 mt 1865 2236 L
1865 2236 mt 1942 2234 L
c16
-104 129 77 -66 1892 2173 3 MP
PP
0 sg
1892 2173 mt 1969 2107 L
1969 2107 mt 1865 2236 L
c16
-103 128 76 32 1811 2361 3 MP
PP
0 sg
1811 2361 mt 1887 2393 L
1887 2393 mt 1784 2521 L
c16
76 -97 -103 128 1887 2393 3 MP
PP
0 sg
1887 2393 mt 1784 2521 L
1784 2521 mt 1860 2424 L
c11
76 95 -103 -64 1963 2488 3 MP
PP
0 sg
1963 2488 mt 1860 2424 L
1860 2424 mt 1936 2519 L
c16
-103 -64 76 95 1887 2393 3 MP
PP
0 sg
1887 2393 mt 1963 2488 L
1963 2488 mt 1860 2424 L
c9
77 31 -104 -64 1909 2678 3 MP
PP
0 sg
1909 2678 mt 1805 2614 L
1805 2614 mt 1882 2645 L
c13
-103 -32 76 63 1882 2645 3 MP
PP
0 sg
1882 2645 mt 1958 2708 L
1958 2708 mt 1855 2676 L
/c28 { 0.437500 1.000000 0.562500 sr} bdef
c28
-104 0 77 256 1870 1533 3 MP
PP
0 sg
1870 1533 mt 1947 1789 L
1947 1789 mt 1843 1789 L
c27
77 224 -104 0 1947 1789 3 MP
PP
0 sg
1947 1789 mt 1843 1789 L
1843 1789 mt 1920 2013 L
c16
-104 32 77 -2 1865 2236 3 MP
PP
0 sg
1865 2236 mt 1942 2234 L
1942 2234 mt 1838 2266 L
c19
76 95 -104 32 1942 2234 3 MP
PP
0 sg
1942 2234 mt 1838 2266 L
1838 2266 mt 1914 2361 L
c19
-103 32 76 95 1860 2424 3 MP
PP
0 sg
1860 2424 mt 1936 2519 L
1936 2519 mt 1833 2551 L
/c29 { 0.000000 0.937500 1.000000 sr} bdef
c29
-104 -97 77 224 1843 1789 3 MP
PP
0 sg
1843 1789 mt 1920 2013 L
1920 2013 mt 1816 1916 L
c17
76 257 -104 -97 1920 2013 3 MP
PP
0 sg
1920 2013 mt 1816 1916 L
1816 1916 mt 1892 2173 L
c13
76 32 -103 0 1914 2361 3 MP
PP
0 sg
1914 2361 mt 1811 2361 L
1811 2361 mt 1887 2393 L
c19
-103 0 76 95 1838 2266 3 MP
PP
0 sg
1838 2266 mt 1914 2361 L
1914 2361 mt 1811 2361 L
c11
77 -2 -104 33 1904 2834 3 MP
PP
0 sg
1904 2834 mt 1800 2867 L
1800 2867 mt 1877 2865 L
c8
-104 33 77 -2 1827 2836 3 MP
PP
0 sg
1827 2836 mt 1904 2834 L
1904 2834 mt 1800 2867 L
c20
-103 65 76 257 1816 1916 3 MP
PP
0 sg
1816 1916 mt 1892 2173 L
1892 2173 mt 1789 2238 L
c16
76 -2 -103 65 1892 2173 3 MP
PP
0 sg
1892 2173 mt 1789 2238 L
1789 2238 mt 1865 2236 L
c13
77 -34 -104 65 1882 2645 3 MP
PP
0 sg
1882 2645 mt 1778 2710 L
1778 2710 mt 1855 2676 L
c13
-104 65 77 31 1805 2614 3 MP
PP
0 sg
1805 2614 mt 1882 2645 L
1882 2645 mt 1778 2710 L
c28
76 288 -103 -32 1870 1533 3 MP
PP
0 sg
1870 1533 mt 1767 1501 L
1767 1501 mt 1843 1789 L
c24
-104 -97 77 257 1712 1981 3 MP
PP
0 sg
1712 1981 mt 1789 2238 L
1789 2238 mt 1685 2141 L
c20
77 257 -104 65 1816 1916 3 MP
PP
0 sg
1816 1916 mt 1712 1981 L
1712 1981 mt 1789 2238 L
c13
-103 -32 76 -2 1789 2238 3 MP
PP
0 sg
1789 2238 mt 1865 2236 L
1865 2236 mt 1762 2204 L
c16
76 62 -103 -32 1865 2236 3 MP
PP
0 sg
1865 2236 mt 1762 2204 L
1762 2204 mt 1838 2266 L
c19
-104 -64 77 159 1707 2362 3 MP
PP
0 sg
1707 2362 mt 1784 2521 L
1784 2521 mt 1680 2457 L
c8
76 96 -104 -64 1784 2521 3 MP
PP
0 sg
1784 2521 mt 1680 2457 L
1680 2457 mt 1756 2553 L
c16
77 159 -104 1 1811 2361 3 MP
PP
0 sg
1811 2361 mt 1707 2362 L
1707 2362 mt 1784 2521 L
c8
-104 129 76 -97 1784 2521 3 MP
PP
0 sg
1784 2521 mt 1860 2424 L
1860 2424 mt 1756 2553 L
c19
77 -2 -104 129 1860 2424 3 MP
PP
0 sg
1860 2424 mt 1756 2553 L
1756 2553 mt 1833 2551 L
c16
76 96 -104 64 1855 2676 3 MP
PP
0 sg
1855 2676 mt 1751 2740 L
1751 2740 mt 1827 2836 L
c11
-104 64 77 -34 1778 2710 3 MP
PP
0 sg
1778 2710 mt 1855 2676 L
1855 2676 mt 1751 2740 L
c29
76 -1 -103 128 1843 1789 3 MP
PP
0 sg
1843 1789 mt 1740 1917 L
1740 1917 mt 1816 1916 L
/c30 { 0.562500 1.000000 0.437500 sr} bdef
c30
-103 128 76 288 1767 1501 3 MP
PP
0 sg
1767 1501 mt 1843 1789 L
1843 1789 mt 1740 1917 L
c13
77 63 -104 -97 1789 2238 3 MP
PP
0 sg
1789 2238 mt 1685 2141 L
1685 2141 mt 1762 2204 L
c18
-104 -32 76 62 1762 2204 3 MP
PP
0 sg
1762 2204 mt 1838 2266 L
1838 2266 mt 1734 2234 L
c19
77 127 -104 -32 1838 2266 3 MP
PP
0 sg
1838 2266 mt 1734 2234 L
1734 2234 mt 1811 2361 L
c16
-103 32 76 96 1680 2457 3 MP
PP
0 sg
1680 2457 mt 1756 2553 L
1756 2553 mt 1653 2585 L
c11
-104 0 77 -2 1756 2553 3 MP
PP
0 sg
1756 2553 mt 1833 2551 L
1833 2551 mt 1729 2551 L
c11
76 -34 -103 32 1756 2553 3 MP
PP
0 sg
1756 2553 mt 1653 2585 L
1653 2585 mt 1729 2551 L
c13
76 63 -104 0 1833 2551 3 MP
PP
0 sg
1833 2551 mt 1729 2551 L
1729 2551 mt 1805 2614 L
c13
-103 32 76 96 1751 2740 3 MP
PP
0 sg
1751 2740 mt 1827 2836 L
1827 2836 mt 1724 2868 L
c8
76 -1 -103 32 1827 2836 3 MP
PP
0 sg
1827 2836 mt 1724 2868 L
1724 2868 mt 1800 2867 L
c24
-104 65 76 -1 1740 1917 3 MP
PP
0 sg
1740 1917 mt 1816 1916 L
1816 1916 mt 1712 1981 L
gr

1728 3663 mt 
(C) s
gs 655 282 3906 3083 rc
c17
-104 1 77 127 1734 2234 3 MP
PP
0 sg
1734 2234 mt 1811 2361 L
1811 2361 mt 1707 2362 L
c16
-103 33 76 63 1729 2551 3 MP
PP
0 sg
1729 2551 mt 1805 2614 L
1805 2614 mt 1702 2647 L
c13
76 63 -103 33 1805 2614 3 MP
PP
0 sg
1805 2614 mt 1702 2647 L
1702 2647 mt 1778 2710 L
c13
-103 65 76 63 1702 2647 3 MP
PP
0 sg
1702 2647 mt 1778 2710 L
1778 2710 mt 1675 2775 L
c11
76 -35 -103 65 1778 2710 3 MP
PP
0 sg
1778 2710 mt 1675 2775 L
1675 2775 mt 1751 2740 L
c30
77 384 -104 32 1767 1501 3 MP
PP
0 sg
1767 1501 mt 1663 1533 L
1663 1533 mt 1740 1917 L
c17
-104 0 77 63 1685 2141 3 MP
PP
0 sg
1685 2141 mt 1762 2204 L
1762 2204 mt 1658 2204 L
c18
76 30 -104 0 1762 2204 3 MP
PP
0 sg
1762 2204 mt 1658 2204 L
1658 2204 mt 1734 2234 L
c13
77 30 -104 98 1751 2740 3 MP
PP
0 sg
1751 2740 mt 1647 2838 L
1647 2838 mt 1724 2868 L
c8
-104 98 76 -35 1675 2775 3 MP
PP
0 sg
1675 2775 mt 1751 2740 L
1751 2740 mt 1647 2838 L
c24
76 31 -104 33 1740 1917 3 MP
PP
0 sg
1740 1917 mt 1636 1950 L
1636 1950 mt 1712 1981 L
c30
-104 33 77 384 1663 1533 3 MP
PP
0 sg
1663 1533 mt 1740 1917 L
1740 1917 mt 1636 1950 L
c17
-103 65 76 30 1658 2204 3 MP
PP
0 sg
1658 2204 mt 1734 2234 L
1734 2234 mt 1631 2299 L
c17
76 63 -103 65 1734 2234 3 MP
PP
0 sg
1734 2234 mt 1631 2299 L
1631 2299 mt 1707 2362 L
c16
77 -1 -104 97 1729 2551 3 MP
PP
0 sg
1729 2551 mt 1625 2648 L
1625 2648 mt 1702 2647 L
c11
-104 97 76 -34 1653 2585 3 MP
PP
0 sg
1653 2585 mt 1729 2551 L
1729 2551 mt 1625 2648 L
c24
-103 32 76 31 1636 1950 3 MP
PP
0 sg
1636 1950 mt 1712 1981 L
1712 1981 mt 1609 2013 L
c24
76 128 -103 32 1712 1981 3 MP
PP
0 sg
1712 1981 mt 1609 2013 L
1609 2013 mt 1685 2141 L
c18
-103 65 76 63 1631 2299 3 MP
PP
0 sg
1631 2299 mt 1707 2362 L
1707 2362 mt 1604 2427 L
c19
76 30 -103 65 1707 2362 3 MP
PP
0 sg
1707 2362 mt 1604 2427 L
1604 2427 mt 1680 2457 L
c18
76 192 -103 32 1576 2426 3 MP
PP
0 sg
1576 2426 mt 1473 2458 L
1473 2458 mt 1549 2650 L
c18
-104 65 77 159 1576 2426 3 MP
PP
0 sg
1576 2426 mt 1653 2585 L
1653 2585 mt 1549 2650 L
c11
76 -2 -104 65 1653 2585 3 MP
PP
0 sg
1653 2585 mt 1549 2650 L
1549 2650 mt 1625 2648 L
c11
76 64 -103 -97 1625 2648 3 MP
PP
0 sg
1625 2648 mt 1522 2551 L
1522 2551 mt 1598 2615 L
c8
-103 -97 76 -2 1549 2650 3 MP
PP
0 sg
1549 2650 mt 1625 2648 L
1625 2648 mt 1522 2551 L
c11
-104 -32 77 -1 1625 2648 3 MP
PP
0 sg
1625 2648 mt 1702 2647 L
1702 2647 mt 1598 2615 L
c13
77 160 -104 -32 1702 2647 3 MP
PP
0 sg
1702 2647 mt 1598 2615 L
1598 2615 mt 1675 2775 L
c24
-103 -32 76 128 1609 2013 3 MP
PP
0 sg
1609 2013 mt 1685 2141 L
1685 2141 mt 1582 2109 L
c17
76 95 -103 -32 1685 2141 3 MP
PP
0 sg
1685 2141 mt 1582 2109 L
1582 2109 mt 1658 2204 L
c16
-104 -31 76 30 1604 2427 3 MP
PP
0 sg
1604 2427 mt 1680 2457 L
1680 2457 mt 1576 2426 L
c16
77 159 -104 -31 1680 2457 3 MP
PP
0 sg
1680 2457 mt 1576 2426 L
1576 2426 mt 1653 2585 L
c19
-104 0 77 160 1598 2615 3 MP
PP
0 sg
1598 2615 mt 1675 2775 L
1675 2775 mt 1571 2775 L
c8
76 63 -104 0 1675 2775 3 MP
PP
0 sg
1675 2775 mt 1571 2775 L
1571 2775 mt 1647 2838 L
c30
76 449 -103 -32 1663 1533 3 MP
PP
0 sg
1663 1533 mt 1560 1501 L
1560 1501 mt 1636 1950 L
c17
77 30 -104 65 1658 2204 3 MP
PP
0 sg
1658 2204 mt 1554 2269 L
1554 2269 mt 1631 2299 L
c22
-104 65 76 95 1582 2109 3 MP
PP
0 sg
1582 2109 mt 1658 2204 L
1658 2204 mt 1554 2269 L
c24
77 95 -104 -32 1636 1950 3 MP
PP
0 sg
1636 1950 mt 1532 1918 L
1532 1918 mt 1609 2013 L
/c31 { 0.750000 1.000000 0.250000 sr} bdef
c31
-104 -32 76 449 1560 1501 3 MP
PP
0 sg
1560 1501 mt 1636 1950 L
1636 1950 mt 1532 1918 L
c18
-104 33 77 30 1554 2269 3 MP
PP
0 sg
1554 2269 mt 1631 2299 L
1631 2299 mt 1527 2332 L
c18
77 95 -104 33 1631 2299 3 MP
PP
0 sg
1631 2299 mt 1527 2332 L
1527 2332 mt 1604 2427 L
c24
77 160 -104 -64 1609 2013 3 MP
PP
0 sg
1609 2013 mt 1505 1949 L
1505 1949 mt 1582 2109 L
/c32 { 0.000000 0.875000 1.000000 sr} bdef
c32
-104 -64 77 95 1532 1918 3 MP
PP
0 sg
1532 1918 mt 1609 2013 L
1609 2013 mt 1505 1949 L
c16
76 31 -104 -32 1604 2427 3 MP
PP
0 sg
1604 2427 mt 1500 2395 L
1500 2395 mt 1576 2426 L
c18
-104 -32 77 95 1527 2332 3 MP
PP
0 sg
1527 2332 mt 1604 2427 L
1604 2427 mt 1500 2395 L
c18
-103 -161 76 192 1473 2458 3 MP
PP
0 sg
1473 2458 mt 1549 2650 L
1549 2650 mt 1446 2489 L
c8
76 62 -103 -161 1549 2650 3 MP
PP
0 sg
1549 2650 mt 1446 2489 L
1446 2489 mt 1522 2551 L
c18
-103 129 76 64 1522 2551 3 MP
PP
0 sg
1522 2551 mt 1598 2615 L
1598 2615 mt 1495 2744 L
c19
76 31 -103 129 1598 2615 3 MP
PP
0 sg
1598 2615 mt 1495 2744 L
1495 2744 mt 1571 2775 L
c22
76 128 -104 32 1582 2109 3 MP
PP
0 sg
1582 2109 mt 1478 2141 L
1478 2141 mt 1554 2269 L
c29
-104 32 77 160 1505 1949 3 MP
PP
0 sg
1505 1949 mt 1582 2109 L
1582 2109 mt 1478 2141 L
c18
-103 32 76 31 1500 2395 3 MP
PP
0 sg
1500 2395 mt 1576 2426 L
1576 2426 mt 1473 2458 L
c31
76 449 -104 -32 1560 1501 3 MP
PP
0 sg
1560 1501 mt 1456 1469 L
1456 1469 mt 1532 1918 L
c18
76 128 -103 -65 1554 2269 3 MP
PP
0 sg
1554 2269 mt 1451 2204 L
1451 2204 mt 1527 2332 L
c22
-103 -65 76 128 1478 2141 3 MP
PP
0 sg
1478 2141 mt 1554 2269 L
1554 2269 mt 1451 2204 L
/c33 { 0.937500 1.000000 0.062500 sr} bdef
c33
-103 -96 76 449 1456 1469 3 MP
PP
0 sg
1456 1469 mt 1532 1918 L
1532 1918 mt 1429 1822 L
c32
76 127 -103 -96 1532 1918 3 MP
PP
0 sg
1532 1918 mt 1429 1822 L
1429 1822 mt 1505 1949 L
c18
76 31 -103 32 1527 2332 3 MP
PP
0 sg
1527 2332 mt 1424 2364 L
1424 2364 mt 1500 2395 L
c22
-103 32 76 128 1451 2204 3 MP
PP
0 sg
1451 2204 mt 1527 2332 L
1527 2332 mt 1424 2364 L
c18
77 96 -104 97 1522 2551 3 MP
PP
0 sg
1522 2551 mt 1418 2648 L
1418 2648 mt 1495 2744 L
c17
-104 97 76 62 1446 2489 3 MP
PP
0 sg
1446 2489 mt 1522 2551 L
1522 2551 mt 1418 2648 L
c29
76 159 -103 33 1505 1949 3 MP
PP
0 sg
1505 1949 mt 1402 1982 L
1402 1982 mt 1478 2141 L
c23
-103 33 76 127 1429 1822 3 MP
PP
0 sg
1429 1822 mt 1505 1949 L
1505 1949 mt 1402 1982 L
c24
-104 33 77 159 1347 2205 3 MP
PP
0 sg
1347 2205 mt 1424 2364 L
1424 2364 mt 1320 2397 L
c18
76 -34 -104 33 1424 2364 3 MP
PP
0 sg
1424 2364 mt 1320 2397 L
1320 2397 mt 1396 2363 L
c18
-104 -32 76 31 1424 2364 3 MP
PP
0 sg
1424 2364 mt 1500 2395 L
1500 2395 mt 1396 2363 L
c18
77 95 -104 -32 1500 2395 3 MP
PP
0 sg
1500 2395 mt 1396 2363 L
1396 2363 mt 1473 2458 L
c29
-104 -96 76 159 1402 1982 3 MP
PP
0 sg
1402 1982 mt 1478 2141 L
1478 2141 mt 1374 2045 L
c22
77 159 -104 -96 1478 2141 3 MP
PP
0 sg
1478 2141 mt 1374 2045 L
1374 2045 mt 1451 2204 L
c21
-104 0 77 95 1396 2363 3 MP
PP
0 sg
1396 2363 mt 1473 2458 L
1473 2458 mt 1369 2458 L
c18
77 31 -104 0 1473 2458 3 MP
PP
0 sg
1473 2458 mt 1369 2458 L
1369 2458 mt 1446 2489 L
c33
77 353 -104 0 1456 1469 3 MP
PP
0 sg
1456 1469 mt 1352 1469 L
1352 1469 mt 1429 1822 L
c22
77 159 -104 1 1451 2204 3 MP
PP
0 sg
1451 2204 mt 1347 2205 L
1347 2205 mt 1424 2364 L
c29
-104 1 77 159 1374 2045 3 MP
PP
0 sg
1374 2045 mt 1451 2204 L
1451 2204 mt 1347 2205 L
c17
-104 64 77 31 1369 2458 3 MP
PP
0 sg
1369 2458 mt 1446 2489 L
1446 2489 mt 1342 2553 L
c17
76 95 -104 64 1446 2489 3 MP
PP
0 sg
1446 2489 mt 1342 2553 L
1342 2553 mt 1418 2648 L
/c34 { 1.000000 1.000000 0.000000 sr} bdef
c34
-104 32 77 353 1352 1469 3 MP
PP
0 sg
1352 1469 mt 1429 1822 L
1429 1822 mt 1325 1854 L
c23
77 128 -104 32 1429 1822 3 MP
PP
0 sg
1429 1822 mt 1325 1854 L
1325 1854 mt 1402 1982 L
c29
76 -66 -104 129 1402 1982 3 MP
PP
0 sg
1402 1982 mt 1298 2111 L
1298 2111 mt 1374 2045 L
c23
-104 129 77 128 1325 1854 3 MP
PP
0 sg
1325 1854 mt 1402 1982 L
1402 1982 mt 1298 2111 L
c24
-104 32 76 160 1244 2237 3 MP
PP
0 sg
1244 2237 mt 1320 2397 L
1320 2397 mt 1216 2429 L
c24
76 160 -103 32 1347 2205 3 MP
PP
0 sg
1347 2205 mt 1244 2237 L
1244 2237 mt 1320 2397 L
c18
-103 32 76 -34 1320 2397 3 MP
PP
0 sg
1320 2397 mt 1396 2363 L
1396 2363 mt 1293 2395 L
c18
77 -34 -104 32 1320 2397 3 MP
PP
0 sg
1320 2397 mt 1216 2429 L
1216 2429 mt 1293 2395 L
c21
76 63 -103 32 1396 2363 3 MP
PP
0 sg
1396 2363 mt 1293 2395 L
1293 2395 mt 1369 2458 L
c28
-104 64 76 320 1222 1791 3 MP
PP
0 sg
1222 1791 mt 1298 2111 L
1298 2111 mt 1194 2175 L
c24
77 -98 -104 64 1298 2111 3 MP
PP
0 sg
1298 2111 mt 1194 2175 L
1194 2175 mt 1271 2077 L
c23
76 320 -103 -63 1325 1854 3 MP
PP
0 sg
1325 1854 mt 1222 1791 L
1222 1791 mt 1298 2111 L
c24
-103 32 76 -66 1298 2111 3 MP
PP
0 sg
1298 2111 mt 1374 2045 L
1374 2045 mt 1271 2077 L
c29
76 128 -103 32 1374 2045 3 MP
PP
0 sg
1374 2045 mt 1271 2077 L
1271 2077 mt 1347 2205 L
c21
-103 65 76 63 1293 2395 3 MP
PP
0 sg
1293 2395 mt 1369 2458 L
1369 2458 mt 1266 2523 L
c17
76 30 -103 65 1369 2458 3 MP
PP
0 sg
1369 2458 mt 1266 2523 L
1266 2523 mt 1342 2553 L
c34
76 255 -103 130 1352 1469 3 MP
PP
0 sg
1352 1469 mt 1249 1599 L
1249 1599 mt 1325 1854 L
c29
-103 32 76 128 1271 2077 3 MP
PP
0 sg
1271 2077 mt 1347 2205 L
1347 2205 mt 1244 2237 L
c31
-103 -63 76 255 1249 1599 3 MP
PP
0 sg
1249 1599 mt 1325 1854 L
1325 1854 mt 1222 1791 L
c21
77 31 -104 97 1293 2395 3 MP
PP
0 sg
1293 2395 mt 1189 2492 L
1189 2492 mt 1266 2523 L
c18
-104 97 77 -34 1216 2429 3 MP
PP
0 sg
1216 2429 mt 1293 2395 L
1293 2395 mt 1189 2492 L
c28
-103 -64 76 352 1118 1823 3 MP
PP
0 sg
1118 1823 mt 1194 2175 L
1194 2175 mt 1091 2111 L
c28
76 352 -104 32 1222 1791 3 MP
PP
0 sg
1222 1791 mt 1118 1823 L
1118 1823 mt 1194 2175 L
c22
-104 65 77 -98 1194 2175 3 MP
PP
0 sg
1194 2175 mt 1271 2077 L
1271 2077 mt 1167 2142 L
c22
76 31 -103 -64 1194 2175 3 MP
PP
0 sg
1194 2175 mt 1091 2111 L
1091 2111 mt 1167 2142 L
c29
77 95 -104 65 1271 2077 3 MP
PP
0 sg
1271 2077 mt 1167 2142 L
1167 2142 mt 1244 2237 L
c31
77 224 -104 -32 1249 1599 3 MP
PP
0 sg
1249 1599 mt 1145 1567 L
1145 1567 mt 1222 1791 L
c24
76 191 -104 1 1244 2237 3 MP
PP
0 sg
1244 2237 mt 1140 2238 L
1140 2238 mt 1216 2429 L
c27
-104 1 77 95 1167 2142 3 MP
PP
0 sg
1167 2142 mt 1244 2237 L
1244 2237 mt 1140 2238 L
c33
-104 32 77 224 1145 1567 3 MP
PP
0 sg
1145 1567 mt 1222 1791 L
1222 1791 mt 1118 1823 L
c20
-103 33 76 191 1140 2238 3 MP
PP
0 sg
1140 2238 mt 1216 2429 L
1216 2429 mt 1113 2462 L
c18
76 30 -103 33 1216 2429 3 MP
PP
0 sg
1216 2429 mt 1113 2462 L
1113 2462 mt 1189 2492 L
c27
76 31 -103 65 1167 2142 3 MP
PP
0 sg
1167 2142 mt 1064 2207 L
1064 2207 mt 1140 2238 L
c32
-103 65 76 31 1091 2111 3 MP
PP
0 sg
1091 2111 mt 1167 2142 L
1167 2142 mt 1064 2207 L
c33
76 862 -103 -606 1145 1567 3 MP
PP
0 sg
1145 1567 mt 1042  961 L
1042  961 mt 1118 1823 L
c20
77 192 -104 32 1140 2238 3 MP
PP
0 sg
1140 2238 mt 1036 2270 L
1036 2270 mt 1113 2462 L
c20
-104 32 76 31 1064 2207 3 MP
PP
0 sg
1064 2207 mt 1140 2238 L
1140 2238 mt 1036 2270 L
/c35 { 0.500000 0.000000 0.000000 sr} bdef
c35
-104 96 76 862 1042 961 3 MP
PP
0 sg
1042  961 mt 1118 1823 L
1118 1823 mt 1014 1919 L
c28
77 192 -104 96 1118 1823 3 MP
PP
0 sg
1118 1823 mt 1014 1919 L
1014 1919 mt 1091 2111 L
c25
-104 64 77 192 1014 1919 3 MP
PP
0 sg
1014 1919 mt 1091 2111 L
1091 2111 mt  987 2175 L
c32
77 32 -104 64 1091 2111 3 MP
PP
0 sg
1091 2111 mt  987 2175 L
 987 2175 mt 1064 2207 L
c20
76 63 -104 0 1064 2207 3 MP
PP
0 sg
1064 2207 mt  960 2207 L
 960 2207 mt 1036 2270 L
c20
-104 0 77 32 987 2175 3 MP
PP
0 sg
 987 2175 mt 1064 2207 L
1064 2207 mt  960 2207 L
c35
76 642 -104 316 1042 961 3 MP
PP
0 sg
1042  961 mt  938 1277 L
 938 1277 mt 1014 1919 L
c25
76 319 -103 -63 1014 1919 3 MP
PP
0 sg
1014 1919 mt  911 1856 L
 911 1856 mt  987 2175 L
/c36 { 1.000000 0.187500 0.000000 sr} bdef
c36
-103 -63 76 642 938 1277 3 MP
PP
0 sg
 938 1277 mt 1014 1919 L
1014 1919 mt  911 1856 L
/c37 { 0.500000 1.000000 0.500000 sr} bdef
c37
-103 -31 76 319 911 1856 3 MP
PP
0 sg
 911 1856 mt  987 2175 L
 987 2175 mt  884 2144 L
c20
76 63 -103 -31 987 2175 3 MP
PP
0 sg
 987 2175 mt  884 2144 L
 884 2144 mt  960 2207 L
c36
77 706 -104 -127 938 1277 3 MP
PP
0 sg
 938 1277 mt  834 1150 L
 834 1150 mt  911 1856 L
c37
77 256 -104 32 911 1856 3 MP
PP
0 sg
 911 1856 mt  807 1888 L
 807 1888 mt  884 2144 L
/c38 { 0.812500 0.000000 0.000000 sr} bdef
c38
-104 32 77 706 834 1150 3 MP
PP
0 sg
 834 1150 mt  911 1856 L
 911 1856 mt  807 1888 L
c38
76 673 -103 65 834 1150 3 MP
PP
0 sg
 834 1150 mt  731 1215 L
 731 1215 mt  807 1888 L
gr

 257 2019 mt  -90 rotate
(Error [%]) s
90 rotate

end %%Color Dict

eplot
%%EndObject

epage
end

showpage

%%Trailer
%%EOF
