%!PS-Adobe-3.0 EPSF-3.0
%%Creator: MATLAB, The MathWorks, Inc. Version 8.0.0.783 (R2012b). Operating System: Microsoft Windows 7.
%%Title: C:\000 Work\00000 paper 2\Program\Vehicle Application\2class\fccity4.eps
%%CreationDate: 01/14/2014  00:53:18
%%DocumentNeededFonts: Helvetica
%%DocumentProcessColors: Cyan Magenta Yellow Black
%%LanguageLevel: 2
%%Pages: 1
%%BoundingBox:   -44   242   657   549
%%EndComments

%%BeginProlog
% MathWorks dictionary
/MathWorks 160 dict begin
% definition operators
/bdef {bind def} bind def
/ldef {load def} bind def
/xdef {exch def} bdef
/xstore {exch store} bdef
% operator abbreviations
/c  /clip ldef
/cc /concat ldef
/cp /closepath ldef
/gr /grestore ldef
/gs /gsave ldef
/mt /moveto ldef
/np /newpath ldef
/cm /currentmatrix ldef
/sm /setmatrix ldef
/rm /rmoveto ldef
/rl /rlineto ldef
/s {show newpath} bdef
/sc {setcmykcolor} bdef
/sr /setrgbcolor ldef
/sg /setgray ldef
/w /setlinewidth ldef
/j /setlinejoin ldef
/cap /setlinecap ldef
/rc {rectclip} bdef
/rf {rectfill} bdef
% page state control
/pgsv () def
/bpage {/pgsv save def} bdef
/epage {pgsv restore} bdef
/bplot /gsave ldef
/eplot {stroke grestore} bdef
% orientation switch
/portraitMode 0 def /landscapeMode 1 def /rotateMode 2 def
% coordinate system mappings
/dpi2point 0 def
% font control
/FontSize 0 def
/FMS {/FontSize xstore findfont [FontSize 0 0 FontSize neg 0 0]
  makefont setfont} bdef
/ISOLatin1Encoding where {pop /WindowsLatin1Encoding 256 array bdef
ISOLatin1Encoding WindowsLatin1Encoding copy pop
/.notdef/.notdef/quotesinglbase/florin/quotedblbase/ellipsis/dagger
/daggerdbl/circumflex/perthousand/Scaron/guilsinglleft/OE/.notdef/.notdef
/.notdef/.notdef/quoteleft/quoteright/quotedblleft/quotedblright/bullet
/endash/emdash/tilde/trademark/scaron/guilsinglright/oe/.notdef/.notdef
/Ydieresis WindowsLatin1Encoding 128 32 getinterval astore pop}
{/WindowsLatin1Encoding StandardEncoding bdef} ifelse
/reencode {exch dup where {pop load} {pop StandardEncoding} ifelse
  exch dup 3 1 roll findfont dup length dict begin
  { 1 index /FID ne {def}{pop pop} ifelse } forall
  /Encoding exch def currentdict end definefont pop} bdef
/isroman {findfont /CharStrings get /Agrave known} bdef
/FMSR {3 1 roll 1 index dup isroman {reencode} {pop pop} ifelse
  exch FMS} bdef
/csm {1 dpi2point div -1 dpi2point div scale neg translate
 dup landscapeMode eq {pop -90 rotate}
  {rotateMode eq {90 rotate} if} ifelse} bdef
% line types: solid, dotted, dashed, dotdash
/SO { [] 0 setdash } bdef
/DO { [.5 dpi2point mul 4 dpi2point mul] 0 setdash } bdef
/DA { [6 dpi2point mul] 0 setdash } bdef
/DD { [.5 dpi2point mul 4 dpi2point mul 6 dpi2point mul 4
  dpi2point mul] 0 setdash } bdef
% macros for lines and objects
/L {lineto stroke} bdef
/MP {3 1 roll moveto 1 sub {rlineto} repeat} bdef
/AP {{rlineto} repeat} bdef
/PDlw -1 def
/W {/PDlw currentlinewidth def setlinewidth} def
/PP {closepath eofill} bdef
/DP {closepath stroke} bdef
/MR {4 -2 roll moveto dup  0 exch rlineto exch 0 rlineto
  neg 0 exch rlineto closepath} bdef
/FR {MR stroke} bdef
/PR {MR fill} bdef
/L1i {{currentfile picstr readhexstring pop} image} bdef
/tMatrix matrix def
/MakeOval {newpath tMatrix currentmatrix pop translate scale
0 0 1 0 360 arc tMatrix setmatrix} bdef
/FO {MakeOval stroke} bdef
/PO {MakeOval fill} bdef
/PD {currentlinewidth 2 div 0 360 arc fill
   PDlw -1 eq not {PDlw w /PDlw -1 def} if} def
/FA {newpath tMatrix currentmatrix pop translate scale
  0 0 1 5 -2 roll arc tMatrix setmatrix stroke} bdef
/PA {newpath tMatrix currentmatrix pop	translate 0 0 moveto scale
  0 0 1 5 -2 roll arc closepath tMatrix setmatrix fill} bdef
/FAn {newpath tMatrix currentmatrix pop translate scale
  0 0 1 5 -2 roll arcn tMatrix setmatrix stroke} bdef
/PAn {newpath tMatrix currentmatrix pop translate 0 0 moveto scale
  0 0 1 5 -2 roll arcn closepath tMatrix setmatrix fill} bdef
/vradius 0 def /hradius 0 def /lry 0 def
/lrx 0 def /uly 0 def /ulx 0 def /rad 0 def
/MRR {/vradius xdef /hradius xdef /lry xdef /lrx xdef /uly xdef
  /ulx xdef newpath tMatrix currentmatrix pop ulx hradius add uly
  vradius add translate hradius vradius scale 0 0 1 180 270 arc 
  tMatrix setmatrix lrx hradius sub uly vradius add translate
  hradius vradius scale 0 0 1 270 360 arc tMatrix setmatrix
  lrx hradius sub lry vradius sub translate hradius vradius scale
  0 0 1 0 90 arc tMatrix setmatrix ulx hradius add lry vradius sub
  translate hradius vradius scale 0 0 1 90 180 arc tMatrix setmatrix
  closepath} bdef
/FRR {MRR stroke } bdef
/PRR {MRR fill } bdef
/MlrRR {/lry xdef /lrx xdef /uly xdef /ulx xdef /rad lry uly sub 2 div def
  newpath tMatrix currentmatrix pop ulx rad add uly rad add translate
  rad rad scale 0 0 1 90 270 arc tMatrix setmatrix lrx rad sub lry rad
  sub translate rad rad scale 0 0 1 270 90 arc tMatrix setmatrix
  closepath} bdef
/FlrRR {MlrRR stroke } bdef
/PlrRR {MlrRR fill } bdef
/MtbRR {/lry xdef /lrx xdef /uly xdef /ulx xdef /rad lrx ulx sub 2 div def
  newpath tMatrix currentmatrix pop ulx rad add uly rad add translate
  rad rad scale 0 0 1 180 360 arc tMatrix setmatrix lrx rad sub lry rad
  sub translate rad rad scale 0 0 1 0 180 arc tMatrix setmatrix
  closepath} bdef
/FtbRR {MtbRR stroke } bdef
/PtbRR {MtbRR fill } bdef
/stri 6 array def /dtri 6 array def
/smat 6 array def /dmat 6 array def
/tmat1 6 array def /tmat2 6 array def /dif 3 array def
/asub {/ind2 exch def /ind1 exch def dup dup
  ind1 get exch ind2 get sub exch } bdef
/tri_to_matrix {
  2 0 asub 3 1 asub 4 0 asub 5 1 asub
  dup 0 get exch 1 get 7 -1 roll astore } bdef
/compute_transform {
  dmat dtri tri_to_matrix tmat1 invertmatrix 
  smat stri tri_to_matrix tmat2 concatmatrix } bdef
/ds {stri astore pop} bdef
/dt {dtri astore pop} bdef
/db {2 copy /cols xdef /rows xdef mul dup 3 mul string
  currentfile 
  3 index 0 eq {/ASCIIHexDecode filter}
  {/ASCII85Decode filter 3 index 2 eq {/RunLengthDecode filter} if }
  ifelse exch readstring pop
  dup 0 3 index getinterval /rbmap xdef
  dup 2 index dup getinterval /gbmap xdef
  1 index dup 2 mul exch getinterval /bbmap xdef pop pop}bdef
/it {gs np dtri aload pop moveto lineto lineto cp c
  cols rows 8 compute_transform 
  rbmap gbmap bbmap true 3 colorimage gr}bdef
/il {newpath moveto lineto stroke}bdef
currentdict end def
%%EndProlog

%%BeginSetup
MathWorks begin

0 cap

end
%%EndSetup

%%Page: 1 1
%%BeginPageSetup
%%PageBoundingBox:   -44   242   657   549
MathWorks begin
bpage
%%EndPageSetup

%%BeginObject: obj1
bplot

/dpi2point 12 def
portraitMode -0528 6588 csm

    0     0  8413  3681 rc
86 dict begin %Colortable dictionary
/c0 { 0.000000 0.000000 0.000000 sr} bdef
/c1 { 1.000000 1.000000 1.000000 sr} bdef
/c2 { 0.900000 0.000000 0.000000 sr} bdef
/c3 { 0.000000 0.820000 0.000000 sr} bdef
/c4 { 0.000000 0.000000 0.800000 sr} bdef
/c5 { 0.910000 0.820000 0.320000 sr} bdef
/c6 { 1.000000 0.260000 0.820000 sr} bdef
/c7 { 0.000000 0.820000 0.820000 sr} bdef
c0
1 j
1 sg
   0    0 8414 3682 rf
6 w
0 3000 2815 0 0 -3000 1094 3276 4 MP
PP
-2815 0 0 3000 2815 0 0 -3000 1094 3276 5 MP stroke
4 w
DO
0 sg
1094 3276 mt 1094  276 L
1094  276 mt 1094  276 L
1657 3276 mt 1657  276 L
1657  276 mt 1657  276 L
2220 3276 mt 2220  276 L
2220  276 mt 2220  276 L
2783 3276 mt 2783  276 L
2783  276 mt 2783  276 L
3346 3276 mt 3346  276 L
3346  276 mt 3346  276 L
3909 3276 mt 3909  276 L
3909  276 mt 3909  276 L
1094 3276 mt 3909 3276 L
3909 3276 mt 3909 3276 L
1094 2901 mt 3909 2901 L
3909 2901 mt 3909 2901 L
1094 2526 mt 3909 2526 L
3909 2526 mt 3909 2526 L
1094 2151 mt 3909 2151 L
3909 2151 mt 3909 2151 L
1094 1776 mt 3909 1776 L
3909 1776 mt 3909 1776 L
1094 1401 mt 3909 1401 L
3909 1401 mt 3909 1401 L
1094 1026 mt 3909 1026 L
3909 1026 mt 3909 1026 L
1094  651 mt 3909  651 L
3909  651 mt 3909  651 L
1094  276 mt 3909  276 L
3909  276 mt 3909  276 L
SO
6 w
1094  276 mt 3909  276 L
1094 3276 mt 3909 3276 L
3909 3276 mt 3909  276 L
1094 3276 mt 1094  276 L
1094 3276 mt 3909 3276 L
1094 3276 mt 1094  276 L
1094 3276 mt 1094 3246 L
1094  276 mt 1094  306 L
%%IncludeResource: font Helvetica
/Helvetica /WindowsLatin1Encoding 156 FMSR

1051 3455 mt 
(0) s
1657 3276 mt 1657 3246 L
1657  276 mt 1657  306 L
1614 3455 mt 
(2) s
2220 3276 mt 2220 3246 L
2220  276 mt 2220  306 L
2177 3455 mt 
(4) s
2783 3276 mt 2783 3246 L
2783  276 mt 2783  306 L
2740 3455 mt 
(6) s
3346 3276 mt 3346 3246 L
3346  276 mt 3346  306 L
3303 3455 mt 
(8) s
3909 3276 mt 3909 3246 L
3909  276 mt 3909  306 L
3823 3455 mt 
(10) s
1094 3276 mt 1124 3276 L
3909 3276 mt 3879 3276 L
 973 3334 mt 
(0) s
1094 2901 mt 1124 2901 L
3909 2901 mt 3879 2901 L
 973 2959 mt 
(5) s
1094 2526 mt 1124 2526 L
3909 2526 mt 3879 2526 L
 886 2584 mt 
(10) s
1094 2151 mt 1124 2151 L
3909 2151 mt 3879 2151 L
 886 2209 mt 
(15) s
1094 1776 mt 1124 1776 L
3909 1776 mt 3879 1776 L
 886 1834 mt 
(20) s
1094 1401 mt 1124 1401 L
3909 1401 mt 3879 1401 L
 886 1459 mt 
(25) s
1094 1026 mt 1124 1026 L
3909 1026 mt 3879 1026 L
 886 1084 mt 
(30) s
1094  651 mt 1124  651 L
3909  651 mt 3879  651 L
 886  709 mt 
(35) s
1094  276 mt 1124  276 L
3909  276 mt 3879  276 L
 886  334 mt 
(40) s
1094  276 mt 3909  276 L
1094 3276 mt 3909 3276 L
3909 3276 mt 3909  276 L
1094 3276 mt 1094  276 L
gs 1094 276 2816 3001 rc
282 -30 281 0 282 0 281 0 282 0 281 0 282 0 281 0 
282 0 281 0 1094 3276 11 MP stroke
gr

gs 1021 3173 2962 177 rc
1058 3276 mt 1130 3276 L
1094 3240 mt 1094 3312 L
1339 3276 mt 1411 3276 L
1375 3240 mt 1375 3312 L
1621 3276 mt 1693 3276 L
1657 3240 mt 1657 3312 L
1902 3276 mt 1974 3276 L
1938 3240 mt 1938 3312 L
2184 3276 mt 2256 3276 L
2220 3240 mt 2220 3312 L
2465 3276 mt 2537 3276 L
2501 3240 mt 2501 3312 L
2747 3276 mt 2819 3276 L
2783 3240 mt 2783 3312 L
3028 3276 mt 3100 3276 L
3064 3240 mt 3064 3312 L
3310 3276 mt 3382 3276 L
3346 3240 mt 3346 3312 L
3591 3276 mt 3663 3276 L
3627 3240 mt 3627 3312 L
3873 3246 mt 3945 3246 L
3909 3210 mt 3909 3282 L
1069 3251 mt 1119 3301 L
1119 3251 mt 1069 3301 L
1350 3251 mt 1400 3301 L
1400 3251 mt 1350 3301 L
1632 3251 mt 1682 3301 L
1682 3251 mt 1632 3301 L
1913 3251 mt 1963 3301 L
1963 3251 mt 1913 3301 L
2195 3251 mt 2245 3301 L
2245 3251 mt 2195 3301 L
2476 3251 mt 2526 3301 L
2526 3251 mt 2476 3301 L
2758 3251 mt 2808 3301 L
2808 3251 mt 2758 3301 L
3039 3251 mt 3089 3301 L
3089 3251 mt 3039 3301 L
3321 3251 mt 3371 3301 L
3371 3251 mt 3321 3301 L
3602 3251 mt 3652 3301 L
3652 3251 mt 3602 3301 L
3884 3221 mt 3934 3271 L
3934 3221 mt 3884 3271 L
gr

gs 1094 276 2816 3001 rc
/c8 { 1.000000 0.000000 0.000000 sr} bdef
c8
282 0 281 0 282 0 281 0 282 0 281 0 282 0 281 0 
282 0 281 0 1094 3276 11 MP stroke
gr

c8
gs 1021 3203 2962 147 rc
0 j
36 47 -36 47 -36 -47 36 -47 1094 3323 5 MP
DP
36 47 -36 47 -36 -47 36 -47 1375 3323 5 MP
DP
36 47 -36 47 -36 -47 36 -47 1657 3323 5 MP
DP
36 47 -36 47 -36 -47 36 -47 1938 3323 5 MP
DP
36 47 -36 47 -36 -47 36 -47 2220 3323 5 MP
DP
36 47 -36 47 -36 -47 36 -47 2501 3323 5 MP
DP
36 47 -36 47 -36 -47 36 -47 2783 3323 5 MP
DP
36 47 -36 47 -36 -47 36 -47 3064 3323 5 MP
DP
36 47 -36 47 -36 -47 36 -47 3346 3323 5 MP
DP
36 47 -36 47 -36 -47 36 -47 3627 3323 5 MP
DP
36 47 -36 47 -36 -47 36 -47 3909 3323 5 MP
DP
gr

gs 1094 276 2816 3001 rc
/c9 { 1.000000 0.000000 1.000000 sr} bdef
c9
282 0 281 0 282 0 281 0 282 0 281 0 282 0 281 0 
282 0 281 0 1094 3276 11 MP stroke
gr

c9
gs 1021 3203 2962 147 rc
0 j
-41 71 -41 -71 82 0 1053 3300 4 MP
DP
-41 71 -41 -71 82 0 1334 3300 4 MP
DP
-41 71 -41 -71 82 0 1616 3300 4 MP
DP
-41 71 -41 -71 82 0 1897 3300 4 MP
DP
-41 71 -41 -71 82 0 2179 3300 4 MP
DP
-41 71 -41 -71 82 0 2460 3300 4 MP
DP
-41 71 -41 -71 82 0 2742 3300 4 MP
DP
-41 71 -41 -71 82 0 3023 3300 4 MP
DP
-41 71 -41 -71 82 0 3305 3300 4 MP
DP
-41 71 -41 -71 82 0 3586 3300 4 MP
DP
-41 71 -41 -71 82 0 3868 3300 4 MP
DP
gr

gs 1094 276 2816 3001 rc
/c10 { 0.000000 0.000000 1.000000 sr} bdef
c10
282 0 281 0 282 0 281 0 282 0 281 0 282 0 281 0 
282 0 1375 3276 10 MP stroke
gr

c10
gs 1302 3203 2681 147 rc
0 j
0 -58 -58 0 0 58 58 0 1346 3247 5 MP
DP
0 -58 -58 0 0 58 58 0 1628 3247 5 MP
DP
0 -58 -58 0 0 58 58 0 1909 3247 5 MP
DP
0 -58 -58 0 0 58 58 0 2191 3247 5 MP
DP
0 -58 -58 0 0 58 58 0 2472 3247 5 MP
DP
0 -58 -58 0 0 58 58 0 2754 3247 5 MP
DP
0 -58 -58 0 0 58 58 0 3035 3247 5 MP
DP
0 -58 -58 0 0 58 58 0 3317 3247 5 MP
DP
0 -58 -58 0 0 58 58 0 3598 3247 5 MP
DP
0 -58 -58 0 0 58 58 0 3880 3247 5 MP
DP
gr

gs 1094 276 2816 3001 rc
gr

0 sg
2452 3624 mt 
(T) s
 796 2085 mt  -90 rotate
(Error [%]) s
90 rotate
%%IncludeResource: font Helvetica
/Helvetica /WindowsLatin1Encoding 120 FMSR

1077 3319 mt 
( ) s
3893  318 mt 
( ) s
1 sg
0 794 1764 0 0 -794 2086 1130 4 MP
PP
-1764 0 0 794 1764 0 0 -794 2086 1130 5 MP stroke
4 w
DO
SO
6 w
0 sg
2086  336 mt 3850  336 L
2086 1130 mt 3850 1130 L
3850 1130 mt 3850  336 L
2086 1130 mt 2086  336 L
2086 1130 mt 3850 1130 L
2086 1130 mt 2086  336 L
2086  336 mt 3850  336 L
2086 1130 mt 3850 1130 L
3850 1130 mt 3850  336 L
2086 1130 mt 2086  336 L
%%IncludeResource: font Helvetica
/Helvetica /WindowsLatin1Encoding 156 FMSR

2538  504 mt 
(No Observability) s
gs 2086 336 1765 795 rc
348 0 2155 449 2 MP stroke
gs 2256 376 147 147 rc
2293  449 mt 2365  449 L
2329  413 mt 2329  485 L
2304  424 mt 2354  474 L
2354  424 mt 2304  474 L
gr

gr

2538  694 mt 
(With Observability) s
gs 2086 336 1765 795 rc
c8
348 0 2155 638 2 MP stroke
gs 2256 565 147 147 rc
0 j
36 47 -36 47 -36 -47 36 -47 2329 685 5 MP
DP
gr

gr

c8
0 sg
2538  883 mt 
(2-norm SVM) s
gs 2086 336 1765 795 rc
c9
348 0 2155 827 2 MP stroke
gs 2256 754 147 147 rc
0 j
-41 71 -41 -71 82 0 2288 851 4 MP
DP
gr

gr

c9
0 sg
2538 1073 mt 
(1-norm SVM) s
gs 2086 336 1765 795 rc
c10
348 0 2155 1016 2 MP stroke
gs 2256 943 147 147 rc
0 j
0 -58 -58 0 0 58 58 0 2300 987 5 MP
DP
gr

gr

c10
1 sg
0 3000 2816 0 0 -3000 4798 3276 4 MP
PP
-2816 0 0 3000 2816 0 0 -3000 4798 3276 5 MP stroke
4 w
DO
0 sg
4798 3276 mt 4798  276 L
4798  276 mt 4798  276 L
5361 3276 mt 5361  276 L
5361  276 mt 5361  276 L
5924 3276 mt 5924  276 L
5924  276 mt 5924  276 L
6487 3276 mt 6487  276 L
6487  276 mt 6487  276 L
7050 3276 mt 7050  276 L
7050  276 mt 7050  276 L
7614 3276 mt 7614  276 L
7614  276 mt 7614  276 L
4798 3276 mt 7614 3276 L
7614 3276 mt 7614 3276 L
4798 2276 mt 7614 2276 L
7614 2276 mt 7614 2276 L
4798 1276 mt 7614 1276 L
7614 1276 mt 7614 1276 L
4798  276 mt 7614  276 L
7614  276 mt 7614  276 L
SO
6 w
4798  276 mt 7614  276 L
4798 3276 mt 7614 3276 L
7614 3276 mt 7614  276 L
4798 3276 mt 4798  276 L
4798 3276 mt 7614 3276 L
4798 3276 mt 4798  276 L
4798 3276 mt 4798 3246 L
4798  276 mt 4798  306 L
4755 3455 mt 
(0) s
5361 3276 mt 5361 3246 L
5361  276 mt 5361  306 L
5318 3455 mt 
(2) s
5924 3276 mt 5924 3246 L
5924  276 mt 5924  306 L
5881 3455 mt 
(4) s
6487 3276 mt 6487 3246 L
6487  276 mt 6487  306 L
6444 3455 mt 
(6) s
7050 3276 mt 7050 3246 L
7050  276 mt 7050  306 L
7007 3455 mt 
(8) s
7614 3276 mt 7614 3246 L
7614  276 mt 7614  306 L
7528 3455 mt 
(10) s
4798 3276 mt 4828 3276 L
7614 3276 mt 7584 3276 L
4677 3334 mt 
(0) s
4798 2276 mt 4828 2276 L
7614 2276 mt 7584 2276 L
4677 2334 mt 
(5) s
4798 1276 mt 4828 1276 L
7614 1276 mt 7584 1276 L
4590 1334 mt 
(10) s
4798  276 mt 4828  276 L
7614  276 mt 7584  276 L
4590  334 mt 
(15) s
4798  276 mt 7614  276 L
4798 3276 mt 7614 3276 L
7614 3276 mt 7614  276 L
4798 3276 mt 4798  276 L
gs 4798 276 2817 3001 rc
282 40 282 80 281 0 282 240 281 160 282 0 282 0 281 0 
282 40 281 760 4798 876 11 MP stroke
gr

gs 4725 803 2963 1467 rc
4762  876 mt 4834  876 L
4798  840 mt 4798  912 L
5043 1636 mt 5115 1636 L
5079 1600 mt 5079 1672 L
5325 1676 mt 5397 1676 L
5361 1640 mt 5361 1712 L
5606 1676 mt 5678 1676 L
5642 1640 mt 5642 1712 L
5888 1676 mt 5960 1676 L
5924 1640 mt 5924 1712 L
6170 1676 mt 6242 1676 L
6206 1640 mt 6206 1712 L
6451 1836 mt 6523 1836 L
6487 1800 mt 6487 1872 L
6733 2076 mt 6805 2076 L
6769 2040 mt 6769 2112 L
7014 2076 mt 7086 2076 L
7050 2040 mt 7050 2112 L
7296 2156 mt 7368 2156 L
7332 2120 mt 7332 2192 L
7578 2196 mt 7650 2196 L
7614 2160 mt 7614 2232 L
4773  851 mt 4823  901 L
4823  851 mt 4773  901 L
5054 1611 mt 5104 1661 L
5104 1611 mt 5054 1661 L
5336 1651 mt 5386 1701 L
5386 1651 mt 5336 1701 L
5617 1651 mt 5667 1701 L
5667 1651 mt 5617 1701 L
5899 1651 mt 5949 1701 L
5949 1651 mt 5899 1701 L
6181 1651 mt 6231 1701 L
6231 1651 mt 6181 1701 L
6462 1811 mt 6512 1861 L
6512 1811 mt 6462 1861 L
6744 2051 mt 6794 2101 L
6794 2051 mt 6744 2101 L
7025 2051 mt 7075 2101 L
7075 2051 mt 7025 2101 L
7307 2131 mt 7357 2181 L
7357 2131 mt 7307 2181 L
7589 2171 mt 7639 2221 L
7639 2171 mt 7589 2221 L
gr

gs 4798 276 2817 3001 rc
c8
282 200 282 40 281 40 282 40 281 81 282 0 282 39 281 80 
282 81 281 439 4798 876 11 MP stroke
gr

c8
gs 4725 803 2963 1187 rc
0 j
36 47 -36 47 -36 -47 36 -47 4798 923 5 MP
DP
36 47 -36 47 -36 -47 36 -47 5079 1362 5 MP
DP
36 47 -36 47 -36 -47 36 -47 5361 1443 5 MP
DP
36 47 -36 47 -36 -47 36 -47 5642 1523 5 MP
DP
36 47 -36 47 -36 -47 36 -47 5924 1562 5 MP
DP
36 47 -36 47 -36 -47 36 -47 6206 1562 5 MP
DP
36 47 -36 47 -36 -47 36 -47 6487 1643 5 MP
DP
36 47 -36 47 -36 -47 36 -47 6769 1683 5 MP
DP
36 47 -36 47 -36 -47 36 -47 7050 1723 5 MP
DP
36 47 -36 47 -36 -47 36 -47 7332 1763 5 MP
DP
36 47 -36 47 -36 -47 36 -47 7614 1963 5 MP
DP
gr

gs 4798 276 2817 3001 rc
c9
282 0 282 0 281 0 282 0 281 0 282 0 282 0 281 0 
282 0 281 0 4798 876 11 MP stroke
gr

c9
gs 4725 803 2963 147 rc
0 j
-41 71 -41 -71 82 0 4757 900 4 MP
DP
-41 71 -41 -71 82 0 5038 900 4 MP
DP
-41 71 -41 -71 82 0 5320 900 4 MP
DP
-41 71 -41 -71 82 0 5601 900 4 MP
DP
-41 71 -41 -71 82 0 5883 900 4 MP
DP
-41 71 -41 -71 82 0 6165 900 4 MP
DP
-41 71 -41 -71 82 0 6446 900 4 MP
DP
-41 71 -41 -71 82 0 6728 900 4 MP
DP
-41 71 -41 -71 82 0 7009 900 4 MP
DP
-41 71 -41 -71 82 0 7291 900 4 MP
DP
-41 71 -41 -71 82 0 7573 900 4 MP
DP
gr

gs 4798 276 2817 3001 rc
c10
282 40 282 0 281 -40 282 0 281 80 282 240 282 0 281 -40 
282 40 5079 1876 10 MP stroke
gr

c10
gs 5006 1803 2682 467 rc
0 j
0 -58 -58 0 0 58 58 0 5050 1847 5 MP
DP
0 -58 -58 0 0 58 58 0 5332 1887 5 MP
DP
0 -58 -58 0 0 58 58 0 5613 1847 5 MP
DP
0 -58 -58 0 0 58 58 0 5895 1847 5 MP
DP
0 -58 -58 0 0 58 58 0 6177 2087 5 MP
DP
0 -58 -58 0 0 58 58 0 6458 2167 5 MP
DP
0 -58 -58 0 0 58 58 0 6740 2167 5 MP
DP
0 -58 -58 0 0 58 58 0 7021 2127 5 MP
DP
0 -58 -58 0 0 58 58 0 7303 2127 5 MP
DP
0 -58 -58 0 0 58 58 0 7585 2167 5 MP
DP
gr

gs 4798 276 2817 3001 rc
gr

0 sg
6157 3624 mt 
(T) s
4500 2572 mt  -90 rotate
(Non-zeros entries in w) s
90 rotate
%%IncludeResource: font Helvetica
/Helvetica /WindowsLatin1Encoding 120 FMSR

4781 3319 mt 
( ) s
7598  318 mt 
( ) s
1 sg
0 894 1827 0 0 -894 4889 3204 4 MP
PP
-1827 0 0 894 1827 0 0 -894 4889 3204 5 MP stroke
4 w
DO
SO
6 w
0 sg
4889 2310 mt 6716 2310 L
4889 3204 mt 6716 3204 L
6716 3204 mt 6716 2310 L
4889 3204 mt 4889 2310 L
4889 3204 mt 6716 3204 L
4889 3204 mt 4889 2310 L
4889 2310 mt 6716 2310 L
4889 3204 mt 6716 3204 L
6716 3204 mt 6716 2310 L
4889 3204 mt 4889 2310 L
%%IncludeResource: font Helvetica
/Helvetica /WindowsLatin1Encoding 156 FMSR

5357 2493 mt 
(No Observability) s
gs 4889 2310 1828 895 rc
360 0 4961 2437 2 MP stroke
gs 5068 2364 147 147 rc
5105 2437 mt 5177 2437 L
5141 2401 mt 5141 2473 L
5116 2412 mt 5166 2462 L
5166 2412 mt 5116 2462 L
gr

gr

5357 2706 mt 
(With Observability) s
gs 4889 2310 1828 895 rc
c8
360 0 4961 2650 2 MP stroke
gs 5068 2577 147 147 rc
0 j
36 47 -36 47 -36 -47 36 -47 5141 2697 5 MP
DP
gr

gr

c8
0 sg
5357 2919 mt 
(2-norm SVM) s
gs 4889 2310 1828 895 rc
c9
360 0 4961 2863 2 MP stroke
gs 5068 2790 147 147 rc
0 j
-41 71 -41 -71 82 0 5100 2887 4 MP
DP
gr

gr

c9
0 sg
5357 3132 mt 
(1-norm SVM) s
gs 4889 2310 1828 895 rc
c10
360 0 4961 3076 2 MP stroke
gs 5068 3003 147 147 rc
0 j
0 -58 -58 0 0 58 58 0 5112 3047 5 MP
DP
gr

gr

c10

end %%Color Dict

eplot
%%EndObject

epage
end

showpage

%%Trailer
%%EOF
