%!PS-Adobe-3.0 EPSF-3.0
%%Creator: MATLAB, The MathWorks, Inc. Version 8.0.0.783 (R2012b). Operating System: Microsoft Windows 7.
%%Title: C:\000 Work\00000 paper 2\Program\Vehicle Application\2class\hc4.eps
%%CreationDate: 01/14/2014  00:52:33
%%DocumentNeededFonts: Helvetica
%%DocumentProcessColors: Cyan Magenta Yellow Black
%%LanguageLevel: 2
%%Pages: 1
%%BoundingBox:   -44   244   657   548
%%EndComments

%%BeginProlog
% MathWorks dictionary
/MathWorks 160 dict begin
% definition operators
/bdef {bind def} bind def
/ldef {load def} bind def
/xdef {exch def} bdef
/xstore {exch store} bdef
% operator abbreviations
/c  /clip ldef
/cc /concat ldef
/cp /closepath ldef
/gr /grestore ldef
/gs /gsave ldef
/mt /moveto ldef
/np /newpath ldef
/cm /currentmatrix ldef
/sm /setmatrix ldef
/rm /rmoveto ldef
/rl /rlineto ldef
/s {show newpath} bdef
/sc {setcmykcolor} bdef
/sr /setrgbcolor ldef
/sg /setgray ldef
/w /setlinewidth ldef
/j /setlinejoin ldef
/cap /setlinecap ldef
/rc {rectclip} bdef
/rf {rectfill} bdef
% page state control
/pgsv () def
/bpage {/pgsv save def} bdef
/epage {pgsv restore} bdef
/bplot /gsave ldef
/eplot {stroke grestore} bdef
% orientation switch
/portraitMode 0 def /landscapeMode 1 def /rotateMode 2 def
% coordinate system mappings
/dpi2point 0 def
% font control
/FontSize 0 def
/FMS {/FontSize xstore findfont [FontSize 0 0 FontSize neg 0 0]
  makefont setfont} bdef
/ISOLatin1Encoding where {pop /WindowsLatin1Encoding 256 array bdef
ISOLatin1Encoding WindowsLatin1Encoding copy pop
/.notdef/.notdef/quotesinglbase/florin/quotedblbase/ellipsis/dagger
/daggerdbl/circumflex/perthousand/Scaron/guilsinglleft/OE/.notdef/.notdef
/.notdef/.notdef/quoteleft/quoteright/quotedblleft/quotedblright/bullet
/endash/emdash/tilde/trademark/scaron/guilsinglright/oe/.notdef/.notdef
/Ydieresis WindowsLatin1Encoding 128 32 getinterval astore pop}
{/WindowsLatin1Encoding StandardEncoding bdef} ifelse
/reencode {exch dup where {pop load} {pop StandardEncoding} ifelse
  exch dup 3 1 roll findfont dup length dict begin
  { 1 index /FID ne {def}{pop pop} ifelse } forall
  /Encoding exch def currentdict end definefont pop} bdef
/isroman {findfont /CharStrings get /Agrave known} bdef
/FMSR {3 1 roll 1 index dup isroman {reencode} {pop pop} ifelse
  exch FMS} bdef
/csm {1 dpi2point div -1 dpi2point div scale neg translate
 dup landscapeMode eq {pop -90 rotate}
  {rotateMode eq {90 rotate} if} ifelse} bdef
% line types: solid, dotted, dashed, dotdash
/SO { [] 0 setdash } bdef
/DO { [.5 dpi2point mul 4 dpi2point mul] 0 setdash } bdef
/DA { [6 dpi2point mul] 0 setdash } bdef
/DD { [.5 dpi2point mul 4 dpi2point mul 6 dpi2point mul 4
  dpi2point mul] 0 setdash } bdef
% macros for lines and objects
/L {lineto stroke} bdef
/MP {3 1 roll moveto 1 sub {rlineto} repeat} bdef
/AP {{rlineto} repeat} bdef
/PDlw -1 def
/W {/PDlw currentlinewidth def setlinewidth} def
/PP {closepath eofill} bdef
/DP {closepath stroke} bdef
/MR {4 -2 roll moveto dup  0 exch rlineto exch 0 rlineto
  neg 0 exch rlineto closepath} bdef
/FR {MR stroke} bdef
/PR {MR fill} bdef
/L1i {{currentfile picstr readhexstring pop} image} bdef
/tMatrix matrix def
/MakeOval {newpath tMatrix currentmatrix pop translate scale
0 0 1 0 360 arc tMatrix setmatrix} bdef
/FO {MakeOval stroke} bdef
/PO {MakeOval fill} bdef
/PD {currentlinewidth 2 div 0 360 arc fill
   PDlw -1 eq not {PDlw w /PDlw -1 def} if} def
/FA {newpath tMatrix currentmatrix pop translate scale
  0 0 1 5 -2 roll arc tMatrix setmatrix stroke} bdef
/PA {newpath tMatrix currentmatrix pop	translate 0 0 moveto scale
  0 0 1 5 -2 roll arc closepath tMatrix setmatrix fill} bdef
/FAn {newpath tMatrix currentmatrix pop translate scale
  0 0 1 5 -2 roll arcn tMatrix setmatrix stroke} bdef
/PAn {newpath tMatrix currentmatrix pop translate 0 0 moveto scale
  0 0 1 5 -2 roll arcn closepath tMatrix setmatrix fill} bdef
/vradius 0 def /hradius 0 def /lry 0 def
/lrx 0 def /uly 0 def /ulx 0 def /rad 0 def
/MRR {/vradius xdef /hradius xdef /lry xdef /lrx xdef /uly xdef
  /ulx xdef newpath tMatrix currentmatrix pop ulx hradius add uly
  vradius add translate hradius vradius scale 0 0 1 180 270 arc 
  tMatrix setmatrix lrx hradius sub uly vradius add translate
  hradius vradius scale 0 0 1 270 360 arc tMatrix setmatrix
  lrx hradius sub lry vradius sub translate hradius vradius scale
  0 0 1 0 90 arc tMatrix setmatrix ulx hradius add lry vradius sub
  translate hradius vradius scale 0 0 1 90 180 arc tMatrix setmatrix
  closepath} bdef
/FRR {MRR stroke } bdef
/PRR {MRR fill } bdef
/MlrRR {/lry xdef /lrx xdef /uly xdef /ulx xdef /rad lry uly sub 2 div def
  newpath tMatrix currentmatrix pop ulx rad add uly rad add translate
  rad rad scale 0 0 1 90 270 arc tMatrix setmatrix lrx rad sub lry rad
  sub translate rad rad scale 0 0 1 270 90 arc tMatrix setmatrix
  closepath} bdef
/FlrRR {MlrRR stroke } bdef
/PlrRR {MlrRR fill } bdef
/MtbRR {/lry xdef /lrx xdef /uly xdef /ulx xdef /rad lrx ulx sub 2 div def
  newpath tMatrix currentmatrix pop ulx rad add uly rad add translate
  rad rad scale 0 0 1 180 360 arc tMatrix setmatrix lrx rad sub lry rad
  sub translate rad rad scale 0 0 1 0 180 arc tMatrix setmatrix
  closepath} bdef
/FtbRR {MtbRR stroke } bdef
/PtbRR {MtbRR fill } bdef
/stri 6 array def /dtri 6 array def
/smat 6 array def /dmat 6 array def
/tmat1 6 array def /tmat2 6 array def /dif 3 array def
/asub {/ind2 exch def /ind1 exch def dup dup
  ind1 get exch ind2 get sub exch } bdef
/tri_to_matrix {
  2 0 asub 3 1 asub 4 0 asub 5 1 asub
  dup 0 get exch 1 get 7 -1 roll astore } bdef
/compute_transform {
  dmat dtri tri_to_matrix tmat1 invertmatrix 
  smat stri tri_to_matrix tmat2 concatmatrix } bdef
/ds {stri astore pop} bdef
/dt {dtri astore pop} bdef
/db {2 copy /cols xdef /rows xdef mul dup 3 mul string
  currentfile 
  3 index 0 eq {/ASCIIHexDecode filter}
  {/ASCII85Decode filter 3 index 2 eq {/RunLengthDecode filter} if }
  ifelse exch readstring pop
  dup 0 3 index getinterval /rbmap xdef
  dup 2 index dup getinterval /gbmap xdef
  1 index dup 2 mul exch getinterval /bbmap xdef pop pop}bdef
/it {gs np dtri aload pop moveto lineto lineto cp c
  cols rows 8 compute_transform 
  rbmap gbmap bbmap true 3 colorimage gr}bdef
/il {newpath moveto lineto stroke}bdef
currentdict end def
%%EndProlog

%%BeginSetup
MathWorks begin

0 cap

end
%%EndSetup

%%Page: 1 1
%%BeginPageSetup
%%PageBoundingBox:   -44   244   657   548
MathWorks begin
bpage
%%EndPageSetup

%%BeginObject: obj1
bplot

/dpi2point 12 def
portraitMode -0528 6576 csm

    0     0  8413  3645 rc
86 dict begin %Colortable dictionary
/c0 { 0.000000 0.000000 0.000000 sr} bdef
/c1 { 1.000000 1.000000 1.000000 sr} bdef
/c2 { 0.900000 0.000000 0.000000 sr} bdef
/c3 { 0.000000 0.820000 0.000000 sr} bdef
/c4 { 0.000000 0.000000 0.800000 sr} bdef
/c5 { 0.910000 0.820000 0.320000 sr} bdef
/c6 { 1.000000 0.260000 0.820000 sr} bdef
/c7 { 0.000000 0.820000 0.820000 sr} bdef
c0
1 j
1 sg
   0    0 8414 3646 rf
6 w
0 2971 2815 0 0 -2971 1094 3244 4 MP
PP
-2815 0 0 2971 2815 0 0 -2971 1094 3244 5 MP stroke
4 w
DO
0 sg
1094 3244 mt 1094  273 L
1094  273 mt 1094  273 L
1657 3244 mt 1657  273 L
1657  273 mt 1657  273 L
2220 3244 mt 2220  273 L
2220  273 mt 2220  273 L
2783 3244 mt 2783  273 L
2783  273 mt 2783  273 L
3346 3244 mt 3346  273 L
3346  273 mt 3346  273 L
3909 3244 mt 3909  273 L
3909  273 mt 3909  273 L
1094 3244 mt 3909 3244 L
3909 3244 mt 3909 3244 L
1094 2872 mt 3909 2872 L
3909 2872 mt 3909 2872 L
1094 2501 mt 3909 2501 L
3909 2501 mt 3909 2501 L
1094 2129 mt 3909 2129 L
3909 2129 mt 3909 2129 L
1094 1758 mt 3909 1758 L
3909 1758 mt 3909 1758 L
1094 1387 mt 3909 1387 L
3909 1387 mt 3909 1387 L
1094 1015 mt 3909 1015 L
3909 1015 mt 3909 1015 L
1094  644 mt 3909  644 L
3909  644 mt 3909  644 L
1094  273 mt 3909  273 L
3909  273 mt 3909  273 L
SO
6 w
1094  273 mt 3909  273 L
1094 3244 mt 3909 3244 L
3909 3244 mt 3909  273 L
1094 3244 mt 1094  273 L
1094 3244 mt 3909 3244 L
1094 3244 mt 1094  273 L
1094 3244 mt 1094 3214 L
1094  273 mt 1094  302 L
%%IncludeResource: font Helvetica
/Helvetica /WindowsLatin1Encoding 156 FMSR

1051 3423 mt 
(0) s
1657 3244 mt 1657 3214 L
1657  273 mt 1657  302 L
1614 3423 mt 
(2) s
2220 3244 mt 2220 3214 L
2220  273 mt 2220  302 L
2177 3423 mt 
(4) s
2783 3244 mt 2783 3214 L
2783  273 mt 2783  302 L
2740 3423 mt 
(6) s
3346 3244 mt 3346 3214 L
3346  273 mt 3346  302 L
3303 3423 mt 
(8) s
3909 3244 mt 3909 3214 L
3909  273 mt 3909  302 L
3823 3423 mt 
(10) s
1094 3244 mt 1123 3244 L
3909 3244 mt 3879 3244 L
 973 3302 mt 
(0) s
1094 2872 mt 1123 2872 L
3909 2872 mt 3879 2872 L
 973 2930 mt 
(5) s
1094 2501 mt 1123 2501 L
3909 2501 mt 3879 2501 L
 886 2559 mt 
(10) s
1094 2129 mt 1123 2129 L
3909 2129 mt 3879 2129 L
 886 2187 mt 
(15) s
1094 1758 mt 1123 1758 L
3909 1758 mt 3879 1758 L
 886 1816 mt 
(20) s
1094 1387 mt 1123 1387 L
3909 1387 mt 3879 1387 L
 886 1445 mt 
(25) s
1094 1015 mt 1123 1015 L
3909 1015 mt 3879 1015 L
 886 1073 mt 
(30) s
1094  644 mt 1123  644 L
3909  644 mt 3879  644 L
 886  702 mt 
(35) s
1094  273 mt 1123  273 L
3909  273 mt 3879  273 L
 886  331 mt 
(40) s
1094  273 mt 3909  273 L
1094 3244 mt 3909 3244 L
3909 3244 mt 3909  273 L
1094 3244 mt 1094  273 L
gs 1094 273 2816 2972 rc
282 0 281 0 282 0 281 0 282 0 281 0 282 0 281 0 
282 0 281 0 1094 3244 11 MP stroke
gr

gs 1021 3171 2962 147 rc
1058 3244 mt 1130 3244 L
1094 3208 mt 1094 3280 L
1339 3244 mt 1411 3244 L
1375 3208 mt 1375 3280 L
1621 3244 mt 1693 3244 L
1657 3208 mt 1657 3280 L
1902 3244 mt 1974 3244 L
1938 3208 mt 1938 3280 L
2184 3244 mt 2256 3244 L
2220 3208 mt 2220 3280 L
2465 3244 mt 2537 3244 L
2501 3208 mt 2501 3280 L
2747 3244 mt 2819 3244 L
2783 3208 mt 2783 3280 L
3028 3244 mt 3100 3244 L
3064 3208 mt 3064 3280 L
3310 3244 mt 3382 3244 L
3346 3208 mt 3346 3280 L
3591 3244 mt 3663 3244 L
3627 3208 mt 3627 3280 L
3873 3244 mt 3945 3244 L
3909 3208 mt 3909 3280 L
1069 3219 mt 1119 3269 L
1119 3219 mt 1069 3269 L
1350 3219 mt 1400 3269 L
1400 3219 mt 1350 3269 L
1632 3219 mt 1682 3269 L
1682 3219 mt 1632 3269 L
1913 3219 mt 1963 3269 L
1963 3219 mt 1913 3269 L
2195 3219 mt 2245 3269 L
2245 3219 mt 2195 3269 L
2476 3219 mt 2526 3269 L
2526 3219 mt 2476 3269 L
2758 3219 mt 2808 3269 L
2808 3219 mt 2758 3269 L
3039 3219 mt 3089 3269 L
3089 3219 mt 3039 3269 L
3321 3219 mt 3371 3269 L
3371 3219 mt 3321 3269 L
3602 3219 mt 3652 3269 L
3652 3219 mt 3602 3269 L
3884 3219 mt 3934 3269 L
3934 3219 mt 3884 3269 L
gr

gs 1094 273 2816 2972 rc
/c8 { 1.000000 0.000000 0.000000 sr} bdef
c8
282 0 281 0 282 0 281 0 282 0 281 0 282 0 281 0 
282 0 281 0 1094 3244 11 MP stroke
gr

c8
gs 1021 3171 2962 147 rc
0 j
36 47 -36 47 -36 -47 36 -47 1094 3291 5 MP
DP
36 47 -36 47 -36 -47 36 -47 1375 3291 5 MP
DP
36 47 -36 47 -36 -47 36 -47 1657 3291 5 MP
DP
36 47 -36 47 -36 -47 36 -47 1938 3291 5 MP
DP
36 47 -36 47 -36 -47 36 -47 2220 3291 5 MP
DP
36 47 -36 47 -36 -47 36 -47 2501 3291 5 MP
DP
36 47 -36 47 -36 -47 36 -47 2783 3291 5 MP
DP
36 47 -36 47 -36 -47 36 -47 3064 3291 5 MP
DP
36 47 -36 47 -36 -47 36 -47 3346 3291 5 MP
DP
36 47 -36 47 -36 -47 36 -47 3627 3291 5 MP
DP
36 47 -36 47 -36 -47 36 -47 3909 3291 5 MP
DP
gr

gs 1094 273 2816 2972 rc
/c9 { 1.000000 0.000000 1.000000 sr} bdef
c9
282 0 281 0 282 0 281 0 282 0 281 0 282 0 281 0 
282 0 281 0 1094 3244 11 MP stroke
gr

c9
gs 1021 3171 2962 147 rc
0 j
-41 71 -41 -71 82 0 1053 3268 4 MP
DP
-41 71 -41 -71 82 0 1334 3268 4 MP
DP
-41 71 -41 -71 82 0 1616 3268 4 MP
DP
-41 71 -41 -71 82 0 1897 3268 4 MP
DP
-41 71 -41 -71 82 0 2179 3268 4 MP
DP
-41 71 -41 -71 82 0 2460 3268 4 MP
DP
-41 71 -41 -71 82 0 2742 3268 4 MP
DP
-41 71 -41 -71 82 0 3023 3268 4 MP
DP
-41 71 -41 -71 82 0 3305 3268 4 MP
DP
-41 71 -41 -71 82 0 3586 3268 4 MP
DP
-41 71 -41 -71 82 0 3868 3268 4 MP
DP
gr

gs 1094 273 2816 2972 rc
/c10 { 0.000000 0.000000 1.000000 sr} bdef
c10
282 0 281 0 282 0 281 0 282 0 281 0 282 0 281 0 
282 0 1375 3244 10 MP stroke
gr

c10
gs 1302 3171 2681 147 rc
0 j
0 -58 -58 0 0 58 58 0 1346 3215 5 MP
DP
0 -58 -58 0 0 58 58 0 1628 3215 5 MP
DP
0 -58 -58 0 0 58 58 0 1909 3215 5 MP
DP
0 -58 -58 0 0 58 58 0 2191 3215 5 MP
DP
0 -58 -58 0 0 58 58 0 2472 3215 5 MP
DP
0 -58 -58 0 0 58 58 0 2754 3215 5 MP
DP
0 -58 -58 0 0 58 58 0 3035 3215 5 MP
DP
0 -58 -58 0 0 58 58 0 3317 3215 5 MP
DP
0 -58 -58 0 0 58 58 0 3598 3215 5 MP
DP
0 -58 -58 0 0 58 58 0 3880 3215 5 MP
DP
gr

gs 1094 273 2816 2972 rc
gr

0 sg
2452 3592 mt 
(T) s
 796 2067 mt  -90 rotate
(Error [%]) s
90 rotate
%%IncludeResource: font Helvetica
/Helvetica /WindowsLatin1Encoding 120 FMSR

1077 3287 mt 
( ) s
3893  315 mt 
( ) s
gs 1094 273 2816 2972 rc
282 0 281 0 282 0 281 0 282 0 281 0 282 0 281 0 
282 0 281 0 1094 3244 11 MP stroke
gr

gs 1021 3171 2962 147 rc
1058 3244 mt 1130 3244 L
1094 3208 mt 1094 3280 L
1339 3244 mt 1411 3244 L
1375 3208 mt 1375 3280 L
1621 3244 mt 1693 3244 L
1657 3208 mt 1657 3280 L
1902 3244 mt 1974 3244 L
1938 3208 mt 1938 3280 L
2184 3244 mt 2256 3244 L
2220 3208 mt 2220 3280 L
2465 3244 mt 2537 3244 L
2501 3208 mt 2501 3280 L
2747 3244 mt 2819 3244 L
2783 3208 mt 2783 3280 L
3028 3244 mt 3100 3244 L
3064 3208 mt 3064 3280 L
3310 3244 mt 3382 3244 L
3346 3208 mt 3346 3280 L
3591 3244 mt 3663 3244 L
3627 3208 mt 3627 3280 L
3873 3244 mt 3945 3244 L
3909 3208 mt 3909 3280 L
1069 3219 mt 1119 3269 L
1119 3219 mt 1069 3269 L
1350 3219 mt 1400 3269 L
1400 3219 mt 1350 3269 L
1632 3219 mt 1682 3269 L
1682 3219 mt 1632 3269 L
1913 3219 mt 1963 3269 L
1963 3219 mt 1913 3269 L
2195 3219 mt 2245 3269 L
2245 3219 mt 2195 3269 L
2476 3219 mt 2526 3269 L
2526 3219 mt 2476 3269 L
2758 3219 mt 2808 3269 L
2808 3219 mt 2758 3269 L
3039 3219 mt 3089 3269 L
3089 3219 mt 3039 3269 L
3321 3219 mt 3371 3269 L
3371 3219 mt 3321 3269 L
3602 3219 mt 3652 3269 L
3652 3219 mt 3602 3269 L
3884 3219 mt 3934 3269 L
3934 3219 mt 3884 3269 L
gr

gs 1094 273 2816 2972 rc
c8
282 0 281 0 282 0 281 0 282 0 281 0 282 0 281 0 
282 0 281 0 1094 3244 11 MP stroke
gr

c8
gs 1021 3171 2962 147 rc
0 j
36 47 -36 47 -36 -47 36 -47 1094 3291 5 MP
DP
36 47 -36 47 -36 -47 36 -47 1375 3291 5 MP
DP
36 47 -36 47 -36 -47 36 -47 1657 3291 5 MP
DP
36 47 -36 47 -36 -47 36 -47 1938 3291 5 MP
DP
36 47 -36 47 -36 -47 36 -47 2220 3291 5 MP
DP
36 47 -36 47 -36 -47 36 -47 2501 3291 5 MP
DP
36 47 -36 47 -36 -47 36 -47 2783 3291 5 MP
DP
36 47 -36 47 -36 -47 36 -47 3064 3291 5 MP
DP
36 47 -36 47 -36 -47 36 -47 3346 3291 5 MP
DP
36 47 -36 47 -36 -47 36 -47 3627 3291 5 MP
DP
36 47 -36 47 -36 -47 36 -47 3909 3291 5 MP
DP
gr

gs 1094 273 2816 2972 rc
c9
282 0 281 0 282 0 281 0 282 0 281 0 282 0 281 0 
282 0 281 0 1094 3244 11 MP stroke
gr

c9
gs 1021 3171 2962 147 rc
0 j
-41 71 -41 -71 82 0 1053 3268 4 MP
DP
-41 71 -41 -71 82 0 1334 3268 4 MP
DP
-41 71 -41 -71 82 0 1616 3268 4 MP
DP
-41 71 -41 -71 82 0 1897 3268 4 MP
DP
-41 71 -41 -71 82 0 2179 3268 4 MP
DP
-41 71 -41 -71 82 0 2460 3268 4 MP
DP
-41 71 -41 -71 82 0 2742 3268 4 MP
DP
-41 71 -41 -71 82 0 3023 3268 4 MP
DP
-41 71 -41 -71 82 0 3305 3268 4 MP
DP
-41 71 -41 -71 82 0 3586 3268 4 MP
DP
-41 71 -41 -71 82 0 3868 3268 4 MP
DP
gr

gs 1094 273 2816 2972 rc
c10
282 0 281 0 282 0 281 0 282 0 281 0 282 0 281 0 
282 0 1375 3244 10 MP stroke
gr

c10
gs 1302 3171 2681 147 rc
0 j
0 -58 -58 0 0 58 58 0 1346 3215 5 MP
DP
0 -58 -58 0 0 58 58 0 1628 3215 5 MP
DP
0 -58 -58 0 0 58 58 0 1909 3215 5 MP
DP
0 -58 -58 0 0 58 58 0 2191 3215 5 MP
DP
0 -58 -58 0 0 58 58 0 2472 3215 5 MP
DP
0 -58 -58 0 0 58 58 0 2754 3215 5 MP
DP
0 -58 -58 0 0 58 58 0 3035 3215 5 MP
DP
0 -58 -58 0 0 58 58 0 3317 3215 5 MP
DP
0 -58 -58 0 0 58 58 0 3598 3215 5 MP
DP
0 -58 -58 0 0 58 58 0 3880 3215 5 MP
DP
gr

gs 1094 273 2816 2972 rc
gr

1 sg
0 2971 2816 0 0 -2971 4798 3244 4 MP
PP
-2816 0 0 2971 2816 0 0 -2971 4798 3244 5 MP stroke
4 w
DO
0 sg
4798 3244 mt 4798  273 L
4798  273 mt 4798  273 L
5361 3244 mt 5361  273 L
5361  273 mt 5361  273 L
5924 3244 mt 5924  273 L
5924  273 mt 5924  273 L
6487 3244 mt 6487  273 L
6487  273 mt 6487  273 L
7050 3244 mt 7050  273 L
7050  273 mt 7050  273 L
7614 3244 mt 7614  273 L
7614  273 mt 7614  273 L
4798 3244 mt 7614 3244 L
7614 3244 mt 7614 3244 L
4798 2253 mt 7614 2253 L
7614 2253 mt 7614 2253 L
4798 1263 mt 7614 1263 L
7614 1263 mt 7614 1263 L
4798  273 mt 7614  273 L
7614  273 mt 7614  273 L
SO
6 w
4798  273 mt 7614  273 L
4798 3244 mt 7614 3244 L
7614 3244 mt 7614  273 L
4798 3244 mt 4798  273 L
4798 3244 mt 7614 3244 L
4798 3244 mt 4798  273 L
4798 3244 mt 4798 3214 L
4798  273 mt 4798  302 L
%%IncludeResource: font Helvetica
/Helvetica /WindowsLatin1Encoding 156 FMSR

4755 3423 mt 
(0) s
5361 3244 mt 5361 3214 L
5361  273 mt 5361  302 L
5318 3423 mt 
(2) s
5924 3244 mt 5924 3214 L
5924  273 mt 5924  302 L
5881 3423 mt 
(4) s
6487 3244 mt 6487 3214 L
6487  273 mt 6487  302 L
6444 3423 mt 
(6) s
7050 3244 mt 7050 3214 L
7050  273 mt 7050  302 L
7007 3423 mt 
(8) s
7614 3244 mt 7614 3214 L
7614  273 mt 7614  302 L
7528 3423 mt 
(10) s
4798 3244 mt 4827 3244 L
7614 3244 mt 7584 3244 L
4677 3302 mt 
(0) s
4798 2253 mt 4827 2253 L
7614 2253 mt 7584 2253 L
4677 2311 mt 
(5) s
4798 1263 mt 4827 1263 L
7614 1263 mt 7584 1263 L
4590 1321 mt 
(10) s
4798  273 mt 4827  273 L
7614  273 mt 7584  273 L
4590  331 mt 
(15) s
4798  273 mt 7614  273 L
4798 3244 mt 7614 3244 L
7614 3244 mt 7614  273 L
4798 3244 mt 4798  273 L
gs 4798 273 2817 2972 rc
282 0 282 0 281 0 282 0 281 317 282 118 282 238 281 119 
282 436 281 554 4798 867 11 MP stroke
gr

gs 4725 794 2963 1929 rc
4762  867 mt 4834  867 L
4798  831 mt 4798  903 L
5043 1421 mt 5115 1421 L
5079 1385 mt 5079 1457 L
5325 1857 mt 5397 1857 L
5361 1821 mt 5361 1893 L
5606 1976 mt 5678 1976 L
5642 1940 mt 5642 2012 L
5888 2214 mt 5960 2214 L
5924 2178 mt 5924 2250 L
6170 2332 mt 6242 2332 L
6206 2296 mt 6206 2368 L
6451 2649 mt 6523 2649 L
6487 2613 mt 6487 2685 L
6733 2649 mt 6805 2649 L
6769 2613 mt 6769 2685 L
7014 2649 mt 7086 2649 L
7050 2613 mt 7050 2685 L
7296 2649 mt 7368 2649 L
7332 2613 mt 7332 2685 L
7578 2649 mt 7650 2649 L
7614 2613 mt 7614 2685 L
4773  842 mt 4823  892 L
4823  842 mt 4773  892 L
5054 1396 mt 5104 1446 L
5104 1396 mt 5054 1446 L
5336 1832 mt 5386 1882 L
5386 1832 mt 5336 1882 L
5617 1951 mt 5667 2001 L
5667 1951 mt 5617 2001 L
5899 2189 mt 5949 2239 L
5949 2189 mt 5899 2239 L
6181 2307 mt 6231 2357 L
6231 2307 mt 6181 2357 L
6462 2624 mt 6512 2674 L
6512 2624 mt 6462 2674 L
6744 2624 mt 6794 2674 L
6794 2624 mt 6744 2674 L
7025 2624 mt 7075 2674 L
7075 2624 mt 7025 2674 L
7307 2624 mt 7357 2674 L
7357 2624 mt 7307 2674 L
7589 2624 mt 7639 2674 L
7639 2624 mt 7589 2674 L
gr

gs 4798 273 2817 2972 rc
c8
282 0 282 0 281 0 282 0 281 198 282 39 282 199 281 514 
282 238 281 396 4798 867 11 MP stroke
gr

c8
gs 4725 794 2963 1731 rc
0 j
36 47 -36 47 -36 -47 36 -47 4798 914 5 MP
DP
36 47 -36 47 -36 -47 36 -47 5079 1310 5 MP
DP
36 47 -36 47 -36 -47 36 -47 5361 1548 5 MP
DP
36 47 -36 47 -36 -47 36 -47 5642 2062 5 MP
DP
36 47 -36 47 -36 -47 36 -47 5924 2261 5 MP
DP
36 47 -36 47 -36 -47 36 -47 6206 2300 5 MP
DP
36 47 -36 47 -36 -47 36 -47 6487 2498 5 MP
DP
36 47 -36 47 -36 -47 36 -47 6769 2498 5 MP
DP
36 47 -36 47 -36 -47 36 -47 7050 2498 5 MP
DP
36 47 -36 47 -36 -47 36 -47 7332 2498 5 MP
DP
36 47 -36 47 -36 -47 36 -47 7614 2498 5 MP
DP
gr

gs 4798 273 2817 2972 rc
c9
282 0 282 0 281 0 282 0 281 0 282 0 282 0 281 0 
282 0 281 0 4798 867 11 MP stroke
gr

c9
gs 4725 794 2963 147 rc
0 j
-41 71 -41 -71 82 0 4757 891 4 MP
DP
-41 71 -41 -71 82 0 5038 891 4 MP
DP
-41 71 -41 -71 82 0 5320 891 4 MP
DP
-41 71 -41 -71 82 0 5601 891 4 MP
DP
-41 71 -41 -71 82 0 5883 891 4 MP
DP
-41 71 -41 -71 82 0 6165 891 4 MP
DP
-41 71 -41 -71 82 0 6446 891 4 MP
DP
-41 71 -41 -71 82 0 6728 891 4 MP
DP
-41 71 -41 -71 82 0 7009 891 4 MP
DP
-41 71 -41 -71 82 0 7291 891 4 MP
DP
-41 71 -41 -71 82 0 7573 891 4 MP
DP
gr

gs 4798 273 2817 2972 rc
c10
282 0 282 0 281 0 282 118 281 0 282 80 282 79 281 119 
282 0 5079 2451 10 MP stroke
gr

c10
gs 5006 2378 2682 543 rc
0 j
0 -58 -58 0 0 58 58 0 5050 2422 5 MP
DP
0 -58 -58 0 0 58 58 0 5332 2422 5 MP
DP
0 -58 -58 0 0 58 58 0 5613 2541 5 MP
DP
0 -58 -58 0 0 58 58 0 5895 2620 5 MP
DP
0 -58 -58 0 0 58 58 0 6177 2700 5 MP
DP
0 -58 -58 0 0 58 58 0 6458 2700 5 MP
DP
0 -58 -58 0 0 58 58 0 6740 2818 5 MP
DP
0 -58 -58 0 0 58 58 0 7021 2818 5 MP
DP
0 -58 -58 0 0 58 58 0 7303 2818 5 MP
DP
0 -58 -58 0 0 58 58 0 7585 2818 5 MP
DP
gr

gs 4798 273 2817 2972 rc
gr

0 sg
6157 3592 mt 
(T) s
4500 2554 mt  -90 rotate
(Non-zeros entries in w) s
90 rotate
%%IncludeResource: font Helvetica
/Helvetica /WindowsLatin1Encoding 120 FMSR

4781 3287 mt 
( ) s
7598  315 mt 
( ) s
gs 4798 273 2817 2972 rc
282 0 282 0 281 0 282 0 281 317 282 118 282 238 281 119 
282 436 281 554 4798 867 11 MP stroke
gr

gs 4725 794 2963 1929 rc
4762  867 mt 4834  867 L
4798  831 mt 4798  903 L
5043 1421 mt 5115 1421 L
5079 1385 mt 5079 1457 L
5325 1857 mt 5397 1857 L
5361 1821 mt 5361 1893 L
5606 1976 mt 5678 1976 L
5642 1940 mt 5642 2012 L
5888 2214 mt 5960 2214 L
5924 2178 mt 5924 2250 L
6170 2332 mt 6242 2332 L
6206 2296 mt 6206 2368 L
6451 2649 mt 6523 2649 L
6487 2613 mt 6487 2685 L
6733 2649 mt 6805 2649 L
6769 2613 mt 6769 2685 L
7014 2649 mt 7086 2649 L
7050 2613 mt 7050 2685 L
7296 2649 mt 7368 2649 L
7332 2613 mt 7332 2685 L
7578 2649 mt 7650 2649 L
7614 2613 mt 7614 2685 L
4773  842 mt 4823  892 L
4823  842 mt 4773  892 L
5054 1396 mt 5104 1446 L
5104 1396 mt 5054 1446 L
5336 1832 mt 5386 1882 L
5386 1832 mt 5336 1882 L
5617 1951 mt 5667 2001 L
5667 1951 mt 5617 2001 L
5899 2189 mt 5949 2239 L
5949 2189 mt 5899 2239 L
6181 2307 mt 6231 2357 L
6231 2307 mt 6181 2357 L
6462 2624 mt 6512 2674 L
6512 2624 mt 6462 2674 L
6744 2624 mt 6794 2674 L
6794 2624 mt 6744 2674 L
7025 2624 mt 7075 2674 L
7075 2624 mt 7025 2674 L
7307 2624 mt 7357 2674 L
7357 2624 mt 7307 2674 L
7589 2624 mt 7639 2674 L
7639 2624 mt 7589 2674 L
gr

gs 4798 273 2817 2972 rc
c8
282 0 282 0 281 0 282 0 281 198 282 39 282 199 281 514 
282 238 281 396 4798 867 11 MP stroke
gr

c8
gs 4725 794 2963 1731 rc
0 j
36 47 -36 47 -36 -47 36 -47 4798 914 5 MP
DP
36 47 -36 47 -36 -47 36 -47 5079 1310 5 MP
DP
36 47 -36 47 -36 -47 36 -47 5361 1548 5 MP
DP
36 47 -36 47 -36 -47 36 -47 5642 2062 5 MP
DP
36 47 -36 47 -36 -47 36 -47 5924 2261 5 MP
DP
36 47 -36 47 -36 -47 36 -47 6206 2300 5 MP
DP
36 47 -36 47 -36 -47 36 -47 6487 2498 5 MP
DP
36 47 -36 47 -36 -47 36 -47 6769 2498 5 MP
DP
36 47 -36 47 -36 -47 36 -47 7050 2498 5 MP
DP
36 47 -36 47 -36 -47 36 -47 7332 2498 5 MP
DP
36 47 -36 47 -36 -47 36 -47 7614 2498 5 MP
DP
gr

gs 4798 273 2817 2972 rc
c9
282 0 282 0 281 0 282 0 281 0 282 0 282 0 281 0 
282 0 281 0 4798 867 11 MP stroke
gr

c9
gs 4725 794 2963 147 rc
0 j
-41 71 -41 -71 82 0 4757 891 4 MP
DP
-41 71 -41 -71 82 0 5038 891 4 MP
DP
-41 71 -41 -71 82 0 5320 891 4 MP
DP
-41 71 -41 -71 82 0 5601 891 4 MP
DP
-41 71 -41 -71 82 0 5883 891 4 MP
DP
-41 71 -41 -71 82 0 6165 891 4 MP
DP
-41 71 -41 -71 82 0 6446 891 4 MP
DP
-41 71 -41 -71 82 0 6728 891 4 MP
DP
-41 71 -41 -71 82 0 7009 891 4 MP
DP
-41 71 -41 -71 82 0 7291 891 4 MP
DP
-41 71 -41 -71 82 0 7573 891 4 MP
DP
gr

gs 4798 273 2817 2972 rc
c10
282 0 282 0 281 0 282 118 281 0 282 80 282 79 281 119 
282 0 5079 2451 10 MP stroke
gr

c10
gs 5006 2378 2682 543 rc
0 j
0 -58 -58 0 0 58 58 0 5050 2422 5 MP
DP
0 -58 -58 0 0 58 58 0 5332 2422 5 MP
DP
0 -58 -58 0 0 58 58 0 5613 2541 5 MP
DP
0 -58 -58 0 0 58 58 0 5895 2620 5 MP
DP
0 -58 -58 0 0 58 58 0 6177 2700 5 MP
DP
0 -58 -58 0 0 58 58 0 6458 2700 5 MP
DP
0 -58 -58 0 0 58 58 0 6740 2818 5 MP
DP
0 -58 -58 0 0 58 58 0 7021 2818 5 MP
DP
0 -58 -58 0 0 58 58 0 7303 2818 5 MP
DP
0 -58 -58 0 0 58 58 0 7585 2818 5 MP
DP
gr

gs 4798 273 2817 2972 rc
gr

1 sg
0 794 1764 0 0 -794 2086 1127 4 MP
PP
-1764 0 0 794 1764 0 0 -794 2086 1127 5 MP stroke
4 w
DO
SO
6 w
0 sg
2086  333 mt 3850  333 L
2086 1127 mt 3850 1127 L
3850 1127 mt 3850  333 L
2086 1127 mt 2086  333 L
2086 1127 mt 3850 1127 L
2086 1127 mt 2086  333 L
2086  333 mt 3850  333 L
2086 1127 mt 3850 1127 L
3850 1127 mt 3850  333 L
2086 1127 mt 2086  333 L
%%IncludeResource: font Helvetica
/Helvetica /WindowsLatin1Encoding 156 FMSR

2538  501 mt 
(No Observability) s
gs 2086 333 1765 795 rc
348 0 2155 446 2 MP stroke
gs 2256 373 147 147 rc
2293  446 mt 2365  446 L
2329  410 mt 2329  482 L
2304  421 mt 2354  471 L
2354  421 mt 2304  471 L
gr

gr

2538  691 mt 
(With Observability) s
gs 2086 333 1765 795 rc
c8
348 0 2155 635 2 MP stroke
gs 2256 562 147 147 rc
0 j
36 47 -36 47 -36 -47 36 -47 2329 682 5 MP
DP
gr

gr

c8
0 sg
2538  880 mt 
(2-norm SVM) s
gs 2086 333 1765 795 rc
c9
348 0 2155 824 2 MP stroke
gs 2256 751 147 147 rc
0 j
-41 71 -41 -71 82 0 2288 848 4 MP
DP
gr

gr

c9
0 sg
2538 1070 mt 
(1-norm SVM) s
gs 2086 333 1765 795 rc
c10
348 0 2155 1013 2 MP stroke
gs 2256 940 147 147 rc
0 j
0 -58 -58 0 0 58 58 0 2300 984 5 MP
DP
gr

gr

c10
1 sg
0 894 1827 0 0 -894 5815 1917 4 MP
PP
-1827 0 0 894 1827 0 0 -894 5815 1917 5 MP stroke
4 w
DO
SO
6 w
0 sg
5815 1023 mt 7642 1023 L
5815 1917 mt 7642 1917 L
7642 1917 mt 7642 1023 L
5815 1917 mt 5815 1023 L
5815 1917 mt 7642 1917 L
5815 1917 mt 5815 1023 L
5815 1023 mt 7642 1023 L
5815 1917 mt 7642 1917 L
7642 1917 mt 7642 1023 L
5815 1917 mt 5815 1023 L
6283 1206 mt 
(No Observability) s
gs 5815 1023 1828 895 rc
360 0 5887 1150 2 MP stroke
gs 5994 1077 147 147 rc
6031 1150 mt 6103 1150 L
6067 1114 mt 6067 1186 L
6042 1125 mt 6092 1175 L
6092 1125 mt 6042 1175 L
gr

gr

6283 1419 mt 
(With Observability) s
gs 5815 1023 1828 895 rc
c8
360 0 5887 1363 2 MP stroke
gs 5994 1290 147 147 rc
0 j
36 47 -36 47 -36 -47 36 -47 6067 1410 5 MP
DP
gr

gr

c8
0 sg
6283 1632 mt 
(2-norm SVM) s
gs 5815 1023 1828 895 rc
c9
360 0 5887 1576 2 MP stroke
gs 5994 1503 147 147 rc
0 j
-41 71 -41 -71 82 0 6026 1600 4 MP
DP
gr

gr

c9
0 sg
6283 1845 mt 
(1-norm SVM) s
gs 5815 1023 1828 895 rc
c10
360 0 5887 1789 2 MP stroke
gs 5994 1716 147 147 rc
0 j
0 -58 -58 0 0 58 58 0 6038 1760 5 MP
DP
gr

gr

c10

end %%Color Dict

eplot
%%EndObject

epage
end

showpage

%%Trailer
%%EOF
