%!PS-Adobe-3.0 EPSF-3.0
%%Creator: MATLAB, The MathWorks, Inc. Version 8.0.0.783 (R2012b). Operating System: Microsoft Windows 7.
%%Title: C:\000 Work\00000 paper 2\Program\Norm1 VS C change\sparse2.eps
%%CreationDate: 10/12/2013  16:18:17
%%DocumentNeededFonts: Helvetica
%%DocumentProcessColors: Cyan Magenta Yellow Black
%%LanguageLevel: 2
%%Pages: 1
%%BoundingBox:    96   238   515   553
%%EndComments

%%BeginProlog
% MathWorks dictionary
/MathWorks 160 dict begin
% definition operators
/bdef {bind def} bind def
/ldef {load def} bind def
/xdef {exch def} bdef
/xstore {exch store} bdef
% operator abbreviations
/c  /clip ldef
/cc /concat ldef
/cp /closepath ldef
/gr /grestore ldef
/gs /gsave ldef
/mt /moveto ldef
/np /newpath ldef
/cm /currentmatrix ldef
/sm /setmatrix ldef
/rm /rmoveto ldef
/rl /rlineto ldef
/s {show newpath} bdef
/sc {setcmykcolor} bdef
/sr /setrgbcolor ldef
/sg /setgray ldef
/w /setlinewidth ldef
/j /setlinejoin ldef
/cap /setlinecap ldef
/rc {rectclip} bdef
/rf {rectfill} bdef
% page state control
/pgsv () def
/bpage {/pgsv save def} bdef
/epage {pgsv restore} bdef
/bplot /gsave ldef
/eplot {stroke grestore} bdef
% orientation switch
/portraitMode 0 def /landscapeMode 1 def /rotateMode 2 def
% coordinate system mappings
/dpi2point 0 def
% font control
/FontSize 0 def
/FMS {/FontSize xstore findfont [FontSize 0 0 FontSize neg 0 0]
  makefont setfont} bdef
/ISOLatin1Encoding where {pop /WindowsLatin1Encoding 256 array bdef
ISOLatin1Encoding WindowsLatin1Encoding copy pop
/.notdef/.notdef/quotesinglbase/florin/quotedblbase/ellipsis/dagger
/daggerdbl/circumflex/perthousand/Scaron/guilsinglleft/OE/.notdef/.notdef
/.notdef/.notdef/quoteleft/quoteright/quotedblleft/quotedblright/bullet
/endash/emdash/tilde/trademark/scaron/guilsinglright/oe/.notdef/.notdef
/Ydieresis WindowsLatin1Encoding 128 32 getinterval astore pop}
{/WindowsLatin1Encoding StandardEncoding bdef} ifelse
/reencode {exch dup where {pop load} {pop StandardEncoding} ifelse
  exch dup 3 1 roll findfont dup length dict begin
  { 1 index /FID ne {def}{pop pop} ifelse } forall
  /Encoding exch def currentdict end definefont pop} bdef
/isroman {findfont /CharStrings get /Agrave known} bdef
/FMSR {3 1 roll 1 index dup isroman {reencode} {pop pop} ifelse
  exch FMS} bdef
/csm {1 dpi2point div -1 dpi2point div scale neg translate
 dup landscapeMode eq {pop -90 rotate}
  {rotateMode eq {90 rotate} if} ifelse} bdef
% line types: solid, dotted, dashed, dotdash
/SO { [] 0 setdash } bdef
/DO { [.5 dpi2point mul 4 dpi2point mul] 0 setdash } bdef
/DA { [6 dpi2point mul] 0 setdash } bdef
/DD { [.5 dpi2point mul 4 dpi2point mul 6 dpi2point mul 4
  dpi2point mul] 0 setdash } bdef
% macros for lines and objects
/L {lineto stroke} bdef
/MP {3 1 roll moveto 1 sub {rlineto} repeat} bdef
/AP {{rlineto} repeat} bdef
/PDlw -1 def
/W {/PDlw currentlinewidth def setlinewidth} def
/PP {closepath eofill} bdef
/DP {closepath stroke} bdef
/MR {4 -2 roll moveto dup  0 exch rlineto exch 0 rlineto
  neg 0 exch rlineto closepath} bdef
/FR {MR stroke} bdef
/PR {MR fill} bdef
/L1i {{currentfile picstr readhexstring pop} image} bdef
/tMatrix matrix def
/MakeOval {newpath tMatrix currentmatrix pop translate scale
0 0 1 0 360 arc tMatrix setmatrix} bdef
/FO {MakeOval stroke} bdef
/PO {MakeOval fill} bdef
/PD {currentlinewidth 2 div 0 360 arc fill
   PDlw -1 eq not {PDlw w /PDlw -1 def} if} def
/FA {newpath tMatrix currentmatrix pop translate scale
  0 0 1 5 -2 roll arc tMatrix setmatrix stroke} bdef
/PA {newpath tMatrix currentmatrix pop	translate 0 0 moveto scale
  0 0 1 5 -2 roll arc closepath tMatrix setmatrix fill} bdef
/FAn {newpath tMatrix currentmatrix pop translate scale
  0 0 1 5 -2 roll arcn tMatrix setmatrix stroke} bdef
/PAn {newpath tMatrix currentmatrix pop translate 0 0 moveto scale
  0 0 1 5 -2 roll arcn closepath tMatrix setmatrix fill} bdef
/vradius 0 def /hradius 0 def /lry 0 def
/lrx 0 def /uly 0 def /ulx 0 def /rad 0 def
/MRR {/vradius xdef /hradius xdef /lry xdef /lrx xdef /uly xdef
  /ulx xdef newpath tMatrix currentmatrix pop ulx hradius add uly
  vradius add translate hradius vradius scale 0 0 1 180 270 arc 
  tMatrix setmatrix lrx hradius sub uly vradius add translate
  hradius vradius scale 0 0 1 270 360 arc tMatrix setmatrix
  lrx hradius sub lry vradius sub translate hradius vradius scale
  0 0 1 0 90 arc tMatrix setmatrix ulx hradius add lry vradius sub
  translate hradius vradius scale 0 0 1 90 180 arc tMatrix setmatrix
  closepath} bdef
/FRR {MRR stroke } bdef
/PRR {MRR fill } bdef
/MlrRR {/lry xdef /lrx xdef /uly xdef /ulx xdef /rad lry uly sub 2 div def
  newpath tMatrix currentmatrix pop ulx rad add uly rad add translate
  rad rad scale 0 0 1 90 270 arc tMatrix setmatrix lrx rad sub lry rad
  sub translate rad rad scale 0 0 1 270 90 arc tMatrix setmatrix
  closepath} bdef
/FlrRR {MlrRR stroke } bdef
/PlrRR {MlrRR fill } bdef
/MtbRR {/lry xdef /lrx xdef /uly xdef /ulx xdef /rad lrx ulx sub 2 div def
  newpath tMatrix currentmatrix pop ulx rad add uly rad add translate
  rad rad scale 0 0 1 180 360 arc tMatrix setmatrix lrx rad sub lry rad
  sub translate rad rad scale 0 0 1 0 180 arc tMatrix setmatrix
  closepath} bdef
/FtbRR {MtbRR stroke } bdef
/PtbRR {MtbRR fill } bdef
/stri 6 array def /dtri 6 array def
/smat 6 array def /dmat 6 array def
/tmat1 6 array def /tmat2 6 array def /dif 3 array def
/asub {/ind2 exch def /ind1 exch def dup dup
  ind1 get exch ind2 get sub exch } bdef
/tri_to_matrix {
  2 0 asub 3 1 asub 4 0 asub 5 1 asub
  dup 0 get exch 1 get 7 -1 roll astore } bdef
/compute_transform {
  dmat dtri tri_to_matrix tmat1 invertmatrix 
  smat stri tri_to_matrix tmat2 concatmatrix } bdef
/ds {stri astore pop} bdef
/dt {dtri astore pop} bdef
/db {2 copy /cols xdef /rows xdef mul dup 3 mul string
  currentfile 
  3 index 0 eq {/ASCIIHexDecode filter}
  {/ASCII85Decode filter 3 index 2 eq {/RunLengthDecode filter} if }
  ifelse exch readstring pop
  dup 0 3 index getinterval /rbmap xdef
  dup 2 index dup getinterval /gbmap xdef
  1 index dup 2 mul exch getinterval /bbmap xdef pop pop}bdef
/it {gs np dtri aload pop moveto lineto lineto cp c
  cols rows 8 compute_transform 
  rbmap gbmap bbmap true 3 colorimage gr}bdef
/il {newpath moveto lineto stroke}bdef
currentdict end def
%%EndProlog

%%BeginSetup
MathWorks begin

0 cap

end
%%EndSetup

%%Page: 1 1
%%BeginPageSetup
%%PageBoundingBox:    96   238   515   553
MathWorks begin
bpage
%%EndPageSetup

%%BeginObject: obj1
bplot

/dpi2point 12 def
portraitMode 1152 6636 csm

    0     0  5039  3780 rc
85 dict begin %Colortable dictionary
/c0 { 0.000000 0.000000 0.000000 sr} bdef
/c1 { 1.000000 1.000000 1.000000 sr} bdef
/c2 { 0.900000 0.000000 0.000000 sr} bdef
/c3 { 0.000000 0.820000 0.000000 sr} bdef
/c4 { 0.000000 0.000000 0.800000 sr} bdef
/c5 { 0.910000 0.820000 0.320000 sr} bdef
/c6 { 1.000000 0.260000 0.820000 sr} bdef
/c7 { 0.000000 0.820000 0.820000 sr} bdef
c0
1 j
1 sg
   0    0 5040 3781 rf
6 w
-2722 -489 -1183 1126 2721 490 1838 1747 4 MP
PP
1184 -1127 -2722 -489 -1183 1126 2721 490 1838 1747 5 MP stroke
0 1465 2721 490 0 -1465 1838 1747 4 MP
PP
-2721 -490 0 1465 2721 490 0 -1465 1838 1747 5 MP stroke
0 1465 -1184 1127 0 -1465 1838 1747 4 MP
PP
1184 -1127 0 1465 -1184 1127 0 -1465 1838 1747 5 MP stroke
4 w
DO
0 sg
4559 2237 mt 1838 1747 L
1838 1747 mt 1838  282 L
3968 2800 mt 1246 2310 L
1246 2310 mt 1246  846 L
3376 3363 mt  654 2874 L
 654 2874 mt  654 1409 L
 654 2874 mt 1838 1747 L
1838 1747 mt 1838  282 L
1108 2955 mt 2291 1828 L
2291 1828 mt 2291  364 L
1562 3037 mt 2745 1910 L
2745 1910 mt 2745  446 L
2015 3119 mt 3199 1992 L
3199 1992 mt 3199  527 L
2469 3200 mt 3652 2073 L
3652 2073 mt 3652  609 L
2923 3282 mt 4106 2155 L
4106 2155 mt 4106  691 L
3376 3363 mt 4559 2237 L
4559 2237 mt 4559  772 L
 654 2874 mt 1838 1747 L
1838 1747 mt 4559 2237 L
 654 2581 mt 1838 1454 L
1838 1454 mt 4559 1944 L
 654 2288 mt 1838 1161 L
1838 1161 mt 4559 1651 L
 654 1995 mt 1838  868 L
1838  868 mt 4559 1358 L
 654 1702 mt 1838  575 L
1838  575 mt 4559 1065 L
 654 1409 mt 1838  282 L
1838  282 mt 4559  772 L
SO
6 w
4559 2237 mt 3376 3363 L
 654 2874 mt 3376 3363 L
 654 2874 mt  654 1409 L
4559 2237 mt 4628 2249 L
%%IncludeResource: font Helvetica
/Helvetica /WindowsLatin1Encoding 120 FMSR

4662 2366 mt 
(0) s
3968 2800 mt 4036 2812 L
4070 2929 mt 
(5) s
3376 3363 mt 3444 3376 L
3478 3493 mt 
(10) s
 654 2874 mt  604 2921 L
 513 3056 mt 
(0) s
1108 2955 mt 1058 3003 L
 967 3138 mt 
(1) s
1562 3037 mt 1512 3085 L
1421 3219 mt 
(2) s
2015 3119 mt 1965 3166 L
1874 3301 mt 
(3) s
2469 3200 mt 2419 3248 L
2328 3383 mt 
(4) s
2923 3282 mt 2872 3329 L
2781 3464 mt 
(5) s
3376 3363 mt 3326 3411 L
3235 3546 mt 
(6) s
 654 2874 mt  586 2861 L
 486 2899 mt 
(5) s
 654 2581 mt  586 2568 L
 419 2606 mt 
(10) s
 654 2288 mt  586 2276 L
 419 2313 mt 
(15) s
 654 1995 mt  586 1983 L
 419 2021 mt 
(20) s
 654 1702 mt  586 1690 L
 419 1728 mt 
(25) s
 654 1409 mt  586 1397 L
 419 1435 mt 
(30) s
gs 654 282 3906 3082 rc
/c8 { 0.500000 0.000000 0.000000 sr} bdef
c8
-59 91 113 20 4387 926 3 MP
PP
0 sg
4387  926 mt 4500  946 L
4500  946 mt 4441 1037 L
/c9 { 0.625000 0.000000 0.000000 sr} bdef
c9
-59 127 113 8 4328 1029 3 MP
PP
0 sg
4328 1029 mt 4441 1037 L
4441 1037 mt 4382 1164 L
c8
113 8 -59 103 4387 926 3 MP
PP
0 sg
4387  926 mt 4328 1029 L
4328 1029 mt 4441 1037 L
c8
-59 103 113 21 4274 905 3 MP
PP
0 sg
4274  905 mt 4387  926 L
4387  926 mt 4328 1029 L
/c10 { 0.750000 0.000000 0.000000 sr} bdef
c10
-59 68 113 44 4269 1120 3 MP
PP
0 sg
4269 1120 mt 4382 1164 L
4382 1164 mt 4323 1232 L
c9
113 44 -59 91 4328 1029 3 MP
PP
0 sg
4328 1029 mt 4269 1120 L
4269 1120 mt 4382 1164 L
/c11 { 0.687500 0.000000 0.000000 sr} bdef
c11
-59 91 114 9 4214 1020 3 MP
PP
0 sg
4214 1020 mt 4328 1029 L
4328 1029 mt 4269 1120 L
c8
114 9 -60 115 4274 905 3 MP
PP
0 sg
4274  905 mt 4214 1020 L
4214 1020 mt 4328 1029 L
/c12 { 0.875000 0.000000 0.000000 sr} bdef
c12
-59 92 114 20 4209 1212 3 MP
PP
0 sg
4209 1212 mt 4323 1232 L
4323 1232 mt 4264 1324 L
c10
114 20 -60 92 4269 1120 3 MP
PP
0 sg
4269 1120 mt 4209 1212 L
4209 1212 mt 4323 1232 L
c8
-60 115 114 20 4160 885 3 MP
PP
0 sg
4160  885 mt 4274  905 L
4274  905 mt 4214 1020 L
c11
114 -15 -59 115 4214 1020 3 MP
PP
0 sg
4214 1020 mt 4155 1135 L
4155 1135 mt 4269 1120 L
c12
-60 92 114 -15 4155 1135 3 MP
PP
0 sg
4155 1135 mt 4269 1120 L
4269 1120 mt 4209 1212 L
c12
114 -14 -59 126 4209 1212 3 MP
PP
0 sg
4209 1212 mt 4150 1338 L
4150 1338 mt 4264 1324 L
/c13 { 1.000000 0.062500 0.000000 sr} bdef
c13
-60 103 114 -14 4150 1338 3 MP
PP
0 sg
4150 1338 mt 4264 1324 L
4264 1324 mt 4204 1427 L
c11
-59 115 113 20 4101 1000 3 MP
PP
0 sg
4101 1000 mt 4214 1020 L
4214 1020 mt 4155 1135 L
c8
113 20 -59 115 4160 885 3 MP
PP
0 sg
4160  885 mt 4101 1000 L
4101 1000 mt 4214 1020 L
c12
113 -26 -59 103 4155 1135 3 MP
PP
0 sg
4155 1135 mt 4096 1238 L
4096 1238 mt 4209 1212 L
/c14 { 1.000000 0.000000 0.000000 sr} bdef
c14
-59 126 113 -26 4096 1238 3 MP
PP
0 sg
4096 1238 mt 4209 1212 L
4209 1212 mt 4150 1338 L
c13
113 56 -59 33 4150 1338 3 MP
PP
0 sg
4150 1338 mt 4091 1371 L
4091 1371 mt 4204 1427 L
c14
-59 33 113 56 4091 1371 3 MP
PP
0 sg
4091 1371 mt 4204 1427 L
4204 1427 mt 4145 1460 L
c8
-59 115 113 32 4047 853 3 MP
PP
0 sg
4047  853 mt 4160  885 L
4160  885 mt 4101 1000 L
c11
113 9 -59 126 4101 1000 3 MP
PP
0 sg
4101 1000 mt 4042 1126 L
4042 1126 mt 4155 1135 L
c12
-59 103 113 9 4042 1126 3 MP
PP
0 sg
4042 1126 mt 4155 1135 L
4155 1135 mt 4096 1238 L
c13
-59 33 113 32 4037 1306 3 MP
PP
0 sg
4037 1306 mt 4150 1338 L
4150 1338 mt 4091 1371 L
c14
113 32 -59 68 4096 1238 3 MP
PP
0 sg
4096 1238 mt 4037 1306 L
4037 1306 mt 4150 1338 L
c13
-59 103 113 21 4032 1439 3 MP
PP
0 sg
4032 1439 mt 4145 1460 L
4145 1460 mt 4086 1563 L
c14
113 21 -59 68 4091 1371 3 MP
PP
0 sg
4091 1371 mt 4032 1439 L
4032 1439 mt 4145 1460 L
gr

4122 3455 mt 
(T) s
gs 654 282 3906 3082 rc
c8
113 -3 -59 150 4047 853 3 MP
PP
0 sg
4047  853 mt 3988 1003 L
3988 1003 mt 4101 1000 L
c10
-59 126 113 -3 3988 1003 3 MP
PP
0 sg
3988 1003 mt 4101 1000 L
4101 1000 mt 4042 1126 L
/c15 { 0.937500 0.000000 0.000000 sr} bdef
c15
-59 68 113 32 3983 1206 3 MP
PP
0 sg
3983 1206 mt 4096 1238 L
4096 1238 mt 4037 1306 L
c12
113 32 -59 80 4042 1126 3 MP
PP
0 sg
4042 1126 mt 3983 1206 L
3983 1206 mt 4096 1238 L
c13
113 9 -59 56 4037 1306 3 MP
PP
0 sg
4037 1306 mt 3978 1362 L
3978 1362 mt 4091 1371 L
c13
-59 68 113 9 3978 1362 3 MP
PP
0 sg
3978 1362 mt 4091 1371 L
4091 1371 mt 4032 1439 L
/c16 { 1.000000 0.312500 0.000000 sr} bdef
c16
-59 162 113 -15 3973 1578 3 MP
PP
0 sg
3973 1578 mt 4086 1563 L
4086 1563 mt 4027 1725 L
c13
113 -15 -59 139 4032 1439 3 MP
PP
0 sg
4032 1439 mt 3973 1578 L
3973 1578 mt 4086 1563 L
/c17 { 0.562500 0.000000 0.000000 sr} bdef
c17
-59 150 114 -3 3933 856 3 MP
PP
0 sg
3933  856 mt 4047  853 L
4047  853 mt 3988 1003 L
c10
114 32 -60 91 3988 1003 3 MP
PP
0 sg
3988 1003 mt 3928 1094 L
3928 1094 mt 4042 1126 L
c12
-59 80 114 32 3928 1094 3 MP
PP
0 sg
3928 1094 mt 4042 1126 L
4042 1126 mt 3983 1206 L
c13
-59 56 114 9 3923 1297 3 MP
PP
0 sg
3923 1297 mt 4037 1306 L
4037 1306 mt 3978 1362 L
c15
114 9 -60 91 3983 1206 3 MP
PP
0 sg
3983 1206 mt 3923 1297 L
3923 1297 mt 4037 1306 L
/c18 { 1.000000 0.187500 0.000000 sr} bdef
c18
-59 139 113 -38 3919 1477 3 MP
PP
0 sg
3919 1477 mt 4032 1439 L
4032 1439 mt 3973 1578 L
c13
113 -38 -59 115 3978 1362 3 MP
PP
0 sg
3978 1362 mt 3919 1477 L
3919 1477 mt 4032 1439 L
/c19 { 1.000000 0.562500 0.000000 sr} bdef
c19
-59 33 113 -3 3914 1728 3 MP
PP
0 sg
3914 1728 mt 4027 1725 L
4027 1725 mt 3968 1758 L
c16
113 -3 -59 150 3973 1578 3 MP
PP
0 sg
3973 1578 mt 3914 1728 L
3914 1728 mt 4027 1725 L
c17
114 9 -59 138 3933 856 3 MP
PP
0 sg
3933  856 mt 3874  994 L
3874  994 mt 3988 1003 L
/c20 { 0.812500 0.000000 0.000000 sr} bdef
c20
-60 91 114 9 3874 994 3 MP
PP
0 sg
3874  994 mt 3988 1003 L
3988 1003 mt 3928 1094 L
c12
114 9 -59 103 3928 1094 3 MP
PP
0 sg
3928 1094 mt 3869 1197 L
3869 1197 mt 3983 1206 L
c14
-60 91 114 9 3869 1197 3 MP
PP
0 sg
3869 1197 mt 3983 1206 L
3983 1206 mt 3923 1297 L
c13
114 -4 -59 69 3923 1297 3 MP
PP
0 sg
3923 1297 mt 3864 1366 L
3864 1366 mt 3978 1362 L
/c21 { 1.000000 0.125000 0.000000 sr} bdef
c21
-59 115 114 -4 3864 1366 3 MP
PP
0 sg
3864 1366 mt 3978 1362 L
3978 1362 mt 3919 1477 L
c18
114 21 -60 80 3919 1477 3 MP
PP
0 sg
3919 1477 mt 3859 1557 L
3859 1557 mt 3973 1578 L
c16
-59 150 114 21 3859 1557 3 MP
PP
0 sg
3859 1557 mt 3973 1578 L
3973 1578 mt 3914 1728 L
c16
-59 56 114 56 3854 1702 3 MP
PP
0 sg
3854 1702 mt 3968 1758 L
3968 1758 mt 3909 1814 L
c19
114 56 -60 -26 3914 1728 3 MP
PP
0 sg
3914 1728 mt 3854 1702 L
3854 1702 mt 3968 1758 L
c17
-59 138 113 9 3820 847 3 MP
PP
0 sg
3820  847 mt 3933  856 L
3933  856 mt 3874  994 L
c10
-59 103 113 55 3815 1039 3 MP
PP
0 sg
3815 1039 mt 3928 1094 L
3928 1094 mt 3869 1197 L
c20
113 55 -59 45 3874 994 3 MP
PP
0 sg
3874  994 mt 3815 1039 L
3815 1039 mt 3928 1094 L
c14
113 32 -59 68 3869 1197 3 MP
PP
0 sg
3869 1197 mt 3810 1265 L
3810 1265 mt 3923 1297 L
c13
-59 69 113 32 3810 1265 3 MP
PP
0 sg
3810 1265 mt 3923 1297 L
3923 1297 mt 3864 1366 L
/c22 { 1.000000 0.250000 0.000000 sr} bdef
c22
-60 80 114 8 3805 1469 3 MP
PP
0 sg
3805 1469 mt 3919 1477 L
3919 1477 mt 3859 1557 L
c21
114 8 -59 103 3864 1366 3 MP
PP
0 sg
3864 1366 mt 3805 1469 L
3805 1469 mt 3919 1477 L
/c23 { 1.000000 0.375000 0.000000 sr} bdef
c23
-60 -26 114 79 3800 1649 3 MP
PP
0 sg
3800 1649 mt 3914 1728 L
3914 1728 mt 3854 1702 L
c16
114 79 -59 92 3859 1557 3 MP
PP
0 sg
3859 1557 mt 3800 1649 L
3800 1649 mt 3914 1728 L
/c24 { 1.000000 0.500000 0.000000 sr} bdef
c24
-60 115 114 -15 3795 1829 3 MP
PP
0 sg
3795 1829 mt 3909 1814 L
3909 1814 mt 3849 1929 L
c16
114 -15 -59 127 3854 1702 3 MP
PP
0 sg
3854 1702 mt 3795 1829 L
3795 1829 mt 3909 1814 L
c17
113 -3 -59 150 3820 847 3 MP
PP
0 sg
3820  847 mt 3761  997 L
3761  997 mt 3874  994 L
c12
-59 45 113 -3 3761 997 3 MP
PP
0 sg
3761  997 mt 3874  994 L
3874  994 mt 3815 1039 L
c10
113 32 -59 126 3815 1039 3 MP
PP
0 sg
3815 1039 mt 3756 1165 L
3756 1165 mt 3869 1197 L
c15
-59 68 113 32 3756 1165 3 MP
PP
0 sg
3756 1165 mt 3869 1197 L
3869 1197 mt 3810 1265 L
c13
113 33 -59 68 3810 1265 3 MP
PP
0 sg
3810 1265 mt 3751 1333 L
3751 1333 mt 3864 1366 L
c13
-59 103 113 33 3751 1333 3 MP
PP
0 sg
3751 1333 mt 3864 1366 L
3864 1366 mt 3805 1469 L
c23
-59 92 113 -15 3746 1572 3 MP
PP
0 sg
3746 1572 mt 3859 1557 L
3859 1557 mt 3800 1649 L
c22
113 -15 -59 103 3805 1469 3 MP
PP
0 sg
3805 1469 mt 3746 1572 L
3746 1572 mt 3859 1557 L
c23
113 -26 -59 79 3800 1649 3 MP
PP
0 sg
3800 1649 mt 3741 1728 L
3741 1728 mt 3854 1702 L
/c25 { 1.000000 0.437500 0.000000 sr} bdef
c25
-59 127 113 -26 3741 1728 3 MP
PP
0 sg
3741 1728 mt 3854 1702 L
3854 1702 mt 3795 1829 L
c25
113 -14 -59 115 3741 1728 3 MP
PP
0 sg
3741 1728 mt 3682 1843 L
3682 1843 mt 3795 1829 L
/c26 { 1.000000 0.625000 0.000000 sr} bdef
c26
-59 -26 113 -14 3682 1843 3 MP
PP
0 sg
3682 1843 mt 3795 1829 L
3795 1829 mt 3736 1803 L
c16
-59 115 113 126 3736 1803 3 MP
PP
0 sg
3736 1803 mt 3849 1929 L
3849 1929 mt 3790 2044 L
c24
113 126 -59 -26 3795 1829 3 MP
PP
0 sg
3795 1829 mt 3736 1803 L
3736 1803 mt 3849 1929 L
c17
-59 150 113 21 3707 826 3 MP
PP
0 sg
3707  826 mt 3820  847 L
3820  847 mt 3761  997 L
c12
113 -61 -59 103 3761 997 3 MP
PP
0 sg
3761  997 mt 3702 1100 L
3702 1100 mt 3815 1039 L
c14
-59 126 113 -61 3702 1100 3 MP
PP
0 sg
3702 1100 mt 3815 1039 L
3815 1039 mt 3756 1165 L
c14
-59 68 113 32 3697 1233 3 MP
PP
0 sg
3697 1233 mt 3810 1265 L
3810 1265 mt 3751 1333 L
c15
113 32 -59 68 3756 1165 3 MP
PP
0 sg
3756 1165 mt 3697 1233 L
3697 1233 mt 3810 1265 L
c13
113 -14 -59 150 3751 1333 3 MP
PP
0 sg
3751 1333 mt 3692 1483 L
3692 1483 mt 3805 1469 L
c23
-59 103 113 -14 3692 1483 3 MP
PP
0 sg
3692 1483 mt 3805 1469 L
3805 1469 mt 3746 1572 L
c23
113 21 -59 56 3746 1572 3 MP
PP
0 sg
3746 1572 mt 3687 1628 L
3687 1628 mt 3800 1649 L
c23
-59 79 113 21 3687 1628 3 MP
PP
0 sg
3687 1628 mt 3800 1649 L
3800 1649 mt 3741 1728 L
c16
113 9 -59 232 3736 1803 3 MP
PP
0 sg
3736 1803 mt 3677 2035 L
3677 2035 mt 3790 2044 L
/c27 { 1.000000 0.812500 0.000000 sr} bdef
c27
-59 -26 113 9 3677 2035 3 MP
PP
0 sg
3677 2035 mt 3790 2044 L
3790 2044 mt 3731 2018 L
c10
-59 103 114 56 3647 941 3 MP
PP
0 sg
3647  941 mt 3761  997 L
3761  997 mt 3702 1100 L
c17
114 56 -60 115 3707 826 3 MP
PP
0 sg
3707  826 mt 3647  941 L
3647  941 mt 3761  997 L
c14
114 -27 -60 92 3702 1100 3 MP
PP
0 sg
3702 1100 mt 3642 1192 L
3642 1192 mt 3756 1165 L
c21
-59 68 114 -27 3642 1192 3 MP
PP
0 sg
3642 1192 mt 3756 1165 L
3756 1165 mt 3697 1233 L
c14
114 -3 -60 103 3697 1233 3 MP
PP
0 sg
3697 1233 mt 3637 1336 L
3637 1336 mt 3751 1333 L
c21
-59 150 114 -3 3637 1336 3 MP
PP
0 sg
3637 1336 mt 3751 1333 L
3751 1333 mt 3692 1483 L
c23
113 9 -59 80 3692 1483 3 MP
PP
0 sg
3692 1483 mt 3633 1563 L
3633 1563 mt 3746 1572 L
c25
-59 56 113 9 3633 1563 3 MP
PP
0 sg
3633 1563 mt 3746 1572 L
3746 1572 mt 3687 1628 L
c23
113 -3 -59 103 3687 1628 3 MP
PP
0 sg
3687 1628 mt 3628 1731 L
3628 1731 mt 3741 1728 L
c24
-59 115 113 -3 3628 1731 3 MP
PP
0 sg
3628 1731 mt 3741 1728 L
3741 1728 mt 3682 1843 L
c26
113 -132 -59 92 3682 1843 3 MP
PP
0 sg
3682 1843 mt 3623 1935 L
3623 1935 mt 3736 1803 L
/c28 { 1.000000 0.750000 0.000000 sr} bdef
c28
-59 232 113 -132 3623 1935 3 MP
PP
0 sg
3623 1935 mt 3736 1803 L
3736 1803 mt 3677 2035 L
c28
-59 185 113 -62 3618 2080 3 MP
PP
0 sg
3618 2080 mt 3731 2018 L
3731 2018 mt 3672 2203 L
c27
113 -62 -59 45 3677 2035 3 MP
PP
0 sg
3677 2035 mt 3618 2080 L
3618 2080 mt 3731 2018 L
c17
-60 115 114 20 3593 806 3 MP
PP
0 sg
3593  806 mt 3707  826 L
3707  826 mt 3647  941 L
c12
-60 92 114 67 3588 1033 3 MP
PP
0 sg
3588 1033 mt 3702 1100 L
3702 1100 mt 3642 1192 L
c10
114 67 -59 92 3647 941 3 MP
PP
0 sg
3647  941 mt 3588 1033 L
3588 1033 mt 3702 1100 L
c13
-60 103 114 8 3583 1225 3 MP
PP
0 sg
3583 1225 mt 3697 1233 L
3697 1233 mt 3637 1336 L
c21
114 8 -59 33 3642 1192 3 MP
PP
0 sg
3642 1192 mt 3583 1225 L
3583 1225 mt 3697 1233 L
c24
-59 80 114 -39 3578 1522 3 MP
PP
0 sg
3578 1522 mt 3692 1483 L
3692 1483 mt 3633 1563 L
c21
114 -39 -59 186 3637 1336 3 MP
PP
0 sg
3637 1336 mt 3578 1522 L
3578 1522 mt 3692 1483 L
c25
-59 103 114 8 3573 1620 3 MP
PP
0 sg
3573 1620 mt 3687 1628 L
3687 1628 mt 3628 1731 L
c25
114 8 -60 57 3633 1563 3 MP
PP
0 sg
3633 1563 mt 3573 1620 L
3573 1620 mt 3687 1628 L
c24
114 -15 -60 127 3628 1731 3 MP
PP
0 sg
3628 1731 mt 3568 1858 L
3568 1858 mt 3682 1843 L
c28
-59 92 114 -15 3568 1858 3 MP
PP
0 sg
3568 1858 mt 3682 1843 L
3682 1843 mt 3623 1935 L
c28
114 44 -60 56 3623 1935 3 MP
PP
0 sg
3623 1935 mt 3563 1991 L
3563 1991 mt 3677 2035 L
c28
-59 45 114 44 3563 1991 3 MP
PP
0 sg
3563 1991 mt 3677 2035 L
3677 2035 mt 3618 2080 L
c28
113 55 -59 68 3618 2080 3 MP
PP
0 sg
3618 2080 mt 3559 2148 L
3559 2148 mt 3672 2203 L
c27
-59 21 113 55 3559 2148 3 MP
PP
0 sg
3559 2148 mt 3672 2203 L
3672 2203 mt 3613 2224 L
c20
-59 92 113 -3 3534 944 3 MP
PP
0 sg
3534  944 mt 3647  941 L
3647  941 mt 3588 1033 L
c17
113 -3 -59 138 3593 806 3 MP
PP
0 sg
3593  806 mt 3534  944 L
3534  944 mt 3647  941 L
c12
113 21 -59 138 3588 1033 3 MP
PP
0 sg
3588 1033 mt 3529 1171 L
3529 1171 mt 3642 1192 L
c21
-59 33 113 21 3529 1171 3 MP
PP
0 sg
3529 1171 mt 3642 1192 L
3642 1192 mt 3583 1225 L
c13
113 -39 -59 150 3583 1225 3 MP
PP
0 sg
3583 1225 mt 3524 1375 L
3524 1375 mt 3637 1336 L
c16
-59 186 113 -39 3524 1375 3 MP
PP
0 sg
3524 1375 mt 3637 1336 L
3637 1336 mt 3578 1522 L
c24
114 -15 -59 56 3578 1522 3 MP
PP
0 sg
3578 1522 mt 3519 1578 L
3519 1578 mt 3633 1563 L
c24
-60 57 114 -15 3519 1578 3 MP
PP
0 sg
3519 1578 mt 3633 1563 L
3633 1563 mt 3573 1620 L
/c29 { 1.000000 0.687500 0.000000 sr} bdef
c29
-60 127 114 -27 3514 1758 3 MP
PP
0 sg
3514 1758 mt 3628 1731 L
3628 1731 mt 3568 1858 L
c25
114 -27 -59 138 3573 1620 3 MP
PP
0 sg
3573 1620 mt 3514 1758 L
3514 1758 mt 3628 1731 L
/c30 { 1.000000 0.875000 0.000000 sr} bdef
c30
-60 56 114 -26 3509 1961 3 MP
PP
0 sg
3509 1961 mt 3623 1935 L
3623 1935 mt 3563 1991 L
c28
114 -26 -59 103 3568 1858 3 MP
PP
0 sg
3568 1858 mt 3509 1961 L
3509 1961 mt 3623 1935 L
c28
114 68 -59 21 3563 1991 3 MP
PP
0 sg
3563 1991 mt 3504 2012 L
3504 2012 mt 3618 2080 L
c26
-59 68 114 68 3504 2012 3 MP
PP
0 sg
3504 2012 mt 3618 2080 L
3618 2080 mt 3559 2148 L
c27
114 -27 -60 103 3559 2148 3 MP
PP
0 sg
3559 2148 mt 3499 2251 L
3499 2251 mt 3613 2224 L
/c31 { 1.000000 0.937500 0.000000 sr} bdef
c31
-59 33 114 -27 3499 2251 3 MP
PP
0 sg
3499 2251 mt 3613 2224 L
3613 2224 mt 3554 2257 L
c17
-59 138 113 20 3480 786 3 MP
PP
0 sg
3480  786 mt 3593  806 L
3593  806 mt 3534  944 L
c15
-59 138 113 -15 3475 1048 3 MP
PP
0 sg
3475 1048 mt 3588 1033 L
3588 1033 mt 3529 1171 L
c20
113 -15 -59 104 3534 944 3 MP
PP
0 sg
3534  944 mt 3475 1048 L
3475 1048 mt 3588 1033 L
c21
113 -14 -59 68 3529 1171 3 MP
PP
0 sg
3529 1171 mt 3470 1239 L
3470 1239 mt 3583 1225 L
c21
-59 150 113 -14 3470 1239 3 MP
PP
0 sg
3470 1239 mt 3583 1225 L
3583 1225 mt 3524 1375 L
c25
-59 56 113 44 3465 1478 3 MP
PP
0 sg
3465 1478 mt 3578 1522 L
3578 1522 mt 3519 1578 L
c16
113 44 -59 103 3524 1375 3 MP
PP
0 sg
3524 1375 mt 3465 1478 L
3465 1478 mt 3578 1522 L
c24
-59 138 113 -14 3460 1634 3 MP
PP
0 sg
3460 1634 mt 3573 1620 L
3573 1620 mt 3514 1758 L
c24
113 -14 -59 56 3519 1578 3 MP
PP
0 sg
3519 1578 mt 3460 1634 L
3460 1634 mt 3573 1620 L
c30
-59 103 113 -27 3455 1885 3 MP
PP
0 sg
3455 1885 mt 3568 1858 L
3568 1858 mt 3509 1961 L
c29
113 -27 -59 127 3514 1758 3 MP
PP
0 sg
3514 1758 mt 3455 1885 L
3455 1885 mt 3568 1858 L
c31
-59 21 113 -38 3450 2029 3 MP
PP
0 sg
3450 2029 mt 3563 1991 L
3563 1991 mt 3504 2012 L
c30
113 -38 -59 68 3509 1961 3 MP
PP
0 sg
3509 1961 mt 3450 2029 L
3450 2029 mt 3563 1991 L
c26
114 -3 -59 139 3504 2012 3 MP
PP
0 sg
3504 2012 mt 3445 2151 L
3445 2151 mt 3559 2148 L
c30
-60 103 114 -3 3445 2151 3 MP
PP
0 sg
3445 2151 mt 3559 2148 L
3559 2148 mt 3499 2251 L
/c32 { 1.000000 1.000000 0.000000 sr} bdef
c32
-60 33 114 -62 3440 2319 3 MP
PP
0 sg
3440 2319 mt 3554 2257 L
3554 2257 mt 3494 2290 L
c31
114 -62 -59 68 3499 2251 3 MP
PP
0 sg
3499 2251 mt 3440 2319 L
3440 2319 mt 3554 2257 L
c10
-59 104 113 43 3421 901 3 MP
PP
0 sg
3421  901 mt 3534  944 L
3534  944 mt 3475 1048 L
c17
113 43 -59 115 3480 786 3 MP
PP
0 sg
3480  786 mt 3421  901 L
3421  901 mt 3534  944 L
c15
-59 68 113 67 3416 1104 3 MP
PP
0 sg
3416 1104 mt 3529 1171 L
3529 1171 mt 3470 1239 L
c15
113 67 -59 56 3475 1048 3 MP
PP
0 sg
3475 1048 mt 3416 1104 L
3416 1104 mt 3529 1171 L
c21
113 -14 -59 150 3470 1239 3 MP
PP
0 sg
3470 1239 mt 3411 1389 L
3411 1389 mt 3524 1375 L
c25
-59 103 113 -14 3411 1389 3 MP
PP
0 sg
3411 1389 mt 3524 1375 L
3524 1375 mt 3465 1478 L
c16
-59 56 113 91 3406 1487 3 MP
PP
0 sg
3406 1487 mt 3519 1578 L
3519 1578 mt 3460 1634 L
c25
113 91 -59 9 3465 1478 3 MP
PP
0 sg
3465 1478 mt 3406 1487 L
3406 1487 mt 3519 1578 L
c24
113 -3 -59 127 3460 1634 3 MP
PP
0 sg
3460 1634 mt 3401 1761 L
3401 1761 mt 3514 1758 L
c28
-59 127 113 -3 3401 1761 3 MP
PP
0 sg
3401 1761 mt 3514 1758 L
3514 1758 mt 3455 1885 L
c28
113 68 -59 56 3401 1761 3 MP
PP
0 sg
3401 1761 mt 3342 1817 L
3342 1817 mt 3455 1885 L
c28
-59 -73 113 68 3342 1817 3 MP
PP
0 sg
3342 1817 mt 3455 1885 L
3455 1885 mt 3396 1812 L
c24
-59 68 113 149 3396 1812 3 MP
PP
0 sg
3396 1812 mt 3509 1961 L
3509 1961 mt 3450 2029 L
c30
113 149 -59 -73 3455 1885 3 MP
PP
0 sg
3455 1885 mt 3396 1812 L
3396 1812 mt 3509 1961 L
c27
-59 139 113 -39 3391 2051 3 MP
PP
0 sg
3391 2051 mt 3504 2012 L
3504 2012 mt 3445 2151 L
c31
113 -39 -59 22 3450 2029 3 MP
PP
0 sg
3450 2029 mt 3391 2051 L
3391 2051 mt 3504 2012 L
c30
113 -15 -59 115 3445 2151 3 MP
PP
0 sg
3445 2151 mt 3386 2266 L
3386 2266 mt 3499 2251 L
/c33 { 0.937500 1.000000 0.062500 sr} bdef
c33
-59 68 113 -15 3386 2266 3 MP
PP
0 sg
3386 2266 mt 3499 2251 L
3499 2251 mt 3440 2319 L
c32
113 -109 -59 80 3440 2319 3 MP
PP
0 sg
3440 2319 mt 3381 2399 L
3381 2399 mt 3494 2290 L
c33
-59 174 113 -109 3381 2399 3 MP
PP
0 sg
3381 2399 mt 3494 2290 L
3494 2290 mt 3435 2464 L
c9
-59 115 114 -3 3366 789 3 MP
PP
0 sg
3366  789 mt 3480  786 L
3480  786 mt 3421  901 L
c10
114 21 -60 126 3421 901 3 MP
PP
0 sg
3421  901 mt 3361 1027 L
3361 1027 mt 3475 1048 L
c15
-59 56 114 21 3361 1027 3 MP
PP
0 sg
3361 1027 mt 3475 1048 L
3475 1048 mt 3416 1104 L
c15
114 8 -60 127 3416 1104 3 MP
PP
0 sg
3416 1104 mt 3356 1231 L
3356 1231 mt 3470 1239 L
c18
-59 150 114 8 3356 1231 3 MP
PP
0 sg
3356 1231 mt 3470 1239 L
3470 1239 mt 3411 1389 L
c24
-59 9 113 -3 3352 1481 3 MP
PP
0 sg
3352 1481 mt 3465 1478 L
3465 1478 mt 3406 1487 L
c25
113 -3 -59 92 3411 1389 3 MP
PP
0 sg
3411 1389 mt 3352 1481 L
3352 1481 mt 3465 1478 L
c25
-59 127 113 44 3347 1590 3 MP
PP
0 sg
3347 1590 mt 3460 1634 L
3460 1634 mt 3401 1761 L
c16
113 44 -59 103 3406 1487 3 MP
PP
0 sg
3406 1487 mt 3347 1590 L
3347 1590 mt 3460 1634 L
c24
113 44 -59 173 3396 1812 3 MP
PP
0 sg
3396 1812 mt 3337 1985 L
3337 1985 mt 3450 2029 L
c30
-59 22 113 44 3337 1985 3 MP
PP
0 sg
3337 1985 mt 3450 2029 L
3450 2029 mt 3391 2051 L
c30
-59 115 113 21 3332 2130 3 MP
PP
0 sg
3332 2130 mt 3445 2151 L
3445 2151 mt 3386 2266 L
c27
113 21 -59 79 3391 2051 3 MP
PP
0 sg
3391 2051 mt 3332 2130 L
3332 2130 mt 3445 2151 L
c30
-59 80 113 67 3327 2252 3 MP
PP
0 sg
3327 2252 mt 3440 2319 L
3440 2319 mt 3381 2399 L
c33
113 67 -59 -14 3386 2266 3 MP
PP
0 sg
3386 2266 mt 3327 2252 L
3327 2252 mt 3440 2319 L
c33
113 21 -59 44 3381 2399 3 MP
PP
0 sg
3381 2399 mt 3322 2443 L
3322 2443 mt 3435 2464 L
c32
-59 68 113 21 3322 2443 3 MP
PP
0 sg
3322 2443 mt 3435 2464 L
3435 2464 mt 3376 2532 L
c20
-60 126 114 -3 3307 904 3 MP
PP
0 sg
3307  904 mt 3421  901 L
3421  901 mt 3361 1027 L
c9
114 -3 -59 115 3366 789 3 MP
PP
0 sg
3366  789 mt 3307  904 L
3307  904 mt 3421  901 L
c15
114 -3 -59 80 3361 1027 3 MP
PP
0 sg
3361 1027 mt 3302 1107 L
3302 1107 mt 3416 1104 L
c13
-60 127 114 -3 3302 1107 3 MP
PP
0 sg
3302 1107 mt 3416 1104 L
3416 1104 mt 3356 1231 L
c18
114 -27 -59 185 3356 1231 3 MP
PP
0 sg
3356 1231 mt 3297 1416 L
3297 1416 mt 3411 1389 L
c19
-59 92 114 -27 3297 1416 3 MP
PP
0 sg
3297 1416 mt 3411 1389 L
3411 1389 mt 3352 1481 L
c24
114 -50 -60 56 3352 1481 3 MP
PP
0 sg
3352 1481 mt 3292 1537 L
3292 1537 mt 3406 1487 L
c24
-59 103 114 -50 3292 1537 3 MP
PP
0 sg
3292 1537 mt 3406 1487 L
3406 1487 mt 3347 1590 L
c25
114 21 -60 150 3347 1590 3 MP
PP
0 sg
3347 1590 mt 3287 1740 L
3287 1740 mt 3401 1761 L
c28
-59 56 114 21 3287 1740 3 MP
PP
0 sg
3287 1740 mt 3401 1761 L
3401 1761 mt 3342 1817 L
c26
-59 173 114 -26 3282 1838 3 MP
PP
0 sg
3282 1838 mt 3396 1812 L
3396 1812 mt 3337 1985 L
c28
114 -26 -60 21 3342 1817 3 MP
PP
0 sg
3342 1817 mt 3282 1838 L
3282 1838 mt 3396 1812 L
c32
-59 79 113 -38 3278 2089 3 MP
PP
0 sg
3278 2089 mt 3391 2051 L
3391 2051 mt 3332 2130 L
c30
113 -38 -59 104 3337 1985 3 MP
PP
0 sg
3337 1985 mt 3278 2089 L
3278 2089 mt 3391 2051 L
c30
-59 -14 113 91 3273 2175 3 MP
PP
0 sg
3273 2175 mt 3386 2266 L
3386 2266 mt 3327 2252 L
c30
113 91 -59 45 3332 2130 3 MP
PP
0 sg
3332 2130 mt 3273 2175 L
3273 2175 mt 3386 2266 L
c30
-59 44 113 91 3268 2308 3 MP
PP
0 sg
3268 2308 mt 3381 2399 L
3381 2399 mt 3322 2443 L
c30
113 91 -59 56 3327 2252 3 MP
PP
0 sg
3327 2252 mt 3268 2308 L
3268 2308 mt 3381 2399 L
c32
113 -15 -59 104 3322 2443 3 MP
PP
0 sg
3322 2443 mt 3263 2547 L
3263 2547 mt 3376 2532 L
c9
-59 115 113 32 3253 757 3 MP
PP
0 sg
3253  757 mt 3366  789 L
3366  789 mt 3307  904 L
c20
113 -3 -59 126 3307 904 3 MP
PP
0 sg
3307  904 mt 3248 1030 L
3248 1030 mt 3361 1027 L
c13
-59 80 113 -3 3248 1030 3 MP
PP
0 sg
3248 1030 mt 3361 1027 L
3361 1027 mt 3302 1107 L
c13
113 -38 -59 162 3302 1107 3 MP
PP
0 sg
3302 1107 mt 3243 1269 L
3243 1269 mt 3356 1231 L
c23
-59 185 113 -38 3243 1269 3 MP
PP
0 sg
3243 1269 mt 3356 1231 L
3356 1231 mt 3297 1416 L
c19
114 32 -59 33 3297 1416 3 MP
PP
0 sg
3297 1416 mt 3238 1449 L
3238 1449 mt 3352 1481 L
c24
-60 56 114 32 3238 1449 3 MP
PP
0 sg
3238 1449 mt 3352 1481 L
3352 1481 mt 3292 1537 L
c29
-60 150 114 -50 3233 1640 3 MP
PP
0 sg
3233 1640 mt 3347 1590 L
3347 1590 mt 3287 1740 L
c24
114 -50 -59 103 3292 1537 3 MP
PP
0 sg
3292 1537 mt 3233 1640 L
3233 1640 mt 3347 1590 L
c28
-60 21 114 20 3228 1797 3 MP
PP
0 sg
3228 1797 mt 3342 1817 L
3342 1817 mt 3282 1838 L
c28
114 20 -59 57 3287 1740 3 MP
PP
0 sg
3287 1740 mt 3228 1797 L
3228 1797 mt 3342 1817 L
c26
114 102 -59 45 3282 1838 3 MP
PP
0 sg
3282 1838 mt 3223 1883 L
3223 1883 mt 3337 1985 L
c26
-59 104 114 102 3223 1883 3 MP
PP
0 sg
3223 1883 mt 3337 1985 L
3337 1985 mt 3278 2089 L
c32
114 20 -60 21 3278 2089 3 MP
PP
0 sg
3278 2089 mt 3218 2110 L
3218 2110 mt 3332 2130 L
c30
-59 45 114 20 3218 2110 3 MP
PP
0 sg
3218 2110 mt 3332 2130 L
3332 2130 mt 3273 2175 L
c30
114 -61 -60 138 3273 2175 3 MP
PP
0 sg
3273 2175 mt 3213 2313 L
3213 2313 mt 3327 2252 L
/c34 { 0.875000 1.000000 0.125000 sr} bdef
c34
-59 56 114 -61 3213 2313 3 MP
PP
0 sg
3213 2313 mt 3327 2252 L
3327 2252 mt 3268 2308 L
c30
114 -50 -60 185 3268 2308 3 MP
PP
0 sg
3268 2308 mt 3208 2493 L
3208 2493 mt 3322 2443 L
/c35 { 0.750000 1.000000 0.250000 sr} bdef
c35
-59 104 114 -50 3208 2493 3 MP
PP
0 sg
3208 2493 mt 3322 2443 L
3322 2443 mt 3263 2547 L
c20
-59 126 113 33 3194 871 3 MP
PP
0 sg
3194  871 mt 3307  904 L
3307  904 mt 3248 1030 L
c9
113 33 -59 114 3253 757 3 MP
PP
0 sg
3253  757 mt 3194  871 L
3194  871 mt 3307  904 L
c14
-59 162 113 32 3189 1075 3 MP
PP
0 sg
3189 1075 mt 3302 1107 L
3302 1107 mt 3243 1269 L
c13
113 32 -59 45 3248 1030 3 MP
PP
0 sg
3248 1030 mt 3189 1075 L
3189 1075 mt 3302 1107 L
c25
-59 33 113 68 3184 1348 3 MP
PP
0 sg
3184 1348 mt 3297 1416 L
3297 1416 mt 3238 1449 L
c23
113 68 -59 79 3243 1269 3 MP
PP
0 sg
3243 1269 mt 3184 1348 L
3184 1348 mt 3297 1416 L
c24
113 -38 -59 126 3238 1449 3 MP
PP
0 sg
3238 1449 mt 3179 1575 L
3179 1575 mt 3292 1537 L
c29
-59 103 113 -38 3179 1575 3 MP
PP
0 sg
3179 1575 mt 3292 1537 L
3292 1537 mt 3233 1640 L
c28
-59 57 113 20 3174 1720 3 MP
PP
0 sg
3174 1720 mt 3287 1740 L
3287 1740 mt 3228 1797 L
c29
113 20 -59 80 3233 1640 3 MP
PP
0 sg
3233 1640 mt 3174 1720 L
3174 1720 mt 3287 1740 L
c28
113 -27 -59 68 3228 1797 3 MP
PP
0 sg
3228 1797 mt 3169 1865 L
3169 1865 mt 3282 1838 L
c28
-59 45 113 -27 3169 1865 3 MP
PP
0 sg
3169 1865 mt 3282 1838 L
3282 1838 mt 3223 1883 L
c26
114 91 -59 115 3223 1883 3 MP
PP
0 sg
3223 1883 mt 3164 1998 L
3164 1998 mt 3278 2089 L
c28
-60 21 114 91 3164 1998 3 MP
PP
0 sg
3164 1998 mt 3278 2089 L
3278 2089 mt 3218 2110 L
c30
114 -61 -59 126 3218 2110 3 MP
PP
0 sg
3218 2110 mt 3159 2236 L
3159 2236 mt 3273 2175 L
c34
-60 138 114 -61 3159 2236 3 MP
PP
0 sg
3159 2236 mt 3273 2175 L
3273 2175 mt 3213 2313 L
c34
113 79 -59 -2 3159 2236 3 MP
PP
0 sg
3159 2236 mt 3100 2234 L
3100 2234 mt 3213 2313 L
c31
-59 -2 113 79 3100 2234 3 MP
PP
0 sg
3100 2234 mt 3213 2313 L
3213 2313 mt 3154 2311 L
c34
114 -3 -59 -2 3213 2313 3 MP
PP
0 sg
3213 2313 mt 3154 2311 L
3154 2311 mt 3268 2308 L
c31
-60 185 114 -3 3154 2311 3 MP
PP
0 sg
3154 2311 mt 3268 2308 L
3268 2308 mt 3208 2493 L
c31
114 -15 -60 115 2992 2081 3 MP
PP
0 sg
2992 2081 mt 2932 2196 L
2932 2196 mt 3046 2181 L
c34
-59 80 114 -15 2932 2196 3 MP
PP
0 sg
2932 2196 mt 3046 2181 L
3046 2181 mt 2987 2261 L
c32
113 -27 -59 80 3046 2181 3 MP
PP
0 sg
3046 2181 mt 2987 2261 L
2987 2261 mt 3100 2234 L
c31
-59 -2 113 102 2992 2081 3 MP
PP
0 sg
2992 2081 mt 3105 2183 L
3105 2183 mt 3046 2181 L
/c36 { 0.812500 1.000000 0.187500 sr} bdef
c36
113 55 -59 -2 3105 2183 3 MP
PP
0 sg
3105 2183 mt 3046 2181 L
3046 2181 mt 3159 2236 L
c32
-59 -2 113 55 3046 2181 3 MP
PP
0 sg
3046 2181 mt 3159 2236 L
3159 2236 mt 3100 2234 L
c33
-59 -84 113 -27 2987 2261 3 MP
PP
0 sg
2987 2261 mt 3100 2234 L
3100 2234 mt 3041 2150 L
c31
113 161 -59 -84 3100 2234 3 MP
PP
0 sg
3100 2234 mt 3041 2150 L
3041 2150 mt 3154 2311 L
c24
-59 56 113 161 3041 2150 3 MP
PP
0 sg
3041 2150 mt 3154 2311 L
3154 2311 mt 3095 2367 L
c31
113 126 -59 56 3154 2311 3 MP
PP
0 sg
3154 2311 mt 3095 2367 L
3095 2367 mt 3208 2493 L
c35
114 232 -59 -178 3208 2493 3 MP
PP
0 sg
3208 2493 mt 3149 2315 L
3149 2315 mt 3263 2547 L
c20
-59 114 113 -38 3140 795 3 MP
PP
0 sg
3140  795 mt 3253  757 L
3253  757 mt 3194  871 L
c20
113 -3 -59 162 3194 871 3 MP
PP
0 sg
3194  871 mt 3135 1033 L
3135 1033 mt 3248 1030 L
c21
-59 45 113 -3 3135 1033 3 MP
PP
0 sg
3135 1033 mt 3248 1030 L
3248 1030 mt 3189 1075 L
c14
113 21 -59 173 3189 1075 3 MP
PP
0 sg
3189 1075 mt 3130 1248 L
3130 1248 mt 3243 1269 L
c23
-59 79 113 21 3130 1248 3 MP
PP
0 sg
3130 1248 mt 3243 1269 L
3243 1269 mt 3184 1348 L
c26
-59 126 113 -14 3125 1463 3 MP
PP
0 sg
3125 1463 mt 3238 1449 L
3238 1449 mt 3179 1575 L
c25
113 -14 -59 115 3184 1348 3 MP
PP
0 sg
3184 1348 mt 3125 1463 L
3125 1463 mt 3238 1449 L
c27
-59 80 113 -27 3120 1667 3 MP
PP
0 sg
3120 1667 mt 3233 1640 L
3233 1640 mt 3174 1720 L
c29
113 -27 -59 92 3179 1575 3 MP
PP
0 sg
3179 1575 mt 3120 1667 L
3120 1667 mt 3233 1640 L
c28
113 -3 -59 80 3174 1720 3 MP
PP
0 sg
3174 1720 mt 3115 1800 L
3115 1800 mt 3228 1797 L
c27
-59 68 113 -3 3115 1800 3 MP
PP
0 sg
3115 1800 mt 3228 1797 L
3228 1797 mt 3169 1865 L
c28
113 -85 -59 103 3169 1865 3 MP
PP
0 sg
3169 1865 mt 3110 1968 L
3110 1968 mt 3223 1883 L
c31
-59 115 113 -85 3110 1968 3 MP
PP
0 sg
3110 1968 mt 3223 1883 L
3223 1883 mt 3164 1998 L
c36
-59 126 113 -73 3105 2183 3 MP
PP
0 sg
3105 2183 mt 3218 2110 L
3218 2110 mt 3159 2236 L
c28
113 -73 -59 185 3164 1998 3 MP
PP
0 sg
3164 1998 mt 3105 2183 L
3105 2183 mt 3218 2110 L
c31
-59 -178 113 126 3095 2367 3 MP
PP
0 sg
3095 2367 mt 3208 2493 L
3208 2493 mt 3149 2315 L
c12
-59 162 114 -15 3080 886 3 MP
PP
0 sg
3080  886 mt 3194  871 L
3194  871 mt 3135 1033 L
c20
114 -15 -60 91 3140 795 3 MP
PP
0 sg
3140  795 mt 3080  886 L
3080  886 mt 3194  871 L
c21
114 -50 -60 92 3135 1033 3 MP
PP
0 sg
3135 1033 mt 3075 1125 L
3075 1125 mt 3189 1075 L
c18
-59 173 114 -50 3075 1125 3 MP
PP
0 sg
3075 1125 mt 3189 1075 L
3189 1075 mt 3130 1248 L
c25
-59 115 114 20 3070 1328 3 MP
PP
0 sg
3070 1328 mt 3184 1348 L
3184 1348 mt 3125 1463 L
c23
114 20 -60 80 3130 1248 3 MP
PP
0 sg
3130 1248 mt 3070 1328 L
3070 1328 mt 3184 1348 L
c29
-59 92 113 20 3066 1555 3 MP
PP
0 sg
3066 1555 mt 3179 1575 L
3179 1575 mt 3120 1667 L
c26
113 20 -59 92 3125 1463 3 MP
PP
0 sg
3125 1463 mt 3066 1555 L
3066 1555 mt 3179 1575 L
c27
113 -3 -59 56 3120 1667 3 MP
PP
0 sg
3120 1667 mt 3061 1723 L
3061 1723 mt 3174 1720 L
c27
-59 80 113 -3 3061 1723 3 MP
PP
0 sg
3061 1723 mt 3174 1720 L
3174 1720 mt 3115 1800 L
c27
114 44 -60 33 3061 1723 3 MP
PP
0 sg
3061 1723 mt 3001 1756 L
3001 1756 mt 3115 1800 L
c28
-59 -38 114 44 3001 1756 3 MP
PP
0 sg
3001 1756 mt 3115 1800 L
3115 1800 mt 3056 1762 L
c27
113 103 -59 -38 3115 1800 3 MP
PP
0 sg
3115 1800 mt 3056 1762 L
3056 1762 mt 3169 1865 L
c24
-59 103 113 103 3056 1762 3 MP
PP
0 sg
3056 1762 mt 3169 1865 L
3169 1865 mt 3110 1968 L
c24
114 -27 -60 233 3056 1762 3 MP
PP
0 sg
3056 1762 mt 2996 1995 L
2996 1995 mt 3110 1968 L
c31
113 149 -59 -119 3110 1968 3 MP
PP
0 sg
3110 1968 mt 3051 1849 L
3051 1849 mt 3164 1998 L
c33
-59 -119 114 -27 2996 1995 3 MP
PP
0 sg
2996 1995 mt 3110 1968 L
3110 1968 mt 3051 1849 L
c23
-59 185 113 149 3051 1849 3 MP
PP
0 sg
3051 1849 mt 3164 1998 L
3164 1998 mt 3105 2183 L
c24
113 20 -59 197 3041 2150 3 MP
PP
0 sg
3041 2150 mt 2982 2347 L
2982 2347 mt 3095 2367 L
c31
113 55 -59 -107 3095 2367 3 MP
PP
0 sg
3095 2367 mt 3036 2260 L
3036 2260 mt 3149 2315 L
c9
-60 91 114 68 3026 727 3 MP
PP
0 sg
3026  727 mt 3140  795 L
3140  795 mt 3080  886 L
c12
114 32 -59 115 3080 886 3 MP
PP
0 sg
3080  886 mt 3021 1001 L
3021 1001 mt 3135 1033 L
c13
-60 92 114 32 3021 1001 3 MP
PP
0 sg
3021 1001 mt 3135 1033 L
3135 1033 mt 3075 1125 L
c18
114 -3 -59 126 3075 1125 3 MP
PP
0 sg
3075 1125 mt 3016 1251 L
3016 1251 mt 3130 1248 L
c25
-60 80 114 -3 3016 1251 3 MP
PP
0 sg
3016 1251 mt 3130 1248 L
3130 1248 mt 3070 1328 L
c25
114 -15 -59 150 3070 1328 3 MP
PP
0 sg
3070 1328 mt 3011 1478 L
3011 1478 mt 3125 1463 L
c29
-59 92 114 -15 3011 1478 3 MP
PP
0 sg
3011 1478 mt 3125 1463 L
3125 1463 mt 3066 1555 L
c28
-59 56 114 32 3006 1635 3 MP
PP
0 sg
3006 1635 mt 3120 1667 L
3120 1667 mt 3061 1723 L
c29
114 32 -60 80 3066 1555 3 MP
PP
0 sg
3066 1555 mt 3006 1635 L
3006 1635 mt 3120 1667 L
c23
113 102 -59 232 3051 1849 3 MP
PP
0 sg
3051 1849 mt 2992 2081 L
2992 2081 mt 3105 2183 L
c31
-59 -107 113 20 2982 2347 3 MP
PP
0 sg
2982 2347 mt 3095 2367 L
3095 2367 mt 3036 2260 L
c9
113 9 -59 150 3026 727 3 MP
PP
0 sg
3026  727 mt 2967  877 L
2967  877 mt 3080  886 L
c15
-59 115 113 9 2967 877 3 MP
PP
0 sg
2967  877 mt 3080  886 L
3080  886 mt 3021 1001 L
c13
113 9 -59 115 3021 1001 3 MP
PP
0 sg
3021 1001 mt 2962 1116 L
2962 1116 mt 3075 1125 L
c22
-59 126 113 9 2962 1116 3 MP
PP
0 sg
2962 1116 mt 3075 1125 L
3075 1125 mt 3016 1251 L
c26
-59 150 113 -38 2957 1366 3 MP
PP
0 sg
2957 1366 mt 3070 1328 L
3070 1328 mt 3011 1478 L
c25
113 -38 -59 115 3016 1251 3 MP
PP
0 sg
3016 1251 mt 2957 1366 L
2957 1366 mt 3070 1328 L
c28
-60 80 114 -3 2952 1558 3 MP
PP
0 sg
2952 1558 mt 3066 1555 L
3066 1555 mt 3006 1635 L
c29
114 -3 -59 80 3011 1478 3 MP
PP
0 sg
3011 1478 mt 2952 1558 L
2952 1558 mt 3066 1555 L
c28
114 -15 -59 103 3006 1635 3 MP
PP
0 sg
3006 1635 mt 2947 1738 L
2947 1738 mt 3061 1723 L
c31
-60 33 114 -15 2947 1738 3 MP
PP
0 sg
2947 1738 mt 3061 1723 L
3061 1723 mt 3001 1756 L
c30
-59 91 113 32 2834 1706 3 MP
PP
0 sg
2834 1706 mt 2947 1738 L
2947 1738 mt 2888 1829 L
c28
113 32 -59 104 2893 1602 3 MP
PP
0 sg
2893 1602 mt 2834 1706 L
2834 1706 mt 2947 1738 L
c31
113 -73 -59 91 2947 1738 3 MP
PP
0 sg
2947 1738 mt 2888 1829 L
2888 1829 mt 3001 1756 L
c28
-59 103 113 33 2893 1602 3 MP
PP
0 sg
2893 1602 mt 3006 1635 L
3006 1635 mt 2947 1738 L
c32
-59 -37 113 -73 2888 1829 3 MP
PP
0 sg
2888 1829 mt 3001 1756 L
3001 1756 mt 2942 1719 L
c28
114 43 -59 -37 3001 1756 3 MP
PP
0 sg
3001 1756 mt 2942 1719 L
2942 1719 mt 3056 1762 L
c25
-60 233 114 43 2942 1719 3 MP
PP
0 sg
2942 1719 mt 3056 1762 L
3056 1762 mt 2996 1995 L
c25
113 9 -59 267 2942 1719 3 MP
PP
0 sg
2942 1719 mt 2883 1986 L
2883 1986 mt 2996 1995 L
c34
-59 -178 113 9 2883 1986 3 MP
PP
0 sg
2883 1986 mt 2996 1995 L
2996 1995 mt 2937 1817 L
c33
114 32 -59 -178 2996 1995 3 MP
PP
0 sg
2996 1995 mt 2937 1817 L
2937 1817 mt 3051 1849 L
c23
-59 232 114 32 2937 1817 3 MP
PP
0 sg
2937 1817 mt 3051 1849 L
3051 1849 mt 2992 2081 L
c31
113 -14 -59 138 2878 2072 3 MP
PP
0 sg
2878 2072 mt 2819 2210 L
2819 2210 mt 2932 2196 L
c31
-60 115 114 9 2878 2072 3 MP
PP
0 sg
2878 2072 mt 2992 2081 L
2992 2081 mt 2932 2196 L
c34
114 150 -59 -85 2932 2196 3 MP
PP
0 sg
2932 2196 mt 2873 2111 L
2873 2111 mt 2987 2261 L
c36
-59 -85 113 -14 2819 2210 3 MP
PP
0 sg
2819 2210 mt 2932 2196 L
2932 2196 mt 2873 2111 L
c29
-60 33 114 150 2873 2111 3 MP
PP
0 sg
2873 2111 mt 2987 2261 L
2987 2261 mt 2927 2294 L
c33
114 -144 -60 33 2987 2261 3 MP
PP
0 sg
2987 2261 mt 2927 2294 L
2927 2294 mt 3041 2150 L
c32
-59 197 114 -144 2927 2294 3 MP
PP
0 sg
2927 2294 mt 3041 2150 L
3041 2150 mt 2982 2347 L
c31
113 -260 -59 173 2982 2347 3 MP
PP
0 sg
2982 2347 mt 2923 2520 L
2923 2520 mt 3036 2260 L
c17
-59 150 113 43 2913 684 3 MP
PP
0 sg
2913  684 mt 3026  727 L
3026  727 mt 2967  877 L
c13
-59 115 113 32 2908 969 3 MP
PP
0 sg
2908  969 mt 3021 1001 L
3021 1001 mt 2962 1116 L
c15
113 32 -59 92 2967 877 3 MP
PP
0 sg
2967  877 mt 2908  969 L
2908  969 mt 3021 1001 L
c25
-59 115 113 20 2903 1231 3 MP
PP
0 sg
2903 1231 mt 3016 1251 L
3016 1251 mt 2957 1366 L
c22
113 20 -59 115 2962 1116 3 MP
PP
0 sg
2962 1116 mt 2903 1231 L
2903 1231 mt 3016 1251 L
c26
113 -3 -59 115 2957 1366 3 MP
PP
0 sg
2957 1366 mt 2898 1481 L
2898 1481 mt 3011 1478 L
c28
-59 80 113 -3 2898 1481 3 MP
PP
0 sg
2898 1481 mt 3011 1478 L
3011 1478 mt 2952 1558 L
c28
113 33 -59 44 2952 1558 3 MP
PP
0 sg
2952 1558 mt 2893 1602 L
2893 1602 mt 3006 1635 L
c23
114 9 -59 255 2937 1817 3 MP
PP
0 sg
2937 1817 mt 2878 2072 L
2878 2072 mt 2992 2081 L
c29
113 -26 -59 209 2873 2111 3 MP
PP
0 sg
2873 2111 mt 2814 2320 L
2814 2320 mt 2927 2294 L
c34
-59 -38 113 -26 2814 2320 3 MP
PP
0 sg
2814 2320 mt 2927 2294 L
2927 2294 mt 2868 2256 L
c29
-59 173 114 91 2868 2256 3 MP
PP
0 sg
2868 2256 mt 2982 2347 L
2982 2347 mt 2923 2520 L
c32
114 91 -59 -38 2927 2294 3 MP
PP
0 sg
2927 2294 mt 2868 2256 L
2868 2256 mt 2982 2347 L
c12
-59 92 113 32 2854 845 3 MP
PP
0 sg
2854  845 mt 2967  877 L
2967  877 mt 2908  969 L
c17
113 32 -59 161 2913 684 3 MP
PP
0 sg
2913  684 mt 2854  845 L
2854  845 mt 2967  877 L
c13
113 -38 -59 185 2908 969 3 MP
PP
0 sg
2908  969 mt 2849 1154 L
2849 1154 mt 2962 1116 L
c25
-59 115 113 -38 2849 1154 3 MP
PP
0 sg
2849 1154 mt 2962 1116 L
2962 1116 mt 2903 1231 L
c25
113 -3 -59 138 2903 1231 3 MP
PP
0 sg
2903 1231 mt 2844 1369 L
2844 1369 mt 2957 1366 L
c29
-59 115 113 -3 2844 1369 3 MP
PP
0 sg
2844 1369 mt 2957 1366 L
2957 1366 mt 2898 1481 L
c29
113 79 -59 33 2844 1369 3 MP
PP
0 sg
2844 1369 mt 2785 1402 L
2785 1402 mt 2898 1481 L
c28
113 185 -59 -108 2898 1481 3 MP
PP
0 sg
2898 1481 mt 2839 1373 L
2839 1373 mt 2952 1558 L
c26
-59 -108 113 79 2785 1402 3 MP
PP
0 sg
2785 1402 mt 2898 1481 L
2898 1481 mt 2839 1373 L
c16
-59 44 113 185 2839 1373 3 MP
PP
0 sg
2839 1373 mt 2952 1558 L
2952 1558 mt 2893 1602 L
c30
113 -15 -59 138 2834 1706 3 MP
PP
0 sg
2834 1706 mt 2775 1844 L
2775 1844 mt 2888 1829 L
c32
113 -108 -59 -2 2888 1829 3 MP
PP
0 sg
2888 1829 mt 2829 1827 L
2829 1827 mt 2942 1719 L
c34
-59 -2 113 -15 2775 1844 3 MP
PP
0 sg
2775 1844 mt 2888 1829 L
2888 1829 mt 2829 1827 L
c30
-59 267 113 -108 2829 1827 3 MP
PP
0 sg
2829 1827 mt 2942 1719 L
2942 1719 mt 2883 1986 L
c30
113 56 -59 103 2829 1827 3 MP
PP
0 sg
2829 1827 mt 2770 1930 L
2770 1930 mt 2883 1986 L
c32
-59 21 113 56 2770 1930 3 MP
PP
0 sg
2770 1930 mt 2883 1986 L
2883 1986 mt 2824 2007 L
c34
113 -190 -59 21 2883 1986 3 MP
PP
0 sg
2883 1986 mt 2824 2007 L
2824 2007 mt 2937 1817 L
c32
-59 255 113 -190 2824 2007 3 MP
PP
0 sg
2824 2007 mt 2937 1817 L
2937 1817 mt 2878 2072 L
c34
-59 68 114 21 2646 2211 3 MP
PP
0 sg
2646 2211 mt 2760 2232 L
2760 2232 mt 2701 2300 L
c34
113 20 -59 68 2760 2232 3 MP
PP
0 sg
2760 2232 mt 2701 2300 L
2701 2300 mt 2814 2320 L
c29
113 55 -59 185 2765 1970 3 MP
PP
0 sg
2765 1970 mt 2706 2155 L
2706 2155 mt 2819 2210 L
c34
-59 22 113 55 2706 2155 3 MP
PP
0 sg
2706 2155 mt 2819 2210 L
2819 2210 mt 2760 2232 L
c29
-59 138 113 102 2765 1970 3 MP
PP
0 sg
2765 1970 mt 2878 2072 L
2878 2072 mt 2819 2210 L
c36
113 -121 -59 22 2819 2210 3 MP
PP
0 sg
2819 2210 mt 2760 2232 L
2760 2232 mt 2873 2111 L
c34
-59 209 113 -121 2760 2232 3 MP
PP
0 sg
2760 2232 mt 2873 2111 L
2873 2111 mt 2814 2320 L
c34
113 20 -59 -84 2814 2320 3 MP
PP
0 sg
2814 2320 mt 2755 2236 L
2755 2236 mt 2868 2256 L
c29
-59 -25 113 20 2755 2236 3 MP
PP
0 sg
2755 2236 mt 2868 2256 L
2868 2256 mt 2809 2231 L
c29
114 289 -59 -25 2868 2256 3 MP
PP
0 sg
2868 2256 mt 2809 2231 L
2809 2231 mt 2923 2520 L
c9
-59 161 114 9 2799 675 3 MP
PP
0 sg
2799  675 mt 2913  684 L
2913  684 mt 2854  845 L
c13
-59 185 114 20 2794 949 3 MP
PP
0 sg
2794  949 mt 2908  969 L
2908  969 mt 2849 1154 L
c12
114 20 -60 104 2854 845 3 MP
PP
0 sg
2854  845 mt 2794  949 L
2794  949 mt 2908  969 L
c23
-59 138 114 32 2789 1199 3 MP
PP
0 sg
2789 1199 mt 2903 1231 L
2903 1231 mt 2844 1369 L
c25
114 32 -60 45 2849 1154 3 MP
PP
0 sg
2849 1154 mt 2789 1199 L
2789 1199 mt 2903 1231 L
c16
113 -27 -59 256 2839 1373 3 MP
PP
0 sg
2839 1373 mt 2780 1629 L
2780 1629 mt 2893 1602 L
c30
-59 104 113 -27 2780 1629 3 MP
PP
0 sg
2780 1629 mt 2893 1602 L
2893 1602 mt 2834 1706 L
c32
113 102 -59 -37 2824 2007 3 MP
PP
0 sg
2824 2007 mt 2765 1970 L
2765 1970 mt 2878 2072 L
c15
-60 104 114 -3 2740 848 3 MP
PP
0 sg
2740  848 mt 2854  845 L
2854  845 mt 2794  949 L
c9
114 -3 -59 173 2799 675 3 MP
PP
0 sg
2799  675 mt 2740  848 L
2740  848 mt 2854  845 L
c24
-60 45 114 -15 2735 1169 3 MP
PP
0 sg
2735 1169 mt 2849 1154 L
2849 1154 mt 2789 1199 L
c13
114 -15 -59 220 2794 949 3 MP
PP
0 sg
2794  949 mt 2735 1169 L
2735 1169 mt 2849 1154 L
c23
114 44 -59 126 2789 1199 3 MP
PP
0 sg
2789 1199 mt 2730 1325 L
2730 1325 mt 2844 1369 L
c26
-59 33 114 44 2730 1325 3 MP
PP
0 sg
2730 1325 mt 2844 1369 L
2844 1369 mt 2785 1402 L
c26
114 -109 -60 80 2785 1402 3 MP
PP
0 sg
2785 1402 mt 2725 1482 L
2725 1482 mt 2839 1373 L
c29
-59 256 114 -109 2725 1482 3 MP
PP
0 sg
2725 1482 mt 2839 1373 L
2839 1373 mt 2780 1629 L
c33
-59 138 114 -38 2720 1744 3 MP
PP
0 sg
2720 1744 mt 2834 1706 L
2834 1706 mt 2775 1844 L
c30
114 -38 -60 115 2780 1629 3 MP
PP
0 sg
2780 1629 mt 2720 1744 L
2720 1744 mt 2834 1706 L
c33
114 20 -59 80 2720 1744 3 MP
PP
0 sg
2720 1744 mt 2661 1824 L
2661 1824 mt 2775 1844 L
c34
114 55 -60 -72 2775 1844 3 MP
PP
0 sg
2775 1844 mt 2715 1772 L
2715 1772 mt 2829 1827 L
c34
-60 -72 114 20 2661 1824 3 MP
PP
0 sg
2661 1824 mt 2775 1844 L
2775 1844 mt 2715 1772 L
c28
-59 103 114 55 2715 1772 3 MP
PP
0 sg
2715 1772 mt 2829 1827 L
2829 1827 mt 2770 1930 L
c32
113 79 -59 -2 2770 1930 3 MP
PP
0 sg
2770 1930 mt 2711 1928 L
2711 1928 mt 2824 2007 L
c27
-59 -37 113 79 2711 1928 3 MP
PP
0 sg
2711 1928 mt 2824 2007 L
2824 2007 mt 2765 1970 L
c34
-59 -84 113 20 2701 2300 3 MP
PP
0 sg
2701 2300 mt 2814 2320 L
2814 2320 mt 2755 2236 L
c35
-59 103 113 -62 2479 2173 3 MP
PP
0 sg
2479 2173 mt 2592 2111 L
2592 2111 mt 2533 2214 L
c32
113 -3 -59 103 2592 2111 3 MP
PP
0 sg
2592 2111 mt 2533 2214 L
2533 2214 mt 2646 2211 L
c36
-59 -96 113 -3 2533 2214 3 MP
PP
0 sg
2533 2214 mt 2646 2211 L
2646 2211 mt 2587 2115 L
c34
114 185 -59 -96 2646 2211 3 MP
PP
0 sg
2646 2211 mt 2587 2115 L
2587 2115 mt 2701 2300 L
c26
-60 -14 114 185 2587 2115 3 MP
PP
0 sg
2587 2115 mt 2701 2300 L
2701 2300 mt 2641 2286 L
c34
114 -50 -60 -14 2701 2300 3 MP
PP
0 sg
2701 2300 mt 2641 2286 L
2641 2286 mt 2755 2236 L
c29
113 -38 -59 33 2755 2236 3 MP
PP
0 sg
2755 2236 mt 2696 2269 L
2696 2269 mt 2809 2231 L
c11
-59 173 113 -15 2686 690 3 MP
PP
0 sg
2686  690 mt 2799  675 L
2799  675 mt 2740  848 L
c15
113 -61 -59 162 2740 848 3 MP
PP
0 sg
2740  848 mt 2681 1010 L
2681 1010 mt 2794  949 L
c16
-59 220 113 -61 2681 1010 3 MP
PP
0 sg
2681 1010 mt 2794  949 L
2794  949 mt 2735 1169 L
c24
113 -26 -59 56 2735 1169 3 MP
PP
0 sg
2735 1169 mt 2676 1225 L
2676 1225 mt 2789 1199 L
c24
-59 126 113 -26 2676 1225 3 MP
PP
0 sg
2676 1225 mt 2789 1199 L
2789 1199 mt 2730 1325 L
c26
114 -27 -59 104 2730 1325 3 MP
PP
0 sg
2730 1325 mt 2671 1429 L
2671 1429 mt 2785 1402 L
c28
-60 80 114 -27 2671 1429 3 MP
PP
0 sg
2671 1429 mt 2785 1402 L
2785 1402 mt 2725 1482 L
c32
-60 115 114 -15 2666 1644 3 MP
PP
0 sg
2666 1644 mt 2780 1629 L
2780 1629 mt 2720 1744 L
c29
114 -15 -59 162 2725 1482 3 MP
PP
0 sg
2725 1482 mt 2666 1644 L
2666 1644 mt 2780 1629 L
c31
-59 79 113 91 2548 1733 3 MP
PP
0 sg
2548 1733 mt 2661 1824 L
2661 1824 mt 2602 1903 L
c31
113 91 -59 56 2607 1677 3 MP
PP
0 sg
2607 1677 mt 2548 1733 L
2548 1733 mt 2661 1824 L
c34
113 -131 -59 79 2661 1824 3 MP
PP
0 sg
2661 1824 mt 2602 1903 L
2602 1903 mt 2715 1772 L
c31
-59 80 113 67 2607 1677 3 MP
PP
0 sg
2607 1677 mt 2720 1744 L
2720 1744 mt 2661 1824 L
c36
-59 56 113 -131 2602 1903 3 MP
PP
0 sg
2602 1903 mt 2715 1772 L
2715 1772 mt 2656 1828 L
c28
114 102 -59 56 2715 1772 3 MP
PP
0 sg
2715 1772 mt 2656 1828 L
2656 1828 mt 2770 1930 L
c28
-59 -2 114 102 2656 1828 3 MP
PP
0 sg
2656 1828 mt 2770 1930 L
2770 1930 mt 2711 1928 L
c27
-59 185 114 -14 2651 1984 3 MP
PP
0 sg
2651 1984 mt 2765 1970 L
2765 1970 mt 2706 2155 L
c27
114 -14 -60 56 2711 1928 3 MP
PP
0 sg
2711 1928 mt 2651 1984 L
2651 1984 mt 2765 1970 L
c34
114 21 -60 56 2706 2155 3 MP
PP
0 sg
2706 2155 mt 2646 2211 L
2646 2211 mt 2760 2232 L
c31
-59 33 114 -50 2641 2286 3 MP
PP
0 sg
2641 2286 mt 2755 2236 L
2755 2236 mt 2696 2269 L
c11
113 -3 -59 161 2686 690 3 MP
PP
0 sg
2686  690 mt 2627  851 L
2627  851 mt 2740  848 L
c13
-59 162 113 -3 2627 851 3 MP
PP
0 sg
2627  851 mt 2740  848 L
2740  848 mt 2681 1010 L
c16
113 21 -59 138 2681 1010 3 MP
PP
0 sg
2681 1010 mt 2622 1148 L
2622 1148 mt 2735 1169 L
c24
-59 56 113 21 2622 1148 3 MP
PP
0 sg
2622 1148 mt 2735 1169 L
2735 1169 mt 2676 1225 L
c29
-59 104 113 -15 2617 1340 3 MP
PP
0 sg
2617 1340 mt 2730 1325 L
2730 1325 mt 2671 1429 L
c24
113 -15 -59 115 2676 1225 3 MP
PP
0 sg
2676 1225 mt 2617 1340 L
2617 1340 mt 2730 1325 L
c28
-59 162 113 -3 2612 1485 3 MP
PP
0 sg
2612 1485 mt 2725 1482 L
2725 1482 mt 2666 1644 L
c28
113 -3 -59 56 2671 1429 3 MP
PP
0 sg
2671 1429 mt 2612 1485 L
2612 1485 mt 2725 1482 L
c32
113 67 -59 33 2666 1644 3 MP
PP
0 sg
2666 1644 mt 2607 1677 L
2607 1677 mt 2720 1744 L
c28
114 -97 -59 197 2656 1828 3 MP
PP
0 sg
2656 1828 mt 2597 2025 L
2597 2025 mt 2711 1928 L
c36
-60 56 114 -97 2597 2025 3 MP
PP
0 sg
2597 2025 mt 2711 1928 L
2711 1928 mt 2651 1984 L
c27
114 44 -59 127 2651 1984 3 MP
PP
0 sg
2651 1984 mt 2592 2111 L
2592 2111 mt 2706 2155 L
c32
-60 56 114 44 2592 2111 3 MP
PP
0 sg
2592 2111 mt 2706 2155 L
2706 2155 mt 2646 2211 L
c31
114 -178 -59 161 2641 2286 3 MP
PP
0 sg
2641 2286 mt 2582 2447 L
2582 2447 mt 2696 2269 L
c12
-59 161 113 -26 2573 716 3 MP
PP
0 sg
2573  716 mt 2686  690 L
2686  690 mt 2627  851 L
c13
113 20 -59 139 2627 851 3 MP
PP
0 sg
2627  851 mt 2568  990 L
2568  990 mt 2681 1010 L
c16
-59 138 113 20 2568 990 3 MP
PP
0 sg
2568  990 mt 2681 1010 L
2681 1010 mt 2622 1148 L
c24
113 9 -59 68 2622 1148 3 MP
PP
0 sg
2622 1148 mt 2563 1216 L
2563 1216 mt 2676 1225 L
c19
-59 115 113 9 2563 1216 3 MP
PP
0 sg
2563 1216 mt 2676 1225 L
2676 1225 mt 2617 1340 L
c30
-59 56 113 -14 2558 1443 3 MP
PP
0 sg
2558 1443 mt 2671 1429 L
2671 1429 mt 2612 1485 L
c29
113 -14 -59 103 2617 1340 3 MP
PP
0 sg
2617 1340 mt 2558 1443 L
2558 1443 mt 2671 1429 L
c28
113 9 -59 150 2612 1485 3 MP
PP
0 sg
2612 1485 mt 2553 1635 L
2553 1635 mt 2666 1644 L
c32
-59 33 113 9 2553 1635 3 MP
PP
0 sg
2553 1635 mt 2666 1644 L
2666 1644 mt 2607 1677 L
c31
113 20 -59 150 2548 1733 3 MP
PP
0 sg
2548 1733 mt 2489 1883 L
2489 1883 mt 2602 1903 L
c36
-59 68 113 20 2489 1883 3 MP
PP
0 sg
2489 1883 mt 2602 1903 L
2602 1903 mt 2543 1971 L
c36
113 -143 -59 68 2602 1903 3 MP
PP
0 sg
2602 1903 mt 2543 1971 L
2543 1971 mt 2656 1828 L
c35
-59 197 113 -143 2543 1971 3 MP
PP
0 sg
2543 1971 mt 2656 1828 L
2656 1828 mt 2597 2025 L
c36
114 9 -59 68 2434 1806 3 MP
PP
0 sg
2434 1806 mt 2375 1874 L
2375 1874 mt 2489 1883 L
c35
-60 56 114 9 2375 1874 3 MP
PP
0 sg
2375 1874 mt 2489 1883 L
2489 1883 mt 2429 1939 L
c36
114 32 -60 56 2489 1883 3 MP
PP
0 sg
2489 1883 mt 2429 1939 L
2429 1939 mt 2543 1971 L
c36
-59 150 114 -73 2434 1806 3 MP
PP
0 sg
2434 1806 mt 2548 1733 L
2548 1733 mt 2489 1883 L
c36
-59 -142 114 32 2429 1939 3 MP
PP
0 sg
2429 1939 mt 2543 1971 L
2543 1971 mt 2484 1829 L
c35
113 196 -59 -142 2543 1971 3 MP
PP
0 sg
2543 1971 mt 2484 1829 L
2484 1829 mt 2597 2025 L
c26
-59 21 113 196 2484 1829 3 MP
PP
0 sg
2484 1829 mt 2597 2025 L
2597 2025 mt 2538 2046 L
c36
113 -62 -59 21 2597 2025 3 MP
PP
0 sg
2597 2025 mt 2538 2046 L
2538 2046 mt 2651 1984 L
c33
-59 127 113 -62 2538 2046 3 MP
PP
0 sg
2538 2046 mt 2651 1984 L
2651 1984 mt 2592 2111 L
c26
113 -73 -59 244 2587 2115 3 MP
PP
0 sg
2587 2115 mt 2528 2359 L
2528 2359 mt 2641 2286 L
c36
-59 161 113 -73 2528 2359 3 MP
PP
0 sg
2528 2359 mt 2641 2286 L
2641 2286 mt 2582 2447 L
c12
114 20 -60 115 2573 716 3 MP
PP
0 sg
2573  716 mt 2513  831 L
2513  831 mt 2627  851 L
c13
-59 139 114 20 2513 831 3 MP
PP
0 sg
2513  831 mt 2627  851 L
2627  851 mt 2568  990 L
c26
-59 68 114 -15 2508 1163 3 MP
PP
0 sg
2508 1163 mt 2622 1148 L
2622 1148 mt 2563 1216 L
c16
114 -15 -60 173 2568 990 3 MP
PP
0 sg
2568  990 mt 2508 1163 L
2508 1163 mt 2622 1148 L
c19
114 79 -60 45 2563 1216 3 MP
PP
0 sg
2563 1216 mt 2503 1261 L
2503 1261 mt 2617 1340 L
c24
-59 103 114 79 2503 1261 3 MP
PP
0 sg
2503 1261 mt 2617 1340 L
2617 1340 mt 2558 1443 L
c30
113 -97 -59 139 2558 1443 3 MP
PP
0 sg
2558 1443 mt 2499 1582 L
2499 1582 mt 2612 1485 L
c34
-59 150 113 -97 2499 1582 3 MP
PP
0 sg
2499 1582 mt 2612 1485 L
2612 1485 mt 2553 1635 L
c32
-59 56 113 -14 2494 1691 3 MP
PP
0 sg
2494 1691 mt 2607 1677 L
2607 1677 mt 2548 1733 L
c32
113 -14 -59 56 2553 1635 3 MP
PP
0 sg
2553 1635 mt 2494 1691 L
2494 1691 mt 2607 1677 L
c33
113 -62 -59 127 2538 2046 3 MP
PP
0 sg
2538 2046 mt 2479 2173 L
2479 2173 mt 2592 2111 L
c35
113 -15 -59 80 2375 1874 3 MP
PP
0 sg
2375 1874 mt 2316 1954 L
2316 1954 mt 2429 1939 L
/c37 { 0.687500 1.000000 0.312500 sr} bdef
c37
-59 -37 113 -15 2316 1954 3 MP
PP
0 sg
2316 1954 mt 2429 1939 L
2429 1939 mt 2370 1902 L
c36
114 -73 -59 -37 2429 1939 3 MP
PP
0 sg
2429 1939 mt 2370 1902 L
2370 1902 mt 2484 1829 L
c26
114 68 -60 232 2425 1873 3 MP
PP
0 sg
2425 1873 mt 2365 2105 L
2365 2105 mt 2479 2173 L
c34
-59 -155 114 68 2365 2105 3 MP
PP
0 sg
2365 2105 mt 2479 2173 L
2479 2173 mt 2420 2018 L
c26
-59 127 113 173 2425 1873 3 MP
PP
0 sg
2425 1873 mt 2538 2046 L
2538 2046 mt 2479 2173 L
c35
113 196 -59 -155 2479 2173 3 MP
PP
0 sg
2479 2173 mt 2420 2018 L
2420 2018 mt 2533 2214 L
c26
-59 -2 113 196 2420 2018 3 MP
PP
0 sg
2420 2018 mt 2533 2214 L
2533 2214 mt 2474 2212 L
c36
113 -97 -59 -2 2533 2214 3 MP
PP
0 sg
2533 2214 mt 2474 2212 L
2474 2212 mt 2587 2115 L
c32
-59 244 113 -97 2474 2212 3 MP
PP
0 sg
2474 2212 mt 2587 2115 L
2587 2115 mt 2528 2359 L
c36
113 55 -59 33 2528 2359 3 MP
PP
0 sg
2528 2359 mt 2469 2392 L
2469 2392 mt 2582 2447 L
c14
-60 115 114 -26 2459 742 3 MP
PP
0 sg
2459  742 mt 2573  716 L
2573  716 mt 2513  831 L
c24
-60 173 114 -50 2454 1040 3 MP
PP
0 sg
2454 1040 mt 2568  990 L
2568  990 mt 2508 1163 L
c13
114 -50 -59 209 2513 831 3 MP
PP
0 sg
2513  831 mt 2454 1040 L
2454 1040 mt 2568  990 L
c28
-60 45 114 -39 2449 1255 3 MP
PP
0 sg
2449 1255 mt 2563 1216 L
2563 1216 mt 2503 1261 L
c26
114 -39 -59 92 2508 1163 3 MP
PP
0 sg
2508 1163 mt 2449 1255 L
2449 1255 mt 2563 1216 L
c24
114 -38 -59 220 2503 1261 3 MP
PP
0 sg
2503 1261 mt 2444 1481 L
2444 1481 mt 2558 1443 L
c32
-59 139 114 -38 2444 1481 3 MP
PP
0 sg
2444 1481 mt 2558 1443 L
2558 1443 mt 2499 1582 L
c33
-59 56 114 9 2439 1626 3 MP
PP
0 sg
2439 1626 mt 2553 1635 L
2553 1635 mt 2494 1691 L
c34
114 9 -60 44 2499 1582 3 MP
PP
0 sg
2499 1582 mt 2439 1626 L
2439 1626 mt 2553 1635 L
c32
114 -73 -60 115 2494 1691 3 MP
PP
0 sg
2494 1691 mt 2434 1806 L
2434 1806 mt 2548 1733 L
c26
113 173 -59 44 2484 1829 3 MP
PP
0 sg
2484 1829 mt 2425 1873 L
2425 1873 mt 2538 2046 L
c32
113 -3 -59 150 2474 2212 3 MP
PP
0 sg
2474 2212 mt 2415 2362 L
2415 2362 mt 2528 2359 L
c35
-59 33 113 -3 2415 2362 3 MP
PP
0 sg
2415 2362 mt 2528 2359 L
2528 2359 mt 2469 2392 L
c14
113 -85 -59 174 2459 742 3 MP
PP
0 sg
2459  742 mt 2400  916 L
2400  916 mt 2513  831 L
c23
-59 209 113 -85 2400 916 3 MP
PP
0 sg
2400  916 mt 2513  831 L
2513  831 mt 2454 1040 L
c29
-59 92 113 9 2395 1154 3 MP
PP
0 sg
2395 1154 mt 2508 1163 L
2508 1163 mt 2449 1255 L
c24
113 9 -59 114 2454 1040 3 MP
PP
0 sg
2454 1040 mt 2395 1154 L
2395 1154 mt 2508 1163 L
c28
113 -132 -59 138 2449 1255 3 MP
PP
0 sg
2449 1255 mt 2390 1393 L
2390 1393 mt 2503 1261 L
c32
-59 220 113 -132 2390 1393 3 MP
PP
0 sg
2390 1393 mt 2503 1261 L
2503 1261 mt 2444 1481 L
c35
-60 44 114 -26 2385 1608 3 MP
PP
0 sg
2385 1608 mt 2499 1582 L
2499 1582 mt 2439 1626 L
c32
114 -26 -59 127 2444 1481 3 MP
PP
0 sg
2444 1481 mt 2385 1608 L
2385 1608 mt 2499 1582 L
c33
114 32 -59 33 2439 1626 3 MP
PP
0 sg
2439 1626 mt 2380 1659 L
2380 1659 mt 2494 1691 L
c32
-60 115 114 32 2380 1659 3 MP
PP
0 sg
2380 1659 mt 2494 1691 L
2494 1691 mt 2434 1806 L
c31
-59 44 114 -73 2370 1902 3 MP
PP
0 sg
2370 1902 mt 2484 1829 L
2484 1829 mt 2425 1873 L
gr

2395 3724 mt 
(C) s
gs 654 282 3906 3082 rc
c33
-59 150 114 -3 2360 2215 3 MP
PP
0 sg
2360 2215 mt 2474 2212 L
2474 2212 mt 2415 2362 L
c26
114 -3 -60 197 2420 2018 3 MP
PP
0 sg
2420 2018 mt 2360 2215 L
2360 2215 mt 2474 2212 L
c35
113 -50 -59 80 2415 2362 3 MP
PP
0 sg
2415 2362 mt 2356 2442 L
2356 2442 mt 2469 2392 L
c15
-59 174 113 43 2346 699 3 MP
PP
0 sg
2346  699 mt 2459  742 L
2459  742 mt 2400  916 L
c23
113 33 -59 91 2400 916 3 MP
PP
0 sg
2400  916 mt 2341 1007 L
2341 1007 mt 2454 1040 L
c25
-59 114 113 33 2341 1007 3 MP
PP
0 sg
2341 1007 mt 2454 1040 L
2454 1040 mt 2395 1154 L
c29
113 -61 -59 162 2395 1154 3 MP
PP
0 sg
2395 1154 mt 2336 1316 L
2336 1316 mt 2449 1255 L
c32
-59 138 113 -61 2336 1316 3 MP
PP
0 sg
2336 1316 mt 2449 1255 L
2449 1255 mt 2390 1393 L
c32
113 8 -59 80 2390 1393 3 MP
PP
0 sg
2390 1393 mt 2331 1473 L
2331 1473 mt 2444 1481 L
c33
-59 127 113 8 2331 1473 3 MP
PP
0 sg
2331 1473 mt 2444 1481 L
2444 1481 mt 2385 1608 L
c35
113 20 -59 -2 2385 1608 3 MP
PP
0 sg
2385 1608 mt 2326 1606 L
2326 1606 mt 2439 1626 L
c33
-59 33 113 20 2326 1606 3 MP
PP
0 sg
2326 1606 mt 2439 1626 L
2439 1626 mt 2380 1659 L
c36
-59 68 113 20 2321 1786 3 MP
PP
0 sg
2321 1786 mt 2434 1806 L
2434 1806 mt 2375 1874 L
c32
113 20 -59 127 2380 1659 3 MP
PP
0 sg
2380 1659 mt 2321 1786 L
2321 1786 mt 2434 1806 L
/c38 { 0.625000 1.000000 0.375000 sr} bdef
c38
-60 232 114 -226 2311 2099 3 MP
PP
0 sg
2311 2099 mt 2425 1873 L
2425 1873 mt 2365 2105 L
c31
114 -226 -59 197 2370 1902 3 MP
PP
0 sg
2370 1902 mt 2311 2099 L
2311 2099 mt 2425 1873 L
c37
-60 197 114 -202 2306 2220 3 MP
PP
0 sg
2306 2220 mt 2420 2018 L
2420 2018 mt 2360 2215 L
c34
114 -202 -59 115 2365 2105 3 MP
PP
0 sg
2365 2105 mt 2306 2220 L
2306 2220 mt 2420 2018 L
c33
114 67 -59 80 2360 2215 3 MP
PP
0 sg
2360 2215 mt 2301 2295 L
2301 2295 mt 2415 2362 L
c34
-59 80 114 67 2301 2295 3 MP
PP
0 sg
2301 2295 mt 2415 2362 L
2415 2362 mt 2356 2442 L
c15
113 20 -59 197 2346 699 3 MP
PP
0 sg
2346  699 mt 2287  896 L
2287  896 mt 2400  916 L
c23
-59 91 113 20 2287 896 3 MP
PP
0 sg
2287  896 mt 2400  916 L
2400  916 mt 2341 1007 L
c31
-59 162 113 -62 2282 1216 3 MP
PP
0 sg
2282 1216 mt 2395 1154 L
2395 1154 mt 2336 1316 L
c25
113 -62 -59 209 2341 1007 3 MP
PP
0 sg
2341 1007 mt 2282 1216 L
2282 1216 mt 2395 1154 L
c33
-59 80 113 -3 2277 1396 3 MP
PP
0 sg
2277 1396 mt 2390 1393 L
2390 1393 mt 2331 1473 L
c32
113 -3 -59 80 2336 1316 3 MP
PP
0 sg
2336 1316 mt 2277 1396 L
2277 1396 mt 2390 1393 L
c33
113 79 -59 56 2331 1473 3 MP
PP
0 sg
2331 1473 mt 2272 1529 L
2272 1529 mt 2385 1608 L
c33
-59 -2 113 79 2272 1529 3 MP
PP
0 sg
2272 1529 mt 2385 1608 L
2385 1608 mt 2326 1606 L
c33
113 -38 -59 91 2326 1606 3 MP
PP
0 sg
2326 1606 mt 2267 1697 L
2267 1697 mt 2380 1659 L
c36
-59 127 113 -38 2267 1697 3 MP
PP
0 sg
2267 1697 mt 2380 1659 L
2380 1659 mt 2321 1786 L
c33
-59 80 113 79 2262 1795 3 MP
PP
0 sg
2262 1795 mt 2375 1874 L
2375 1874 mt 2316 1954 L
c36
113 79 -59 9 2321 1786 3 MP
PP
0 sg
2321 1786 mt 2262 1795 L
2262 1795 mt 2375 1874 L
c33
113 -26 -59 185 2262 1795 3 MP
PP
0 sg
2262 1795 mt 2203 1980 L
2203 1980 mt 2316 1954 L
/c39 { 0.562500 1.000000 0.437500 sr} bdef
c39
-59 33 113 -26 2203 1980 3 MP
PP
0 sg
2203 1980 mt 2316 1954 L
2316 1954 mt 2257 1987 L
c37
113 -85 -59 33 2316 1954 3 MP
PP
0 sg
2316 1954 mt 2257 1987 L
2257 1987 mt 2370 1902 L
c35
-59 197 113 -85 2257 1987 3 MP
PP
0 sg
2257 1987 mt 2370 1902 L
2370 1902 mt 2311 2099 L
c35
113 32 -59 80 2257 1987 3 MP
PP
0 sg
2257 1987 mt 2198 2067 L
2198 2067 mt 2311 2099 L
c37
-59 -73 113 32 2198 2067 3 MP
PP
0 sg
2198 2067 mt 2311 2099 L
2311 2099 mt 2252 2026 L
c38
113 79 -59 -73 2311 2099 3 MP
PP
0 sg
2311 2099 mt 2252 2026 L
2252 2026 mt 2365 2105 L
c31
-59 115 113 79 2252 2026 3 MP
PP
0 sg
2252 2026 mt 2365 2105 L
2365 2105 mt 2306 2220 L
c31
113 44 -59 150 2252 2026 3 MP
PP
0 sg
2252 2026 mt 2193 2176 L
2193 2176 mt 2306 2220 L
c37
113 32 -59 -37 2306 2220 3 MP
PP
0 sg
2306 2220 mt 2247 2183 L
2247 2183 mt 2360 2215 L
c35
-59 -37 113 44 2193 2176 3 MP
PP
0 sg
2193 2176 mt 2306 2220 L
2306 2220 mt 2247 2183 L
c32
-59 80 113 32 2247 2183 3 MP
PP
0 sg
2247 2183 mt 2360 2215 L
2360 2215 mt 2301 2295 L
c34
114 -38 -59 185 2301 2295 3 MP
PP
0 sg
2301 2295 mt 2242 2480 L
2242 2480 mt 2356 2442 L
c15
-59 197 114 9 2232 690 3 MP
PP
0 sg
2232  690 mt 2346  699 L
2346  699 mt 2287  896 L
c30
-59 209 114 -109 2227 1116 3 MP
PP
0 sg
2227 1116 mt 2341 1007 L
2341 1007 mt 2282 1216 L
c23
114 -109 -60 220 2287 896 3 MP
PP
0 sg
2287  896 mt 2227 1116 L
2227 1116 mt 2341 1007 L
c34
-59 80 114 -15 2222 1331 3 MP
PP
0 sg
2222 1331 mt 2336 1316 L
2336 1316 mt 2277 1396 L
c31
114 -15 -60 115 2282 1216 3 MP
PP
0 sg
2282 1216 mt 2222 1331 L
2222 1331 mt 2336 1316 L
c33
113 -14 -59 91 2277 1396 3 MP
PP
0 sg
2277 1396 mt 2218 1487 L
2218 1487 mt 2331 1473 L
c36
-59 56 113 -14 2218 1487 3 MP
PP
0 sg
2218 1487 mt 2331 1473 L
2331 1473 mt 2272 1529 L
c36
114 -27 -60 69 2218 1487 3 MP
PP
0 sg
2218 1487 mt 2158 1556 L
2158 1556 mt 2272 1529 L
c36
-59 -26 114 -27 2158 1556 3 MP
PP
0 sg
2158 1556 mt 2272 1529 L
2272 1529 mt 2213 1503 L
c27
-59 91 113 103 2213 1503 3 MP
PP
0 sg
2213 1503 mt 2326 1606 L
2326 1606 mt 2267 1697 L
c33
113 103 -59 -26 2272 1529 3 MP
PP
0 sg
2272 1529 mt 2213 1503 L
2213 1503 mt 2326 1606 L
c36
113 44 -59 45 2267 1697 3 MP
PP
0 sg
2267 1697 mt 2208 1742 L
2208 1742 mt 2321 1786 L
c34
-59 9 113 44 2208 1742 3 MP
PP
0 sg
2208 1742 mt 2321 1786 L
2321 1786 mt 2262 1795 L
c37
-59 185 113 -38 2188 2333 3 MP
PP
0 sg
2188 2333 mt 2301 2295 L
2301 2295 mt 2242 2480 L
c32
113 -38 -59 150 2247 2183 3 MP
PP
0 sg
2247 2183 mt 2188 2333 L
2188 2333 mt 2301 2295 L
c15
114 -14 -59 220 2232 690 3 MP
PP
0 sg
2232  690 mt 2173  910 L
2173  910 mt 2287  896 L
c25
-60 220 114 -14 2173 910 3 MP
PP
0 sg
2173  910 mt 2287  896 L
2287  896 mt 2227 1116 L
c30
114 -62 -59 162 2227 1116 3 MP
PP
0 sg
2227 1116 mt 2168 1278 L
2168 1278 mt 2282 1216 L
c36
-60 115 114 -62 2168 1278 3 MP
PP
0 sg
2168 1278 mt 2282 1216 L
2282 1216 mt 2222 1331 L
c36
-59 91 114 -15 2163 1411 3 MP
PP
0 sg
2163 1411 mt 2277 1396 L
2277 1396 mt 2218 1487 L
c34
114 -15 -59 80 2222 1331 3 MP
PP
0 sg
2222 1331 mt 2163 1411 L
2163 1411 mt 2277 1396 L
c27
114 -62 -60 256 2213 1503 3 MP
PP
0 sg
2213 1503 mt 2153 1759 L
2153 1759 mt 2267 1697 L
c39
-59 45 114 -62 2153 1759 3 MP
PP
0 sg
2153 1759 mt 2267 1697 L
2267 1697 mt 2208 1742 L
c34
114 -144 -60 197 2208 1742 3 MP
PP
0 sg
2208 1742 mt 2148 1939 L
2148 1939 mt 2262 1795 L
/c40 { 0.437500 1.000000 0.562500 sr} bdef
c40
-59 185 114 -144 2148 1939 3 MP
PP
0 sg
2148 1939 mt 2262 1795 L
2262 1795 mt 2203 1980 L
/c41 { 0.500000 1.000000 0.500000 sr} bdef
c41
113 32 -59 68 2094 1839 3 MP
PP
0 sg
2094 1839 mt 2035 1907 L
2035 1907 mt 2148 1939 L
c41
-59 -61 113 32 2035 1907 3 MP
PP
0 sg
2035 1907 mt 2148 1939 L
2148 1939 mt 2089 1878 L
c41
-60 197 114 -97 2094 1839 3 MP
PP
0 sg
2094 1839 mt 2208 1742 L
2208 1742 mt 2148 1939 L
c40
114 102 -59 -61 2148 1939 3 MP
PP
0 sg
2148 1939 mt 2089 1878 L
2089 1878 mt 2203 1980 L
c36
-59 -25 114 102 2089 1878 3 MP
PP
0 sg
2089 1878 mt 2203 1980 L
2203 1980 mt 2144 1955 L
c39
113 32 -59 -25 2203 1980 3 MP
PP
0 sg
2203 1980 mt 2144 1955 L
2144 1955 mt 2257 1987 L
c36
-59 80 113 32 2144 1955 3 MP
PP
0 sg
2144 1955 mt 2257 1987 L
2257 1987 mt 2198 2067 L
c37
113 102 -59 -143 2198 2067 3 MP
PP
0 sg
2198 2067 mt 2139 1924 L
2139 1924 mt 2252 2026 L
c36
114 32 -60 80 2144 1955 3 MP
PP
0 sg
2144 1955 mt 2084 2035 L
2084 2035 mt 2198 2067 L
c36
114 -26 -59 103 2089 1878 3 MP
PP
0 sg
2089 1878 mt 2030 1981 L
2030 1981 mt 2144 1955 L
c38
-60 80 114 -26 2030 1981 3 MP
PP
0 sg
2030 1981 mt 2144 1955 L
2144 1955 mt 2084 2035 L
c35
-59 -143 114 32 2084 2035 3 MP
PP
0 sg
2084 2035 mt 2198 2067 L
2198 2067 mt 2139 1924 L
c29
-59 150 113 102 2139 1924 3 MP
PP
0 sg
2139 1924 mt 2252 2026 L
2252 2026 mt 2193 2176 L
c38
-59 150 113 -85 2134 2268 3 MP
PP
0 sg
2134 2268 mt 2247 2183 L
2247 2183 mt 2188 2333 L
c35
113 -85 -59 92 2193 2176 3 MP
PP
0 sg
2193 2176 mt 2134 2268 L
2134 2268 mt 2247 2183 L
c37
113 -3 -59 150 2188 2333 3 MP
PP
0 sg
2188 2333 mt 2129 2483 L
2129 2483 mt 2242 2480 L
c15
-59 220 113 20 2119 670 3 MP
PP
0 sg
2119  670 mt 2232  690 L
2232  690 mt 2173  910 L
c33
-59 162 113 -50 2114 1166 3 MP
PP
0 sg
2114 1166 mt 2227 1116 L
2227 1116 mt 2168 1278 L
c25
113 -50 -59 256 2173 910 3 MP
PP
0 sg
2173  910 mt 2114 1166 L
2114 1166 mt 2227 1116 L
c34
-59 80 113 9 2109 1322 3 MP
PP
0 sg
2109 1322 mt 2222 1331 L
2222 1331 mt 2163 1411 L
c36
113 9 -59 44 2168 1278 3 MP
PP
0 sg
2168 1278 mt 2109 1322 L
2109 1322 mt 2222 1331 L
c36
114 55 -59 21 2163 1411 3 MP
PP
0 sg
2163 1411 mt 2104 1432 L
2104 1432 mt 2218 1487 L
c33
-60 69 114 55 2104 1432 3 MP
PP
0 sg
2104 1432 mt 2218 1487 L
2218 1487 mt 2158 1556 L
c33
113 -73 -59 197 2104 1432 3 MP
PP
0 sg
2104 1432 mt 2045 1629 L
2045 1629 mt 2158 1556 L
c41
-59 44 113 -73 2045 1629 3 MP
PP
0 sg
2045 1629 mt 2158 1556 L
2158 1556 mt 2099 1600 L
c36
114 -97 -59 44 2158 1556 3 MP
PP
0 sg
2158 1556 mt 2099 1600 L
2099 1600 mt 2213 1503 L
c36
-60 256 114 -97 2099 1600 3 MP
PP
0 sg
2099 1600 mt 2213 1503 L
2213 1503 mt 2153 1759 L
c39
114 -97 -59 80 2153 1759 3 MP
PP
0 sg
2153 1759 mt 2094 1839 L
2094 1839 mt 2208 1742 L
c41
113 -74 -59 92 1976 1963 3 MP
PP
0 sg
1976 1963 mt 1917 2055 L
1917 2055 mt 2030 1981 L
/c42 { 0.375000 1.000000 0.625000 sr} bdef
c42
-59 21 113 -74 1917 2055 3 MP
PP
0 sg
1917 2055 mt 2030 1981 L
2030 1981 mt 1971 2002 L
c38
113 33 -59 21 2030 1981 3 MP
PP
0 sg
2030 1981 mt 1971 2002 L
1971 2002 mt 2084 2035 L
c35
-59 91 113 33 1971 2002 3 MP
PP
0 sg
1971 2002 mt 2084 2035 L
2084 2035 mt 2025 2126 L
c35
114 -202 -59 91 2084 2035 3 MP
PP
0 sg
2084 2035 mt 2025 2126 L
2025 2126 mt 2139 1924 L
c38
-60 68 114 -202 2025 2126 3 MP
PP
0 sg
2025 2126 mt 2139 1924 L
2139 1924 mt 2079 1992 L
c28
-59 92 114 184 2079 1992 3 MP
PP
0 sg
2079 1992 mt 2193 2176 L
2193 2176 mt 2134 2268 L
c29
114 184 -60 68 2139 1924 3 MP
PP
0 sg
2139 1924 mt 2079 1992 L
2079 1992 mt 2193 2176 L
c28
114 -97 -59 373 2079 1992 3 MP
PP
0 sg
2079 1992 mt 2020 2365 L
2020 2365 mt 2134 2268 L
/c43 { 0.312500 1.000000 0.687500 sr} bdef
c43
-60 -14 114 -97 2020 2365 3 MP
PP
0 sg
2020 2365 mt 2134 2268 L
2134 2268 mt 2074 2254 L
c34
-59 150 114 79 2074 2254 3 MP
PP
0 sg
2074 2254 mt 2188 2333 L
2188 2333 mt 2129 2483 L
c38
114 79 -60 -14 2134 2268 3 MP
PP
0 sg
2134 2268 mt 2074 2254 L
2074 2254 mt 2188 2333 L
c15
113 -74 -59 314 2119 670 3 MP
PP
0 sg
2119  670 mt 2060  984 L
2060  984 mt 2173  910 L
c28
-59 256 113 -74 2060 984 3 MP
PP
0 sg
2060  984 mt 2173  910 L
2173  910 mt 2114 1166 L
c33
113 44 -59 68 2114 1166 3 MP
PP
0 sg
2114 1166 mt 2055 1234 L
2055 1234 mt 2168 1278 L
c34
-59 44 113 44 2055 1234 3 MP
PP
0 sg
2055 1234 mt 2168 1278 L
2168 1278 mt 2109 1322 L
c35
-59 21 113 -14 2050 1425 3 MP
PP
0 sg
2050 1425 mt 2163 1411 L
2163 1411 mt 2104 1432 L
c34
113 -14 -59 103 2109 1322 3 MP
PP
0 sg
2109 1322 mt 2050 1425 L
2050 1425 mt 2163 1411 L
c41
-59 80 113 -3 2040 1762 3 MP
PP
0 sg
2040 1762 mt 2153 1759 L
2153 1759 mt 2094 1839 L
c36
113 -3 -59 162 2099 1600 3 MP
PP
0 sg
2099 1600 mt 2040 1762 L
2040 1762 mt 2153 1759 L
c34
114 102 -59 127 2074 2254 3 MP
PP
0 sg
2074 2254 mt 2015 2381 L
2015 2381 mt 2129 2483 L
c22
-59 314 113 -73 2006 743 3 MP
PP
0 sg
2006  743 mt 2119  670 L
2119  670 mt 2060  984 L
c34
-59 68 113 9 2001 1157 3 MP
PP
0 sg
2001 1157 mt 2114 1166 L
2114 1166 mt 2055 1234 L
c28
113 9 -59 173 2060 984 3 MP
PP
0 sg
2060  984 mt 2001 1157 L
2001 1157 mt 2114 1166 L
c38
-59 103 113 -50 1996 1372 3 MP
PP
0 sg
1996 1372 mt 2109 1322 L
2109 1322 mt 2050 1425 L
c34
113 -50 -59 138 2055 1234 3 MP
PP
0 sg
2055 1234 mt 1996 1372 L
1996 1372 mt 2109 1322 L
c35
113 -97 -59 104 2050 1425 3 MP
PP
0 sg
2050 1425 mt 1991 1529 L
1991 1529 mt 2104 1432 L
c39
-59 197 113 -97 1991 1529 3 MP
PP
0 sg
1991 1529 mt 2104 1432 L
2104 1432 mt 2045 1629 L
c35
-59 -2 113 91 1932 1538 3 MP
PP
0 sg
1932 1538 mt 2045 1629 L
2045 1629 mt 1986 1627 L
c39
113 91 -59 9 1991 1529 3 MP
PP
0 sg
1991 1529 mt 1932 1538 L
1932 1538 mt 2045 1629 L
c41
113 -27 -59 -2 2045 1629 3 MP
PP
0 sg
2045 1629 mt 1986 1627 L
1986 1627 mt 2099 1600 L
c37
-59 162 113 -27 1986 1627 3 MP
PP
0 sg
1986 1627 mt 2099 1600 L
2099 1600 mt 2040 1762 L
c41
113 9 -59 68 2040 1762 3 MP
PP
0 sg
2040 1762 mt 1981 1830 L
1981 1830 mt 2094 1839 L
c41
-59 68 113 9 1981 1830 3 MP
PP
0 sg
1981 1830 mt 2094 1839 L
2094 1839 mt 2035 1907 L
c41
113 -85 -59 56 2035 1907 3 MP
PP
0 sg
2035 1907 mt 1976 1963 L
1976 1963 mt 2089 1878 L
c41
-59 103 113 -85 1976 1963 3 MP
PP
0 sg
1976 1963 mt 2089 1878 L
2089 1878 mt 2030 1981 L
/c44 { 0.187500 1.000000 0.812500 sr} bdef
c44
-59 56 114 -49 1803 2104 3 MP
PP
0 sg
1803 2104 mt 1917 2055 L
1917 2055 mt 1858 2111 L
/c45 { 0.250000 1.000000 0.750000 sr} bdef
c45
114 -49 -59 91 1862 2013 3 MP
PP
0 sg
1862 2013 mt 1803 2104 L
1803 2104 mt 1917 2055 L
c45
-59 92 114 -50 1862 2013 3 MP
PP
0 sg
1862 2013 mt 1976 1963 L
1976 1963 mt 1917 2055 L
c42
113 -109 -59 56 1917 2055 3 MP
PP
0 sg
1917 2055 mt 1858 2111 L
1858 2111 mt 1971 2002 L
c42
-59 22 113 -109 1858 2111 3 MP
PP
0 sg
1858 2111 mt 1971 2002 L
1971 2002 mt 1912 2024 L
c34
-59 92 113 102 1912 2024 3 MP
PP
0 sg
1912 2024 mt 2025 2126 L
2025 2126 mt 1966 2218 L
c35
113 102 -59 22 1971 2002 3 MP
PP
0 sg
1971 2002 mt 1912 2024 L
1912 2024 mt 2025 2126 L
c38
113 -226 -59 92 2025 2126 3 MP
PP
0 sg
2025 2126 mt 1966 2218 L
1966 2218 mt 2079 1992 L
c41
-59 373 113 -226 1966 2218 3 MP
PP
0 sg
1966 2218 mt 2079 1992 L
2079 1992 mt 2020 2365 L
c41
113 91 -59 56 1966 2218 3 MP
PP
0 sg
1966 2218 mt 1907 2274 L
1907 2274 mt 2020 2365 L
c41
-59 56 113 21 1853 2197 3 MP
PP
0 sg
1853 2197 mt 1966 2218 L
1966 2218 mt 1907 2274 L
c34
113 21 -59 173 1912 2024 3 MP
PP
0 sg
1912 2024 mt 1853 2197 L
1853 2197 mt 1966 2218 L
c41
-59 -167 113 91 1907 2274 3 MP
PP
0 sg
1907 2274 mt 2020 2365 L
2020 2365 mt 1961 2198 L
c43
113 56 -59 -167 2020 2365 3 MP
PP
0 sg
2020 2365 mt 1961 2198 L
1961 2198 mt 2074 2254 L
c32
-59 127 113 56 1961 2198 3 MP
PP
0 sg
1961 2198 mt 2074 2254 L
2074 2254 mt 2015 2381 L
c34
-59 173 114 -96 1946 1080 3 MP
PP
0 sg
1946 1080 mt 2060  984 L
2060  984 mt 2001 1157 L
c22
114 -96 -60 337 2006 743 3 MP
PP
0 sg
2006  743 mt 1946 1080 L
1946 1080 mt 2060  984 L
c34
114 -132 -60 209 2001 1157 3 MP
PP
0 sg
2001 1157 mt 1941 1366 L
1941 1366 mt 2055 1234 L
c40
-59 138 114 -132 1941 1366 3 MP
PP
0 sg
1941 1366 mt 2055 1234 L
2055 1234 mt 1996 1372 L
c40
-59 104 114 -85 1936 1510 3 MP
PP
0 sg
1936 1510 mt 2050 1425 L
2050 1425 mt 1991 1529 L
c38
114 -85 -60 138 1996 1372 3 MP
PP
0 sg
1996 1372 mt 1936 1510 L
1936 1510 mt 2050 1425 L
c38
-59 68 113 67 1927 1695 3 MP
PP
0 sg
1927 1695 mt 2040 1762 L
2040 1762 mt 1981 1830 L
c37
113 67 -59 68 1986 1627 3 MP
PP
0 sg
1986 1627 mt 1927 1695 L
1927 1695 mt 2040 1762 L
c41
-59 56 113 32 1922 1875 3 MP
PP
0 sg
1922 1875 mt 2035 1907 L
2035 1907 mt 1976 1963 L
c41
113 32 -59 45 1981 1830 3 MP
PP
0 sg
1981 1830 mt 1922 1875 L
1922 1875 mt 2035 1907 L
c32
113 -61 -59 244 1961 2198 3 MP
PP
0 sg
1961 2198 mt 1902 2442 L
1902 2442 mt 2015 2381 L
c34
-60 337 114 -272 1892 1015 3 MP
PP
0 sg
1892 1015 mt 2006  743 L
2006  743 mt 1946 1080 L
c34
114 -120 -59 197 1946 1080 3 MP
PP
0 sg
1946 1080 mt 1887 1277 L
1887 1277 mt 2001 1157 L
c41
-60 209 114 -120 1887 1277 3 MP
PP
0 sg
1887 1277 mt 2001 1157 L
2001 1157 mt 1941 1366 L
c40
-60 138 114 -50 1882 1422 3 MP
PP
0 sg
1882 1422 mt 1996 1372 L
1996 1372 mt 1936 1510 L
c40
114 -50 -59 56 1941 1366 3 MP
PP
0 sg
1941 1366 mt 1882 1422 L
1882 1422 mt 1996 1372 L
c41
-59 9 114 -3 1877 1532 3 MP
PP
0 sg
1877 1532 mt 1991 1529 L
1991 1529 mt 1932 1538 L
c40
114 -3 -59 22 1936 1510 3 MP
PP
0 sg
1936 1510 mt 1877 1532 L
1877 1532 mt 1991 1529 L
/c46 { 0.062500 1.000000 0.937500 sr} bdef
c46
113 -167 -59 138 1774 1386 3 MP
PP
0 sg
1774 1386 mt 1715 1524 L
1715 1524 mt 1828 1357 L
c46
-59 80 113 -109 1774 1386 3 MP
PP
0 sg
1774 1386 mt 1887 1277 L
1887 1277 mt 1828 1357 L
c38
113 -109 -59 244 1833 1142 3 MP
PP
0 sg
1833 1142 mt 1774 1386 L
1774 1386 mt 1887 1277 L
/c47 { 0.000000 0.812500 1.000000 sr} bdef
c47
-59 -61 113 -167 1715 1524 3 MP
PP
0 sg
1715 1524 mt 1828 1357 L
1828 1357 mt 1769 1296 L
c35
113 -85 -59 314 1769 1296 3 MP
PP
0 sg
1769 1296 mt 1710 1610 L
1710 1610 mt 1823 1525 L
c35
-59 103 113 126 1769 1296 3 MP
PP
0 sg
1769 1296 mt 1882 1422 L
1882 1422 mt 1823 1525 L
c43
-59 22 113 -15 1823 1525 3 MP
PP
0 sg
1823 1525 mt 1936 1510 L
1936 1510 mt 1877 1532 L
c40
113 -15 -59 103 1882 1422 3 MP
PP
0 sg
1882 1422 mt 1823 1525 L
1823 1525 mt 1936 1510 L
c41
114 20 -59 -14 1877 1532 3 MP
PP
0 sg
1877 1532 mt 1818 1518 L
1818 1518 mt 1932 1538 L
c35
-60 -49 114 20 1818 1518 3 MP
PP
0 sg
1818 1518 mt 1932 1538 L
1932 1538 mt 1872 1489 L
c35
114 138 -60 -49 1932 1538 3 MP
PP
0 sg
1932 1538 mt 1872 1489 L
1872 1489 mt 1986 1627 L
c31
-59 68 114 138 1872 1489 3 MP
PP
0 sg
1872 1489 mt 1986 1627 L
1986 1627 mt 1927 1695 L
c45
-59 45 114 -62 1867 1892 3 MP
PP
0 sg
1867 1892 mt 1981 1830 L
1981 1830 mt 1922 1875 L
c38
114 -62 -60 197 1927 1695 3 MP
PP
0 sg
1927 1695 mt 1867 1892 L
1867 1892 mt 1981 1830 L
c41
114 -50 -60 138 1922 1875 3 MP
PP
0 sg
1922 1875 mt 1862 2013 L
1862 2013 mt 1976 1963 L
c43
114 -85 -59 91 1798 2191 3 MP
PP
0 sg
1798 2191 mt 1739 2282 L
1739 2282 mt 1853 2197 L
c44
-60 21 114 -85 1739 2282 3 MP
PP
0 sg
1739 2282 mt 1853 2197 L
1853 2197 mt 1793 2218 L
c41
114 56 -60 21 1853 2197 3 MP
PP
0 sg
1853 2197 mt 1793 2218 L
1793 2218 mt 1907 2274 L
c38
-59 68 114 56 1793 2218 3 MP
PP
0 sg
1793 2218 mt 1907 2274 L
1907 2274 mt 1848 2342 L
c41
113 -144 -59 68 1907 2274 3 MP
PP
0 sg
1907 2274 mt 1848 2342 L
1848 2342 mt 1961 2198 L
c41
-59 244 113 -144 1848 2342 3 MP
PP
0 sg
1848 2342 mt 1961 2198 L
1961 2198 mt 1902 2442 L
c38
-59 197 113 -62 1833 1142 3 MP
PP
0 sg
1833 1142 mt 1946 1080 L
1946 1080 mt 1887 1277 L
c34
113 -62 -59 127 1892 1015 3 MP
PP
0 sg
1892 1015 mt 1833 1142 L
1833 1142 mt 1946 1080 L
c41
113 9 -59 80 1887 1277 3 MP
PP
0 sg
1887 1277 mt 1828 1357 L
1828 1357 mt 1941 1366 L
c40
-59 56 113 9 1828 1357 3 MP
PP
0 sg
1828 1357 mt 1941 1366 L
1941 1366 mt 1882 1422 L
/c48 { 0.000000 1.000000 1.000000 sr} bdef
c48
-59 103 113 -85 1710 1610 3 MP
PP
0 sg
1710 1610 mt 1823 1525 L
1823 1525 mt 1764 1628 L
c43
113 -96 -59 103 1823 1525 3 MP
PP
0 sg
1823 1525 mt 1764 1628 L
1764 1628 mt 1877 1532 L
c44
-59 -14 113 -96 1764 1628 3 MP
PP
0 sg
1764 1628 mt 1877 1532 L
1877 1532 mt 1818 1518 L
c31
114 -178 -59 384 1872 1489 3 MP
PP
0 sg
1872 1489 mt 1813 1873 L
1813 1873 mt 1927 1695 L
c46
-60 197 114 -178 1813 1873 3 MP
PP
0 sg
1813 1873 mt 1927 1695 L
1927 1695 mt 1867 1892 L
c45
114 -61 -59 44 1867 1892 3 MP
PP
0 sg
1867 1892 mt 1808 1936 L
1808 1936 mt 1922 1875 L
c45
-60 138 114 -61 1808 1936 3 MP
PP
0 sg
1808 1936 mt 1922 1875 L
1922 1875 mt 1862 2013 L
c42
113 -50 -59 161 1700 1748 3 MP
PP
0 sg
1700 1748 mt 1641 1909 L
1641 1909 mt 1754 1859 L
c46
-59 22 113 -50 1641 1909 3 MP
PP
0 sg
1641 1909 mt 1754 1859 L
1754 1859 mt 1695 1881 L
c42
113 -85 -59 150 1695 1881 3 MP
PP
0 sg
1695 1881 mt 1636 2031 L
1636 2031 mt 1749 1946 L
c46
-59 21 113 -85 1636 2031 3 MP
PP
0 sg
1636 2031 mt 1749 1946 L
1749 1946 mt 1690 1967 L
c40
113 137 -59 21 1749 1946 3 MP
PP
0 sg
1749 1946 mt 1690 1967 L
1690 1967 mt 1803 2104 L
c41
-59 -107 113 137 1690 1967 3 MP
PP
0 sg
1690 1967 mt 1803 2104 L
1803 2104 mt 1744 1997 L
c40
-59 91 113 67 1749 1946 3 MP
PP
0 sg
1749 1946 mt 1862 2013 L
1862 2013 mt 1803 2104 L
c44
114 114 -59 -107 1803 2104 3 MP
PP
0 sg
1803 2104 mt 1744 1997 L
1744 1997 mt 1858 2111 L
c38
-60 80 114 114 1744 1997 3 MP
PP
0 sg
1744 1997 mt 1858 2111 L
1858 2111 mt 1798 2191 L
c42
114 -167 -60 80 1858 2111 3 MP
PP
0 sg
1858 2111 mt 1798 2191 L
1798 2191 mt 1912 2024 L
c43
-59 173 114 -167 1798 2191 3 MP
PP
0 sg
1798 2191 mt 1912 2024 L
1912 2024 mt 1853 2197 L
c41
113 55 -59 45 1848 2342 3 MP
PP
0 sg
1848 2342 mt 1789 2387 L
1789 2387 mt 1902 2442 L
c40
113 126 -59 -61 1828 1357 3 MP
PP
0 sg
1828 1357 mt 1769 1296 L
1769 1296 mt 1882 1422 L
/c49 { 0.000000 0.937500 1.000000 sr} bdef
c49
-59 33 113 -62 1651 1690 3 MP
PP
0 sg
1651 1690 mt 1764 1628 L
1764 1628 mt 1705 1661 L
c48
113 -62 -59 80 1710 1610 3 MP
PP
0 sg
1710 1610 mt 1651 1690 L
1651 1690 mt 1764 1628 L
c44
113 -143 -59 33 1764 1628 3 MP
PP
0 sg
1764 1628 mt 1705 1661 L
1705 1661 mt 1818 1518 L
c35
113 -144 -59 115 1818 1518 3 MP
PP
0 sg
1818 1518 mt 1759 1633 L
1759 1633 mt 1872 1489 L
c39
-59 384 113 -144 1759 1633 3 MP
PP
0 sg
1759 1633 mt 1872 1489 L
1872 1489 mt 1813 1873 L
c46
113 33 -59 -14 1813 1873 3 MP
PP
0 sg
1813 1873 mt 1754 1859 L
1754 1859 mt 1867 1892 L
c45
-59 44 113 33 1754 1859 3 MP
PP
0 sg
1754 1859 mt 1867 1892 L
1867 1892 mt 1808 1936 L
c45
113 67 -59 10 1808 1936 3 MP
PP
0 sg
1808 1936 mt 1749 1946 L
1749 1946 mt 1862 2013 L
c49
114 -73 -59 91 1581 2013 3 MP
PP
0 sg
1581 2013 mt 1522 2104 L
1522 2104 mt 1636 2031 L
c49
-59 150 114 -132 1581 2013 3 MP
PP
0 sg
1581 2013 mt 1695 1881 L
1695 1881 mt 1636 2031 L
c46
113 -85 -59 21 1636 2031 3 MP
PP
0 sg
1636 2031 mt 1577 2052 L
1577 2052 mt 1690 1967 L
c41
113 -14 -59 44 1690 1967 3 MP
PP
0 sg
1690 1967 mt 1631 2011 L
1631 2011 mt 1744 1997 L
c39
-59 -14 113 -14 1631 2011 3 MP
PP
0 sg
1631 2011 mt 1744 1997 L
1744 1997 mt 1685 1983 L
c34
113 9 -59 290 1685 1983 3 MP
PP
0 sg
1685 1983 mt 1626 2273 L
1626 2273 mt 1739 2282 L
c44
-59 45 113 9 1626 2273 3 MP
PP
0 sg
1626 2273 mt 1739 2282 L
1739 2282 mt 1680 2327 L
c34
-59 91 113 208 1685 1983 3 MP
PP
0 sg
1685 1983 mt 1798 2191 L
1798 2191 mt 1739 2282 L
c45
-59 -25 113 -109 1680 2327 3 MP
PP
0 sg
1680 2327 mt 1793 2218 L
1793 2218 mt 1734 2193 L
c44
113 -109 -59 45 1739 2282 3 MP
PP
0 sg
1739 2282 mt 1680 2327 L
1680 2327 mt 1793 2218 L
c38
114 149 -59 -25 1793 2218 3 MP
PP
0 sg
1793 2218 mt 1734 2193 L
1734 2193 mt 1848 2342 L
c34
-59 45 114 149 1734 2193 3 MP
PP
0 sg
1734 2193 mt 1848 2342 L
1848 2342 mt 1789 2387 L
c45
-59 115 113 -143 1705 1661 3 MP
PP
0 sg
1705 1661 mt 1818 1518 L
1818 1518 mt 1759 1633 L
c39
113 125 -59 115 1759 1633 3 MP
PP
0 sg
1759 1633 mt 1700 1748 L
1700 1748 mt 1813 1873 L
c42
-59 -14 113 125 1700 1748 3 MP
PP
0 sg
1700 1748 mt 1813 1873 L
1813 1873 mt 1754 1859 L
c42
-59 10 113 55 1695 1881 3 MP
PP
0 sg
1695 1881 mt 1808 1936 L
1808 1936 mt 1749 1946 L
c45
113 55 -59 22 1754 1859 3 MP
PP
0 sg
1754 1859 mt 1695 1881 L
1695 1881 mt 1808 1936 L
c38
113 208 -59 -14 1744 1997 3 MP
PP
0 sg
1744 1997 mt 1685 1983 L
1685 1983 mt 1798 2191 L
c45
-59 21 113 32 1567 2295 3 MP
PP
0 sg
1567 2295 mt 1680 2327 L
1680 2327 mt 1621 2348 L
c44
113 32 -59 22 1626 2273 3 MP
PP
0 sg
1626 2273 mt 1567 2295 L
1567 2295 mt 1680 2327 L
c45
113 -155 -59 21 1680 2327 3 MP
PP
0 sg
1680 2327 mt 1621 2348 L
1621 2348 mt 1734 2193 L
c43
-59 79 113 -155 1621 2348 3 MP
PP
0 sg
1621 2348 mt 1734 2193 L
1734 2193 mt 1675 2272 L
c34
114 115 -59 79 1734 2193 3 MP
PP
0 sg
1734 2193 mt 1675 2272 L
1675 2272 mt 1789 2387 L
c47
114 -319 -60 91 1715 1524 3 MP
PP
0 sg
1715 1524 mt 1655 1615 L
1655 1615 mt 1769 1296 L
/c50 { 0.000000 0.750000 1.000000 sr} bdef
c50
-59 314 114 -319 1655 1615 3 MP
PP
0 sg
1655 1615 mt 1769 1296 L
1769 1296 mt 1710 1610 L
c45
113 -143 -59 115 1705 1661 3 MP
PP
0 sg
1705 1661 mt 1646 1776 L
1646 1776 mt 1759 1633 L
c46
-59 115 113 -143 1646 1776 3 MP
PP
0 sg
1646 1776 mt 1759 1633 L
1759 1633 mt 1700 1748 L
c50
114 -132 -59 127 1655 1615 3 MP
PP
0 sg
1655 1615 mt 1596 1742 L
1596 1742 mt 1710 1610 L
/c51 { 0.000000 0.500000 1.000000 sr} bdef
c51
-59 80 114 -132 1596 1742 3 MP
PP
0 sg
1596 1742 mt 1710 1610 L
1710 1610 mt 1651 1690 L
c51
114 -202 -59 150 1596 1742 3 MP
PP
0 sg
1596 1742 mt 1537 1892 L
1537 1892 mt 1651 1690 L
/c52 { 0.000000 0.250000 1.000000 sr} bdef
c52
-60 -26 114 -202 1537 1892 3 MP
PP
0 sg
1537 1892 mt 1651 1690 L
1651 1690 mt 1591 1664 L
c49
114 -3 -60 -26 1651 1690 3 MP
PP
0 sg
1651 1690 mt 1591 1664 L
1591 1664 mt 1705 1661 L
c44
-59 115 114 -3 1591 1664 3 MP
PP
0 sg
1591 1664 mt 1705 1661 L
1705 1661 mt 1646 1776 L
/c53 { 0.000000 0.687500 1.000000 sr} bdef
c53
-59 161 114 -202 1586 1950 3 MP
PP
0 sg
1586 1950 mt 1700 1748 L
1700 1748 mt 1641 1909 L
c46
114 -202 -60 174 1646 1776 3 MP
PP
0 sg
1646 1776 mt 1586 1950 L
1586 1950 mt 1700 1748 L
c46
114 -132 -60 104 1641 1909 3 MP
PP
0 sg
1641 1909 mt 1581 2013 L
1581 2013 mt 1695 1881 L
c44
-59 44 113 -85 1577 2052 3 MP
PP
0 sg
1577 2052 mt 1690 1967 L
1690 1967 mt 1631 2011 L
c47
-59 21 114 -73 1522 2104 3 MP
PP
0 sg
1522 2104 mt 1636 2031 L
1636 2031 mt 1577 2052 L
c39
113 -143 -59 115 1631 2011 3 MP
PP
0 sg
1631 2011 mt 1572 2126 L
1572 2126 mt 1685 1983 L
c42
-59 290 113 -143 1572 2126 3 MP
PP
0 sg
1572 2126 mt 1685 1983 L
1685 1983 mt 1626 2273 L
c45
114 -120 -60 173 1567 2295 3 MP
PP
0 sg
1567 2295 mt 1507 2468 L
1507 2468 mt 1621 2348 L
c43
113 -132 -59 56 1621 2348 3 MP
PP
0 sg
1621 2348 mt 1562 2404 L
1562 2404 mt 1675 2272 L
/c54 { 0.000000 0.375000 1.000000 sr} bdef
c54
-59 104 113 -249 1478 1913 3 MP
PP
0 sg
1478 1913 mt 1591 1664 L
1591 1664 mt 1532 1768 L
c52
113 -249 -59 21 1537 1892 3 MP
PP
0 sg
1537 1892 mt 1478 1913 L
1478 1913 mt 1591 1664 L
c44
114 8 -59 104 1591 1664 3 MP
PP
0 sg
1591 1664 mt 1532 1768 L
1532 1768 mt 1646 1776 L
c48
-60 174 114 8 1532 1768 3 MP
PP
0 sg
1532 1768 mt 1646 1776 L
1646 1776 mt 1586 1950 L
c53
114 -120 -59 79 1586 1950 3 MP
PP
0 sg
1586 1950 mt 1527 2029 L
1527 2029 mt 1641 1909 L
/c55 { 0.000000 0.625000 1.000000 sr} bdef
c55
-60 104 114 -120 1527 2029 3 MP
PP
0 sg
1527 2029 mt 1641 1909 L
1641 1909 mt 1581 2013 L
/c56 { 0.000000 0.000000 0.687500 sr} bdef
c56
-59 44 114 -272 1300 2293 3 MP
PP
0 sg
1300 2293 mt 1414 2021 L
1414 2021 mt 1355 2065 L
/c57 { 0.000000 0.000000 0.750000 sr} bdef
c57
114 -272 -60 68 1360 2225 3 MP
PP
0 sg
1360 2225 mt 1300 2293 L
1300 2293 mt 1414 2021 L
c52
113 -202 -59 220 1419 2005 3 MP
PP
0 sg
1419 2005 mt 1360 2225 L
1360 2225 mt 1473 2023 L
c57
-59 -2 113 -202 1360 2225 3 MP
PP
0 sg
1360 2225 mt 1473 2023 L
1473 2023 mt 1414 2021 L
/c58 { 0.000000 0.562500 1.000000 sr} bdef
c58
113 -38 -59 44 1414 2021 3 MP
PP
0 sg
1414 2021 mt 1355 2065 L
1355 2065 mt 1468 2027 L
c55
-59 103 113 -38 1355 2065 3 MP
PP
0 sg
1355 2065 mt 1468 2027 L
1468 2027 mt 1409 2130 L
c47
113 -26 -59 103 1468 2027 3 MP
PP
0 sg
1468 2027 mt 1409 2130 L
1409 2130 mt 1522 2104 L
c58
-59 -2 113 8 1414 2021 3 MP
PP
0 sg
1414 2021 mt 1527 2029 L
1527 2029 mt 1468 2027 L
/c59 { 0.000000 0.437500 1.000000 sr} bdef
c59
113 8 -59 -2 1473 2023 3 MP
PP
0 sg
1473 2023 mt 1414 2021 L
1414 2021 mt 1527 2029 L
c54
113 -237 -59 92 1478 1913 3 MP
PP
0 sg
1478 1913 mt 1419 2005 L
1419 2005 mt 1532 1768 L
c52
-59 255 113 -237 1419 2005 3 MP
PP
0 sg
1419 2005 mt 1532 1768 L
1532 1768 mt 1473 2023 L
c59
-59 79 113 -73 1473 2023 3 MP
PP
0 sg
1473 2023 mt 1586 1950 L
1586 1950 mt 1527 2029 L
c55
113 -14 -59 -2 1527 2029 3 MP
PP
0 sg
1527 2029 mt 1468 2027 L
1468 2027 mt 1581 2013 L
c47
-59 91 113 -14 1468 2027 3 MP
PP
0 sg
1468 2027 mt 1581 2013 L
1581 2013 mt 1522 2104 L
c53
-59 -96 113 -26 1409 2130 3 MP
PP
0 sg
1409 2130 mt 1522 2104 L
1522 2104 mt 1463 2008 L
c48
113 -73 -59 255 1532 1768 3 MP
PP
0 sg
1532 1768 mt 1473 2023 L
1473 2023 mt 1586 1950 L
c47
114 44 -59 -96 1522 2104 3 MP
PP
0 sg
1522 2104 mt 1463 2008 L
1463 2008 mt 1577 2052 L
c44
114 -86 -60 45 1577 2052 3 MP
PP
0 sg
1577 2052 mt 1517 2097 L
1517 2097 mt 1631 2011 L
c45
-59 115 114 -86 1517 2097 3 MP
PP
0 sg
1517 2097 mt 1631 2011 L
1631 2011 mt 1572 2126 L
c42
114 -15 -60 162 1572 2126 3 MP
PP
0 sg
1572 2126 mt 1512 2288 L
1512 2288 mt 1626 2273 L
c46
-59 22 114 -15 1512 2288 3 MP
PP
0 sg
1512 2288 mt 1626 2273 L
1626 2273 mt 1567 2295 L
c49
-59 56 114 -120 1507 2468 3 MP
PP
0 sg
1507 2468 mt 1621 2348 L
1621 2348 mt 1562 2404 L
c45
-60 45 114 44 1463 2008 3 MP
PP
0 sg
1463 2008 mt 1577 2052 L
1577 2052 mt 1517 2097 L
c45
114 -97 -59 126 1517 2097 3 MP
PP
0 sg
1517 2097 mt 1458 2223 L
1458 2223 mt 1572 2126 L
c48
-60 162 114 -97 1458 2223 3 MP
PP
0 sg
1458 2223 mt 1572 2126 L
1572 2126 mt 1512 2288 L
c48
113 -167 -59 232 1404 2158 3 MP
PP
0 sg
1404 2158 mt 1345 2390 L
1345 2390 mt 1458 2223 L
c59
-59 33 113 -167 1345 2390 3 MP
PP
0 sg
1345 2390 mt 1458 2223 L
1458 2223 mt 1399 2256 L
c48
113 32 -59 33 1458 2223 3 MP
PP
0 sg
1458 2223 mt 1399 2256 L
1399 2256 mt 1512 2288 L
c46
114 44 -59 -37 1512 2288 3 MP
PP
0 sg
1512 2288 mt 1453 2251 L
1453 2251 mt 1567 2295 L
c46
-59 -37 113 32 1399 2256 3 MP
PP
0 sg
1399 2256 mt 1512 2288 L
1512 2288 mt 1453 2251 L
c43
-60 173 114 44 1453 2251 3 MP
PP
0 sg
1453 2251 mt 1567 2295 L
1567 2295 mt 1507 2468 L
c56
114 -214 -59 -14 1300 2293 3 MP
PP
0 sg
1300 2293 mt 1241 2279 L
1241 2279 mt 1355 2065 L
/c60 { 0.000000 0.000000 0.937500 sr} bdef
c60
-60 -37 114 -214 1241 2279 3 MP
PP
0 sg
1241 2279 mt 1355 2065 L
1355 2065 mt 1295 2028 L
c49
114 -109 -59 291 1295 2028 3 MP
PP
0 sg
1295 2028 mt 1236 2319 L
1236 2319 mt 1350 2210 L
c49
-59 80 114 102 1295 2028 3 MP
PP
0 sg
1295 2028 mt 1409 2130 L
1409 2130 mt 1350 2210 L
c55
114 102 -60 -37 1355 2065 3 MP
PP
0 sg
1355 2065 mt 1295 2028 L
1295 2028 mt 1409 2130 L
c53
113 -202 -59 80 1409 2130 3 MP
PP
0 sg
1409 2130 mt 1350 2210 L
1350 2210 mt 1463 2008 L
c58
-59 150 113 -202 1350 2210 3 MP
PP
0 sg
1350 2210 mt 1463 2008 L
1463 2008 mt 1404 2158 L
c58
113 -73 -59 21 1350 2210 3 MP
PP
0 sg
1350 2210 mt 1291 2231 L
1291 2231 mt 1404 2158 L
/c61 { 0.000000 0.187500 1.000000 sr} bdef
c61
-59 21 114 -109 1236 2319 3 MP
PP
0 sg
1236 2319 mt 1350 2210 L
1350 2210 mt 1291 2231 L
c53
-59 232 113 -73 1291 2231 3 MP
PP
0 sg
1291 2231 mt 1404 2158 L
1404 2158 mt 1345 2390 L
/c62 { 0.000000 0.000000 1.000000 sr} bdef
c62
113 -143 -59 150 1182 2312 3 MP
PP
0 sg
1182 2312 mt 1123 2462 L
1123 2462 mt 1236 2319 L
c60
113 -284 -59 33 1241 2279 3 MP
PP
0 sg
1241 2279 mt 1182 2312 L
1182 2312 mt 1295 2028 L
c62
-59 291 113 -284 1182 2312 3 MP
PP
0 sg
1182 2312 mt 1295 2028 L
1295 2028 mt 1236 2319 L
c61
114 -156 -59 68 1236 2319 3 MP
PP
0 sg
1236 2319 mt 1177 2387 L
1177 2387 mt 1291 2231 L
c61
-60 22 114 -156 1177 2387 3 MP
PP
0 sg
1177 2387 mt 1291 2231 L
1291 2231 mt 1231 2253 L
c53
114 137 -60 22 1291 2231 3 MP
PP
0 sg
1291 2231 mt 1231 2253 L
1231 2253 mt 1345 2390 L
c47
-59 45 114 137 1231 2253 3 MP
PP
0 sg
1231 2253 mt 1345 2390 L
1345 2390 mt 1286 2435 L
c59
113 -179 -59 45 1345 2390 3 MP
PP
0 sg
1345 2390 mt 1286 2435 L
1286 2435 mt 1399 2256 L
c51
-59 33 113 -179 1286 2435 3 MP
PP
0 sg
1286 2435 mt 1399 2256 L
1399 2256 mt 1340 2289 L
c46
113 -38 -59 33 1399 2256 3 MP
PP
0 sg
1399 2256 mt 1340 2289 L
1340 2289 mt 1453 2251 L
c44
-59 -84 113 -38 1340 2289 3 MP
PP
0 sg
1340 2289 mt 1453 2251 L
1453 2251 mt 1394 2167 L
c43
113 301 -59 -84 1453 2251 3 MP
PP
0 sg
1453 2251 mt 1394 2167 L
1394 2167 mt 1507 2468 L
c35
-59 33 113 301 1394 2167 3 MP
PP
0 sg
1394 2167 mt 1507 2468 L
1507 2468 mt 1448 2501 L
c49
114 -97 -59 33 1507 2468 3 MP
PP
0 sg
1507 2468 mt 1448 2501 L
1448 2501 mt 1562 2404 L
c48
-59 126 113 -61 1404 2158 3 MP
PP
0 sg
1404 2158 mt 1517 2097 L
1517 2097 mt 1458 2223 L
c45
113 -61 -59 150 1463 2008 3 MP
PP
0 sg
1463 2008 mt 1404 2158 L
1404 2158 mt 1517 2097 L
c56
113 -108 -59 33 1123 2462 3 MP
PP
0 sg
1123 2462 mt 1064 2495 L
1064 2495 mt 1177 2387 L
c56
-59 68 113 -143 1123 2462 3 MP
PP
0 sg
1123 2462 mt 1236 2319 L
1236 2319 mt 1177 2387 L
c57
-59 115 113 -108 1064 2495 3 MP
PP
0 sg
1064 2495 mt 1177 2387 L
1177 2387 mt 1118 2502 L
c61
113 -249 -59 115 1177 2387 3 MP
PP
0 sg
1177 2387 mt 1118 2502 L
1118 2502 mt 1231 2253 L
c62
-59 68 113 -249 1118 2502 3 MP
PP
0 sg
1118 2502 mt 1231 2253 L
1231 2253 mt 1172 2321 L
c47
114 114 -59 68 1231 2253 3 MP
PP
0 sg
1231 2253 mt 1172 2321 L
1172 2321 mt 1286 2435 L
c51
114 -50 -60 -96 1286 2435 3 MP
PP
0 sg
1286 2435 mt 1226 2339 L
1226 2339 mt 1340 2289 L
c49
-59 127 114 -50 1226 2339 3 MP
PP
0 sg
1226 2339 mt 1340 2289 L
1340 2289 mt 1281 2416 L
c49
-59 44 113 -249 1281 2416 3 MP
PP
0 sg
1281 2416 mt 1394 2167 L
1394 2167 mt 1335 2211 L
c44
113 -249 -59 127 1340 2289 3 MP
PP
0 sg
1340 2289 mt 1281 2416 L
1281 2416 mt 1394 2167 L
c35
113 290 -59 44 1394 2167 3 MP
PP
0 sg
1394 2167 mt 1335 2211 L
1335 2211 mt 1448 2501 L
c50
-60 -96 114 114 1172 2321 3 MP
PP
0 sg
1172 2321 mt 1286 2435 L
1286 2435 mt 1226 2339 L
c49
114 -120 -59 197 1226 2339 3 MP
PP
0 sg
1226 2339 mt 1167 2536 L
1167 2536 mt 1281 2416 L
c49
113 -226 -59 21 1281 2416 3 MP
PP
0 sg
1281 2416 mt 1222 2437 L
1222 2437 mt 1335 2211 L
c51
-59 21 114 -120 1167 2536 3 MP
PP
0 sg
1167 2536 mt 1281 2416 L
1281 2416 mt 1222 2437 L
c62
113 -143 -59 -38 1118 2502 3 MP
PP
0 sg
1118 2502 mt 1059 2464 L
1059 2464 mt 1172 2321 L
c53
-59 197 113 -61 1113 2400 3 MP
PP
0 sg
1113 2400 mt 1226 2339 L
1226 2339 mt 1167 2536 L
c50
113 -61 -59 79 1172 2321 3 MP
PP
0 sg
1172 2321 mt 1113 2400 L
1113 2400 mt 1226 2339 L
c57
113 44 -59 -37 1064 2495 3 MP
PP
0 sg
1064 2495 mt 1005 2458 L
1005 2458 mt 1118 2502 L
/c63 { 0.000000 0.062500 1.000000 sr} bdef
c63
-59 -38 113 44 1005 2458 3 MP
PP
0 sg
1005 2458 mt 1118 2502 L
1118 2502 mt 1059 2464 L
c53
113 -73 -59 209 1113 2400 3 MP
PP
0 sg
1113 2400 mt 1054 2609 L
1054 2609 mt 1167 2536 L
c51
114 -15 -59 -84 1167 2536 3 MP
PP
0 sg
1167 2536 mt 1108 2452 L
1108 2452 mt 1222 2437 L
c52
-59 79 113 -143 1059 2464 3 MP
PP
0 sg
1059 2464 mt 1172 2321 L
1172 2321 mt 1113 2400 L
c52
-59 -84 113 -73 1054 2609 3 MP
PP
0 sg
1054 2609 mt 1167 2536 L
1167 2536 mt 1108 2452 L
c52
113 -203 -59 139 1059 2464 3 MP
PP
0 sg
1059 2464 mt 1000 2603 L
1000 2603 mt 1113 2400 L
c62
-59 209 113 -203 1000 2603 3 MP
PP
0 sg
1000 2603 mt 1113 2400 L
1113 2400 mt 1054 2609 L
/c64 { 0.000000 0.000000 0.875000 sr} bdef
c64
-59 68 114 -108 940 2717 3 MP
PP
0 sg
 940 2717 mt 1054 2609 L
1054 2609 mt  995 2677 L
c62
114 -108 -60 114 1000 2603 3 MP
PP
0 sg
1000 2603 mt  940 2717 L
 940 2717 mt 1054 2609 L
c52
113 -225 -59 68 1054 2609 3 MP
PP
0 sg
1054 2609 mt  995 2677 L
 995 2677 mt 1108 2452 L
/c65 { 0.000000 0.000000 0.562500 sr} bdef
c65
-59 139 114 -226 945 2690 3 MP
PP
0 sg
 945 2690 mt 1059 2464 L
1059 2464 mt 1000 2603 L
c63
114 -226 -60 232 1005 2458 3 MP
PP
0 sg
1005 2458 mt  945 2690 L
 945 2690 mt 1059 2464 L
c65
114 56 -59 -143 945 2690 3 MP
PP
0 sg
 945 2690 mt  886 2547 L
 886 2547 mt 1000 2603 L
/c66 { 0.000000 0.125000 1.000000 sr} bdef
c66
-60 114 114 56 886 2547 3 MP
PP
0 sg
 886 2547 mt 1000 2603 L
1000 2603 mt  940 2717 L
c66
113 79 -59 91 886 2547 3 MP
PP
0 sg
 886 2547 mt  827 2638 L
 827 2638 mt  940 2717 L
c64
114 20 -59 -60 940 2717 3 MP
PP
0 sg
 940 2717 mt  881 2657 L
 881 2657 mt  995 2677 L
c62
-59 -60 113 79 827 2638 3 MP
PP
0 sg
 827 2638 mt  940 2717 L
 940 2717 mt  881 2657 L
c62
113 -202 -59 221 827 2638 3 MP
PP
0 sg
 827 2638 mt  768 2859 L
 768 2859 mt  881 2657 L
gr

 337 2754 mt  -90 rotate
(Non-zeros entries in w) s
90 rotate

end %%Color Dict

eplot
%%EndObject

epage
end

showpage

%%Trailer
%%EOF
