%!PS-Adobe-3.0 EPSF-3.0
%%Creator: MATLAB, The MathWorks, Inc. Version 8.0.0.783 (R2012b). Operating System: Microsoft Windows 7.
%%Title: C:\000 Work\00000 paper 2\paper\T_nonzeros_com2.eps
%%CreationDate: 10/21/2013  01:24:41
%%DocumentNeededFonts: Helvetica
%%DocumentProcessColors: Cyan Magenta Yellow Black
%%LanguageLevel: 2
%%Pages: 1
%%BoundingBox:    96   238   515   553
%%EndComments

%%BeginProlog
% MathWorks dictionary
/MathWorks 160 dict begin
% definition operators
/bdef {bind def} bind def
/ldef {load def} bind def
/xdef {exch def} bdef
/xstore {exch store} bdef
% operator abbreviations
/c  /clip ldef
/cc /concat ldef
/cp /closepath ldef
/gr /grestore ldef
/gs /gsave ldef
/mt /moveto ldef
/np /newpath ldef
/cm /currentmatrix ldef
/sm /setmatrix ldef
/rm /rmoveto ldef
/rl /rlineto ldef
/s {show newpath} bdef
/sc {setcmykcolor} bdef
/sr /setrgbcolor ldef
/sg /setgray ldef
/w /setlinewidth ldef
/j /setlinejoin ldef
/cap /setlinecap ldef
/rc {rectclip} bdef
/rf {rectfill} bdef
% page state control
/pgsv () def
/bpage {/pgsv save def} bdef
/epage {pgsv restore} bdef
/bplot /gsave ldef
/eplot {stroke grestore} bdef
% orientation switch
/portraitMode 0 def /landscapeMode 1 def /rotateMode 2 def
% coordinate system mappings
/dpi2point 0 def
% font control
/FontSize 0 def
/FMS {/FontSize xstore findfont [FontSize 0 0 FontSize neg 0 0]
  makefont setfont} bdef
/ISOLatin1Encoding where {pop /WindowsLatin1Encoding 256 array bdef
ISOLatin1Encoding WindowsLatin1Encoding copy pop
/.notdef/.notdef/quotesinglbase/florin/quotedblbase/ellipsis/dagger
/daggerdbl/circumflex/perthousand/Scaron/guilsinglleft/OE/.notdef/.notdef
/.notdef/.notdef/quoteleft/quoteright/quotedblleft/quotedblright/bullet
/endash/emdash/tilde/trademark/scaron/guilsinglright/oe/.notdef/.notdef
/Ydieresis WindowsLatin1Encoding 128 32 getinterval astore pop}
{/WindowsLatin1Encoding StandardEncoding bdef} ifelse
/reencode {exch dup where {pop load} {pop StandardEncoding} ifelse
  exch dup 3 1 roll findfont dup length dict begin
  { 1 index /FID ne {def}{pop pop} ifelse } forall
  /Encoding exch def currentdict end definefont pop} bdef
/isroman {findfont /CharStrings get /Agrave known} bdef
/FMSR {3 1 roll 1 index dup isroman {reencode} {pop pop} ifelse
  exch FMS} bdef
/csm {1 dpi2point div -1 dpi2point div scale neg translate
 dup landscapeMode eq {pop -90 rotate}
  {rotateMode eq {90 rotate} if} ifelse} bdef
% line types: solid, dotted, dashed, dotdash
/SO { [] 0 setdash } bdef
/DO { [.5 dpi2point mul 4 dpi2point mul] 0 setdash } bdef
/DA { [6 dpi2point mul] 0 setdash } bdef
/DD { [.5 dpi2point mul 4 dpi2point mul 6 dpi2point mul 4
  dpi2point mul] 0 setdash } bdef
% macros for lines and objects
/L {lineto stroke} bdef
/MP {3 1 roll moveto 1 sub {rlineto} repeat} bdef
/AP {{rlineto} repeat} bdef
/PDlw -1 def
/W {/PDlw currentlinewidth def setlinewidth} def
/PP {closepath eofill} bdef
/DP {closepath stroke} bdef
/MR {4 -2 roll moveto dup  0 exch rlineto exch 0 rlineto
  neg 0 exch rlineto closepath} bdef
/FR {MR stroke} bdef
/PR {MR fill} bdef
/L1i {{currentfile picstr readhexstring pop} image} bdef
/tMatrix matrix def
/MakeOval {newpath tMatrix currentmatrix pop translate scale
0 0 1 0 360 arc tMatrix setmatrix} bdef
/FO {MakeOval stroke} bdef
/PO {MakeOval fill} bdef
/PD {currentlinewidth 2 div 0 360 arc fill
   PDlw -1 eq not {PDlw w /PDlw -1 def} if} def
/FA {newpath tMatrix currentmatrix pop translate scale
  0 0 1 5 -2 roll arc tMatrix setmatrix stroke} bdef
/PA {newpath tMatrix currentmatrix pop	translate 0 0 moveto scale
  0 0 1 5 -2 roll arc closepath tMatrix setmatrix fill} bdef
/FAn {newpath tMatrix currentmatrix pop translate scale
  0 0 1 5 -2 roll arcn tMatrix setmatrix stroke} bdef
/PAn {newpath tMatrix currentmatrix pop translate 0 0 moveto scale
  0 0 1 5 -2 roll arcn closepath tMatrix setmatrix fill} bdef
/vradius 0 def /hradius 0 def /lry 0 def
/lrx 0 def /uly 0 def /ulx 0 def /rad 0 def
/MRR {/vradius xdef /hradius xdef /lry xdef /lrx xdef /uly xdef
  /ulx xdef newpath tMatrix currentmatrix pop ulx hradius add uly
  vradius add translate hradius vradius scale 0 0 1 180 270 arc 
  tMatrix setmatrix lrx hradius sub uly vradius add translate
  hradius vradius scale 0 0 1 270 360 arc tMatrix setmatrix
  lrx hradius sub lry vradius sub translate hradius vradius scale
  0 0 1 0 90 arc tMatrix setmatrix ulx hradius add lry vradius sub
  translate hradius vradius scale 0 0 1 90 180 arc tMatrix setmatrix
  closepath} bdef
/FRR {MRR stroke } bdef
/PRR {MRR fill } bdef
/MlrRR {/lry xdef /lrx xdef /uly xdef /ulx xdef /rad lry uly sub 2 div def
  newpath tMatrix currentmatrix pop ulx rad add uly rad add translate
  rad rad scale 0 0 1 90 270 arc tMatrix setmatrix lrx rad sub lry rad
  sub translate rad rad scale 0 0 1 270 90 arc tMatrix setmatrix
  closepath} bdef
/FlrRR {MlrRR stroke } bdef
/PlrRR {MlrRR fill } bdef
/MtbRR {/lry xdef /lrx xdef /uly xdef /ulx xdef /rad lrx ulx sub 2 div def
  newpath tMatrix currentmatrix pop ulx rad add uly rad add translate
  rad rad scale 0 0 1 180 360 arc tMatrix setmatrix lrx rad sub lry rad
  sub translate rad rad scale 0 0 1 0 180 arc tMatrix setmatrix
  closepath} bdef
/FtbRR {MtbRR stroke } bdef
/PtbRR {MtbRR fill } bdef
/stri 6 array def /dtri 6 array def
/smat 6 array def /dmat 6 array def
/tmat1 6 array def /tmat2 6 array def /dif 3 array def
/asub {/ind2 exch def /ind1 exch def dup dup
  ind1 get exch ind2 get sub exch } bdef
/tri_to_matrix {
  2 0 asub 3 1 asub 4 0 asub 5 1 asub
  dup 0 get exch 1 get 7 -1 roll astore } bdef
/compute_transform {
  dmat dtri tri_to_matrix tmat1 invertmatrix 
  smat stri tri_to_matrix tmat2 concatmatrix } bdef
/ds {stri astore pop} bdef
/dt {dtri astore pop} bdef
/db {2 copy /cols xdef /rows xdef mul dup 3 mul string
  currentfile 
  3 index 0 eq {/ASCIIHexDecode filter}
  {/ASCII85Decode filter 3 index 2 eq {/RunLengthDecode filter} if }
  ifelse exch readstring pop
  dup 0 3 index getinterval /rbmap xdef
  dup 2 index dup getinterval /gbmap xdef
  1 index dup 2 mul exch getinterval /bbmap xdef pop pop}bdef
/it {gs np dtri aload pop moveto lineto lineto cp c
  cols rows 8 compute_transform 
  rbmap gbmap bbmap true 3 colorimage gr}bdef
/il {newpath moveto lineto stroke}bdef
currentdict end def
%%EndProlog

%%BeginSetup
MathWorks begin

0 cap

end
%%EndSetup

%%Page: 1 1
%%BeginPageSetup
%%PageBoundingBox:    96   238   515   553
MathWorks begin
bpage
%%EndPageSetup

%%BeginObject: obj1
bplot

/dpi2point 12 def
portraitMode 1152 6636 csm

    0     0  5039  3780 rc
85 dict begin %Colortable dictionary
/c0 { 0.000000 0.000000 0.000000 sr} bdef
/c1 { 1.000000 1.000000 1.000000 sr} bdef
/c2 { 0.900000 0.000000 0.000000 sr} bdef
/c3 { 0.000000 0.820000 0.000000 sr} bdef
/c4 { 0.000000 0.000000 0.800000 sr} bdef
/c5 { 0.910000 0.820000 0.320000 sr} bdef
/c6 { 1.000000 0.260000 0.820000 sr} bdef
/c7 { 0.000000 0.820000 0.820000 sr} bdef
c0
1 j
1 sg
   0    0 5040 3781 rf
6 w
0 3081 3905 0 0 -3081 655 3364 4 MP
PP
-3905 0 0 3081 3905 0 0 -3081 655 3364 5 MP stroke
4 w
DO
0 sg
 655 3364 mt  655  283 L
 655  283 mt  655  283 L
1436 3364 mt 1436  283 L
1436  283 mt 1436  283 L
2217 3364 mt 2217  283 L
2217  283 mt 2217  283 L
2998 3364 mt 2998  283 L
2998  283 mt 2998  283 L
3779 3364 mt 3779  283 L
3779  283 mt 3779  283 L
4560 3364 mt 4560  283 L
4560  283 mt 4560  283 L
 655 3364 mt 4560 3364 L
4560 3364 mt 4560 3364 L
 655 2923 mt 4560 2923 L
4560 2923 mt 4560 2923 L
 655 2483 mt 4560 2483 L
4560 2483 mt 4560 2483 L
 655 2043 mt 4560 2043 L
4560 2043 mt 4560 2043 L
 655 1603 mt 4560 1603 L
4560 1603 mt 4560 1603 L
 655 1163 mt 4560 1163 L
4560 1163 mt 4560 1163 L
 655  723 mt 4560  723 L
4560  723 mt 4560  723 L
 655  283 mt 4560  283 L
4560  283 mt 4560  283 L
SO
6 w
 655  283 mt 4560  283 L
 655 3364 mt 4560 3364 L
4560 3364 mt 4560  283 L
 655 3364 mt  655  283 L
 655 3364 mt 4560 3364 L
 655 3364 mt  655  283 L
 655 3364 mt  655 3324 L
 655  283 mt  655  322 L
%%IncludeResource: font Helvetica
/Helvetica /WindowsLatin1Encoding 144 FMSR

 615 3532 mt 
(0) s
1436 3364 mt 1436 3324 L
1436  283 mt 1436  322 L
1396 3532 mt 
(2) s
2217 3364 mt 2217 3324 L
2217  283 mt 2217  322 L
2177 3532 mt 
(4) s
2998 3364 mt 2998 3324 L
2998  283 mt 2998  322 L
2958 3532 mt 
(6) s
3779 3364 mt 3779 3324 L
3779  283 mt 3779  322 L
3739 3532 mt 
(8) s
4560 3364 mt 4560 3324 L
4560  283 mt 4560  322 L
4480 3532 mt 
(10) s
 655 3364 mt  694 3364 L
4560 3364 mt 4520 3364 L
 540 3417 mt 
(5) s
 655 2923 mt  694 2923 L
4560 2923 mt 4520 2923 L
 460 2976 mt 
(10) s
 655 2483 mt  694 2483 L
4560 2483 mt 4520 2483 L
 460 2536 mt 
(15) s
 655 2043 mt  694 2043 L
4560 2043 mt 4520 2043 L
 460 2096 mt 
(20) s
 655 1603 mt  694 1603 L
4560 1603 mt 4520 1603 L
 460 1656 mt 
(25) s
 655 1163 mt  694 1163 L
4560 1163 mt 4520 1163 L
 460 1216 mt 
(30) s
 655  723 mt  694  723 L
4560  723 mt 4520  723 L
 460  776 mt 
(35) s
 655  283 mt  694  283 L
4560  283 mt 4520  283 L
 460  336 mt 
(40) s
 655  283 mt 4560  283 L
 655 3364 mt 4560 3364 L
4560 3364 mt 4560  283 L
 655 3364 mt  655  283 L
gs 655 283 3906 3082 rc
391 0 390 0 391 0 390 0 391 0 390 0 391 0 390 0 
391 0 390 0 655 899 11 MP stroke
gr

 619  899 mt  691  899 L
 655  863 mt  655  935 L
1009  899 mt 1081  899 L
1045  863 mt 1045  935 L
1400  899 mt 1472  899 L
1436  863 mt 1436  935 L
1790  899 mt 1862  899 L
1826  863 mt 1826  935 L
2181  899 mt 2253  899 L
2217  863 mt 2217  935 L
2571  899 mt 2643  899 L
2607  863 mt 2607  935 L
2962  899 mt 3034  899 L
2998  863 mt 2998  935 L
3352  899 mt 3424  899 L
3388  863 mt 3388  935 L
3743  899 mt 3815  899 L
3779  863 mt 3779  935 L
4133  899 mt 4205  899 L
4169  863 mt 4169  935 L
4524  899 mt 4596  899 L
4560  863 mt 4560  935 L
 630  874 mt  680  924 L
 680  874 mt  630  924 L
1020  874 mt 1070  924 L
1070  874 mt 1020  924 L
1411  874 mt 1461  924 L
1461  874 mt 1411  924 L
1801  874 mt 1851  924 L
1851  874 mt 1801  924 L
2192  874 mt 2242  924 L
2242  874 mt 2192  924 L
2582  874 mt 2632  924 L
2632  874 mt 2582  924 L
2973  874 mt 3023  924 L
3023  874 mt 2973  924 L
3363  874 mt 3413  924 L
3413  874 mt 3363  924 L
3754  874 mt 3804  924 L
3804  874 mt 3754  924 L
4144  874 mt 4194  924 L
4194  874 mt 4144  924 L
4535  874 mt 4585  924 L
4585  874 mt 4535  924 L
gs 655 283 3906 3082 rc
/c8 { 1.000000 0.000000 0.000000 sr} bdef
c8
391 299 390 106 391 -158 390 140 391 0 390 159 391 88 390 158 
391 159 390 1003 655 899 11 MP stroke
gr

c8
0 j
0 -58 -58 0 0 58 58 0 626 870 5 MP
DP
0 -58 -58 0 0 58 58 0 1016 1873 5 MP
DP
0 -58 -58 0 0 58 58 0 1407 2032 5 MP
DP
0 -58 -58 0 0 58 58 0 1797 2190 5 MP
DP
0 -58 -58 0 0 58 58 0 2188 2278 5 MP
DP
0 -58 -58 0 0 58 58 0 2578 2437 5 MP
DP
0 -58 -58 0 0 58 58 0 2969 2437 5 MP
DP
0 -58 -58 0 0 58 58 0 3359 2577 5 MP
DP
0 -58 -58 0 0 58 58 0 3750 2419 5 MP
DP
0 -58 -58 0 0 58 58 0 4140 2525 5 MP
DP
0 -58 -58 0 0 58 58 0 4531 2824 5 MP
DP
gs 655 283 3906 3082 rc
gr

0 sg
2562 3693 mt 
(T) s
 373 2558 mt  -90 rotate
(Non-zeros entries in w) s
90 rotate
%%IncludeResource: font Helvetica
/Helvetica /WindowsLatin1Encoding 120 FMSR

 638 3407 mt 
( ) s
4544  325 mt 
( ) s
1 sg
0 390 1475 0 0 -390 3026 733 4 MP
PP
-1475 0 0 390 1475 0 0 -390 3026 733 5 MP stroke
4 w
DO
SO
6 w
0 sg
3026  343 mt 4501  343 L
3026  733 mt 4501  733 L
4501  733 mt 4501  343 L
3026  733 mt 3026  343 L
3026  733 mt 4501  733 L
3026  733 mt 3026  343 L
3026  343 mt 4501  343 L
3026  733 mt 4501  733 L
4501  733 mt 4501  343 L
3026  733 mt 3026  343 L
%%IncludeResource: font Helvetica
/Helvetica /WindowsLatin1Encoding 144 FMSR

3488  502 mt 
(Standard SVM) s
gs 3026 343 1476 391 rc
355 0 3097 450 2 MP stroke
gs 3201 377 147 147 rc
3238  450 mt 3310  450 L
3274  414 mt 3274  486 L
3249  425 mt 3299  475 L
3299  425 mt 3249  475 L
gr

gr

3488  677 mt 
(Proposed SVM) s
gs 3026 343 1476 391 rc
c8
355 0 3097 625 2 MP stroke
gs 3201 552 147 147 rc
0 -58 -58 0 0 58 58 0 3245 596 5 MP
DP
gr

gr

c8

end %%Color Dict

eplot
%%EndObject

epage
end

showpage

%%Trailer
%%EOF
