%!PS-Adobe-3.0 EPSF-3.0
%%Title: act10_Battery Current [A].eps
%%Creator: matplotlib version 2.0.0, http://matplotlib.org/
%%CreationDate: Sun May 14 15:05:58 2017
%%Orientation: portrait
%%BoundingBox: 90 252 522 540
%%EndComments
%%BeginProlog
/mpldict 8 dict def
mpldict begin
/m { moveto } bind def
/l { lineto } bind def
/r { rlineto } bind def
/c { curveto } bind def
/cl { closepath } bind def
/box {
m
1 index 0 r
0 exch r
neg 0 r
cl
} bind def
/clipbox {
box
clip
newpath
} bind def
%!PS-Adobe-3.0 Resource-Font
%%Title: DejaVu Sans
%%Copyright: Copyright (c) 2003 by Bitstream, Inc. All Rights Reserved. Copyright (c) 2006 by Tavmjong Bah. All Rights Reserved. DejaVu changes are in public domain 
%%Creator: Converted from TrueType to type 3 by PPR
25 dict begin
/_d{bind def}bind def
/_m{moveto}_d
/_l{lineto}_d
/_cl{closepath eofill}_d
/_c{curveto}_d
/_sc{7 -1 roll{setcachedevice}{pop pop pop pop pop pop}ifelse}_d
/_e{exec}_d
/FontName /DejaVuSans def
/PaintType 0 def
/FontMatrix[.001 0 0 .001 0 0]def
/FontBBox[-1021 -463 1793 1232]def
/FontType 3 def
/Encoding [ /space /zero /one /two /four /five /six /seven /eight /A /B /C /T /bracketleft /bracketright /a /e /i /m /n /r /s /t /u /y /minus ] def
/FontInfo 10 dict dup begin
/FamilyName (DejaVu Sans) def
/FullName (DejaVu Sans) def
/Notice (Copyright (c) 2003 by Bitstream, Inc. All Rights Reserved. Copyright (c) 2006 by Tavmjong Bah. All Rights Reserved. DejaVu changes are in public domain ) def
/Weight (Book) def
/Version (Version 2.35) def
/ItalicAngle 0.0 def
/isFixedPitch false def
/UnderlinePosition -130 def
/UnderlineThickness 90 def
end readonly def
/CharStrings 26 dict dup begin
/space{318 0 0 0 0 0 _sc
}_d
/zero{636 0 66 -13 570 742 _sc
318 664 _m
267 664 229 639 203 589 _c
177 539 165 464 165 364 _c
165 264 177 189 203 139 _c
229 89 267 64 318 64 _c
369 64 407 89 433 139 _c
458 189 471 264 471 364 _c
471 464 458 539 433 589 _c
407 639 369 664 318 664 _c
318 742 _m
399 742 461 709 505 645 _c
548 580 570 486 570 364 _c
570 241 548 147 505 83 _c
461 19 399 -13 318 -13 _c
236 -13 173 19 130 83 _c
87 147 66 241 66 364 _c
66 486 87 580 130 645 _c
173 709 236 742 318 742 _c
_cl}_d
/one{636 0 110 0 544 729 _sc
124 83 _m
285 83 _l
285 639 _l
110 604 _l
110 694 _l
284 729 _l
383 729 _l
383 83 _l
544 83 _l
544 0 _l
124 0 _l
124 83 _l
_cl}_d
/two{{636 0 73 0 536 742 _sc
192 83 _m
536 83 _l
536 0 _l
73 0 _l
73 83 _l
110 121 161 173 226 239 _c
290 304 331 346 348 365 _c
380 400 402 430 414 455 _c
426 479 433 504 433 528 _c
433 566 419 598 392 622 _c
365 646 330 659 286 659 _c
255 659 222 653 188 643 _c
154 632 117 616 78 594 _c
78 694 _l
118 710 155 722 189 730 _c
223 738 255 742 284 742 _c
}_e{359 742 419 723 464 685 _c
509 647 532 597 532 534 _c
532 504 526 475 515 449 _c
504 422 484 390 454 354 _c
446 344 420 317 376 272 _c
332 227 271 164 192 83 _c
_cl}_e}_d
/four{636 0 49 0 580 729 _sc
378 643 _m
129 254 _l
378 254 _l
378 643 _l
352 729 _m
476 729 _l
476 254 _l
580 254 _l
580 172 _l
476 172 _l
476 0 _l
378 0 _l
378 172 _l
49 172 _l
49 267 _l
352 729 _l
_cl}_d
/five{{636 0 77 -13 549 729 _sc
108 729 _m
495 729 _l
495 646 _l
198 646 _l
198 467 _l
212 472 227 476 241 478 _c
255 480 270 482 284 482 _c
365 482 429 459 477 415 _c
525 370 549 310 549 234 _c
549 155 524 94 475 51 _c
426 8 357 -13 269 -13 _c
238 -13 207 -10 175 -6 _c
143 -1 111 6 77 17 _c
77 116 _l
106 100 136 88 168 80 _c
199 72 232 69 267 69 _c
}_e{323 69 368 83 401 113 _c
433 143 450 183 450 234 _c
450 284 433 324 401 354 _c
368 384 323 399 267 399 _c
241 399 214 396 188 390 _c
162 384 135 375 108 363 _c
108 729 _l
_cl}_e}_d
/six{{636 0 70 -13 573 742 _sc
330 404 _m
286 404 251 388 225 358 _c
199 328 186 286 186 234 _c
186 181 199 139 225 109 _c
251 79 286 64 330 64 _c
374 64 409 79 435 109 _c
461 139 474 181 474 234 _c
474 286 461 328 435 358 _c
409 388 374 404 330 404 _c
526 713 _m
526 623 _l
501 635 476 644 451 650 _c
425 656 400 659 376 659 _c
310 659 260 637 226 593 _c
}_e{192 549 172 482 168 394 _c
187 422 211 444 240 459 _c
269 474 301 482 336 482 _c
409 482 467 459 509 415 _c
551 371 573 310 573 234 _c
573 159 550 99 506 54 _c
462 9 403 -13 330 -13 _c
246 -13 181 19 137 83 _c
92 147 70 241 70 364 _c
70 479 97 571 152 639 _c
206 707 280 742 372 742 _c
396 742 421 739 447 735 _c
472 730 498 723 526 713 _c
_cl}_e}_d
/seven{636 0 82 0 551 729 _sc
82 729 _m
551 729 _l
551 687 _l
286 0 _l
183 0 _l
432 646 _l
82 646 _l
82 729 _l
_cl}_d
/eight{{636 0 68 -13 568 742 _sc
318 346 _m
271 346 234 333 207 308 _c
180 283 167 249 167 205 _c
167 161 180 126 207 101 _c
234 76 271 64 318 64 _c
364 64 401 76 428 102 _c
455 127 469 161 469 205 _c
469 249 455 283 429 308 _c
402 333 365 346 318 346 _c
219 388 _m
177 398 144 418 120 447 _c
96 476 85 511 85 553 _c
85 611 105 657 147 691 _c
188 725 245 742 318 742 _c
}_e{390 742 447 725 489 691 _c
530 657 551 611 551 553 _c
551 511 539 476 515 447 _c
491 418 459 398 417 388 _c
464 377 501 355 528 323 _c
554 291 568 251 568 205 _c
568 134 546 80 503 43 _c
459 5 398 -13 318 -13 _c
237 -13 175 5 132 43 _c
89 80 68 134 68 205 _c
68 251 81 291 108 323 _c
134 355 171 377 219 388 _c
183 544 _m
183 506 194 476 218 455 _c
}_e{242 434 275 424 318 424 _c
360 424 393 434 417 455 _c
441 476 453 506 453 544 _c
453 582 441 611 417 632 _c
393 653 360 664 318 664 _c
275 664 242 653 218 632 _c
194 611 183 582 183 544 _c
_cl}_e}_d
/A{684 0 8 0 676 729 _sc
342 632 _m
208 269 _l
476 269 _l
342 632 _l
286 729 _m
398 729 _l
676 0 _l
573 0 _l
507 187 _l
178 187 _l
112 0 _l
8 0 _l
286 729 _l
_cl}_d
/B{{686 0 98 0 615 729 _sc
197 348 _m
197 81 _l
355 81 _l
408 81 447 92 473 114 _c
498 136 511 169 511 215 _c
511 260 498 293 473 315 _c
447 337 408 348 355 348 _c
197 348 _l
197 648 _m
197 428 _l
343 428 _l
391 428 426 437 450 455 _c
474 473 486 500 486 538 _c
486 574 474 602 450 620 _c
426 638 391 648 343 648 _c
197 648 _l
98 729 _m
350 729 _l
}_e{425 729 483 713 524 682 _c
564 650 585 606 585 549 _c
585 504 574 468 553 442 _c
532 416 502 399 462 393 _c
510 382 548 360 575 327 _c
601 294 615 253 615 204 _c
615 138 592 88 548 53 _c
504 17 441 0 360 0 _c
98 0 _l
98 729 _l
_cl}_e}_d
/C{{698 0 56 -13 644 742 _sc
644 673 _m
644 569 _l
610 599 575 622 537 638 _c
499 653 460 661 418 661 _c
334 661 270 635 226 584 _c
182 533 160 460 160 364 _c
160 268 182 194 226 143 _c
270 92 334 67 418 67 _c
460 67 499 74 537 90 _c
575 105 610 128 644 159 _c
644 56 _l
609 32 572 15 534 4 _c
496 -7 455 -13 412 -13 _c
302 -13 215 20 151 87 _c
}_e{87 154 56 246 56 364 _c
56 481 87 573 151 641 _c
215 708 302 742 412 742 _c
456 742 497 736 535 725 _c
573 713 610 696 644 673 _c
_cl}_e}_d
/T{611 0 -2 0 614 729 _sc
-2 729 _m
614 729 _l
614 646 _l
355 646 _l
355 0 _l
256 0 _l
256 646 _l
-2 646 _l
-2 729 _l
_cl}_d
/bracketleft{390 0 86 -131 293 760 _sc
86 760 _m
293 760 _l
293 690 _l
176 690 _l
176 -61 _l
293 -61 _l
293 -131 _l
86 -131 _l
86 760 _l
_cl}_d
/bracketright{390 0 97 -131 304 760 _sc
304 760 _m
304 -131 _l
97 -131 _l
97 -61 _l
214 -61 _l
214 690 _l
97 690 _l
97 760 _l
304 760 _l
_cl}_d
/a{{613 0 60 -13 522 560 _sc
343 275 _m
270 275 220 266 192 250 _c
164 233 150 205 150 165 _c
150 133 160 107 181 89 _c
202 70 231 61 267 61 _c
317 61 357 78 387 114 _c
417 149 432 196 432 255 _c
432 275 _l
343 275 _l
522 312 _m
522 0 _l
432 0 _l
432 83 _l
411 49 385 25 355 10 _c
325 -5 287 -13 243 -13 _c
187 -13 142 2 109 33 _c
76 64 60 106 60 159 _c
}_e{60 220 80 266 122 298 _c
163 329 224 345 306 345 _c
432 345 _l
432 354 _l
432 395 418 427 391 450 _c
364 472 326 484 277 484 _c
245 484 215 480 185 472 _c
155 464 127 453 100 439 _c
100 522 _l
132 534 164 544 195 550 _c
226 556 256 560 286 560 _c
365 560 424 539 463 498 _c
502 457 522 395 522 312 _c
_cl}_e}_d
/e{{615 0 55 -13 562 560 _sc
562 296 _m
562 252 _l
149 252 _l
153 190 171 142 205 110 _c
238 78 284 62 344 62 _c
378 62 412 66 444 74 _c
476 82 509 95 541 113 _c
541 28 _l
509 14 476 3 442 -3 _c
408 -9 373 -13 339 -13 _c
251 -13 182 12 131 62 _c
80 112 55 181 55 268 _c
55 357 79 428 127 481 _c
175 533 241 560 323 560 _c
397 560 455 536 498 489 _c
}_e{540 441 562 377 562 296 _c
472 322 _m
471 371 457 410 431 440 _c
404 469 368 484 324 484 _c
274 484 234 469 204 441 _c
174 413 156 373 152 322 _c
472 322 _l
_cl}_e}_d
/i{278 0 94 0 184 760 _sc
94 547 _m
184 547 _l
184 0 _l
94 0 _l
94 547 _l
94 760 _m
184 760 _l
184 646 _l
94 646 _l
94 760 _l
_cl}_d
/m{{974 0 91 0 889 560 _sc
520 442 _m
542 482 569 511 600 531 _c
631 550 668 560 711 560 _c
767 560 811 540 842 500 _c
873 460 889 403 889 330 _c
889 0 _l
799 0 _l
799 327 _l
799 379 789 418 771 444 _c
752 469 724 482 686 482 _c
639 482 602 466 575 435 _c
548 404 535 362 535 309 _c
535 0 _l
445 0 _l
445 327 _l
445 379 435 418 417 444 _c
398 469 369 482 331 482 _c
}_e{285 482 248 466 221 435 _c
194 404 181 362 181 309 _c
181 0 _l
91 0 _l
91 547 _l
181 547 _l
181 462 _l
201 495 226 520 255 536 _c
283 552 317 560 357 560 _c
397 560 430 550 458 530 _c
486 510 506 480 520 442 _c
_cl}_e}_d
/n{634 0 91 0 549 560 _sc
549 330 _m
549 0 _l
459 0 _l
459 327 _l
459 379 448 417 428 443 _c
408 469 378 482 338 482 _c
289 482 251 466 223 435 _c
195 404 181 362 181 309 _c
181 0 _l
91 0 _l
91 547 _l
181 547 _l
181 462 _l
202 494 227 519 257 535 _c
286 551 320 560 358 560 _c
420 560 468 540 500 501 _c
532 462 549 405 549 330 _c
_cl}_d
/r{411 0 91 0 411 560 _sc
411 463 _m
401 469 390 473 378 476 _c
366 478 353 480 339 480 _c
288 480 249 463 222 430 _c
194 397 181 350 181 288 _c
181 0 _l
91 0 _l
91 547 _l
181 547 _l
181 462 _l
199 495 224 520 254 536 _c
284 552 321 560 365 560 _c
371 560 378 559 386 559 _c
393 558 401 557 411 555 _c
411 463 _l
_cl}_d
/s{{521 0 54 -13 472 560 _sc
443 531 _m
443 446 _l
417 458 391 468 364 475 _c
336 481 308 485 279 485 _c
234 485 200 478 178 464 _c
156 450 145 430 145 403 _c
145 382 153 366 169 354 _c
185 342 217 330 265 320 _c
296 313 _l
360 299 405 279 432 255 _c
458 230 472 195 472 151 _c
472 100 452 60 412 31 _c
372 1 316 -13 246 -13 _c
216 -13 186 -10 154 -5 _c
}_e{122 0 89 8 54 20 _c
54 113 _l
87 95 120 82 152 74 _c
184 65 216 61 248 61 _c
290 61 323 68 346 82 _c
368 96 380 117 380 144 _c
380 168 371 187 355 200 _c
339 213 303 226 247 238 _c
216 245 _l
160 257 119 275 95 299 _c
70 323 58 356 58 399 _c
58 450 76 490 112 518 _c
148 546 200 560 268 560 _c
301 560 332 557 362 552 _c
391 547 418 540 443 531 _c
}_e{_cl}_e}_d
/t{392 0 27 0 368 702 _sc
183 702 _m
183 547 _l
368 547 _l
368 477 _l
183 477 _l
183 180 _l
183 135 189 106 201 94 _c
213 81 238 75 276 75 _c
368 75 _l
368 0 _l
276 0 _l
206 0 158 13 132 39 _c
106 65 93 112 93 180 _c
93 477 _l
27 477 _l
27 547 _l
93 547 _l
93 702 _l
183 702 _l
_cl}_d
/u{634 0 85 -13 543 560 _sc
85 216 _m
85 547 _l
175 547 _l
175 219 _l
175 167 185 129 205 103 _c
225 77 255 64 296 64 _c
344 64 383 79 411 110 _c
439 141 453 183 453 237 _c
453 547 _l
543 547 _l
543 0 _l
453 0 _l
453 84 _l
431 50 405 26 377 10 _c
348 -5 315 -13 277 -13 _c
214 -13 166 6 134 45 _c
101 83 85 140 85 216 _c
311 560 _m
311 560 _l
_cl}_d
/y{592 0 30 -207 562 547 _sc
322 -50 _m
296 -114 271 -157 247 -177 _c
223 -197 191 -207 151 -207 _c
79 -207 _l
79 -132 _l
132 -132 _l
156 -132 175 -126 189 -114 _c
203 -102 218 -75 235 -31 _c
251 9 _l
30 547 _l
125 547 _l
296 119 _l
467 547 _l
562 547 _l
322 -50 _l
_cl}_d
/minus{838 0 106 272 732 355 _sc
106 355 _m
732 355 _l
732 272 _l
106 272 _l
106 355 _l
_cl}_d
end readonly def

/BuildGlyph
 {exch begin
 CharStrings exch
 2 copy known not{pop /.notdef}if
 true 3 1 roll get exec
 end}_d

/BuildChar {
 1 index /Encoding get exch get
 1 index /BuildGlyph get exec
}_d

FontName currentdict end definefont pop
end
%%EndProlog
mpldict begin
90 252 translate
432 288 0 0 clipbox
gsave
0 0 m
432 0 l
432 288 l
0 288 l
cl
1.000 setgray
fill
grestore
gsave
54 36 m
388.8 36 l
388.8 253.44 l
54 253.44 l
cl
1.000 setgray
fill
grestore
0.800 setlinewidth
1 setlinejoin
2 setlinecap
[] 0 setdash
0.690 setgray
gsave
334.8 217.4 54 36 clipbox
69.218182 36 m
69.218182 253.44 l
stroke
grestore
0 setlinecap
0.000 setgray
gsave
/o {
gsave
newpath
translate
0.8 setlinewidth
1 setlinejoin
0 setlinecap
0 0 m
0 -3.5 l

gsave
0.000 setgray
fill
grestore
stroke
grestore
} bind def
69.2182 36 o
grestore
/DejaVuSans findfont
10.000 scalefont
setfont
gsave
66.038494 21.406250 translate
0.000000 rotate
0.000000 0.000000 m /zero glyphshow
grestore
2 setlinecap
0.690 setgray
gsave
334.8 217.4 54 36 clipbox
112.729781 36 m
112.729781 253.44 l
stroke
grestore
0 setlinecap
0.000 setgray
gsave
/o {
gsave
newpath
translate
0.8 setlinewidth
1 setlinejoin
0 setlinecap
0 0 m
0 -3.5 l

gsave
0.000 setgray
fill
grestore
stroke
grestore
} bind def
112.73 36 o
grestore
gsave
103.190719 21.406250 translate
0.000000 rotate
0.000000 0.000000 m /two glyphshow
6.362305 0.000000 m /zero glyphshow
12.724609 0.000000 m /zero glyphshow
grestore
2 setlinecap
0.690 setgray
gsave
334.8 217.4 54 36 clipbox
156.24138 36 m
156.24138 253.44 l
stroke
grestore
0 setlinecap
0.000 setgray
gsave
/o {
gsave
newpath
translate
0.8 setlinewidth
1 setlinejoin
0 setlinecap
0 0 m
0 -3.5 l

gsave
0.000 setgray
fill
grestore
stroke
grestore
} bind def
156.241 36 o
grestore
gsave
146.702318 21.406250 translate
0.000000 rotate
0.000000 0.000000 m /four glyphshow
6.362305 0.000000 m /zero glyphshow
12.724609 0.000000 m /zero glyphshow
grestore
2 setlinecap
0.690 setgray
gsave
334.8 217.4 54 36 clipbox
199.752979 36 m
199.752979 253.44 l
stroke
grestore
0 setlinecap
0.000 setgray
gsave
/o {
gsave
newpath
translate
0.8 setlinewidth
1 setlinejoin
0 setlinecap
0 0 m
0 -3.5 l

gsave
0.000 setgray
fill
grestore
stroke
grestore
} bind def
199.753 36 o
grestore
gsave
190.213917 21.406250 translate
0.000000 rotate
0.000000 0.000000 m /six glyphshow
6.362305 0.000000 m /zero glyphshow
12.724609 0.000000 m /zero glyphshow
grestore
2 setlinecap
0.690 setgray
gsave
334.8 217.4 54 36 clipbox
243.264579 36 m
243.264579 253.44 l
stroke
grestore
0 setlinecap
0.000 setgray
gsave
/o {
gsave
newpath
translate
0.8 setlinewidth
1 setlinejoin
0 setlinecap
0 0 m
0 -3.5 l

gsave
0.000 setgray
fill
grestore
stroke
grestore
} bind def
243.265 36 o
grestore
gsave
233.725516 21.406250 translate
0.000000 rotate
0.000000 0.000000 m /eight glyphshow
6.362305 0.000000 m /zero glyphshow
12.724609 0.000000 m /zero glyphshow
grestore
2 setlinecap
0.690 setgray
gsave
334.8 217.4 54 36 clipbox
286.776178 36 m
286.776178 253.44 l
stroke
grestore
0 setlinecap
0.000 setgray
gsave
/o {
gsave
newpath
translate
0.8 setlinewidth
1 setlinejoin
0 setlinecap
0 0 m
0 -3.5 l

gsave
0.000 setgray
fill
grestore
stroke
grestore
} bind def
286.776 36 o
grestore
gsave
274.057428 21.406250 translate
0.000000 rotate
0.000000 0.000000 m /one glyphshow
6.362305 0.000000 m /zero glyphshow
12.724609 0.000000 m /zero glyphshow
19.086914 0.000000 m /zero glyphshow
grestore
2 setlinecap
0.690 setgray
gsave
334.8 217.4 54 36 clipbox
330.287777 36 m
330.287777 253.44 l
stroke
grestore
0 setlinecap
0.000 setgray
gsave
/o {
gsave
newpath
translate
0.8 setlinewidth
1 setlinejoin
0 setlinecap
0 0 m
0 -3.5 l

gsave
0.000 setgray
fill
grestore
stroke
grestore
} bind def
330.288 36 o
grestore
gsave
317.569027 21.406250 translate
0.000000 rotate
0.000000 0.000000 m /one glyphshow
6.362305 0.000000 m /two glyphshow
12.724609 0.000000 m /zero glyphshow
19.086914 0.000000 m /zero glyphshow
grestore
2 setlinecap
0.690 setgray
gsave
334.8 217.4 54 36 clipbox
373.799376 36 m
373.799376 253.44 l
stroke
grestore
0 setlinecap
0.000 setgray
gsave
/o {
gsave
newpath
translate
0.8 setlinewidth
1 setlinejoin
0 setlinecap
0 0 m
0 -3.5 l

gsave
0.000 setgray
fill
grestore
stroke
grestore
} bind def
373.799 36 o
grestore
gsave
361.080626 21.406250 translate
0.000000 rotate
0.000000 0.000000 m /one glyphshow
6.362305 0.000000 m /four glyphshow
12.724609 0.000000 m /zero glyphshow
19.086914 0.000000 m /zero glyphshow
grestore
gsave
200.892188 7.734375 translate
0.000000 rotate
0.000000 0.000000 m /T glyphshow
6.108398 0.000000 m /i glyphshow
8.886719 0.000000 m /m glyphshow
18.627930 0.000000 m /e glyphshow
24.780273 0.000000 m /space glyphshow
27.958984 0.000000 m /bracketleft glyphshow
31.860352 0.000000 m /s glyphshow
37.070312 0.000000 m /bracketright glyphshow
grestore
2 setlinecap
0.690 setgray
gsave
334.8 217.4 54 36 clipbox
54 48.931944 m
388.8 48.931944 l
stroke
grestore
0 setlinecap
0.000 setgray
gsave
/o {
gsave
newpath
translate
0.8 setlinewidth
1 setlinejoin
0 setlinecap
0 0 m
-3.5 0 l

gsave
0.000 setgray
fill
grestore
stroke
grestore
} bind def
54 48.9319 o
grestore
gsave
19.546875 45.135069 translate
0.000000 rotate
0.000000 0.000000 m /minus glyphshow
8.378906 0.000000 m /one glyphshow
14.741211 0.000000 m /zero glyphshow
21.103516 0.000000 m /zero glyphshow
grestore
2 setlinecap
0.690 setgray
gsave
334.8 217.4 54 36 clipbox
54 75.277364 m
388.8 75.277364 l
stroke
grestore
0 setlinecap
0.000 setgray
gsave
/o {
gsave
newpath
translate
0.8 setlinewidth
1 setlinejoin
0 setlinecap
0 0 m
-3.5 0 l

gsave
0.000 setgray
fill
grestore
stroke
grestore
} bind def
54 75.2774 o
grestore
gsave
25.906250 71.480489 translate
0.000000 rotate
0.000000 0.000000 m /minus glyphshow
8.378906 0.000000 m /seven glyphshow
14.741211 0.000000 m /five glyphshow
grestore
2 setlinecap
0.690 setgray
gsave
334.8 217.4 54 36 clipbox
54 101.622783 m
388.8 101.622783 l
stroke
grestore
0 setlinecap
0.000 setgray
gsave
/o {
gsave
newpath
translate
0.8 setlinewidth
1 setlinejoin
0 setlinecap
0 0 m
-3.5 0 l

gsave
0.000 setgray
fill
grestore
stroke
grestore
} bind def
54 101.623 o
grestore
gsave
25.906250 97.825908 translate
0.000000 rotate
0.000000 0.000000 m /minus glyphshow
8.378906 0.000000 m /five glyphshow
14.741211 0.000000 m /zero glyphshow
grestore
2 setlinecap
0.690 setgray
gsave
334.8 217.4 54 36 clipbox
54 127.968203 m
388.8 127.968203 l
stroke
grestore
0 setlinecap
0.000 setgray
gsave
/o {
gsave
newpath
translate
0.8 setlinewidth
1 setlinejoin
0 setlinecap
0 0 m
-3.5 0 l

gsave
0.000 setgray
fill
grestore
stroke
grestore
} bind def
54 127.968 o
grestore
gsave
25.906250 124.171328 translate
0.000000 rotate
0.000000 0.000000 m /minus glyphshow
8.378906 0.000000 m /two glyphshow
14.741211 0.000000 m /five glyphshow
grestore
2 setlinecap
0.690 setgray
gsave
334.8 217.4 54 36 clipbox
54 154.313622 m
388.8 154.313622 l
stroke
grestore
0 setlinecap
0.000 setgray
gsave
/o {
gsave
newpath
translate
0.8 setlinewidth
1 setlinejoin
0 setlinecap
0 0 m
-3.5 0 l

gsave
0.000 setgray
fill
grestore
stroke
grestore
} bind def
54 154.314 o
grestore
gsave
40.640625 150.516747 translate
0.000000 rotate
0.000000 0.000000 m /zero glyphshow
grestore
2 setlinecap
0.690 setgray
gsave
334.8 217.4 54 36 clipbox
54 180.659042 m
388.8 180.659042 l
stroke
grestore
0 setlinecap
0.000 setgray
gsave
/o {
gsave
newpath
translate
0.8 setlinewidth
1 setlinejoin
0 setlinecap
0 0 m
-3.5 0 l

gsave
0.000 setgray
fill
grestore
stroke
grestore
} bind def
54 180.659 o
grestore
gsave
34.281250 176.862167 translate
0.000000 rotate
0.000000 0.000000 m /two glyphshow
6.362305 0.000000 m /five glyphshow
grestore
2 setlinecap
0.690 setgray
gsave
334.8 217.4 54 36 clipbox
54 207.004461 m
388.8 207.004461 l
stroke
grestore
0 setlinecap
0.000 setgray
gsave
/o {
gsave
newpath
translate
0.8 setlinewidth
1 setlinejoin
0 setlinecap
0 0 m
-3.5 0 l

gsave
0.000 setgray
fill
grestore
stroke
grestore
} bind def
54 207.004 o
grestore
gsave
34.281250 203.207586 translate
0.000000 rotate
0.000000 0.000000 m /five glyphshow
6.362305 0.000000 m /zero glyphshow
grestore
2 setlinecap
0.690 setgray
gsave
334.8 217.4 54 36 clipbox
54 233.34988 m
388.8 233.34988 l
stroke
grestore
0 setlinecap
0.000 setgray
gsave
/o {
gsave
newpath
translate
0.8 setlinewidth
1 setlinejoin
0 setlinecap
0 0 m
-3.5 0 l

gsave
0.000 setgray
fill
grestore
stroke
grestore
} bind def
54 233.35 o
grestore
gsave
34.281250 229.553005 translate
0.000000 rotate
0.000000 0.000000 m /seven glyphshow
6.362305 0.000000 m /five glyphshow
grestore
gsave
13.468750 96.712187 translate
90.000000 rotate
0.000000 0.000000 m /B glyphshow
6.860352 0.000000 m /a glyphshow
12.988281 0.000000 m /t glyphshow
16.909180 0.000000 m /t glyphshow
20.830078 0.000000 m /e glyphshow
26.982422 0.000000 m /r glyphshow
31.093750 0.000000 m /y glyphshow
37.011719 0.000000 m /space glyphshow
40.190430 0.000000 m /C glyphshow
47.172852 0.000000 m /u glyphshow
53.510742 0.000000 m /r glyphshow
57.622070 0.000000 m /r glyphshow
61.733398 0.000000 m /e glyphshow
67.885742 0.000000 m /n glyphshow
74.223633 0.000000 m /t glyphshow
78.144531 0.000000 m /space glyphshow
81.323242 0.000000 m /bracketleft glyphshow
85.224609 0.000000 m /A glyphshow
92.065430 0.000000 m /bracketright glyphshow
grestore
1.500 setlinewidth
2 setlinecap
0.122 0.467 0.706 setrgbcolor
gsave
334.8 217.4 54 36 clipbox
69.218182 154.448021 m
69.870856 154.146393 l
70.088414 154.049652 l
70.305972 154.097735 l
70.741088 154.774608 l
70.958646 155.103172 l
71.176204 155.032986 l
71.393762 154.35822 l
71.828878 152.295514 l
72.046436 152.305801 l
72.263994 153.886521 l
73.134226 164.736445 l
73.351784 162.980281 l
73.7869 153.501731 l
74.222016 144.595364 l
74.439574 142.369816 l
74.657132 141.800128 l
74.87469 142.60163 l
75.092248 145.214951 l
75.309806 150.416585 l
75.744922 169.925163 l
76.180038 191.422389 l
76.397596 195.261075 l
76.615154 191.661403 l
77.485386 153.84758 l
77.702944 158.300936 l
78.355618 192.126274 l
78.573176 194.758887 l
78.790734 189.661107 l
79.443408 159.284808 l
79.660966 156.140885 l
79.878524 158.233971 l
80.531198 172.146816 l
80.748756 171.82185 l
80.966314 168.167821 l
81.618988 152.040827 l
81.836546 150.119944 l
82.054104 151.137415 l
82.706778 161.303518 l
82.924336 161.014533 l
83.141894 157.031188 l
84.012126 131.078912 l
84.229684 132.481291 l
84.6648 145.218122 l
85.099916 156.557609 l
85.317474 158.238051 l
85.535032 157.999026 l
85.75259 157.218163 l
85.970148 157.369471 l
86.187706 159.02043 l
86.622821 166.054433 l
87.275495 177.526244 l
87.493053 177.961363 l
87.710611 173.753432 l
87.928169 162.902442 l
88.363285 121.611339 l
88.798401 76.505744 l
89.015959 64.852479 l
89.233517 64.208536 l
89.451075 73.634422 l
90.538865 144.685676 l
90.756423 153.581547 l
90.973981 154.316122 l
92.714445 154.266163 l
93.149561 154.125918 l
93.367119 154.209554 l
94.019793 154.948684 l
94.237351 154.711584 l
94.454909 154.174334 l
94.890025 152.575295 l
95.107583 152.502578 l
95.325141 153.289993 l
95.977815 158.15173 l
96.195373 158.458384 l
96.630489 156.972007 l
96.848047 157.248546 l
97.065605 159.697534 l
97.500721 171.123055 l
97.935837 181.70684 l
98.153395 182.468564 l
98.370953 179.650452 l
99.241185 161.267815 l
99.458743 160.308055 l
99.676301 159.898735 l
99.893859 158.843044 l
100.328975 153.064545 l
100.764091 147.070591 l
100.981649 146.409277 l
101.199207 147.714309 l
102.722113 166.65679 l
103.374787 180.766257 l
103.592345 181.066444 l
103.809903 175.947318 l
104.027461 164.045268 l
105.115251 77.824444 l
105.332809 79.685175 l
105.550367 90.404399 l
106.638157 164.430829 l
107.290831 185.616333 l
107.508389 189.557728 l
107.725947 190.651245 l
107.943505 188.889558 l
108.378621 182.108257 l
108.596179 180.874715 l
108.813737 182.330321 l
109.248853 188.221898 l
109.466411 188.597243 l
109.683969 185.589866 l
110.771759 156.236739 l
111.206875 152.179354 l
111.424433 151.177175 l
111.641991 151.461758 l
111.859549 154.32809 l
112.077107 160.154814 l
112.512223 179.631279 l
112.729781 154.319414 l
114.035129 154.272341 l
114.687803 154.714829 l
114.905361 154.668444 l
115.122919 154.403247 l
115.775593 153.00183 l
115.993151 153.339614 l
116.210709 154.670897 l
116.645825 160.57932 l
117.298499 170.439434 l
117.516057 171.52656 l
117.733615 171.326802 l
118.821405 166.225083 l
119.038963 165.408797 l
119.256521 163.913477 l
120.126753 154.063955 l
120.344311 153.712845 l
120.561869 155.224367 l
120.996985 162.260376 l
121.649659 174.737326 l
121.867217 177.623572 l
122.084775 178.9934 l
122.302333 178.12485 l
122.519891 174.38168 l
123.172565 153.953139 l
123.390123 152.306471 l
123.607681 157.89894 l
124.042797 189.982171 l
124.477913 223.887679 l
124.695471 228.55331 l
124.913029 221.609744 l
125.348145 182.905878 l
125.783261 147.261448 l
126.000819 141.228061 l
126.218377 143.529313 l
127.088609 171.39896 l
127.306167 171.84993 l
127.523725 169.970493 l
128.393957 159.696983 l
128.829073 157.649694 l
129.046631 157.898196 l
129.264189 158.940644 l
129.916863 164.402747 l
130.134421 165.275506 l
130.351979 165.251603 l
130.787095 163.51886 l
131.222211 161.904039 l
131.439769 161.629238 l
131.657327 161.637742 l
132.310001 162.022332 l
132.745117 161.81696 l
133.615349 160.678112 l
133.832907 161.232437 l
134.268023 164.768543 l
134.485581 154.328819 l
135.573371 154.29809 l
136.226045 154.427132 l
136.661161 154.532876 l
137.096277 154.409395 l
137.748951 153.613992 l
138.184067 153.067324 l
138.401625 153.082584 l
138.619183 153.292643 l
139.054299 154.899085 l
139.489415 157.845693 l
141.01232 169.680434 l
141.447436 171.887678 l
141.882552 172.811502 l
142.10011 172.650194 l
142.317668 172.122407 l
142.752784 169.917561 l
143.1879 165.785625 l
143.623016 158.563744 l
144.928364 128.778673 l
145.145922 128.130969 l
145.36348 129.826687 l
145.798596 139.111789 l
146.668828 162.866912 l
147.103944 168.874032 l
147.321502 170.133423 l
147.53906 170.411142 l
147.756618 170.126944 l
149.279524 165.697012 l
149.71464 162.858969 l
150.80243 152.971714 l
151.019988 153.126002 l
151.237546 154.593826 l
151.672662 160.692117 l
152.107778 167.047242 l
152.325336 168.375407 l
152.542894 167.624711 l
152.760452 164.532644 l
153.195568 152.671915 l
153.848242 134.832535 l
154.0658 132.925097 l
154.283358 133.768472 l
154.718474 141.722864 l
155.371148 155.187658 l
155.806264 158.40474 l
156.023822 158.836297 l
156.24138 154.323878 l
157.111612 154.265419 l
157.981844 153.884092 l
158.41696 153.734231 l
158.634518 153.806535 l
158.852076 154.083079 l
159.069634 154.556899 l
159.50475 156.38633 l
160.157424 160.837743 l
160.59254 163.645222 l
160.810098 164.51015 l
161.027656 164.790135 l
161.245214 164.430935 l
161.462772 163.359942 l
161.897888 159.622062 l
162.550562 153.215272 l
162.76812 151.862176 l
162.985678 151.259007 l
163.203236 151.364496 l
163.420794 152.184895 l
163.85591 155.20865 l
164.508584 159.900039 l
164.9437 161.42489 l
165.161258 161.722232 l
165.813932 162.162311 l
166.249048 163.15209 l
167.11928 165.911725 l
167.336838 166.192739 l
167.554396 166.163376 l
167.771954 165.857417 l
168.424628 164.165572 l
168.642186 163.999459 l
168.859744 164.356743 l
169.077302 165.444138 l
169.512418 170.460073 l
169.947534 179.352595 l
171.035324 205.194691 l
171.252882 207.329686 l
171.47044 207.482317 l
171.687998 205.460033 l
172.123114 195.045432 l
172.993346 159.916831 l
173.428462 144.809359 l
173.863578 136.62417 l
174.081136 135.494201 l
174.298694 136.17725 l
174.516252 138.304813 l
175.168926 149.290091 l
175.604042 156.155567 l
176.039158 159.716425 l
176.256716 160.185806 l
176.474274 159.742692 l
176.90939 157.521591 l
177.562064 153.601776 l
177.779622 152.706606 l
177.99718 154.317929 l
178.649854 154.181818 l
178.867412 154.216206 l
179.520086 153.807211 l
179.955202 153.253724 l
180.607876 151.951461 l
181.042992 150.631468 l
181.913224 146.89979 l
182.783456 143.192964 l
183.218572 142.060184 l
183.653688 141.743219 l
184.088804 142.462985 l
184.52392 144.278272 l
185.176594 148.778951 l
187.352174 166.620419 l
188.439964 171.363221 l
189.092638 172.951106 l
189.527754 173.635561 l
189.745312 173.906082 l
190.180428 173.990323 l
190.615544 173.308517 l
191.05066 171.866547 l
191.703334 168.542579 l
192.356008 163.776933 l
193.443798 155.528444 l
193.878914 153.377764 l
194.31403 152.367124 l
194.531587 152.416023 l
194.749145 152.332696 l
194.966703 152.777319 l
195.401819 154.542795 l
196.054493 158.64369 l
197.577399 170.461983 l
198.230073 173.911989 l
198.665189 175.240359 l
199.535421 176.084568 l
199.752979 154.313622 l
264.80282 154.313622 l
265.020378 155.399073 l
265.237936 157.086564 l
265.455494 160.770827 l
265.673052 182.559754 l
265.89061 190.029014 l
266.108168 170.115291 l
266.325726 243.556364 l
266.543284 150.042684 l
266.760842 202.087219 l
266.9784 157.805114 l
267.413516 145.880946 l
267.631074 189.242506 l
267.848632 141.16497 l
268.06619 166.542662 l
268.283748 144.665338 l
268.501306 157.9946 l
268.718864 149.52288 l
268.936422 156.874235 l
269.15398 153.785681 l
269.371538 137.227782 l
269.589096 151.481052 l
269.806654 153.934744 l
270.024212 151.720864 l
270.24177 134.869859 l
270.459328 170.450015 l
270.676886 117.403939 l
270.894444 167.875252 l
271.112002 123.385269 l
271.32956 148.031955 l
271.547118 139.996903 l
271.764676 153.074548 l
271.982234 147.433251 l
272.199792 161.854744 l
272.41735 152.455172 l
272.634908 173.91174 l
272.852466 179.199525 l
273.070024 165.884699 l
273.287582 186.555356 l
273.50514 149.878448 l
273.722698 168.069456 l
273.940256 148.016042 l
274.157814 149.329401 l
274.375372 180.25608 l
274.59293 130.026684 l
274.810488 186.226474 l
275.028046 134.297262 l
275.245604 187.615946 l
275.463162 156.620217 l
275.68072 176.112093 l
276.115836 150.674397 l
276.333394 162.108006 l
276.550952 150.143429 l
276.76851 171.933155 l
276.986068 143.805046 l
277.203626 166.150523 l
277.421184 163.909315 l
277.638742 156.724366 l
277.8563 162.25737 l
278.291416 153.68922 l
278.508974 148.588198 l
278.94409 151.396807 l
279.596764 186.371923 l
279.814322 157.258322 l
280.03188 181.795654 l
280.249438 134.237536 l
280.466996 153.020489 l
280.684554 161.739531 l
280.902112 193.66241 l
281.11967 158.330269 l
281.337228 205.800812 l
281.554786 148.046192 l
281.772344 166.648848 l
281.989902 149.01775 l
282.20746 162.237985 l
282.425018 156.747816 l
282.642576 168.861093 l
282.860134 147.851206 l
283.077692 146.269197 l
283.29525 156.253851 l
283.512808 140.315873 l
283.947924 179.105163 l
284.165482 127.661819 l
284.38304 178.076861 l
284.600598 130.492498 l
284.818156 162.644922 l
285.035714 111.773966 l
285.253272 154.016128 l
285.47083 109.290966 l
285.688388 148.196131 l
285.905946 150.603029 l
286.123504 197.140133 l
286.341062 152.019208 l
286.55862 136.840375 l
286.776178 181.570495 l
286.993736 161.99571 l
287.211294 104.961781 l
287.428852 148.355353 l
287.64641 56.579018 l
287.863968 133.323867 l
288.081526 89.431046 l
288.299084 126.312746 l
288.516642 132.143532 l
288.7342 147.82702 l
288.951758 154.615296 l
289.169316 155.393423 l
289.82199 155.424469 l
290.039548 157.464102 l
290.257106 155.419686 l
290.474664 157.459561 l
290.692222 155.419708 l
291.780012 155.400178 l
297.654078 155.400709 l
297.871636 157.460034 l
298.089194 155.421097 l
298.306752 157.456147 l
298.52431 155.421147 l
299.6121 155.399921 l
301.135006 155.399889 l
301.570122 166.673595 l
301.78768 161.528959 l
302.005238 161.369624 l
302.440353 150.088842 l
302.657911 154.140331 l
302.875469 155.392836 l
306.356397 155.39985 l
306.791513 155.399846 l
307.009071 158.802242 l
307.226629 192.505595 l
307.444187 165.177975 l
307.661745 199.252895 l
307.879303 159.844186 l
308.096861 145.770368 l
308.314419 122.646292 l
308.749535 142.616079 l
308.967093 138.04316 l
309.184651 148.229984 l
309.619767 174.724827 l
309.837325 179.962076 l
310.054883 174.573086 l
310.272441 157.755893 l
310.489999 154.083055 l
310.707557 144.011707 l
310.925115 143.071142 l
311.142673 144.344209 l
311.360231 163.225635 l
311.577789 159.558859 l
312.012905 175.412006 l
312.230463 125.94138 l
312.448021 172.37602 l
312.665579 132.107497 l
312.883137 153.513088 l
313.100695 148.139827 l
313.318253 145.967994 l
313.535811 111.609414 l
313.753369 101.271 l
313.970927 129.179892 l
314.188485 54.702288 l
314.406043 146.666471 l
314.623601 91.63581 l
314.841159 129.778898 l
315.276275 154.278103 l
315.711391 151.747197 l
315.928949 149.592994 l
316.146507 154.152959 l
316.364065 169.512036 l
316.581623 202.023653 l
316.799181 159.773559 l
317.016739 198.829303 l
317.451855 130.527604 l
317.669413 196.876166 l
317.886971 124.349479 l
318.104529 174.901119 l
318.322087 160.730942 l
318.539645 127.320415 l
318.757203 189.700731 l
318.974761 118.664318 l
319.192319 192.045709 l
319.409877 145.412869 l
319.627435 157.883219 l
319.844993 155.783354 l
320.062551 155.797378 l
320.280109 146.496348 l
320.497667 164.504549 l
320.715225 157.321472 l
320.932783 154.958878 l
321.150341 168.631962 l
321.367899 157.744518 l
321.585457 166.53246 l
321.803015 156.737319 l
322.020573 155.265773 l
322.238131 174.278724 l
322.455689 156.073175 l
322.673247 160.261851 l
322.890805 159.070529 l
323.108363 164.255837 l
323.325921 131.255951 l
323.543479 175.258301 l
323.761037 138.846514 l
323.978595 158.750552 l
324.196153 167.43686 l
324.413711 162.110315 l
324.631269 147.332269 l
324.848827 103.087852 l
325.066385 83.679859 l
325.283943 45.883636 l
325.501501 48.656522 l
325.719059 57.670104 l
325.936617 92.751233 l
326.154175 95.352689 l
326.371733 115.926341 l
326.589291 119.346585 l
326.806849 112.280604 l
327.024407 120.576678 l
327.241965 136.263801 l
327.459523 138.402951 l
327.677081 151.292778 l
327.894639 171.843934 l
328.112197 210.75991 l
328.547313 180.193092 l
328.764871 185.637863 l
328.982429 120.805279 l
329.199987 215.789846 l
329.417545 122.910116 l
329.635103 201.235417 l
329.852661 134.976273 l
330.070219 170.159945 l
330.287777 154.283021 l
330.505335 154.223841 l
330.722893 154.444269 l
330.940451 154.153569 l
331.158009 154.480989 l
331.375567 154.182928 l
331.593125 154.395556 l
331.810683 154.343339 l
332.028241 154.118667 l
332.245799 154.756692 l
332.463357 153.498085 l
332.680915 155.646735 l
332.898473 152.30484 l
333.116031 157.237506 l
333.333589 150.222102 l
333.551147 160.040031 l
333.768705 146.207664 l
333.986263 166.567399 l
334.203821 129.88386 l
334.421379 179.179805 l
334.638937 150.655309 l
334.856495 143.00627 l
335.074053 185.777925 l
335.291611 110.553371 l
335.509169 202.003087 l
335.726727 141.610895 l
335.944285 172.129847 l
336.379401 147.097403 l
336.814517 154.183859 l
337.032075 167.24568 l
337.249633 155.851408 l
337.467191 188.330884 l
337.684749 154.486988 l
337.902307 184.534505 l
338.119865 137.128769 l
338.337423 152.725811 l
338.554981 114.434336 l
338.772539 116.723193 l
338.990097 86.477475 l
339.207655 94.049301 l
339.425213 92.688131 l
339.642771 67.045092 l
339.860329 100.54205 l
340.077887 80.449629 l
340.295445 119.373873 l
340.513003 124.13878 l
340.730561 152.016898 l
340.948119 148.339287 l
341.165677 162.667247 l
341.383235 145.568588 l
341.600793 193.858299 l
341.818351 195.748044 l
342.035909 188.567399 l
342.253467 213.241906 l
342.471025 149.879894 l
342.688583 158.771174 l
342.906141 178.667172 l
343.123699 143.621808 l
343.341257 185.682625 l
343.776373 126.744212 l
343.993931 232.450499 l
344.211489 134.195507 l
344.429047 182.775619 l
344.646605 182.076165 l
344.864163 101.28814 l
345.081721 175.270424 l
345.299279 149.173492 l
345.516837 167.8163 l
346.169511 136.02069 l
346.387069 88.727359 l
346.604627 76.988794 l
347.039743 47.115947 l
347.474859 75.233375 l
348.127533 140.171496 l
348.345091 151.424105 l
348.562649 155.288289 l
348.997765 155.485905 l
349.215323 155.294847 l
349.432881 155.467606 l
349.650439 155.351367 l
349.867997 155.431694 l
350.520671 155.385499 l
351.826019 155.354626 l
352.043577 154.313754 l
355.742063 154.23916 l
356.177179 154.855323 l
356.612294 155.471489 l
356.829852 155.37207 l
357.700084 155.413177 l
358.570316 155.398908 l
361.181012 155.297872 l
361.39857 155.536181 l
361.616128 155.238547 l
361.833686 155.54608 l
362.051244 155.325312 l
362.268802 155.329638 l
362.48636 155.677595 l
362.703918 154.848786 l
362.921476 156.210998 l
363.139034 154.357681 l
363.356592 156.519946 l
363.57415 154.408972 l
363.791708 155.873204 l
364.009266 155.951993 l
364.226824 153.687386 l
364.444382 178.421122 l
364.66194 179.40048 l
364.879498 177.17053 l
365.097056 183.663522 l
365.314614 156.245638 l
365.532172 150.595075 l
365.74973 170.626866 l
365.967288 162.392787 l
366.402404 173.032058 l
366.619962 146.714664 l
366.83752 154.627743 l
367.055078 133.854009 l
367.272636 137.369161 l
367.490194 152.336941 l
367.707752 121.244421 l
367.92531 143.462215 l
368.142868 132.455328 l
368.360426 129.375296 l
368.577984 150.85092 l
368.795542 152.343411 l
369.0131 157.373906 l
369.230658 156.375037 l
369.448216 190.141052 l
369.883332 167.024764 l
370.10089 169.91267 l
370.318448 133.108098 l
370.753564 145.533913 l
370.971122 144.925766 l
371.18868 150.988727 l
371.406238 152.005748 l
371.623796 157.275989 l
371.841354 153.30498 l
372.27647 155.841206 l
372.494028 154.96209 l
372.711586 155.779144 l
372.929144 155.0771 l
373.146702 155.667753 l
373.36426 155.089868 l
373.581818 155.022914 l
373.581818 155.022914 l
stroke
grestore
0.800 setlinewidth
0 setlinejoin
[] 0 setdash
0.000 setgray
gsave
54 36 m
54 253.44 l
stroke
grestore
gsave
388.8 36 m
388.8 253.44 l
stroke
grestore
gsave
54 36 m
388.8 36 l
stroke
grestore
gsave
54 253.44 m
388.8 253.44 l
stroke
grestore

end
showpage
