%!PS-Adobe-3.0 EPSF-3.0
%%Title: act_HESS voltage [V].eps
%%Creator: matplotlib version 2.0.0, http://matplotlib.org/
%%CreationDate: Mon May 15 21:45:26 2017
%%Orientation: portrait
%%BoundingBox: 90 252 522 540
%%EndComments
%%BeginProlog
/mpldict 8 dict def
mpldict begin
/m { moveto } bind def
/l { lineto } bind def
/r { rlineto } bind def
/c { curveto } bind def
/cl { closepath } bind def
/box {
m
1 index 0 r
0 exch r
neg 0 r
cl
} bind def
/clipbox {
box
clip
newpath
} bind def
%!PS-Adobe-3.0 Resource-Font
%%Title: DejaVu Sans
%%Copyright: Copyright (c) 2003 by Bitstream, Inc. All Rights Reserved. Copyright (c) 2006 by Tavmjong Bah. All Rights Reserved. DejaVu changes are in public domain 
%%Creator: Converted from TrueType to type 3 by PPR
25 dict begin
/_d{bind def}bind def
/_m{moveto}_d
/_l{lineto}_d
/_cl{closepath eofill}_d
/_c{curveto}_d
/_sc{7 -1 roll{setcachedevice}{pop pop pop pop pop pop}ifelse}_d
/_e{exec}_d
/FontName /DejaVuSans def
/PaintType 0 def
/FontMatrix[.001 0 0 .001 0 0]def
/FontBBox[-1021 -463 1793 1232]def
/FontType 3 def
/Encoding [ /space /zero /one /two /three /four /five /six /eight /nine /E /H /S /T /V /bracketleft /bracketright /a /e /g /i /l /m /o /s /t /v ] def
/FontInfo 10 dict dup begin
/FamilyName (DejaVu Sans) def
/FullName (DejaVu Sans) def
/Notice (Copyright (c) 2003 by Bitstream, Inc. All Rights Reserved. Copyright (c) 2006 by Tavmjong Bah. All Rights Reserved. DejaVu changes are in public domain ) def
/Weight (Book) def
/Version (Version 2.35) def
/ItalicAngle 0.0 def
/isFixedPitch false def
/UnderlinePosition -130 def
/UnderlineThickness 90 def
end readonly def
/CharStrings 27 dict dup begin
/space{318 0 0 0 0 0 _sc
}_d
/zero{636 0 66 -13 570 742 _sc
318 664 _m
267 664 229 639 203 589 _c
177 539 165 464 165 364 _c
165 264 177 189 203 139 _c
229 89 267 64 318 64 _c
369 64 407 89 433 139 _c
458 189 471 264 471 364 _c
471 464 458 539 433 589 _c
407 639 369 664 318 664 _c
318 742 _m
399 742 461 709 505 645 _c
548 580 570 486 570 364 _c
570 241 548 147 505 83 _c
461 19 399 -13 318 -13 _c
236 -13 173 19 130 83 _c
87 147 66 241 66 364 _c
66 486 87 580 130 645 _c
173 709 236 742 318 742 _c
_cl}_d
/one{636 0 110 0 544 729 _sc
124 83 _m
285 83 _l
285 639 _l
110 604 _l
110 694 _l
284 729 _l
383 729 _l
383 83 _l
544 83 _l
544 0 _l
124 0 _l
124 83 _l
_cl}_d
/two{{636 0 73 0 536 742 _sc
192 83 _m
536 83 _l
536 0 _l
73 0 _l
73 83 _l
110 121 161 173 226 239 _c
290 304 331 346 348 365 _c
380 400 402 430 414 455 _c
426 479 433 504 433 528 _c
433 566 419 598 392 622 _c
365 646 330 659 286 659 _c
255 659 222 653 188 643 _c
154 632 117 616 78 594 _c
78 694 _l
118 710 155 722 189 730 _c
223 738 255 742 284 742 _c
}_e{359 742 419 723 464 685 _c
509 647 532 597 532 534 _c
532 504 526 475 515 449 _c
504 422 484 390 454 354 _c
446 344 420 317 376 272 _c
332 227 271 164 192 83 _c
_cl}_e}_d
/three{{636 0 76 -13 556 742 _sc
406 393 _m
453 383 490 362 516 330 _c
542 298 556 258 556 212 _c
556 140 531 84 482 45 _c
432 6 362 -13 271 -13 _c
240 -13 208 -10 176 -4 _c
144 1 110 10 76 22 _c
76 117 _l
103 101 133 89 166 81 _c
198 73 232 69 268 69 _c
330 69 377 81 409 105 _c
441 129 458 165 458 212 _c
458 254 443 288 413 312 _c
383 336 341 349 287 349 _c
}_e{202 349 _l
202 430 _l
291 430 _l
339 430 376 439 402 459 _c
428 478 441 506 441 543 _c
441 580 427 609 401 629 _c
374 649 336 659 287 659 _c
260 659 231 656 200 650 _c
169 644 135 635 98 623 _c
98 711 _l
135 721 170 729 203 734 _c
235 739 266 742 296 742 _c
370 742 429 725 473 691 _c
517 657 539 611 539 553 _c
539 513 527 479 504 451 _c
481 423 448 403 406 393 _c
_cl}_e}_d
/four{636 0 49 0 580 729 _sc
378 643 _m
129 254 _l
378 254 _l
378 643 _l
352 729 _m
476 729 _l
476 254 _l
580 254 _l
580 172 _l
476 172 _l
476 0 _l
378 0 _l
378 172 _l
49 172 _l
49 267 _l
352 729 _l
_cl}_d
/five{{636 0 77 -13 549 729 _sc
108 729 _m
495 729 _l
495 646 _l
198 646 _l
198 467 _l
212 472 227 476 241 478 _c
255 480 270 482 284 482 _c
365 482 429 459 477 415 _c
525 370 549 310 549 234 _c
549 155 524 94 475 51 _c
426 8 357 -13 269 -13 _c
238 -13 207 -10 175 -6 _c
143 -1 111 6 77 17 _c
77 116 _l
106 100 136 88 168 80 _c
199 72 232 69 267 69 _c
}_e{323 69 368 83 401 113 _c
433 143 450 183 450 234 _c
450 284 433 324 401 354 _c
368 384 323 399 267 399 _c
241 399 214 396 188 390 _c
162 384 135 375 108 363 _c
108 729 _l
_cl}_e}_d
/six{{636 0 70 -13 573 742 _sc
330 404 _m
286 404 251 388 225 358 _c
199 328 186 286 186 234 _c
186 181 199 139 225 109 _c
251 79 286 64 330 64 _c
374 64 409 79 435 109 _c
461 139 474 181 474 234 _c
474 286 461 328 435 358 _c
409 388 374 404 330 404 _c
526 713 _m
526 623 _l
501 635 476 644 451 650 _c
425 656 400 659 376 659 _c
310 659 260 637 226 593 _c
}_e{192 549 172 482 168 394 _c
187 422 211 444 240 459 _c
269 474 301 482 336 482 _c
409 482 467 459 509 415 _c
551 371 573 310 573 234 _c
573 159 550 99 506 54 _c
462 9 403 -13 330 -13 _c
246 -13 181 19 137 83 _c
92 147 70 241 70 364 _c
70 479 97 571 152 639 _c
206 707 280 742 372 742 _c
396 742 421 739 447 735 _c
472 730 498 723 526 713 _c
_cl}_e}_d
/eight{{636 0 68 -13 568 742 _sc
318 346 _m
271 346 234 333 207 308 _c
180 283 167 249 167 205 _c
167 161 180 126 207 101 _c
234 76 271 64 318 64 _c
364 64 401 76 428 102 _c
455 127 469 161 469 205 _c
469 249 455 283 429 308 _c
402 333 365 346 318 346 _c
219 388 _m
177 398 144 418 120 447 _c
96 476 85 511 85 553 _c
85 611 105 657 147 691 _c
188 725 245 742 318 742 _c
}_e{390 742 447 725 489 691 _c
530 657 551 611 551 553 _c
551 511 539 476 515 447 _c
491 418 459 398 417 388 _c
464 377 501 355 528 323 _c
554 291 568 251 568 205 _c
568 134 546 80 503 43 _c
459 5 398 -13 318 -13 _c
237 -13 175 5 132 43 _c
89 80 68 134 68 205 _c
68 251 81 291 108 323 _c
134 355 171 377 219 388 _c
183 544 _m
183 506 194 476 218 455 _c
}_e{242 434 275 424 318 424 _c
360 424 393 434 417 455 _c
441 476 453 506 453 544 _c
453 582 441 611 417 632 _c
393 653 360 664 318 664 _c
275 664 242 653 218 632 _c
194 611 183 582 183 544 _c
_cl}_e}_d
/nine{{636 0 63 -13 566 742 _sc
110 15 _m
110 105 _l
134 93 159 84 185 78 _c
210 72 235 69 260 69 _c
324 69 374 90 408 134 _c
442 178 462 244 468 334 _c
448 306 424 284 396 269 _c
367 254 335 247 300 247 _c
226 247 168 269 126 313 _c
84 357 63 417 63 494 _c
63 568 85 628 129 674 _c
173 719 232 742 306 742 _c
390 742 455 709 499 645 _c
543 580 566 486 566 364 _c
}_e{566 248 538 157 484 89 _c
429 21 356 -13 264 -13 _c
239 -13 214 -10 189 -6 _c
163 -2 137 5 110 15 _c
306 324 _m
350 324 385 339 411 369 _c
437 399 450 441 450 494 _c
450 546 437 588 411 618 _c
385 648 350 664 306 664 _c
262 664 227 648 201 618 _c
175 588 162 546 162 494 _c
162 441 175 399 201 369 _c
227 339 262 324 306 324 _c
_cl}_e}_d
/E{632 0 98 0 568 729 _sc
98 729 _m
559 729 _l
559 646 _l
197 646 _l
197 430 _l
544 430 _l
544 347 _l
197 347 _l
197 83 _l
568 83 _l
568 0 _l
98 0 _l
98 729 _l
_cl}_d
/H{752 0 98 0 654 729 _sc
98 729 _m
197 729 _l
197 430 _l
555 430 _l
555 729 _l
654 729 _l
654 0 _l
555 0 _l
555 347 _l
197 347 _l
197 0 _l
98 0 _l
98 729 _l
_cl}_d
/S{{635 0 66 -13 579 742 _sc
535 705 _m
535 609 _l
497 627 462 640 429 649 _c
395 657 363 662 333 662 _c
279 662 237 651 208 631 _c
179 610 165 580 165 542 _c
165 510 174 485 194 469 _c
213 452 250 439 304 429 _c
364 417 _l
437 403 491 378 526 343 _c
561 307 579 260 579 201 _c
579 130 555 77 508 41 _c
460 5 391 -13 300 -13 _c
265 -13 228 -9 189 -2 _c
}_e{150 5 110 16 69 32 _c
69 134 _l
109 111 148 94 186 83 _c
224 71 262 66 300 66 _c
356 66 399 77 430 99 _c
460 121 476 152 476 194 _c
476 230 465 258 443 278 _c
421 298 385 313 335 323 _c
275 335 _l
201 349 148 372 115 404 _c
82 435 66 478 66 534 _c
66 598 88 649 134 686 _c
179 723 242 742 322 742 _c
356 742 390 739 426 733 _c
461 727 497 717 535 705 _c
}_e{_cl}_e}_d
/T{611 0 -2 0 614 729 _sc
-2 729 _m
614 729 _l
614 646 _l
355 646 _l
355 0 _l
256 0 _l
256 646 _l
-2 646 _l
-2 729 _l
_cl}_d
/V{684 0 8 0 676 729 _sc
286 0 _m
8 729 _l
111 729 _l
342 115 _l
573 729 _l
676 729 _l
398 0 _l
286 0 _l
_cl}_d
/bracketleft{390 0 86 -131 293 760 _sc
86 760 _m
293 760 _l
293 690 _l
176 690 _l
176 -61 _l
293 -61 _l
293 -131 _l
86 -131 _l
86 760 _l
_cl}_d
/bracketright{390 0 97 -131 304 760 _sc
304 760 _m
304 -131 _l
97 -131 _l
97 -61 _l
214 -61 _l
214 690 _l
97 690 _l
97 760 _l
304 760 _l
_cl}_d
/a{{613 0 60 -13 522 560 _sc
343 275 _m
270 275 220 266 192 250 _c
164 233 150 205 150 165 _c
150 133 160 107 181 89 _c
202 70 231 61 267 61 _c
317 61 357 78 387 114 _c
417 149 432 196 432 255 _c
432 275 _l
343 275 _l
522 312 _m
522 0 _l
432 0 _l
432 83 _l
411 49 385 25 355 10 _c
325 -5 287 -13 243 -13 _c
187 -13 142 2 109 33 _c
76 64 60 106 60 159 _c
}_e{60 220 80 266 122 298 _c
163 329 224 345 306 345 _c
432 345 _l
432 354 _l
432 395 418 427 391 450 _c
364 472 326 484 277 484 _c
245 484 215 480 185 472 _c
155 464 127 453 100 439 _c
100 522 _l
132 534 164 544 195 550 _c
226 556 256 560 286 560 _c
365 560 424 539 463 498 _c
502 457 522 395 522 312 _c
_cl}_e}_d
/e{{615 0 55 -13 562 560 _sc
562 296 _m
562 252 _l
149 252 _l
153 190 171 142 205 110 _c
238 78 284 62 344 62 _c
378 62 412 66 444 74 _c
476 82 509 95 541 113 _c
541 28 _l
509 14 476 3 442 -3 _c
408 -9 373 -13 339 -13 _c
251 -13 182 12 131 62 _c
80 112 55 181 55 268 _c
55 357 79 428 127 481 _c
175 533 241 560 323 560 _c
397 560 455 536 498 489 _c
}_e{540 441 562 377 562 296 _c
472 322 _m
471 371 457 410 431 440 _c
404 469 368 484 324 484 _c
274 484 234 469 204 441 _c
174 413 156 373 152 322 _c
472 322 _l
_cl}_e}_d
/g{{635 0 55 -207 544 560 _sc
454 280 _m
454 344 440 395 414 431 _c
387 467 349 485 301 485 _c
253 485 215 467 188 431 _c
161 395 148 344 148 280 _c
148 215 161 165 188 129 _c
215 93 253 75 301 75 _c
349 75 387 93 414 129 _c
440 165 454 215 454 280 _c
544 68 _m
544 -24 523 -93 482 -139 _c
440 -184 377 -207 292 -207 _c
260 -207 231 -204 203 -200 _c
175 -195 147 -188 121 -178 _c
}_e{121 -91 _l
147 -105 173 -115 199 -122 _c
225 -129 251 -133 278 -133 _c
336 -133 380 -117 410 -87 _c
439 -56 454 -10 454 52 _c
454 96 _l
435 64 411 40 382 24 _c
353 8 319 0 279 0 _c
211 0 157 25 116 76 _c
75 127 55 195 55 280 _c
55 364 75 432 116 483 _c
157 534 211 560 279 560 _c
319 560 353 552 382 536 _c
411 520 435 496 454 464 _c
454 547 _l
544 547 _l
}_e{544 68 _l
_cl}_e}_d
/i{278 0 94 0 184 760 _sc
94 547 _m
184 547 _l
184 0 _l
94 0 _l
94 547 _l
94 760 _m
184 760 _l
184 646 _l
94 646 _l
94 760 _l
_cl}_d
/l{278 0 94 0 184 760 _sc
94 760 _m
184 760 _l
184 0 _l
94 0 _l
94 760 _l
_cl}_d
/m{{974 0 91 0 889 560 _sc
520 442 _m
542 482 569 511 600 531 _c
631 550 668 560 711 560 _c
767 560 811 540 842 500 _c
873 460 889 403 889 330 _c
889 0 _l
799 0 _l
799 327 _l
799 379 789 418 771 444 _c
752 469 724 482 686 482 _c
639 482 602 466 575 435 _c
548 404 535 362 535 309 _c
535 0 _l
445 0 _l
445 327 _l
445 379 435 418 417 444 _c
398 469 369 482 331 482 _c
}_e{285 482 248 466 221 435 _c
194 404 181 362 181 309 _c
181 0 _l
91 0 _l
91 547 _l
181 547 _l
181 462 _l
201 495 226 520 255 536 _c
283 552 317 560 357 560 _c
397 560 430 550 458 530 _c
486 510 506 480 520 442 _c
_cl}_e}_d
/o{612 0 55 -13 557 560 _sc
306 484 _m
258 484 220 465 192 427 _c
164 389 150 338 150 273 _c
150 207 163 156 191 118 _c
219 80 257 62 306 62 _c
354 62 392 80 420 118 _c
448 156 462 207 462 273 _c
462 337 448 389 420 427 _c
392 465 354 484 306 484 _c
306 560 _m
384 560 445 534 490 484 _c
534 433 557 363 557 273 _c
557 183 534 113 490 63 _c
445 12 384 -13 306 -13 _c
227 -13 165 12 121 63 _c
77 113 55 183 55 273 _c
55 363 77 433 121 484 _c
165 534 227 560 306 560 _c
_cl}_d
/s{{521 0 54 -13 472 560 _sc
443 531 _m
443 446 _l
417 458 391 468 364 475 _c
336 481 308 485 279 485 _c
234 485 200 478 178 464 _c
156 450 145 430 145 403 _c
145 382 153 366 169 354 _c
185 342 217 330 265 320 _c
296 313 _l
360 299 405 279 432 255 _c
458 230 472 195 472 151 _c
472 100 452 60 412 31 _c
372 1 316 -13 246 -13 _c
216 -13 186 -10 154 -5 _c
}_e{122 0 89 8 54 20 _c
54 113 _l
87 95 120 82 152 74 _c
184 65 216 61 248 61 _c
290 61 323 68 346 82 _c
368 96 380 117 380 144 _c
380 168 371 187 355 200 _c
339 213 303 226 247 238 _c
216 245 _l
160 257 119 275 95 299 _c
70 323 58 356 58 399 _c
58 450 76 490 112 518 _c
148 546 200 560 268 560 _c
301 560 332 557 362 552 _c
391 547 418 540 443 531 _c
}_e{_cl}_e}_d
/t{392 0 27 0 368 702 _sc
183 702 _m
183 547 _l
368 547 _l
368 477 _l
183 477 _l
183 180 _l
183 135 189 106 201 94 _c
213 81 238 75 276 75 _c
368 75 _l
368 0 _l
276 0 _l
206 0 158 13 132 39 _c
106 65 93 112 93 180 _c
93 477 _l
27 477 _l
27 547 _l
93 547 _l
93 702 _l
183 702 _l
_cl}_d
/v{592 0 30 0 562 547 _sc
30 547 _m
125 547 _l
296 88 _l
467 547 _l
562 547 _l
357 0 _l
235 0 _l
30 547 _l
_cl}_d
end readonly def

/BuildGlyph
 {exch begin
 CharStrings exch
 2 copy known not{pop /.notdef}if
 true 3 1 roll get exec
 end}_d

/BuildChar {
 1 index /Encoding get exch get
 1 index /BuildGlyph get exec
}_d

FontName currentdict end definefont pop
end
%%EndProlog
mpldict begin
90 252 translate
432 288 0 0 clipbox
gsave
0 0 m
432 0 l
432 288 l
0 288 l
cl
1.000 setgray
fill
grestore
gsave
54 36 m
388.8 36 l
388.8 253.44 l
54 253.44 l
cl
1.000 setgray
fill
grestore
0.800 setlinewidth
1 setlinejoin
2 setlinecap
[] 0 setdash
0.690 setgray
gsave
334.8 217.4 54 36 clipbox
69.218182 36 m
69.218182 253.44 l
stroke
grestore
0 setlinecap
0.000 setgray
gsave
/o {
gsave
newpath
translate
0.8 setlinewidth
1 setlinejoin
0 setlinecap
0 0 m
0 -3.5 l

gsave
0.000 setgray
fill
grestore
stroke
grestore
} bind def
69.2182 36 o
grestore
/DejaVuSans findfont
10.000 scalefont
setfont
gsave
66.038494 21.406250 translate
0.000000 rotate
0.000000 0.000000 m /zero glyphshow
grestore
2 setlinecap
0.690 setgray
gsave
334.8 217.4 54 36 clipbox
112.729781 36 m
112.729781 253.44 l
stroke
grestore
0 setlinecap
0.000 setgray
gsave
/o {
gsave
newpath
translate
0.8 setlinewidth
1 setlinejoin
0 setlinecap
0 0 m
0 -3.5 l

gsave
0.000 setgray
fill
grestore
stroke
grestore
} bind def
112.73 36 o
grestore
gsave
103.190719 21.406250 translate
0.000000 rotate
0.000000 0.000000 m /two glyphshow
6.362305 0.000000 m /zero glyphshow
12.724609 0.000000 m /zero glyphshow
grestore
2 setlinecap
0.690 setgray
gsave
334.8 217.4 54 36 clipbox
156.24138 36 m
156.24138 253.44 l
stroke
grestore
0 setlinecap
0.000 setgray
gsave
/o {
gsave
newpath
translate
0.8 setlinewidth
1 setlinejoin
0 setlinecap
0 0 m
0 -3.5 l

gsave
0.000 setgray
fill
grestore
stroke
grestore
} bind def
156.241 36 o
grestore
gsave
146.702318 21.406250 translate
0.000000 rotate
0.000000 0.000000 m /four glyphshow
6.362305 0.000000 m /zero glyphshow
12.724609 0.000000 m /zero glyphshow
grestore
2 setlinecap
0.690 setgray
gsave
334.8 217.4 54 36 clipbox
199.752979 36 m
199.752979 253.44 l
stroke
grestore
0 setlinecap
0.000 setgray
gsave
/o {
gsave
newpath
translate
0.8 setlinewidth
1 setlinejoin
0 setlinecap
0 0 m
0 -3.5 l

gsave
0.000 setgray
fill
grestore
stroke
grestore
} bind def
199.753 36 o
grestore
gsave
190.213917 21.406250 translate
0.000000 rotate
0.000000 0.000000 m /six glyphshow
6.362305 0.000000 m /zero glyphshow
12.724609 0.000000 m /zero glyphshow
grestore
2 setlinecap
0.690 setgray
gsave
334.8 217.4 54 36 clipbox
243.264579 36 m
243.264579 253.44 l
stroke
grestore
0 setlinecap
0.000 setgray
gsave
/o {
gsave
newpath
translate
0.8 setlinewidth
1 setlinejoin
0 setlinecap
0 0 m
0 -3.5 l

gsave
0.000 setgray
fill
grestore
stroke
grestore
} bind def
243.265 36 o
grestore
gsave
233.725516 21.406250 translate
0.000000 rotate
0.000000 0.000000 m /eight glyphshow
6.362305 0.000000 m /zero glyphshow
12.724609 0.000000 m /zero glyphshow
grestore
2 setlinecap
0.690 setgray
gsave
334.8 217.4 54 36 clipbox
286.776178 36 m
286.776178 253.44 l
stroke
grestore
0 setlinecap
0.000 setgray
gsave
/o {
gsave
newpath
translate
0.8 setlinewidth
1 setlinejoin
0 setlinecap
0 0 m
0 -3.5 l

gsave
0.000 setgray
fill
grestore
stroke
grestore
} bind def
286.776 36 o
grestore
gsave
274.057428 21.406250 translate
0.000000 rotate
0.000000 0.000000 m /one glyphshow
6.362305 0.000000 m /zero glyphshow
12.724609 0.000000 m /zero glyphshow
19.086914 0.000000 m /zero glyphshow
grestore
2 setlinecap
0.690 setgray
gsave
334.8 217.4 54 36 clipbox
330.287777 36 m
330.287777 253.44 l
stroke
grestore
0 setlinecap
0.000 setgray
gsave
/o {
gsave
newpath
translate
0.8 setlinewidth
1 setlinejoin
0 setlinecap
0 0 m
0 -3.5 l

gsave
0.000 setgray
fill
grestore
stroke
grestore
} bind def
330.288 36 o
grestore
gsave
317.569027 21.406250 translate
0.000000 rotate
0.000000 0.000000 m /one glyphshow
6.362305 0.000000 m /two glyphshow
12.724609 0.000000 m /zero glyphshow
19.086914 0.000000 m /zero glyphshow
grestore
2 setlinecap
0.690 setgray
gsave
334.8 217.4 54 36 clipbox
373.799376 36 m
373.799376 253.44 l
stroke
grestore
0 setlinecap
0.000 setgray
gsave
/o {
gsave
newpath
translate
0.8 setlinewidth
1 setlinejoin
0 setlinecap
0 0 m
0 -3.5 l

gsave
0.000 setgray
fill
grestore
stroke
grestore
} bind def
373.799 36 o
grestore
gsave
361.080626 21.406250 translate
0.000000 rotate
0.000000 0.000000 m /one glyphshow
6.362305 0.000000 m /four glyphshow
12.724609 0.000000 m /zero glyphshow
19.086914 0.000000 m /zero glyphshow
grestore
gsave
200.892188 7.734375 translate
0.000000 rotate
0.000000 0.000000 m /T glyphshow
6.108398 0.000000 m /i glyphshow
8.886719 0.000000 m /m glyphshow
18.627930 0.000000 m /e glyphshow
24.780273 0.000000 m /space glyphshow
27.958984 0.000000 m /bracketleft glyphshow
31.860352 0.000000 m /s glyphshow
37.070312 0.000000 m /bracketright glyphshow
grestore
2 setlinecap
0.690 setgray
gsave
334.8 217.4 54 36 clipbox
54 44.800521 m
388.8 44.800521 l
stroke
grestore
0 setlinecap
0.000 setgray
gsave
/o {
gsave
newpath
translate
0.8 setlinewidth
1 setlinejoin
0 setlinecap
0 0 m
-3.5 0 l

gsave
0.000 setgray
fill
grestore
stroke
grestore
} bind def
54 44.8005 o
grestore
gsave
27.921875 41.003646 translate
0.000000 rotate
0.000000 0.000000 m /one glyphshow
6.362305 0.000000 m /nine glyphshow
12.724609 0.000000 m /zero glyphshow
grestore
2 setlinecap
0.690 setgray
gsave
334.8 217.4 54 36 clipbox
54 73.561626 m
388.8 73.561626 l
stroke
grestore
0 setlinecap
0.000 setgray
gsave
/o {
gsave
newpath
translate
0.8 setlinewidth
1 setlinejoin
0 setlinecap
0 0 m
-3.5 0 l

gsave
0.000 setgray
fill
grestore
stroke
grestore
} bind def
54 73.5616 o
grestore
gsave
27.921875 69.764751 translate
0.000000 rotate
0.000000 0.000000 m /two glyphshow
6.362305 0.000000 m /zero glyphshow
12.724609 0.000000 m /zero glyphshow
grestore
2 setlinecap
0.690 setgray
gsave
334.8 217.4 54 36 clipbox
54 102.322731 m
388.8 102.322731 l
stroke
grestore
0 setlinecap
0.000 setgray
gsave
/o {
gsave
newpath
translate
0.8 setlinewidth
1 setlinejoin
0 setlinecap
0 0 m
-3.5 0 l

gsave
0.000 setgray
fill
grestore
stroke
grestore
} bind def
54 102.323 o
grestore
gsave
27.921875 98.525856 translate
0.000000 rotate
0.000000 0.000000 m /two glyphshow
6.362305 0.000000 m /one glyphshow
12.724609 0.000000 m /zero glyphshow
grestore
2 setlinecap
0.690 setgray
gsave
334.8 217.4 54 36 clipbox
54 131.083835 m
388.8 131.083835 l
stroke
grestore
0 setlinecap
0.000 setgray
gsave
/o {
gsave
newpath
translate
0.8 setlinewidth
1 setlinejoin
0 setlinecap
0 0 m
-3.5 0 l

gsave
0.000 setgray
fill
grestore
stroke
grestore
} bind def
54 131.084 o
grestore
gsave
27.921875 127.286960 translate
0.000000 rotate
0.000000 0.000000 m /two glyphshow
6.362305 0.000000 m /two glyphshow
12.724609 0.000000 m /zero glyphshow
grestore
2 setlinecap
0.690 setgray
gsave
334.8 217.4 54 36 clipbox
54 159.84494 m
388.8 159.84494 l
stroke
grestore
0 setlinecap
0.000 setgray
gsave
/o {
gsave
newpath
translate
0.8 setlinewidth
1 setlinejoin
0 setlinecap
0 0 m
-3.5 0 l

gsave
0.000 setgray
fill
grestore
stroke
grestore
} bind def
54 159.845 o
grestore
gsave
27.921875 156.048065 translate
0.000000 rotate
0.000000 0.000000 m /two glyphshow
6.362305 0.000000 m /three glyphshow
12.724609 0.000000 m /zero glyphshow
grestore
2 setlinecap
0.690 setgray
gsave
334.8 217.4 54 36 clipbox
54 188.606045 m
388.8 188.606045 l
stroke
grestore
0 setlinecap
0.000 setgray
gsave
/o {
gsave
newpath
translate
0.8 setlinewidth
1 setlinejoin
0 setlinecap
0 0 m
-3.5 0 l

gsave
0.000 setgray
fill
grestore
stroke
grestore
} bind def
54 188.606 o
grestore
gsave
27.921875 184.809170 translate
0.000000 rotate
0.000000 0.000000 m /two glyphshow
6.362305 0.000000 m /four glyphshow
12.724609 0.000000 m /zero glyphshow
grestore
2 setlinecap
0.690 setgray
gsave
334.8 217.4 54 36 clipbox
54 217.36715 m
388.8 217.36715 l
stroke
grestore
0 setlinecap
0.000 setgray
gsave
/o {
gsave
newpath
translate
0.8 setlinewidth
1 setlinejoin
0 setlinecap
0 0 m
-3.5 0 l

gsave
0.000 setgray
fill
grestore
stroke
grestore
} bind def
54 217.367 o
grestore
gsave
27.921875 213.570275 translate
0.000000 rotate
0.000000 0.000000 m /two glyphshow
6.362305 0.000000 m /five glyphshow
12.724609 0.000000 m /zero glyphshow
grestore
2 setlinecap
0.690 setgray
gsave
334.8 217.4 54 36 clipbox
54 246.128254 m
388.8 246.128254 l
stroke
grestore
0 setlinecap
0.000 setgray
gsave
/o {
gsave
newpath
translate
0.8 setlinewidth
1 setlinejoin
0 setlinecap
0 0 m
-3.5 0 l

gsave
0.000 setgray
fill
grestore
stroke
grestore
} bind def
54 246.128 o
grestore
gsave
27.921875 242.331379 translate
0.000000 rotate
0.000000 0.000000 m /two glyphshow
6.362305 0.000000 m /six glyphshow
12.724609 0.000000 m /zero glyphshow
grestore
gsave
21.843750 102.259062 translate
90.000000 rotate
0.000000 0.000000 m /H glyphshow
7.519531 0.000000 m /E glyphshow
13.837891 0.000000 m /S glyphshow
20.185547 0.000000 m /S glyphshow
26.533203 0.000000 m /space glyphshow
29.711914 0.000000 m /v glyphshow
35.629883 0.000000 m /o glyphshow
41.748047 0.000000 m /l glyphshow
44.526367 0.000000 m /t glyphshow
48.447266 0.000000 m /a glyphshow
54.575195 0.000000 m /g glyphshow
60.922852 0.000000 m /e glyphshow
67.075195 0.000000 m /space glyphshow
70.253906 0.000000 m /bracketleft glyphshow
74.155273 0.000000 m /V glyphshow
80.996094 0.000000 m /bracketright glyphshow
grestore
1.500 setlinewidth
2 setlinecap
0.122 0.467 0.706 setrgbcolor
gsave
334.8 217.4 54 36 clipbox
69.218182 137.742619 m
69.870856 138.032895 l
70.088414 138.126137 l
70.305972 138.080221 l
70.741088 137.429193 l
70.958646 137.112274 l
71.176204 137.179015 l
71.393762 137.82808 l
71.828878 139.814353 l
72.046436 139.806442 l
72.263994 138.28885 l
73.134226 127.825724 l
73.351784 129.506791 l
73.7869 138.623167 l
74.222016 147.205866 l
74.439574 149.355265 l
74.657132 149.910954 l
74.87469 149.146916 l
75.092248 146.653337 l
75.309806 141.667694 l
75.744922 122.888398 l
76.180038 102.131009 l
76.397596 98.381726 l
76.615154 101.789404 l
77.485386 138.167414 l
77.702944 133.863186 l
78.355618 101.128752 l
78.573176 98.53011 l
78.790734 103.402297 l
79.443408 132.72816 l
79.660966 135.768828 l
79.878524 133.735407 l
80.531198 120.213967 l
80.748756 120.509968 l
80.966314 124.037167 l
81.618988 139.671081 l
81.836546 141.537525 l
82.054104 140.551511 l
82.706778 130.677287 l
82.924336 130.952514 l
83.141894 134.816598 l
84.012126 160.045426 l
84.229684 158.693163 l
84.6648 146.35524 l
85.099916 135.370553 l
85.317474 133.740796 l
85.535032 133.969727 l
85.75259 134.723584 l
85.970148 134.573775 l
86.187706 132.969443 l
86.622821 126.134843 l
87.275495 114.949777 l
87.493053 114.49891 l
87.710611 118.557954 l
87.928169 129.081843 l
88.363285 169.22542 l
88.798401 213.054485 l
89.015959 224.319734 l
89.233517 224.876794 l
89.451075 215.690901 l
90.538865 147.303055 l
90.756423 138.759007 l
90.973981 138.062008 l
92.714445 138.109962 l
93.149561 138.245481 l
93.367119 138.165182 l
94.019793 137.451967 l
94.237351 137.679518 l
94.454909 138.196548 l
94.890025 139.739775 l
95.107583 139.812982 l
95.325141 139.05746 l
95.977815 134.368291 l
96.195373 134.065781 l
96.630489 135.482535 l
96.848047 135.209244 l
97.065605 132.841837 l
97.500721 121.802266 l
97.935837 111.542516 l
98.153395 110.766167 l
98.370953 113.441714 l
99.241185 131.072265 l
99.458743 131.990136 l
99.676301 132.378828 l
99.893859 133.392151 l
100.328975 138.962401 l
100.764091 144.750512 l
100.981649 145.393207 l
101.199207 144.139241 l
102.722113 125.859047 l
103.374787 112.181315 l
103.592345 111.857994 l
103.809903 116.771046 l
104.027461 128.253014 l
105.115251 211.595567 l
105.332809 209.761612 l
105.767925 183.926598 l
106.420599 138.340479 l
107.073273 113.790433 l
107.508389 104.148043 l
107.725947 103.041447 l
107.943505 104.685186 l
108.378621 111.108195 l
108.596179 112.255921 l
108.813737 110.815816 l
109.248853 105.051608 l
109.466411 104.640553 l
109.683969 107.495087 l
110.771759 135.761869 l
111.206875 139.686524 l
111.424433 140.657958 l
111.641991 140.384555 l
111.859549 137.611952 l
112.077107 131.972193 l
112.512223 113.098892 l
112.729781 137.592761 l
114.035129 137.638616 l
114.687803 137.20982 l
114.905361 137.254467 l
115.122919 137.511047 l
115.775593 138.869221 l
115.993151 138.542973 l
116.210709 137.254332 l
116.645825 131.52959 l
117.298499 121.949212 l
117.516057 120.877956 l
117.733615 121.051887 l
118.821405 125.917144 l
119.038963 126.696792 l
119.256521 128.137312 l
120.126753 137.683343 l
120.344311 138.02408 l
120.561869 136.555049 l
120.996985 129.712548 l
121.867217 114.712962 l
122.084775 113.351003 l
122.302333 114.165105 l
122.519891 117.780667 l
123.172565 137.644293 l
123.390123 139.247977 l
123.607681 133.794479 l
124.042797 102.485988 l
124.477913 69.255206 l
124.695471 64.557368 l
124.913029 71.196017 l
125.348145 108.919717 l
125.783261 143.871965 l
126.000819 149.801649 l
126.218377 147.546576 l
127.088609 120.169643 l
127.306167 119.708488 l
127.523725 121.53554 l
128.393957 131.586538 l
128.829073 133.590904 l
129.046631 133.342874 l
129.264189 132.313459 l
129.916863 126.918544 l
130.134421 126.049208 l
130.351979 126.061483 l
130.787095 127.746031 l
131.222211 129.318827 l
131.439769 129.581792 l
131.657327 129.56593 l
132.310001 129.164169 l
132.745117 129.351322 l
133.615349 130.446981 l
133.832907 129.893293 l
134.268023 126.386344 l
134.485581 136.68979 l
135.573371 136.720186 l
136.226045 136.592701 l
136.661161 136.488031 l
137.096277 136.609671 l
137.748951 137.395567 l
138.184067 137.936797 l
138.401625 137.92267 l
138.619183 137.716211 l
139.054299 136.130902 l
139.489415 133.218954 l
141.01232 121.46336 l
141.447436 119.244091 l
141.882552 118.287685 l
142.10011 118.425232 l
142.317668 118.925907 l
142.752784 121.069439 l
143.1879 125.13257 l
143.623016 132.275481 l
144.928364 161.851225 l
145.145922 162.502707 l
145.36348 160.832504 l
145.798596 151.661267 l
146.668828 128.18277 l
147.103944 122.22169 l
147.321502 120.959936 l
147.53906 120.667341 l
147.756618 120.930183 l
149.279524 125.210192 l
149.71464 128.002895 l
150.80243 137.795553 l
151.019988 137.643033 l
151.237546 136.186475 l
151.672662 130.129421 l
152.107778 123.804206 l
152.325336 122.472164 l
152.542894 123.203064 l
152.760452 126.261402 l
153.195568 138.035043 l
153.848242 155.782013 l
154.0658 157.686296 l
154.283358 156.858079 l
154.718474 148.981444 l
155.371148 135.641955 l
155.806264 132.449282 l
156.023822 132.017746 l
156.24138 136.491174 l
157.111612 136.549151 l
157.981844 136.927986 l
158.41696 137.077433 l
158.634518 137.006174 l
158.852076 136.732248 l
159.069634 136.262434 l
159.50475 134.446665 l
160.157424 130.021512 l
160.59254 127.221874 l
160.810098 126.354135 l
161.027656 126.065802 l
161.245214 126.411569 l
161.462772 127.464578 l
161.897888 131.160408 l
162.550562 137.516218 l
162.76812 138.861209 l
162.985678 139.462144 l
163.203236 139.359537 l
163.420794 138.546687 l
163.85591 135.545295 l
164.508584 130.878328 l
164.9437 129.351939 l
165.378816 128.933897 l
165.596374 128.837753 l
166.03149 128.185137 l
166.684164 126.102824 l
167.11928 124.801869 l
167.336838 124.509807 l
167.554396 124.526281 l
167.771954 124.818175 l
168.424628 126.468311 l
168.642186 126.623321 l
168.859744 126.25681 l
169.077302 125.161875 l
169.512418 120.132577 l
169.947534 111.215932 l
171.035324 85.11079 l
171.252882 82.881757 l
171.47044 82.632355 l
171.687998 84.564998 l
172.123114 94.860955 l
172.993346 130.085139 l
173.428462 145.308798 l
173.863578 153.583033 l
174.081136 154.730992 l
174.298694 154.051987 l
174.516252 151.918134 l
175.168926 140.882598 l
175.604042 133.979798 l
176.039158 130.392362 l
176.256716 129.915224 l
176.474274 130.355863 l
176.90939 132.582295 l
177.562064 136.523383 l
177.779622 137.425113 l
177.99718 135.803248 l
178.649854 135.940404 l
178.867412 135.905856 l
179.520086 136.318206 l
179.955202 136.876505 l
180.607876 138.191161 l
181.042992 139.524251 l
181.913224 143.295226 l
182.783456 147.048809 l
183.218572 148.202563 l
183.653688 148.536734 l
184.088804 147.829402 l
184.52392 146.021665 l
185.176594 141.523285 l
187.352174 123.593119 l
188.439964 118.749207 l
189.092638 117.089732 l
189.745312 116.059227 l
190.180428 115.926203 l
190.615544 116.567304 l
191.05066 117.984064 l
191.703334 121.280419 l
192.356008 126.033011 l
193.443798 134.288012 l
193.878914 136.447114 l
194.31403 137.4655 l
194.531587 137.418625 l
194.749145 137.505023 l
194.966703 137.06052 l
195.401819 135.288926 l
196.054493 131.161266 l
197.577399 119.214777 l
198.230073 115.701223 l
198.665189 114.331732 l
199.535421 113.407879 l
199.752979 135.178544 l
264.80282 135.178544 l
265.020378 134.092119 l
265.237936 132.402425 l
265.455494 128.712579 l
265.673052 106.901432 l
265.89061 99.41508 l
266.108168 119.304826 l
266.325726 45.883636 l
266.543284 139.264884 l
266.760842 87.28567 l
266.9784 131.434339 l
267.413516 143.285861 l
267.631074 100.070568 l
267.848632 147.973417 l
268.06619 122.671355 l
268.283748 144.469487 l
268.501306 131.187166 l
268.718864 139.632025 l
268.936422 132.307923 l
269.15398 135.386838 l
269.371538 151.883791 l
269.589096 137.693906 l
269.806654 135.261854 l
270.024212 137.470735 l
270.24177 154.269971 l
270.459328 118.814646 l
270.676886 171.705545 l
270.894444 121.394566 l
271.112002 165.783697 l
271.32956 141.212256 l
271.547118 149.257642 l
271.764676 136.220496 l
271.982234 141.862626 l
272.199792 127.470486 l
272.41735 136.854309 l
272.634908 115.430088 l
272.852466 110.143624 l
273.070024 123.409231 l
273.287582 102.772276 l
273.50514 139.322954 l
273.722698 121.171942 l
273.940256 141.153084 l
274.157814 139.838867 l
274.375372 109.02287 l
274.59293 159.066881 l
274.810488 103.064095 l
275.028046 154.803469 l
275.245604 101.672694 l
275.463162 132.544856 l
275.68072 113.111485 l
276.115836 138.407038 l
276.333394 127.025119 l
276.550952 138.930853 l
276.76851 117.242051 l
276.986068 145.226423 l
277.203626 122.985925 l
277.421184 125.215306 l
277.638742 132.35102 l
277.8563 126.83948 l
278.291416 135.348789 l
278.508974 140.420747 l
278.94409 137.638564 l
279.596764 102.838046 l
279.814322 131.752748 l
280.03188 107.351843 l
280.249438 154.576885 l
280.466996 135.915646 l
280.684554 127.268637 l
280.902112 95.555129 l
281.11967 130.622417 l
281.337228 83.481394 l
281.554786 140.762417 l
281.772344 122.284421 l
281.989902 139.762294 l
282.20746 126.650345 l
282.425018 132.091798 l
282.642576 120.077176 l
282.860134 140.89228 l
283.077692 142.454354 l
283.29525 132.568095 l
283.512808 148.370842 l
283.947924 109.930198 l
284.165482 160.910531 l
284.38304 110.938465 l
284.600598 158.108863 l
284.818156 126.237043 l
285.035714 176.680458 l
285.253272 134.82347 l
285.47083 179.225229 l
285.688388 140.658547 l
285.905946 138.30507 l
286.123504 92.094837 l
286.341062 136.878813 l
286.55862 151.914411 l
286.776178 107.533067 l
286.993736 126.946298 l
287.211294 183.502703 l
287.428852 140.48661 l
287.64641 231.649914 l
287.863968 155.539412 l
288.081526 199.312385 l
288.299084 162.69568 l
288.516642 156.970066 l
288.7342 141.375728 l
288.951758 134.626062 l
289.169316 133.854013 l
289.82199 133.819301 l
290.039548 131.783675 l
290.257106 133.819875 l
290.474664 131.782833 l
290.692222 133.814328 l
291.780012 133.825386 l
297.654078 133.786697 l
297.871636 131.73309 l
298.089194 133.762202 l
298.306752 131.731612 l
298.52431 133.756629 l
299.6121 133.769364 l
301.135006 133.759516 l
301.570122 122.52361 l
301.78768 127.636444 l
302.005238 127.783492 l
302.440353 139.000758 l
302.657911 134.970323 l
302.875469 133.726271 l
306.791513 133.694715 l
307.009071 130.307235 l
307.226629 96.763919 l
307.444187 123.935136 l
307.661745 90.027152 l
307.879303 129.177148 l
308.096861 143.126089 l
308.314419 166.098304 l
308.749535 146.308628 l
308.967093 150.880198 l
309.184651 140.772393 l
309.619767 114.432693 l
309.837325 109.210659 l
310.054883 114.547524 l
310.272441 131.233787 l
310.489999 134.867069 l
310.707557 144.868321 l
310.925115 145.810588 l
311.142673 144.562199 l
311.360231 125.814807 l
311.577789 129.459299 l
312.012905 113.689861 l
312.230463 162.804475 l
312.448021 116.692504 l
312.665579 156.695961 l
312.883137 135.436732 l
313.100695 140.790653 l
313.318253 142.953607 l
313.535811 177.107941 l
313.753369 187.44053 l
313.970927 159.778535 l
314.188485 234.015814 l
314.406043 142.525792 l
314.623601 197.524358 l
314.841159 159.520286 l
315.276275 135.13407 l
315.711391 137.671479 l
315.928949 139.82798 l
316.146507 135.273286 l
316.364065 119.917221 l
316.581623 87.401897 l
316.799181 129.608366 l
317.016739 90.567303 l
317.451855 158.697733 l
317.669413 92.495981 l
317.886971 164.861206 l
318.104529 114.412751 l
318.322087 128.556316 l
318.539645 161.869153 l
318.757203 99.647783 l
318.974761 170.516214 l
319.192319 97.305563 l
319.409877 143.828519 l
319.627435 131.369317 l
319.844993 133.467144 l
320.062551 133.449901 l
320.280109 142.724512 l
320.497667 124.767347 l
320.715225 131.930418 l
320.932783 134.278243 l
321.150341 120.640443 l
321.367899 131.488496 l
321.585457 122.716296 l
321.803015 132.471497 l
322.020573 133.928797 l
322.238131 114.977767 l
322.455689 133.108463 l
322.673247 128.921596 l
322.890805 130.103684 l
323.108363 124.932217 l
323.325921 157.789235 l
323.543479 113.972366 l
323.761037 150.241852 l
323.978595 130.41275 l
324.196153 121.766997 l
324.413711 127.062544 l
324.631269 141.765629 l
324.848827 185.821471 l
325.066385 205.223629 l
325.283943 243.082956 l
325.501501 240.611236 l
325.719059 231.939453 l
325.936617 197.069673 l
326.154175 194.65161 l
326.371733 174.109303 l
326.589291 170.765939 l
326.806849 177.954609 l
327.024407 169.674256 l
327.241965 153.926608 l
327.459523 151.793167 l
327.677081 138.808744 l
327.894639 118.102594 l
328.112197 78.864682 l
328.547313 109.588037 l
328.764871 104.076734 l
328.982429 169.321731 l
329.199987 73.702256 l
329.417545 167.178283 l
329.635103 88.341324 l
329.852661 154.996065 l
330.070219 119.586354 l
330.287777 135.557134 l
330.505335 135.616677 l
330.722893 135.39505 l
330.940451 135.687409 l
331.158009 135.35811 l
331.375567 135.657895 l
331.593125 135.444009 l
331.810683 135.496562 l
332.028241 135.722463 l
332.245799 135.080846 l
332.463357 136.346588 l
332.680915 134.185721 l
332.898473 137.546653 l
333.116031 132.585821 l
333.333589 139.641298 l
333.551147 129.767185 l
333.768705 143.678655 l
333.986263 123.202328 l
334.203821 160.095413 l
334.421379 110.520052 l
334.638937 139.212174 l
334.856495 146.889992 l
335.074053 103.880636 l
335.291611 179.52188 l
335.509169 87.55926 l
335.726727 148.295772 l
335.944285 117.585102 l
336.379401 142.731089 l
336.814517 135.616148 l
337.032075 122.488201 l
337.249633 133.934175 l
337.467191 101.282663 l
337.684749 135.272691 l
337.902307 105.071641 l
338.119865 152.659195 l
338.337423 136.989752 l
338.554981 175.452093 l
338.772539 173.195629 l
338.990097 203.677937 l
339.207655 196.195076 l
339.425213 197.722615 l
339.642771 223.734936 l
339.860329 189.966051 l
340.077887 210.173906 l
340.295445 171.021769 l
340.513003 166.249566 l
340.730561 138.28641 l
340.948119 141.988827 l
341.165677 127.620595 l
341.383235 144.770206 l
341.600793 96.333476 l
341.818351 94.412755 l
342.035909 101.556444 l
342.253467 76.706824 l
342.471025 140.3358 l
342.688583 131.368343 l
342.906141 111.349707 l
343.123699 146.601444 l
343.341257 104.260215 l
343.776373 163.576481 l
343.993931 57.16433 l
344.211489 156.068011 l
344.646605 107.8157 l
344.864163 189.216311 l
345.081721 114.670655 l
345.299279 140.978155 l
345.516837 122.190477 l
346.169511 154.21835 l
346.387069 201.865937 l
346.604627 213.666591 l
347.039743 243.556364 l
347.474859 215.215314 l
348.127533 150.408239 l
348.345091 139.217123 l
348.562649 135.376982 l
348.997765 135.180205 l
349.215323 135.369445 l
349.432881 135.196491 l
349.650439 135.311273 l
349.867997 135.230324 l
350.520671 135.273438 l
351.826019 135.298606 l
352.043577 136.334236 l
355.742063 136.40851 l
356.177179 135.794829 l
356.612294 135.180258 l
356.829852 135.278404 l
357.700084 135.233607 l
358.570316 135.243972 l
361.181012 135.333077 l
361.39857 135.094705 l
361.616128 135.390266 l
361.833686 135.082905 l
362.051244 135.301912 l
362.268802 135.296608 l
362.48636 134.949001 l
362.703918 135.773792 l
362.921476 134.415581 l
363.139034 136.261266 l
363.356592 134.105744 l
363.57415 136.208336 l
363.791708 134.748177 l
364.009266 134.66892 l
364.226824 136.924345 l
364.444382 112.274539 l
364.66194 111.282865 l
364.879498 113.473915 l
365.097056 106.964816 l
365.314614 134.296358 l
365.532172 139.924247 l
365.74973 119.923815 l
365.967288 128.13889 l
366.402404 117.486349 l
366.619962 143.766047 l
366.83752 135.853452 l
367.055078 156.617095 l
367.272636 153.109748 l
367.490194 138.169862 l
367.707752 169.228269 l
367.92531 147.052122 l
368.142868 158.050681 l
368.360426 161.130891 l
368.577984 139.725333 l
368.795542 138.248847 l
369.0131 133.236391 l
369.230658 134.231633 l
369.448216 100.567294 l
369.883332 123.558937 l
370.10089 120.656566 l
370.318448 157.386521 l
370.753564 144.995117 l
370.971122 145.610333 l
371.18868 139.567989 l
371.406238 138.558609 l
371.623796 133.304042 l
371.841354 137.264713 l
372.27647 134.734427 l
372.494028 135.610612 l
372.711586 134.79463 l
372.929144 135.494 l
373.146702 134.903807 l
373.36426 135.479347 l
373.581818 135.545202 l
373.581818 135.545202 l
stroke
grestore
0.800 setlinewidth
0 setlinejoin
[] 0 setdash
0.000 setgray
gsave
54 36 m
54 253.44 l
stroke
grestore
gsave
388.8 36 m
388.8 253.44 l
stroke
grestore
gsave
54 36 m
388.8 36 l
stroke
grestore
gsave
54 253.44 m
388.8 253.44 l
stroke
grestore

end
showpage
