%!PS-Adobe-3.0 EPSF-3.0
%%Title: act_Ultracapacitor Voltage [V].eps
%%Creator: matplotlib version 2.0.0, http://matplotlib.org/
%%CreationDate: Mon May 15 21:45:26 2017
%%Orientation: portrait
%%BoundingBox: 90 252 522 540
%%EndComments
%%BeginProlog
/mpldict 8 dict def
mpldict begin
/m { moveto } bind def
/l { lineto } bind def
/r { rlineto } bind def
/c { curveto } bind def
/cl { closepath } bind def
/box {
m
1 index 0 r
0 exch r
neg 0 r
cl
} bind def
/clipbox {
box
clip
newpath
} bind def
%!PS-Adobe-3.0 Resource-Font
%%Title: DejaVu Sans
%%Copyright: Copyright (c) 2003 by Bitstream, Inc. All Rights Reserved. Copyright (c) 2006 by Tavmjong Bah. All Rights Reserved. DejaVu changes are in public domain 
%%Creator: Converted from TrueType to type 3 by PPR
25 dict begin
/_d{bind def}bind def
/_m{moveto}_d
/_l{lineto}_d
/_cl{closepath eofill}_d
/_c{curveto}_d
/_sc{7 -1 roll{setcachedevice}{pop pop pop pop pop pop}ifelse}_d
/_e{exec}_d
/FontName /DejaVuSans def
/PaintType 0 def
/FontMatrix[.001 0 0 .001 0 0]def
/FontBBox[-1021 -463 1793 1232]def
/FontType 3 def
/Encoding [ /space /zero /one /two /three /four /five /six /seven /eight /T /U /V /bracketleft /bracketright /a /c /e /g /i /l /m /o /p /r /s /t ] def
/FontInfo 10 dict dup begin
/FamilyName (DejaVu Sans) def
/FullName (DejaVu Sans) def
/Notice (Copyright (c) 2003 by Bitstream, Inc. All Rights Reserved. Copyright (c) 2006 by Tavmjong Bah. All Rights Reserved. DejaVu changes are in public domain ) def
/Weight (Book) def
/Version (Version 2.35) def
/ItalicAngle 0.0 def
/isFixedPitch false def
/UnderlinePosition -130 def
/UnderlineThickness 90 def
end readonly def
/CharStrings 27 dict dup begin
/space{318 0 0 0 0 0 _sc
}_d
/zero{636 0 66 -13 570 742 _sc
318 664 _m
267 664 229 639 203 589 _c
177 539 165 464 165 364 _c
165 264 177 189 203 139 _c
229 89 267 64 318 64 _c
369 64 407 89 433 139 _c
458 189 471 264 471 364 _c
471 464 458 539 433 589 _c
407 639 369 664 318 664 _c
318 742 _m
399 742 461 709 505 645 _c
548 580 570 486 570 364 _c
570 241 548 147 505 83 _c
461 19 399 -13 318 -13 _c
236 -13 173 19 130 83 _c
87 147 66 241 66 364 _c
66 486 87 580 130 645 _c
173 709 236 742 318 742 _c
_cl}_d
/one{636 0 110 0 544 729 _sc
124 83 _m
285 83 _l
285 639 _l
110 604 _l
110 694 _l
284 729 _l
383 729 _l
383 83 _l
544 83 _l
544 0 _l
124 0 _l
124 83 _l
_cl}_d
/two{{636 0 73 0 536 742 _sc
192 83 _m
536 83 _l
536 0 _l
73 0 _l
73 83 _l
110 121 161 173 226 239 _c
290 304 331 346 348 365 _c
380 400 402 430 414 455 _c
426 479 433 504 433 528 _c
433 566 419 598 392 622 _c
365 646 330 659 286 659 _c
255 659 222 653 188 643 _c
154 632 117 616 78 594 _c
78 694 _l
118 710 155 722 189 730 _c
223 738 255 742 284 742 _c
}_e{359 742 419 723 464 685 _c
509 647 532 597 532 534 _c
532 504 526 475 515 449 _c
504 422 484 390 454 354 _c
446 344 420 317 376 272 _c
332 227 271 164 192 83 _c
_cl}_e}_d
/three{{636 0 76 -13 556 742 _sc
406 393 _m
453 383 490 362 516 330 _c
542 298 556 258 556 212 _c
556 140 531 84 482 45 _c
432 6 362 -13 271 -13 _c
240 -13 208 -10 176 -4 _c
144 1 110 10 76 22 _c
76 117 _l
103 101 133 89 166 81 _c
198 73 232 69 268 69 _c
330 69 377 81 409 105 _c
441 129 458 165 458 212 _c
458 254 443 288 413 312 _c
383 336 341 349 287 349 _c
}_e{202 349 _l
202 430 _l
291 430 _l
339 430 376 439 402 459 _c
428 478 441 506 441 543 _c
441 580 427 609 401 629 _c
374 649 336 659 287 659 _c
260 659 231 656 200 650 _c
169 644 135 635 98 623 _c
98 711 _l
135 721 170 729 203 734 _c
235 739 266 742 296 742 _c
370 742 429 725 473 691 _c
517 657 539 611 539 553 _c
539 513 527 479 504 451 _c
481 423 448 403 406 393 _c
_cl}_e}_d
/four{636 0 49 0 580 729 _sc
378 643 _m
129 254 _l
378 254 _l
378 643 _l
352 729 _m
476 729 _l
476 254 _l
580 254 _l
580 172 _l
476 172 _l
476 0 _l
378 0 _l
378 172 _l
49 172 _l
49 267 _l
352 729 _l
_cl}_d
/five{{636 0 77 -13 549 729 _sc
108 729 _m
495 729 _l
495 646 _l
198 646 _l
198 467 _l
212 472 227 476 241 478 _c
255 480 270 482 284 482 _c
365 482 429 459 477 415 _c
525 370 549 310 549 234 _c
549 155 524 94 475 51 _c
426 8 357 -13 269 -13 _c
238 -13 207 -10 175 -6 _c
143 -1 111 6 77 17 _c
77 116 _l
106 100 136 88 168 80 _c
199 72 232 69 267 69 _c
}_e{323 69 368 83 401 113 _c
433 143 450 183 450 234 _c
450 284 433 324 401 354 _c
368 384 323 399 267 399 _c
241 399 214 396 188 390 _c
162 384 135 375 108 363 _c
108 729 _l
_cl}_e}_d
/six{{636 0 70 -13 573 742 _sc
330 404 _m
286 404 251 388 225 358 _c
199 328 186 286 186 234 _c
186 181 199 139 225 109 _c
251 79 286 64 330 64 _c
374 64 409 79 435 109 _c
461 139 474 181 474 234 _c
474 286 461 328 435 358 _c
409 388 374 404 330 404 _c
526 713 _m
526 623 _l
501 635 476 644 451 650 _c
425 656 400 659 376 659 _c
310 659 260 637 226 593 _c
}_e{192 549 172 482 168 394 _c
187 422 211 444 240 459 _c
269 474 301 482 336 482 _c
409 482 467 459 509 415 _c
551 371 573 310 573 234 _c
573 159 550 99 506 54 _c
462 9 403 -13 330 -13 _c
246 -13 181 19 137 83 _c
92 147 70 241 70 364 _c
70 479 97 571 152 639 _c
206 707 280 742 372 742 _c
396 742 421 739 447 735 _c
472 730 498 723 526 713 _c
_cl}_e}_d
/seven{636 0 82 0 551 729 _sc
82 729 _m
551 729 _l
551 687 _l
286 0 _l
183 0 _l
432 646 _l
82 646 _l
82 729 _l
_cl}_d
/eight{{636 0 68 -13 568 742 _sc
318 346 _m
271 346 234 333 207 308 _c
180 283 167 249 167 205 _c
167 161 180 126 207 101 _c
234 76 271 64 318 64 _c
364 64 401 76 428 102 _c
455 127 469 161 469 205 _c
469 249 455 283 429 308 _c
402 333 365 346 318 346 _c
219 388 _m
177 398 144 418 120 447 _c
96 476 85 511 85 553 _c
85 611 105 657 147 691 _c
188 725 245 742 318 742 _c
}_e{390 742 447 725 489 691 _c
530 657 551 611 551 553 _c
551 511 539 476 515 447 _c
491 418 459 398 417 388 _c
464 377 501 355 528 323 _c
554 291 568 251 568 205 _c
568 134 546 80 503 43 _c
459 5 398 -13 318 -13 _c
237 -13 175 5 132 43 _c
89 80 68 134 68 205 _c
68 251 81 291 108 323 _c
134 355 171 377 219 388 _c
183 544 _m
183 506 194 476 218 455 _c
}_e{242 434 275 424 318 424 _c
360 424 393 434 417 455 _c
441 476 453 506 453 544 _c
453 582 441 611 417 632 _c
393 653 360 664 318 664 _c
275 664 242 653 218 632 _c
194 611 183 582 183 544 _c
_cl}_e}_d
/T{611 0 -2 0 614 729 _sc
-2 729 _m
614 729 _l
614 646 _l
355 646 _l
355 0 _l
256 0 _l
256 646 _l
-2 646 _l
-2 729 _l
_cl}_d
/U{732 0 87 -13 645 729 _sc
87 729 _m
186 729 _l
186 286 _l
186 208 200 151 228 117 _c
256 83 302 66 366 66 _c
429 66 475 83 503 117 _c
531 151 546 208 546 286 _c
546 729 _l
645 729 _l
645 274 _l
645 178 621 107 574 59 _c
527 11 458 -13 366 -13 _c
274 -13 204 11 157 59 _c
110 107 87 178 87 274 _c
87 729 _l
_cl}_d
/V{684 0 8 0 676 729 _sc
286 0 _m
8 729 _l
111 729 _l
342 115 _l
573 729 _l
676 729 _l
398 0 _l
286 0 _l
_cl}_d
/bracketleft{390 0 86 -131 293 760 _sc
86 760 _m
293 760 _l
293 690 _l
176 690 _l
176 -61 _l
293 -61 _l
293 -131 _l
86 -131 _l
86 760 _l
_cl}_d
/bracketright{390 0 97 -131 304 760 _sc
304 760 _m
304 -131 _l
97 -131 _l
97 -61 _l
214 -61 _l
214 690 _l
97 690 _l
97 760 _l
304 760 _l
_cl}_d
/a{{613 0 60 -13 522 560 _sc
343 275 _m
270 275 220 266 192 250 _c
164 233 150 205 150 165 _c
150 133 160 107 181 89 _c
202 70 231 61 267 61 _c
317 61 357 78 387 114 _c
417 149 432 196 432 255 _c
432 275 _l
343 275 _l
522 312 _m
522 0 _l
432 0 _l
432 83 _l
411 49 385 25 355 10 _c
325 -5 287 -13 243 -13 _c
187 -13 142 2 109 33 _c
76 64 60 106 60 159 _c
}_e{60 220 80 266 122 298 _c
163 329 224 345 306 345 _c
432 345 _l
432 354 _l
432 395 418 427 391 450 _c
364 472 326 484 277 484 _c
245 484 215 480 185 472 _c
155 464 127 453 100 439 _c
100 522 _l
132 534 164 544 195 550 _c
226 556 256 560 286 560 _c
365 560 424 539 463 498 _c
502 457 522 395 522 312 _c
_cl}_e}_d
/c{{550 0 55 -13 488 560 _sc
488 526 _m
488 442 _l
462 456 437 466 411 473 _c
385 480 360 484 334 484 _c
276 484 230 465 198 428 _c
166 391 150 339 150 273 _c
150 206 166 154 198 117 _c
230 80 276 62 334 62 _c
360 62 385 65 411 72 _c
437 79 462 90 488 104 _c
488 21 _l
462 9 436 0 410 -5 _c
383 -10 354 -13 324 -13 _c
242 -13 176 12 128 64 _c
}_e{79 115 55 185 55 273 _c
55 362 79 432 128 483 _c
177 534 244 560 330 560 _c
358 560 385 557 411 551 _c
437 545 463 537 488 526 _c
_cl}_e}_d
/e{{615 0 55 -13 562 560 _sc
562 296 _m
562 252 _l
149 252 _l
153 190 171 142 205 110 _c
238 78 284 62 344 62 _c
378 62 412 66 444 74 _c
476 82 509 95 541 113 _c
541 28 _l
509 14 476 3 442 -3 _c
408 -9 373 -13 339 -13 _c
251 -13 182 12 131 62 _c
80 112 55 181 55 268 _c
55 357 79 428 127 481 _c
175 533 241 560 323 560 _c
397 560 455 536 498 489 _c
}_e{540 441 562 377 562 296 _c
472 322 _m
471 371 457 410 431 440 _c
404 469 368 484 324 484 _c
274 484 234 469 204 441 _c
174 413 156 373 152 322 _c
472 322 _l
_cl}_e}_d
/g{{635 0 55 -207 544 560 _sc
454 280 _m
454 344 440 395 414 431 _c
387 467 349 485 301 485 _c
253 485 215 467 188 431 _c
161 395 148 344 148 280 _c
148 215 161 165 188 129 _c
215 93 253 75 301 75 _c
349 75 387 93 414 129 _c
440 165 454 215 454 280 _c
544 68 _m
544 -24 523 -93 482 -139 _c
440 -184 377 -207 292 -207 _c
260 -207 231 -204 203 -200 _c
175 -195 147 -188 121 -178 _c
}_e{121 -91 _l
147 -105 173 -115 199 -122 _c
225 -129 251 -133 278 -133 _c
336 -133 380 -117 410 -87 _c
439 -56 454 -10 454 52 _c
454 96 _l
435 64 411 40 382 24 _c
353 8 319 0 279 0 _c
211 0 157 25 116 76 _c
75 127 55 195 55 280 _c
55 364 75 432 116 483 _c
157 534 211 560 279 560 _c
319 560 353 552 382 536 _c
411 520 435 496 454 464 _c
454 547 _l
544 547 _l
}_e{544 68 _l
_cl}_e}_d
/i{278 0 94 0 184 760 _sc
94 547 _m
184 547 _l
184 0 _l
94 0 _l
94 547 _l
94 760 _m
184 760 _l
184 646 _l
94 646 _l
94 760 _l
_cl}_d
/l{278 0 94 0 184 760 _sc
94 760 _m
184 760 _l
184 0 _l
94 0 _l
94 760 _l
_cl}_d
/m{{974 0 91 0 889 560 _sc
520 442 _m
542 482 569 511 600 531 _c
631 550 668 560 711 560 _c
767 560 811 540 842 500 _c
873 460 889 403 889 330 _c
889 0 _l
799 0 _l
799 327 _l
799 379 789 418 771 444 _c
752 469 724 482 686 482 _c
639 482 602 466 575 435 _c
548 404 535 362 535 309 _c
535 0 _l
445 0 _l
445 327 _l
445 379 435 418 417 444 _c
398 469 369 482 331 482 _c
}_e{285 482 248 466 221 435 _c
194 404 181 362 181 309 _c
181 0 _l
91 0 _l
91 547 _l
181 547 _l
181 462 _l
201 495 226 520 255 536 _c
283 552 317 560 357 560 _c
397 560 430 550 458 530 _c
486 510 506 480 520 442 _c
_cl}_e}_d
/o{612 0 55 -13 557 560 _sc
306 484 _m
258 484 220 465 192 427 _c
164 389 150 338 150 273 _c
150 207 163 156 191 118 _c
219 80 257 62 306 62 _c
354 62 392 80 420 118 _c
448 156 462 207 462 273 _c
462 337 448 389 420 427 _c
392 465 354 484 306 484 _c
306 560 _m
384 560 445 534 490 484 _c
534 433 557 363 557 273 _c
557 183 534 113 490 63 _c
445 12 384 -13 306 -13 _c
227 -13 165 12 121 63 _c
77 113 55 183 55 273 _c
55 363 77 433 121 484 _c
165 534 227 560 306 560 _c
_cl}_d
/p{{635 0 91 -207 580 560 _sc
181 82 _m
181 -207 _l
91 -207 _l
91 547 _l
181 547 _l
181 464 _l
199 496 223 520 252 536 _c
281 552 316 560 356 560 _c
422 560 476 533 518 481 _c
559 428 580 359 580 273 _c
580 187 559 117 518 65 _c
476 13 422 -13 356 -13 _c
316 -13 281 -5 252 10 _c
223 25 199 49 181 82 _c
487 273 _m
487 339 473 390 446 428 _c
418 466 381 485 334 485 _c
}_e{286 485 249 466 222 428 _c
194 390 181 339 181 273 _c
181 207 194 155 222 117 _c
249 79 286 61 334 61 _c
381 61 418 79 446 117 _c
473 155 487 207 487 273 _c
_cl}_e}_d
/r{411 0 91 0 411 560 _sc
411 463 _m
401 469 390 473 378 476 _c
366 478 353 480 339 480 _c
288 480 249 463 222 430 _c
194 397 181 350 181 288 _c
181 0 _l
91 0 _l
91 547 _l
181 547 _l
181 462 _l
199 495 224 520 254 536 _c
284 552 321 560 365 560 _c
371 560 378 559 386 559 _c
393 558 401 557 411 555 _c
411 463 _l
_cl}_d
/s{{521 0 54 -13 472 560 _sc
443 531 _m
443 446 _l
417 458 391 468 364 475 _c
336 481 308 485 279 485 _c
234 485 200 478 178 464 _c
156 450 145 430 145 403 _c
145 382 153 366 169 354 _c
185 342 217 330 265 320 _c
296 313 _l
360 299 405 279 432 255 _c
458 230 472 195 472 151 _c
472 100 452 60 412 31 _c
372 1 316 -13 246 -13 _c
216 -13 186 -10 154 -5 _c
}_e{122 0 89 8 54 20 _c
54 113 _l
87 95 120 82 152 74 _c
184 65 216 61 248 61 _c
290 61 323 68 346 82 _c
368 96 380 117 380 144 _c
380 168 371 187 355 200 _c
339 213 303 226 247 238 _c
216 245 _l
160 257 119 275 95 299 _c
70 323 58 356 58 399 _c
58 450 76 490 112 518 _c
148 546 200 560 268 560 _c
301 560 332 557 362 552 _c
391 547 418 540 443 531 _c
}_e{_cl}_e}_d
/t{392 0 27 0 368 702 _sc
183 702 _m
183 547 _l
368 547 _l
368 477 _l
183 477 _l
183 180 _l
183 135 189 106 201 94 _c
213 81 238 75 276 75 _c
368 75 _l
368 0 _l
276 0 _l
206 0 158 13 132 39 _c
106 65 93 112 93 180 _c
93 477 _l
27 477 _l
27 547 _l
93 547 _l
93 702 _l
183 702 _l
_cl}_d
end readonly def

/BuildGlyph
 {exch begin
 CharStrings exch
 2 copy known not{pop /.notdef}if
 true 3 1 roll get exec
 end}_d

/BuildChar {
 1 index /Encoding get exch get
 1 index /BuildGlyph get exec
}_d

FontName currentdict end definefont pop
end
%%EndProlog
mpldict begin
90 252 translate
432 288 0 0 clipbox
gsave
0 0 m
432 0 l
432 288 l
0 288 l
cl
1.000 setgray
fill
grestore
gsave
54 36 m
388.8 36 l
388.8 253.44 l
54 253.44 l
cl
1.000 setgray
fill
grestore
0.800 setlinewidth
1 setlinejoin
2 setlinecap
[] 0 setdash
0.690 setgray
gsave
334.8 217.4 54 36 clipbox
69.218182 36 m
69.218182 253.44 l
stroke
grestore
0 setlinecap
0.000 setgray
gsave
/o {
gsave
newpath
translate
0.8 setlinewidth
1 setlinejoin
0 setlinecap
0 0 m
0 -3.5 l

gsave
0.000 setgray
fill
grestore
stroke
grestore
} bind def
69.2182 36 o
grestore
/DejaVuSans findfont
10.000 scalefont
setfont
gsave
66.038494 21.406250 translate
0.000000 rotate
0.000000 0.000000 m /zero glyphshow
grestore
2 setlinecap
0.690 setgray
gsave
334.8 217.4 54 36 clipbox
112.729781 36 m
112.729781 253.44 l
stroke
grestore
0 setlinecap
0.000 setgray
gsave
/o {
gsave
newpath
translate
0.8 setlinewidth
1 setlinejoin
0 setlinecap
0 0 m
0 -3.5 l

gsave
0.000 setgray
fill
grestore
stroke
grestore
} bind def
112.73 36 o
grestore
gsave
103.190719 21.406250 translate
0.000000 rotate
0.000000 0.000000 m /two glyphshow
6.362305 0.000000 m /zero glyphshow
12.724609 0.000000 m /zero glyphshow
grestore
2 setlinecap
0.690 setgray
gsave
334.8 217.4 54 36 clipbox
156.24138 36 m
156.24138 253.44 l
stroke
grestore
0 setlinecap
0.000 setgray
gsave
/o {
gsave
newpath
translate
0.8 setlinewidth
1 setlinejoin
0 setlinecap
0 0 m
0 -3.5 l

gsave
0.000 setgray
fill
grestore
stroke
grestore
} bind def
156.241 36 o
grestore
gsave
146.702318 21.406250 translate
0.000000 rotate
0.000000 0.000000 m /four glyphshow
6.362305 0.000000 m /zero glyphshow
12.724609 0.000000 m /zero glyphshow
grestore
2 setlinecap
0.690 setgray
gsave
334.8 217.4 54 36 clipbox
199.752979 36 m
199.752979 253.44 l
stroke
grestore
0 setlinecap
0.000 setgray
gsave
/o {
gsave
newpath
translate
0.8 setlinewidth
1 setlinejoin
0 setlinecap
0 0 m
0 -3.5 l

gsave
0.000 setgray
fill
grestore
stroke
grestore
} bind def
199.753 36 o
grestore
gsave
190.213917 21.406250 translate
0.000000 rotate
0.000000 0.000000 m /six glyphshow
6.362305 0.000000 m /zero glyphshow
12.724609 0.000000 m /zero glyphshow
grestore
2 setlinecap
0.690 setgray
gsave
334.8 217.4 54 36 clipbox
243.264579 36 m
243.264579 253.44 l
stroke
grestore
0 setlinecap
0.000 setgray
gsave
/o {
gsave
newpath
translate
0.8 setlinewidth
1 setlinejoin
0 setlinecap
0 0 m
0 -3.5 l

gsave
0.000 setgray
fill
grestore
stroke
grestore
} bind def
243.265 36 o
grestore
gsave
233.725516 21.406250 translate
0.000000 rotate
0.000000 0.000000 m /eight glyphshow
6.362305 0.000000 m /zero glyphshow
12.724609 0.000000 m /zero glyphshow
grestore
2 setlinecap
0.690 setgray
gsave
334.8 217.4 54 36 clipbox
286.776178 36 m
286.776178 253.44 l
stroke
grestore
0 setlinecap
0.000 setgray
gsave
/o {
gsave
newpath
translate
0.8 setlinewidth
1 setlinejoin
0 setlinecap
0 0 m
0 -3.5 l

gsave
0.000 setgray
fill
grestore
stroke
grestore
} bind def
286.776 36 o
grestore
gsave
274.057428 21.406250 translate
0.000000 rotate
0.000000 0.000000 m /one glyphshow
6.362305 0.000000 m /zero glyphshow
12.724609 0.000000 m /zero glyphshow
19.086914 0.000000 m /zero glyphshow
grestore
2 setlinecap
0.690 setgray
gsave
334.8 217.4 54 36 clipbox
330.287777 36 m
330.287777 253.44 l
stroke
grestore
0 setlinecap
0.000 setgray
gsave
/o {
gsave
newpath
translate
0.8 setlinewidth
1 setlinejoin
0 setlinecap
0 0 m
0 -3.5 l

gsave
0.000 setgray
fill
grestore
stroke
grestore
} bind def
330.288 36 o
grestore
gsave
317.569027 21.406250 translate
0.000000 rotate
0.000000 0.000000 m /one glyphshow
6.362305 0.000000 m /two glyphshow
12.724609 0.000000 m /zero glyphshow
19.086914 0.000000 m /zero glyphshow
grestore
2 setlinecap
0.690 setgray
gsave
334.8 217.4 54 36 clipbox
373.799376 36 m
373.799376 253.44 l
stroke
grestore
0 setlinecap
0.000 setgray
gsave
/o {
gsave
newpath
translate
0.8 setlinewidth
1 setlinejoin
0 setlinecap
0 0 m
0 -3.5 l

gsave
0.000 setgray
fill
grestore
stroke
grestore
} bind def
373.799 36 o
grestore
gsave
361.080626 21.406250 translate
0.000000 rotate
0.000000 0.000000 m /one glyphshow
6.362305 0.000000 m /four glyphshow
12.724609 0.000000 m /zero glyphshow
19.086914 0.000000 m /zero glyphshow
grestore
gsave
200.892188 7.734375 translate
0.000000 rotate
0.000000 0.000000 m /T glyphshow
6.108398 0.000000 m /i glyphshow
8.886719 0.000000 m /m glyphshow
18.627930 0.000000 m /e glyphshow
24.780273 0.000000 m /space glyphshow
27.958984 0.000000 m /bracketleft glyphshow
31.860352 0.000000 m /s glyphshow
37.070312 0.000000 m /bracketright glyphshow
grestore
2 setlinecap
0.690 setgray
gsave
334.8 217.4 54 36 clipbox
54 55.682186 m
388.8 55.682186 l
stroke
grestore
0 setlinecap
0.000 setgray
gsave
/o {
gsave
newpath
translate
0.8 setlinewidth
1 setlinejoin
0 setlinecap
0 0 m
-3.5 0 l

gsave
0.000 setgray
fill
grestore
stroke
grestore
} bind def
54 55.6822 o
grestore
gsave
27.921875 51.885311 translate
0.000000 rotate
0.000000 0.000000 m /two glyphshow
6.362305 0.000000 m /two glyphshow
12.724609 0.000000 m /five glyphshow
grestore
2 setlinecap
0.690 setgray
gsave
334.8 217.4 54 36 clipbox
54 84.14797 m
388.8 84.14797 l
stroke
grestore
0 setlinecap
0.000 setgray
gsave
/o {
gsave
newpath
translate
0.8 setlinewidth
1 setlinejoin
0 setlinecap
0 0 m
-3.5 0 l

gsave
0.000 setgray
fill
grestore
stroke
grestore
} bind def
54 84.148 o
grestore
gsave
27.921875 80.351095 translate
0.000000 rotate
0.000000 0.000000 m /two glyphshow
6.362305 0.000000 m /five glyphshow
12.724609 0.000000 m /zero glyphshow
grestore
2 setlinecap
0.690 setgray
gsave
334.8 217.4 54 36 clipbox
54 112.613755 m
388.8 112.613755 l
stroke
grestore
0 setlinecap
0.000 setgray
gsave
/o {
gsave
newpath
translate
0.8 setlinewidth
1 setlinejoin
0 setlinecap
0 0 m
-3.5 0 l

gsave
0.000 setgray
fill
grestore
stroke
grestore
} bind def
54 112.614 o
grestore
gsave
27.921875 108.816880 translate
0.000000 rotate
0.000000 0.000000 m /two glyphshow
6.362305 0.000000 m /seven glyphshow
12.724609 0.000000 m /five glyphshow
grestore
2 setlinecap
0.690 setgray
gsave
334.8 217.4 54 36 clipbox
54 141.079539 m
388.8 141.079539 l
stroke
grestore
0 setlinecap
0.000 setgray
gsave
/o {
gsave
newpath
translate
0.8 setlinewidth
1 setlinejoin
0 setlinecap
0 0 m
-3.5 0 l

gsave
0.000 setgray
fill
grestore
stroke
grestore
} bind def
54 141.08 o
grestore
gsave
27.921875 137.282664 translate
0.000000 rotate
0.000000 0.000000 m /three glyphshow
6.362305 0.000000 m /zero glyphshow
12.724609 0.000000 m /zero glyphshow
grestore
2 setlinecap
0.690 setgray
gsave
334.8 217.4 54 36 clipbox
54 169.545324 m
388.8 169.545324 l
stroke
grestore
0 setlinecap
0.000 setgray
gsave
/o {
gsave
newpath
translate
0.8 setlinewidth
1 setlinejoin
0 setlinecap
0 0 m
-3.5 0 l

gsave
0.000 setgray
fill
grestore
stroke
grestore
} bind def
54 169.545 o
grestore
gsave
27.921875 165.748449 translate
0.000000 rotate
0.000000 0.000000 m /three glyphshow
6.362305 0.000000 m /two glyphshow
12.724609 0.000000 m /five glyphshow
grestore
2 setlinecap
0.690 setgray
gsave
334.8 217.4 54 36 clipbox
54 198.011108 m
388.8 198.011108 l
stroke
grestore
0 setlinecap
0.000 setgray
gsave
/o {
gsave
newpath
translate
0.8 setlinewidth
1 setlinejoin
0 setlinecap
0 0 m
-3.5 0 l

gsave
0.000 setgray
fill
grestore
stroke
grestore
} bind def
54 198.011 o
grestore
gsave
27.921875 194.214233 translate
0.000000 rotate
0.000000 0.000000 m /three glyphshow
6.362305 0.000000 m /five glyphshow
12.724609 0.000000 m /zero glyphshow
grestore
2 setlinecap
0.690 setgray
gsave
334.8 217.4 54 36 clipbox
54 226.476893 m
388.8 226.476893 l
stroke
grestore
0 setlinecap
0.000 setgray
gsave
/o {
gsave
newpath
translate
0.8 setlinewidth
1 setlinejoin
0 setlinecap
0 0 m
-3.5 0 l

gsave
0.000 setgray
fill
grestore
stroke
grestore
} bind def
54 226.477 o
grestore
gsave
27.921875 222.680018 translate
0.000000 rotate
0.000000 0.000000 m /three glyphshow
6.362305 0.000000 m /seven glyphshow
12.724609 0.000000 m /five glyphshow
grestore
gsave
21.843750 79.657500 translate
90.000000 rotate
0.000000 0.000000 m /U glyphshow
7.319336 0.000000 m /l glyphshow
10.097656 0.000000 m /t glyphshow
14.018555 0.000000 m /r glyphshow
18.129883 0.000000 m /a glyphshow
24.257812 0.000000 m /c glyphshow
29.755859 0.000000 m /a glyphshow
35.883789 0.000000 m /p glyphshow
42.231445 0.000000 m /a glyphshow
48.359375 0.000000 m /c glyphshow
53.857422 0.000000 m /i glyphshow
56.635742 0.000000 m /t glyphshow
60.556641 0.000000 m /o glyphshow
66.674805 0.000000 m /r glyphshow
70.786133 0.000000 m /space glyphshow
73.964844 0.000000 m /V glyphshow
80.805664 0.000000 m /o glyphshow
86.923828 0.000000 m /l glyphshow
89.702148 0.000000 m /t glyphshow
93.623047 0.000000 m /a glyphshow
99.750977 0.000000 m /g glyphshow
106.098633 0.000000 m /e glyphshow
112.250977 0.000000 m /space glyphshow
115.429688 0.000000 m /bracketleft glyphshow
119.331055 0.000000 m /V glyphshow
126.171875 0.000000 m /bracketright glyphshow
grestore
1.500 setlinewidth
2 setlinecap
0.122 0.467 0.706 setrgbcolor
gsave
334.8 217.4 54 36 clipbox
69.218182 101.817294 m
69.43574 100.805467 l
69.653298 108.528513 l
69.870856 106.577204 l
70.088414 107.606433 l
70.305972 107.546157 l
70.52353 108.376014 l
70.741088 108.406052 l
70.958646 109.551048 l
71.176204 108.988344 l
71.393762 108.753181 l
71.828878 104.690957 l
72.263994 97.665646 l
72.481552 97.703058 l
72.69911 95.345539 l
72.916668 97.748952 l
73.569342 99.262153 l
73.7869 96.833571 l
74.004458 96.291345 l
74.222016 83.325421 l
74.439574 90.239782 l
74.657132 78.906923 l
74.87469 85.252982 l
75.092248 84.340784 l
75.527364 81.877454 l
75.96248 83.738735 l
76.397596 89.350029 l
76.615154 86.4264 l
76.832712 92.320327 l
77.05027 86.638333 l
77.267828 91.574375 l
77.485386 90.539407 l
77.702944 90.618027 l
77.920502 92.697177 l
78.13806 92.952123 l
78.355618 97.284741 l
78.573176 98.136967 l
79.008292 101.869216 l
79.22585 102.097347 l
79.443408 102.734536 l
79.878524 107.825405 l
80.096082 109.048684 l
80.31364 112.546659 l
80.531198 110.727757 l
80.748756 112.325463 l
80.966314 113.064144 l
81.183872 112.340683 l
81.40143 113.276928 l
81.836546 112.605443 l
82.054104 110.857531 l
82.271662 110.398282 l
82.48922 109.544175 l
82.706778 108.043849 l
82.924336 108.99501 l
83.359452 105.078893 l
83.57701 104.624822 l
83.794568 101.686041 l
84.012126 101.263884 l
84.447242 107.539726 l
84.882358 122.263245 l
85.535032 133.331754 l
85.75259 134.363948 l
85.970148 136.272879 l
86.187706 136.382391 l
86.405263 138.093116 l
86.622821 138.45436 l
86.840379 139.670563 l
87.275495 135.653234 l
87.493053 136.882929 l
87.710611 133.14968 l
87.928169 137.357427 l
88.145727 133.597411 l
88.363285 133.469598 l
89.451075 101.85156 l
89.668633 103.223679 l
89.886191 95.13178 l
90.103749 98.323539 l
90.321307 92.899059 l
90.538865 95.957877 l
90.756423 96.90895 l
90.973981 95.877306 l
91.191539 95.572008 l
91.409097 97.431613 l
91.626655 95.205662 l
91.844213 96.251128 l
92.279329 93.289865 l
92.496887 95.253074 l
92.714445 93.619733 l
92.932003 94.744787 l
93.149561 94.104218 l
93.367119 92.4425 l
93.584677 88.185467 l
93.802235 90.059534 l
94.019793 81.324784 l
94.237351 88.104454 l
94.454909 82.40266 l
94.672467 84.907667 l
94.890025 84.859156 l
95.107583 81.235063 l
95.325141 83.253249 l
95.542699 82.011296 l
95.760257 81.484481 l
95.977815 82.856609 l
96.195373 83.371019 l
96.412931 83.224958 l
96.630489 85.025066 l
96.848047 85.523736 l
97.065605 86.879149 l
97.283163 86.494009 l
98.588511 94.069424 l
98.806069 90.793396 l
99.241185 89.350298 l
99.458743 87.334574 l
99.676301 89.314418 l
100.111417 89.508146 l
100.328975 92.101568 l
100.764091 101.39487 l
100.981649 108.415756 l
101.416765 114.15091 l
101.634323 114.471052 l
101.851881 113.324325 l
102.069439 114.351188 l
102.286997 113.55687 l
102.504555 113.984145 l
102.722113 115.692516 l
102.939671 113.922915 l
103.157229 115.981585 l
103.374787 106.087548 l
103.592345 114.370027 l
103.809903 104.647884 l
104.027461 111.167824 l
104.245019 106.153463 l
104.462577 104.165965 l
105.332809 73.813481 l
105.550367 69.182885 l
105.767925 68.276711 l
105.985483 65.765755 l
106.203041 64.986395 l
106.420599 67.464682 l
106.638157 65.859188 l
106.855715 68.210535 l
107.073273 69.331302 l
107.508389 74.912922 l
107.725947 78.568588 l
107.943505 77.684252 l
108.161063 78.088127 l
108.596179 77.552877 l
108.813737 72.745181 l
109.031295 81.580112 l
109.248853 73.066836 l
109.683969 85.388255 l
109.901527 81.590234 l
110.119085 93.87953 l
110.336643 90.566755 l
110.554201 96.432137 l
110.771759 94.492397 l
110.989317 95.047762 l
111.206875 94.002012 l
111.424433 92.40911 l
111.641991 94.455005 l
111.859549 88.299868 l
112.077107 90.387511 l
112.294665 91.020355 l
112.512223 99.289297 l
112.729781 92.542267 l
112.947339 90.585031 l
113.164897 91.166669 l
113.382455 89.210314 l
113.600013 88.287605 l
113.817571 85.521608 l
114.035129 87.788771 l
114.252687 84.120528 l
114.470245 88.674448 l
114.687803 84.085385 l
114.905361 84.302389 l
115.122919 81.387179 l
115.340477 82.921839 l
115.558035 82.849123 l
115.775593 84.278518 l
115.993151 83.414004 l
116.210709 83.48232 l
116.645825 81.843656 l
116.863383 82.594887 l
117.080941 85.685561 l
117.298499 80.733183 l
117.516057 84.586798 l
117.733615 80.340104 l
117.951173 80.66223 l
118.168731 82.333122 l
118.603847 81.496004 l
118.821405 82.224052 l
119.038963 80.547785 l
119.256521 81.465567 l
119.474079 80.604851 l
119.691637 83.058634 l
119.909195 83.049136 l
120.344311 70.063384 l
120.561869 54.465865 l
120.779427 58.203844 l
120.996985 56.55421 l
121.432101 67.436267 l
121.649659 66.566306 l
121.867217 66.424606 l
122.084775 68.213419 l
122.519891 69.461203 l
122.737449 69.625312 l
123.390123 66.248219 l
123.607681 66.959214 l
123.825239 67.074654 l
124.260355 72.678268 l
124.695471 83.4627 l
125.130587 89.851553 l
125.348145 87.467863 l
125.565703 88.156359 l
125.783261 85.160154 l
126.000819 85.146662 l
126.218377 83.275648 l
126.435935 82.479019 l
126.653493 82.720402 l
127.088609 84.780322 l
127.306167 84.957672 l
127.523725 85.663881 l
127.741283 84.775852 l
127.958841 86.094179 l
128.176399 85.260411 l
128.393957 86.472465 l
128.611515 84.230671 l
128.829073 85.60695 l
129.046631 83.557562 l
129.264189 85.468069 l
129.481747 83.935171 l
129.699305 85.327578 l
129.916863 84.03355 l
130.134421 85.062775 l
130.351979 83.882294 l
130.569537 84.294595 l
130.787095 83.245311 l
131.222211 84.236956 l
131.439769 84.615395 l
131.874885 89.592733 l
132.527559 104.194396 l
132.745117 104.077583 l
132.962675 106.182418 l
133.180233 98.252933 l
133.397791 102.932362 l
133.615349 99.529523 l
133.832907 98.455173 l
134.050465 103.224508 l
134.485581 103.682696 l
134.703139 102.827913 l
134.920697 103.578125 l
135.138255 101.872386 l
135.355813 103.246437 l
135.573371 102.007482 l
135.790929 100.122747 l
136.008487 101.295999 l
136.226045 99.210426 l
136.443603 99.977996 l
136.661161 98.677078 l
136.878719 95.035052 l
137.096277 97.106984 l
137.313835 92.935816 l
137.531393 95.480824 l
137.748951 93.167339 l
137.966509 92.873139 l
138.184067 87.214799 l
138.401625 91.129288 l
138.619183 84.121703 l
138.836741 89.742716 l
139.054299 88.119087 l
139.489415 89.096637 l
139.924531 86.958561 l
140.577204 95.639801 l
141.01232 103.692742 l
141.229878 102.917481 l
141.447436 108.671043 l
141.664994 104.464555 l
141.882552 109.0111 l
142.10011 106.407556 l
142.317668 109.32343 l
142.535226 110.32437 l
142.752784 112.0773 l
142.970342 108.564477 l
143.1879 110.103542 l
143.405458 106.892918 l
143.623016 106.258154 l
143.840574 106.696703 l
144.058132 104.947901 l
144.27569 105.280249 l
144.493248 100.428767 l
144.710806 100.682455 l
144.928364 95.474722 l
145.145922 94.364122 l
145.798596 89.644584 l
146.016154 88.96838 l
146.45127 89.963446 l
146.668828 91.655287 l
147.321502 94.002913 l
147.53906 93.816074 l
147.756618 94.578727 l
147.974176 94.235268 l
148.191734 93.544086 l
148.409292 95.178968 l
148.62685 94.263079 l
148.844408 94.90192 l
149.061966 96.623588 l
149.279524 93.886546 l
149.497082 101.480748 l
149.71464 100.074773 l
149.932198 107.882829 l
150.149756 106.672349 l
150.367314 107.788312 l
150.80243 104.936872 l
151.019988 104.884373 l
151.237546 103.962381 l
151.455104 104.414086 l
151.672662 106.323635 l
151.89022 105.874033 l
152.107778 108.06597 l
152.325336 106.338933 l
152.542894 107.732432 l
152.760452 105.310259 l
152.97801 109.518892 l
153.195568 100.769545 l
153.413126 102.721453 l
153.630684 94.85009 l
153.848242 94.299783 l
154.0658 92.907785 l
154.500916 91.770713 l
154.718474 91.047412 l
154.936032 91.471919 l
155.371148 90.743579 l
155.806264 89.53272 l
156.023822 88.804727 l
156.24138 88.702895 l
156.458938 87.398419 l
156.676496 87.117433 l
156.894054 85.780074 l
157.111612 85.472311 l
157.32917 84.874067 l
157.546728 82.682252 l
157.764286 84.692823 l
157.981844 80.966173 l
158.199402 84.350374 l
158.41696 83.628117 l
158.634518 86.011215 l
158.852076 84.787286 l
159.069634 88.23585 l
159.287192 86.014325 l
159.50475 87.835932 l
160.374982 83.861523 l
160.59254 85.591014 l
160.810098 84.905829 l
161.027656 86.559822 l
161.245214 85.049163 l
161.462772 88.129237 l
161.68033 85.886439 l
161.897888 87.625667 l
162.115446 87.186907 l
162.333004 86.318741 l
162.550562 83.477692 l
162.76812 84.684634 l
162.985678 79.939295 l
163.203236 81.548297 l
163.420794 79.419497 l
163.638352 79.420976 l
164.073468 78.326126 l
164.291026 78.216657 l
164.508584 80.800199 l
164.726142 76.504438 l
164.9437 80.238749 l
165.161258 76.237056 l
165.378816 77.576925 l
165.596374 77.465745 l
165.813932 73.236823 l
166.03149 73.327078 l
166.249048 70.800954 l
166.466606 70.717172 l
166.684164 71.766564 l
166.901722 71.235705 l
167.11928 59.128744 l
167.336838 55.379246 l
167.554396 48.058317 l
167.771954 46.416659 l
167.989512 51.516347 l
168.424628 53.779496 l
168.642186 52.634614 l
169.29486 53.142803 l
169.512418 56.555985 l
170.165092 73.247845 l
170.38265 71.293204 l
170.600208 77.852121 l
170.817766 76.150956 l
171.035324 81.57112 l
171.252882 82.456041 l
171.47044 87.254471 l
171.687998 85.386986 l
171.905556 91.74413 l
172.123114 90.675562 l
172.340672 96.275259 l
172.55823 92.632631 l
172.775788 98.872024 l
172.993346 93.223359 l
173.210904 96.397239 l
173.428462 93.851184 l
173.64602 94.440473 l
173.863578 92.399552 l
174.081136 92.187606 l
174.951368 87.469961 l
175.168926 87.170907 l
175.386484 86.206429 l
175.604042 88.664667 l
175.8216 84.641127 l
176.039158 89.698725 l
176.256716 78.823396 l
176.474274 86.106098 l
176.691832 79.810501 l
176.90939 80.16913 l
177.126948 85.767998 l
177.344506 82.151844 l
177.562064 85.105095 l
177.779622 81.900379 l
178.214738 85.10372 l
178.432296 84.38926 l
178.649854 86.534824 l
178.867412 82.28556 l
179.08497 86.452299 l
179.302528 85.493475 l
179.520086 92.269743 l
180.17276 101.32039 l
180.390318 99.413323 l
180.607876 100.452244 l
180.825434 98.732221 l
181.26055 98.066128 l
181.478108 97.381545 l
181.695666 97.459832 l
181.913224 95.731082 l
182.130782 95.676503 l
182.34834 94.530371 l
182.565898 92.594605 l
182.783456 88.3349 l
183.001014 87.890559 l
183.43613 77.748268 l
183.653688 82.087861 l
183.871246 75.361565 l
184.088804 78.946197 l
184.306362 75.667056 l
184.52392 75.142637 l
184.741478 71.234836 l
184.959036 72.41753 l
185.394152 71.649983 l
185.61171 71.81379 l
185.829268 70.508004 l
186.046826 64.21763 l
186.264384 65.193449 l
186.481942 59.226872 l
186.6995 62.809295 l
186.917058 56.41447 l
187.134616 60.678169 l
187.352174 56.70268 l
187.569732 60.831397 l
187.78729 55.042478 l
188.004848 57.343068 l
188.222406 52.864493 l
188.657522 61.109098 l
188.87508 67.170873 l
189.092638 66.923214 l
189.310196 69.076425 l
189.527754 69.773921 l
189.745312 67.110371 l
189.96287 72.026686 l
190.180428 66.720004 l
190.397986 74.488013 l
190.615544 76.454687 l
191.05066 87.671281 l
191.268218 89.559066 l
191.485776 82.974554 l
191.703334 85.908256 l
192.13845 77.467886 l
192.356008 85.899001 l
192.573566 78.744454 l
192.791124 84.974466 l
193.008682 85.089418 l
193.22624 80.355486 l
193.443798 84.633397 l
193.661356 77.676006 l
193.878914 81.347214 l
194.096472 68.546604 l
194.31403 75.363191 l
194.531587 63.482794 l
194.749145 72.683327 l
194.966703 69.383877 l
195.184261 62.562014 l
195.401819 63.271054 l
195.619377 56.941551 l
195.836935 57.344329 l
196.054493 62.274349 l
196.272051 59.551569 l
196.489609 62.933816 l
196.707167 61.941075 l
197.142283 59.259493 l
197.359841 58.503028 l
197.577399 57.169203 l
197.794957 59.86802 l
198.012515 59.071223 l
198.447631 61.251579 l
198.665189 61.316346 l
198.882747 64.303185 l
199.100305 62.198088 l
199.317863 58.667536 l
199.535421 48.906941 l
199.752979 56.819934 l
199.970537 56.166253 l
200.405653 48.997302 l
200.623211 51.618069 l
200.840769 45.883636 l
201.058327 52.49395 l
201.275885 50.01371 l
201.493443 49.994978 l
201.711001 50.693243 l
201.928559 48.362834 l
202.146117 49.979954 l
202.363675 47.966547 l
202.581233 48.362287 l
202.798791 47.062899 l
203.016349 47.638582 l
203.233907 46.361642 l
203.451465 50.223428 l
203.669023 50.844517 l
203.886581 53.39596 l
204.104139 54.34069 l
204.321697 56.126297 l
204.539255 53.892786 l
204.756813 56.189206 l
204.974371 54.24429 l
205.191929 60.379167 l
205.409487 62.8792 l
205.627045 72.334434 l
205.844603 74.310316 l
206.062161 77.613011 l
206.279719 78.207534 l
206.497277 76.507543 l
206.932393 78.848703 l
207.149951 78.580502 l
207.367509 83.058356 l
207.585067 78.905006 l
207.802625 78.774948 l
208.237741 73.707161 l
208.672857 77.533111 l
208.890415 76.590395 l
209.107973 79.897673 l
209.325531 79.061492 l
209.543089 79.361956 l
209.760647 81.46794 l
209.978205 77.806094 l
210.195763 82.980409 l
210.413321 83.367223 l
211.065995 104.52022 l
211.283553 108.433158 l
212.588901 145.452242 l
213.024017 153.996077 l
213.241575 155.126182 l
213.459133 156.887514 l
213.676691 157.039737 l
213.894249 156.874557 l
214.111807 157.034341 l
214.329365 156.817925 l
214.546923 156.850721 l
214.764481 156.742664 l
214.982039 154.760276 l
215.199597 156.042109 l
215.417155 153.796011 l
215.634713 155.434782 l
215.852271 155.15128 l
216.069829 156.680514 l
216.287387 156.345561 l
216.504945 157.348812 l
216.722503 155.698024 l
217.157619 154.223103 l
217.375177 151.586563 l
217.592735 152.85263 l
217.810293 151.414422 l
218.027851 152.207382 l
218.245409 152.393263 l
218.680525 148.563025 l
218.898083 148.105047 l
219.115641 146.943549 l
219.333199 149.09866 l
219.768315 149.931692 l
219.985873 149.669568 l
220.203431 147.672438 l
220.420989 148.739045 l
220.638547 147.876497 l
220.856105 149.638223 l
221.073663 148.334002 l
221.508779 143.208398 l
221.943895 143.736091 l
222.161453 144.517108 l
222.379011 143.755817 l
222.814127 144.655857 l
223.031685 145.754189 l
223.249243 145.10621 l
223.466801 143.889903 l
223.684359 145.507733 l
223.901917 137.828436 l
224.119475 145.21177 l
224.337033 137.753181 l
224.554591 143.260386 l
224.772149 138.105522 l
224.989707 140.276195 l
225.207265 137.186031 l
225.424823 140.434058 l
225.642381 140.303701 l
225.859939 142.483994 l
226.077497 140.949126 l
226.295055 142.35718 l
226.512613 141.176042 l
226.730171 140.89345 l
226.947729 142.615387 l
227.165287 141.372193 l
227.382845 143.235726 l
227.817961 142.697317 l
228.035519 141.680829 l
228.253077 142.060265 l
228.470635 141.209935 l
228.688193 142.210044 l
228.905751 140.523194 l
229.123309 141.853285 l
229.340867 142.209436 l
229.558425 140.484648 l
229.775983 143.447266 l
229.993541 141.387852 l
230.211099 142.240928 l
230.428657 142.52521 l
230.646215 137.779685 l
230.863773 141.444919 l
231.081331 136.460596 l
232.169121 159.099363 l
232.386679 160.07068 l
232.604237 163.459787 l
232.821795 162.540967 l
233.909585 181.764195 l
234.127143 181.370899 l
234.344701 181.616449 l
234.562259 176.248351 l
234.779817 181.015953 l
234.997375 171.067529 l
235.214933 179.80041 l
235.432491 172.890548 l
235.650049 178.455844 l
235.867607 176.66297 l
236.085165 181.11118 l
236.302723 177.525556 l
236.520281 180.920873 l
236.737839 177.599895 l
236.955397 183.736806 l
237.608071 193.208641 l
237.825629 191.380861 l
238.043187 191.62922 l
238.260745 191.70828 l
238.695861 191.446376 l
243.699695 189.995805 l
243.917253 189.165602 l
244.134811 189.027721 l
245.005043 182.242402 l
245.222601 181.845673 l
245.440159 180.779653 l
245.657717 182.65547 l
245.875275 178.476579 l
246.092833 181.772637 l
246.310391 177.587679 l
246.527949 181.123936 l
246.745507 180.659485 l
246.963065 180.659779 l
247.180623 173.436738 l
247.398181 180.008884 l
247.615739 169.585304 l
247.833297 177.908832 l
248.050855 175.65141 l
248.268413 177.25204 l
248.48597 176.262065 l
248.703528 179.397715 l
248.921086 180.812499 l
249.791318 205.586888 l
250.226434 211.13146 l
250.443992 211.264178 l
250.66155 211.241937 l
250.879108 210.645143 l
251.096666 210.641267 l
251.531782 210.171305 l
251.74934 210.187839 l
251.966898 209.912786 l
252.402014 209.863279 l
252.619572 209.15528 l
253.489804 198.618331 l
253.707362 201.212798 l
253.92492 199.871609 l
254.142478 203.086647 l
254.360036 199.75149 l
254.577594 204.650869 l
254.795152 200.940039 l
255.01271 203.299576 l
255.230268 203.374483 l
255.447826 202.101015 l
255.665384 203.660553 l
255.882942 199.125179 l
256.1005 201.923009 l
256.318058 197.71314 l
256.535616 199.619133 l
256.753174 199.731623 l
257.18829 197.327699 l
257.405848 195.381842 l
257.623406 194.641324 l
257.840964 191.222093 l
258.058522 192.016798 l
258.27608 189.641499 l
258.493638 189.866666 l
258.711196 187.805002 l
258.928754 187.87059 l
259.146312 186.835583 l
259.36387 187.481597 l
259.581428 189.921354 l
259.798986 190.063395 l
260.016544 194.34135 l
260.234102 192.742993 l
260.45166 196.907928 l
260.669218 197.370547 l
261.104334 200.725608 l
261.321892 201.034488 l
261.53945 200.427858 l
261.974566 205.741197 l
262.192124 206.627256 l
262.409682 209.627722 l
262.62724 207.921374 l
263.279914 207.796292 l
264.80282 207.331279 l
265.237936 207.407512 l
330.070219 207.407512 l
330.505335 212.195892 l
330.722893 206.933254 l
330.940451 210.666657 l
331.158009 209.697561 l
331.375567 206.362571 l
331.593125 209.593291 l
331.810683 205.389122 l
332.028241 208.595505 l
332.245799 207.084477 l
332.463357 209.026337 l
332.680915 206.304171 l
332.898473 207.695987 l
333.116031 204.724578 l
333.333589 204.379945 l
333.551147 203.646087 l
333.768705 202.39398 l
333.986263 205.946207 l
334.203821 203.448598 l
334.421379 211.574455 l
334.638937 212.1707 l
335.074053 222.366569 l
335.291611 224.355203 l
335.509169 233.220024 l
335.726727 234.786868 l
335.944285 239.600537 l
336.161843 240.747325 l
336.596959 239.568072 l
336.814517 239.486284 l
337.032075 240.72547 l
337.249633 239.872653 l
338.119865 230.955417 l
338.337423 233.70924 l
338.554981 227.015413 l
338.772539 225.12754 l
339.207655 212.911391 l
339.425213 215.081701 l
339.642771 203.040138 l
339.860329 198.434427 l
340.077887 197.452755 l
340.295445 189.388174 l
340.513003 193.996864 l
340.730561 194.934955 l
340.948119 192.296272 l
341.165677 194.417577 l
341.383235 191.197695 l
341.600793 197.424924 l
341.818351 200.24761 l
342.035909 206.163399 l
342.253467 216.467308 l
342.471025 219.263356 l
342.906141 235.487916 l
343.123699 238.093512 l
343.341257 243.556364 l
343.558815 243.556364 l
343.776373 242.949074 l
343.993931 243.556364 l
344.211489 242.146855 l
344.646605 243.556364 l
344.864163 238.923728 l
345.081721 243.080543 l
345.299279 241.662005 l
345.516837 243.159365 l
345.734395 242.842415 l
346.169511 240.099037 l
347.474859 205.673325 l
347.692417 203.065081 l
347.909975 202.209405 l
348.127533 201.929921 l
348.562649 202.285034 l
352.043577 202.195921 l
356.177179 201.015795 l
358.787874 201.022536 l
359.875664 201.02233 l
360.093222 200.500871 l
360.31078 197.357968 l
360.528338 197.293586 l
360.745896 194.456952 l
360.963454 194.608443 l
361.181012 195.48798 l
361.39857 194.972239 l
361.616128 193.534499 l
361.833686 193.652747 l
362.051244 191.84282 l
362.268802 192.101328 l
362.48636 193.357362 l
362.703918 193.15714 l
362.921476 196.366592 l
363.139034 194.989563 l
363.57415 199.124076 l
363.791708 198.871115 l
364.009266 202.166022 l
364.226824 201.43387 l
364.444382 204.220101 l
364.66194 205.064392 l
364.879498 206.717154 l
365.097056 206.908917 l
365.314614 202.691163 l
365.532172 202.988766 l
365.74973 202.763235 l
365.967288 204.505275 l
366.402404 208.971694 l
366.619962 208.069066 l
366.83752 208.564973 l
367.272636 205.452423 l
367.490194 205.910719 l
367.707752 202.780765 l
367.92531 202.866786 l
368.360426 199.332529 l
368.577984 199.91303 l
368.795542 199.787184 l
369.0131 200.107795 l
369.230658 200.127317 l
369.448216 203.413455 l
369.665774 204.187727 l
369.883332 204.386645 l
370.10089 205.310497 l
370.318448 202.569444 l
370.536006 201.819393 l
370.753564 201.47287 l
370.971122 200.812891 l
371.18868 200.787084 l
371.406238 200.621775 l
371.623796 200.945999 l
371.841354 200.660629 l
372.494028 200.667788 l
372.929144 200.676121 l
373.36426 200.674389 l
373.581818 200.648995 l
373.581818 200.648995 l
stroke
grestore
0.800 setlinewidth
0 setlinejoin
[] 0 setdash
0.000 setgray
gsave
54 36 m
54 253.44 l
stroke
grestore
gsave
388.8 36 m
388.8 253.44 l
stroke
grestore
gsave
54 36 m
388.8 36 l
stroke
grestore
gsave
54 253.44 m
388.8 253.44 l
stroke
grestore

end
showpage
