%!PS-Adobe-3.0 EPSF-3.0
%%Title: act_Ultracapacitor SOC [100%].eps
%%Creator: matplotlib version 2.0.0, http://matplotlib.org/
%%CreationDate: Mon May 15 15:47:51 2017
%%Orientation: portrait
%%BoundingBox: 90 252 522 540
%%EndComments
%%BeginProlog
/mpldict 8 dict def
mpldict begin
/m { moveto } bind def
/l { lineto } bind def
/r { rlineto } bind def
/c { curveto } bind def
/cl { closepath } bind def
/box {
m
1 index 0 r
0 exch r
neg 0 r
cl
} bind def
/clipbox {
box
clip
newpath
} bind def
%!PS-Adobe-3.0 Resource-Font
%%Title: DejaVu Sans
%%Copyright: Copyright (c) 2003 by Bitstream, Inc. All Rights Reserved. Copyright (c) 2006 by Tavmjong Bah. All Rights Reserved. DejaVu changes are in public domain 
%%Creator: Converted from TrueType to type 3 by PPR
25 dict begin
/_d{bind def}bind def
/_m{moveto}_d
/_l{lineto}_d
/_cl{closepath eofill}_d
/_c{curveto}_d
/_sc{7 -1 roll{setcachedevice}{pop pop pop pop pop pop}ifelse}_d
/_e{exec}_d
/FontName /DejaVuSans def
/PaintType 0 def
/FontMatrix[.001 0 0 .001 0 0]def
/FontBBox[-1021 -463 1793 1232]def
/FontType 3 def
/Encoding [ /space /percent /period /zero /one /two /four /six /seven /eight /nine /C /O /S /T /U /bracketleft /bracketright /a /c /e /i /l /m /o /p /r /s /t ] def
/FontInfo 10 dict dup begin
/FamilyName (DejaVu Sans) def
/FullName (DejaVu Sans) def
/Notice (Copyright (c) 2003 by Bitstream, Inc. All Rights Reserved. Copyright (c) 2006 by Tavmjong Bah. All Rights Reserved. DejaVu changes are in public domain ) def
/Weight (Book) def
/Version (Version 2.35) def
/ItalicAngle 0.0 def
/isFixedPitch false def
/UnderlinePosition -130 def
/UnderlineThickness 90 def
end readonly def
/CharStrings 29 dict dup begin
/space{318 0 0 0 0 0 _sc
}_d
/percent{{950 0 55 -13 895 742 _sc
727 321 _m
699 321 676 309 660 285 _c
644 261 636 227 636 184 _c
636 142 644 108 660 84 _c
676 60 699 48 727 48 _c
755 48 777 60 793 84 _c
809 108 817 142 817 184 _c
817 226 809 260 793 284 _c
777 308 755 321 727 321 _c
727 383 _m
778 383 819 365 849 329 _c
879 293 895 244 895 184 _c
895 123 879 75 849 40 _c
819 4 778 -13 727 -13 _c
}_e{675 -13 633 4 603 40 _c
573 75 558 123 558 184 _c
558 245 573 293 603 329 _c
633 365 675 383 727 383 _c
223 680 _m
195 680 173 667 157 643 _c
141 619 133 586 133 544 _c
133 500 141 467 157 443 _c
173 419 195 407 223 407 _c
251 407 274 419 290 443 _c
306 467 314 500 314 544 _c
314 586 305 619 289 643 _c
273 667 251 680 223 680 _c
664 742 _m
742 742 _l
286 -13 _l
}_e{208 -13 _l
664 742 _l
223 742 _m
274 742 315 724 346 688 _c
376 652 392 604 392 544 _c
392 482 376 434 346 398 _c
316 362 275 345 223 345 _c
171 345 130 362 100 398 _c
70 434 55 482 55 544 _c
55 604 70 652 100 688 _c
130 724 171 742 223 742 _c
_cl}_e}_d
/period{318 0 107 0 210 124 _sc
107 124 _m
210 124 _l
210 0 _l
107 0 _l
107 124 _l
_cl}_d
/zero{636 0 66 -13 570 742 _sc
318 664 _m
267 664 229 639 203 589 _c
177 539 165 464 165 364 _c
165 264 177 189 203 139 _c
229 89 267 64 318 64 _c
369 64 407 89 433 139 _c
458 189 471 264 471 364 _c
471 464 458 539 433 589 _c
407 639 369 664 318 664 _c
318 742 _m
399 742 461 709 505 645 _c
548 580 570 486 570 364 _c
570 241 548 147 505 83 _c
461 19 399 -13 318 -13 _c
236 -13 173 19 130 83 _c
87 147 66 241 66 364 _c
66 486 87 580 130 645 _c
173 709 236 742 318 742 _c
_cl}_d
/one{636 0 110 0 544 729 _sc
124 83 _m
285 83 _l
285 639 _l
110 604 _l
110 694 _l
284 729 _l
383 729 _l
383 83 _l
544 83 _l
544 0 _l
124 0 _l
124 83 _l
_cl}_d
/two{{636 0 73 0 536 742 _sc
192 83 _m
536 83 _l
536 0 _l
73 0 _l
73 83 _l
110 121 161 173 226 239 _c
290 304 331 346 348 365 _c
380 400 402 430 414 455 _c
426 479 433 504 433 528 _c
433 566 419 598 392 622 _c
365 646 330 659 286 659 _c
255 659 222 653 188 643 _c
154 632 117 616 78 594 _c
78 694 _l
118 710 155 722 189 730 _c
223 738 255 742 284 742 _c
}_e{359 742 419 723 464 685 _c
509 647 532 597 532 534 _c
532 504 526 475 515 449 _c
504 422 484 390 454 354 _c
446 344 420 317 376 272 _c
332 227 271 164 192 83 _c
_cl}_e}_d
/four{636 0 49 0 580 729 _sc
378 643 _m
129 254 _l
378 254 _l
378 643 _l
352 729 _m
476 729 _l
476 254 _l
580 254 _l
580 172 _l
476 172 _l
476 0 _l
378 0 _l
378 172 _l
49 172 _l
49 267 _l
352 729 _l
_cl}_d
/six{{636 0 70 -13 573 742 _sc
330 404 _m
286 404 251 388 225 358 _c
199 328 186 286 186 234 _c
186 181 199 139 225 109 _c
251 79 286 64 330 64 _c
374 64 409 79 435 109 _c
461 139 474 181 474 234 _c
474 286 461 328 435 358 _c
409 388 374 404 330 404 _c
526 713 _m
526 623 _l
501 635 476 644 451 650 _c
425 656 400 659 376 659 _c
310 659 260 637 226 593 _c
}_e{192 549 172 482 168 394 _c
187 422 211 444 240 459 _c
269 474 301 482 336 482 _c
409 482 467 459 509 415 _c
551 371 573 310 573 234 _c
573 159 550 99 506 54 _c
462 9 403 -13 330 -13 _c
246 -13 181 19 137 83 _c
92 147 70 241 70 364 _c
70 479 97 571 152 639 _c
206 707 280 742 372 742 _c
396 742 421 739 447 735 _c
472 730 498 723 526 713 _c
_cl}_e}_d
/seven{636 0 82 0 551 729 _sc
82 729 _m
551 729 _l
551 687 _l
286 0 _l
183 0 _l
432 646 _l
82 646 _l
82 729 _l
_cl}_d
/eight{{636 0 68 -13 568 742 _sc
318 346 _m
271 346 234 333 207 308 _c
180 283 167 249 167 205 _c
167 161 180 126 207 101 _c
234 76 271 64 318 64 _c
364 64 401 76 428 102 _c
455 127 469 161 469 205 _c
469 249 455 283 429 308 _c
402 333 365 346 318 346 _c
219 388 _m
177 398 144 418 120 447 _c
96 476 85 511 85 553 _c
85 611 105 657 147 691 _c
188 725 245 742 318 742 _c
}_e{390 742 447 725 489 691 _c
530 657 551 611 551 553 _c
551 511 539 476 515 447 _c
491 418 459 398 417 388 _c
464 377 501 355 528 323 _c
554 291 568 251 568 205 _c
568 134 546 80 503 43 _c
459 5 398 -13 318 -13 _c
237 -13 175 5 132 43 _c
89 80 68 134 68 205 _c
68 251 81 291 108 323 _c
134 355 171 377 219 388 _c
183 544 _m
183 506 194 476 218 455 _c
}_e{242 434 275 424 318 424 _c
360 424 393 434 417 455 _c
441 476 453 506 453 544 _c
453 582 441 611 417 632 _c
393 653 360 664 318 664 _c
275 664 242 653 218 632 _c
194 611 183 582 183 544 _c
_cl}_e}_d
/nine{{636 0 63 -13 566 742 _sc
110 15 _m
110 105 _l
134 93 159 84 185 78 _c
210 72 235 69 260 69 _c
324 69 374 90 408 134 _c
442 178 462 244 468 334 _c
448 306 424 284 396 269 _c
367 254 335 247 300 247 _c
226 247 168 269 126 313 _c
84 357 63 417 63 494 _c
63 568 85 628 129 674 _c
173 719 232 742 306 742 _c
390 742 455 709 499 645 _c
543 580 566 486 566 364 _c
}_e{566 248 538 157 484 89 _c
429 21 356 -13 264 -13 _c
239 -13 214 -10 189 -6 _c
163 -2 137 5 110 15 _c
306 324 _m
350 324 385 339 411 369 _c
437 399 450 441 450 494 _c
450 546 437 588 411 618 _c
385 648 350 664 306 664 _c
262 664 227 648 201 618 _c
175 588 162 546 162 494 _c
162 441 175 399 201 369 _c
227 339 262 324 306 324 _c
_cl}_e}_d
/C{{698 0 56 -13 644 742 _sc
644 673 _m
644 569 _l
610 599 575 622 537 638 _c
499 653 460 661 418 661 _c
334 661 270 635 226 584 _c
182 533 160 460 160 364 _c
160 268 182 194 226 143 _c
270 92 334 67 418 67 _c
460 67 499 74 537 90 _c
575 105 610 128 644 159 _c
644 56 _l
609 32 572 15 534 4 _c
496 -7 455 -13 412 -13 _c
302 -13 215 20 151 87 _c
}_e{87 154 56 246 56 364 _c
56 481 87 573 151 641 _c
215 708 302 742 412 742 _c
456 742 497 736 535 725 _c
573 713 610 696 644 673 _c
_cl}_e}_d
/O{787 0 56 -13 731 742 _sc
394 662 _m
322 662 265 635 223 582 _c
181 528 160 456 160 364 _c
160 272 181 199 223 146 _c
265 92 322 66 394 66 _c
465 66 522 92 564 146 _c
606 199 627 272 627 364 _c
627 456 606 528 564 582 _c
522 635 465 662 394 662 _c
394 742 _m
496 742 577 707 639 639 _c
700 571 731 479 731 364 _c
731 248 700 157 639 89 _c
577 21 496 -13 394 -13 _c
291 -13 209 21 148 89 _c
86 157 56 248 56 364 _c
56 479 86 571 148 639 _c
209 707 291 742 394 742 _c
_cl}_d
/S{{635 0 66 -13 579 742 _sc
535 705 _m
535 609 _l
497 627 462 640 429 649 _c
395 657 363 662 333 662 _c
279 662 237 651 208 631 _c
179 610 165 580 165 542 _c
165 510 174 485 194 469 _c
213 452 250 439 304 429 _c
364 417 _l
437 403 491 378 526 343 _c
561 307 579 260 579 201 _c
579 130 555 77 508 41 _c
460 5 391 -13 300 -13 _c
265 -13 228 -9 189 -2 _c
}_e{150 5 110 16 69 32 _c
69 134 _l
109 111 148 94 186 83 _c
224 71 262 66 300 66 _c
356 66 399 77 430 99 _c
460 121 476 152 476 194 _c
476 230 465 258 443 278 _c
421 298 385 313 335 323 _c
275 335 _l
201 349 148 372 115 404 _c
82 435 66 478 66 534 _c
66 598 88 649 134 686 _c
179 723 242 742 322 742 _c
356 742 390 739 426 733 _c
461 727 497 717 535 705 _c
}_e{_cl}_e}_d
/T{611 0 -2 0 614 729 _sc
-2 729 _m
614 729 _l
614 646 _l
355 646 _l
355 0 _l
256 0 _l
256 646 _l
-2 646 _l
-2 729 _l
_cl}_d
/U{732 0 87 -13 645 729 _sc
87 729 _m
186 729 _l
186 286 _l
186 208 200 151 228 117 _c
256 83 302 66 366 66 _c
429 66 475 83 503 117 _c
531 151 546 208 546 286 _c
546 729 _l
645 729 _l
645 274 _l
645 178 621 107 574 59 _c
527 11 458 -13 366 -13 _c
274 -13 204 11 157 59 _c
110 107 87 178 87 274 _c
87 729 _l
_cl}_d
/bracketleft{390 0 86 -131 293 760 _sc
86 760 _m
293 760 _l
293 690 _l
176 690 _l
176 -61 _l
293 -61 _l
293 -131 _l
86 -131 _l
86 760 _l
_cl}_d
/bracketright{390 0 97 -131 304 760 _sc
304 760 _m
304 -131 _l
97 -131 _l
97 -61 _l
214 -61 _l
214 690 _l
97 690 _l
97 760 _l
304 760 _l
_cl}_d
/a{{613 0 60 -13 522 560 _sc
343 275 _m
270 275 220 266 192 250 _c
164 233 150 205 150 165 _c
150 133 160 107 181 89 _c
202 70 231 61 267 61 _c
317 61 357 78 387 114 _c
417 149 432 196 432 255 _c
432 275 _l
343 275 _l
522 312 _m
522 0 _l
432 0 _l
432 83 _l
411 49 385 25 355 10 _c
325 -5 287 -13 243 -13 _c
187 -13 142 2 109 33 _c
76 64 60 106 60 159 _c
}_e{60 220 80 266 122 298 _c
163 329 224 345 306 345 _c
432 345 _l
432 354 _l
432 395 418 427 391 450 _c
364 472 326 484 277 484 _c
245 484 215 480 185 472 _c
155 464 127 453 100 439 _c
100 522 _l
132 534 164 544 195 550 _c
226 556 256 560 286 560 _c
365 560 424 539 463 498 _c
502 457 522 395 522 312 _c
_cl}_e}_d
/c{{550 0 55 -13 488 560 _sc
488 526 _m
488 442 _l
462 456 437 466 411 473 _c
385 480 360 484 334 484 _c
276 484 230 465 198 428 _c
166 391 150 339 150 273 _c
150 206 166 154 198 117 _c
230 80 276 62 334 62 _c
360 62 385 65 411 72 _c
437 79 462 90 488 104 _c
488 21 _l
462 9 436 0 410 -5 _c
383 -10 354 -13 324 -13 _c
242 -13 176 12 128 64 _c
}_e{79 115 55 185 55 273 _c
55 362 79 432 128 483 _c
177 534 244 560 330 560 _c
358 560 385 557 411 551 _c
437 545 463 537 488 526 _c
_cl}_e}_d
/e{{615 0 55 -13 562 560 _sc
562 296 _m
562 252 _l
149 252 _l
153 190 171 142 205 110 _c
238 78 284 62 344 62 _c
378 62 412 66 444 74 _c
476 82 509 95 541 113 _c
541 28 _l
509 14 476 3 442 -3 _c
408 -9 373 -13 339 -13 _c
251 -13 182 12 131 62 _c
80 112 55 181 55 268 _c
55 357 79 428 127 481 _c
175 533 241 560 323 560 _c
397 560 455 536 498 489 _c
}_e{540 441 562 377 562 296 _c
472 322 _m
471 371 457 410 431 440 _c
404 469 368 484 324 484 _c
274 484 234 469 204 441 _c
174 413 156 373 152 322 _c
472 322 _l
_cl}_e}_d
/i{278 0 94 0 184 760 _sc
94 547 _m
184 547 _l
184 0 _l
94 0 _l
94 547 _l
94 760 _m
184 760 _l
184 646 _l
94 646 _l
94 760 _l
_cl}_d
/l{278 0 94 0 184 760 _sc
94 760 _m
184 760 _l
184 0 _l
94 0 _l
94 760 _l
_cl}_d
/m{{974 0 91 0 889 560 _sc
520 442 _m
542 482 569 511 600 531 _c
631 550 668 560 711 560 _c
767 560 811 540 842 500 _c
873 460 889 403 889 330 _c
889 0 _l
799 0 _l
799 327 _l
799 379 789 418 771 444 _c
752 469 724 482 686 482 _c
639 482 602 466 575 435 _c
548 404 535 362 535 309 _c
535 0 _l
445 0 _l
445 327 _l
445 379 435 418 417 444 _c
398 469 369 482 331 482 _c
}_e{285 482 248 466 221 435 _c
194 404 181 362 181 309 _c
181 0 _l
91 0 _l
91 547 _l
181 547 _l
181 462 _l
201 495 226 520 255 536 _c
283 552 317 560 357 560 _c
397 560 430 550 458 530 _c
486 510 506 480 520 442 _c
_cl}_e}_d
/o{612 0 55 -13 557 560 _sc
306 484 _m
258 484 220 465 192 427 _c
164 389 150 338 150 273 _c
150 207 163 156 191 118 _c
219 80 257 62 306 62 _c
354 62 392 80 420 118 _c
448 156 462 207 462 273 _c
462 337 448 389 420 427 _c
392 465 354 484 306 484 _c
306 560 _m
384 560 445 534 490 484 _c
534 433 557 363 557 273 _c
557 183 534 113 490 63 _c
445 12 384 -13 306 -13 _c
227 -13 165 12 121 63 _c
77 113 55 183 55 273 _c
55 363 77 433 121 484 _c
165 534 227 560 306 560 _c
_cl}_d
/p{{635 0 91 -207 580 560 _sc
181 82 _m
181 -207 _l
91 -207 _l
91 547 _l
181 547 _l
181 464 _l
199 496 223 520 252 536 _c
281 552 316 560 356 560 _c
422 560 476 533 518 481 _c
559 428 580 359 580 273 _c
580 187 559 117 518 65 _c
476 13 422 -13 356 -13 _c
316 -13 281 -5 252 10 _c
223 25 199 49 181 82 _c
487 273 _m
487 339 473 390 446 428 _c
418 466 381 485 334 485 _c
}_e{286 485 249 466 222 428 _c
194 390 181 339 181 273 _c
181 207 194 155 222 117 _c
249 79 286 61 334 61 _c
381 61 418 79 446 117 _c
473 155 487 207 487 273 _c
_cl}_e}_d
/r{411 0 91 0 411 560 _sc
411 463 _m
401 469 390 473 378 476 _c
366 478 353 480 339 480 _c
288 480 249 463 222 430 _c
194 397 181 350 181 288 _c
181 0 _l
91 0 _l
91 547 _l
181 547 _l
181 462 _l
199 495 224 520 254 536 _c
284 552 321 560 365 560 _c
371 560 378 559 386 559 _c
393 558 401 557 411 555 _c
411 463 _l
_cl}_d
/s{{521 0 54 -13 472 560 _sc
443 531 _m
443 446 _l
417 458 391 468 364 475 _c
336 481 308 485 279 485 _c
234 485 200 478 178 464 _c
156 450 145 430 145 403 _c
145 382 153 366 169 354 _c
185 342 217 330 265 320 _c
296 313 _l
360 299 405 279 432 255 _c
458 230 472 195 472 151 _c
472 100 452 60 412 31 _c
372 1 316 -13 246 -13 _c
216 -13 186 -10 154 -5 _c
}_e{122 0 89 8 54 20 _c
54 113 _l
87 95 120 82 152 74 _c
184 65 216 61 248 61 _c
290 61 323 68 346 82 _c
368 96 380 117 380 144 _c
380 168 371 187 355 200 _c
339 213 303 226 247 238 _c
216 245 _l
160 257 119 275 95 299 _c
70 323 58 356 58 399 _c
58 450 76 490 112 518 _c
148 546 200 560 268 560 _c
301 560 332 557 362 552 _c
391 547 418 540 443 531 _c
}_e{_cl}_e}_d
/t{392 0 27 0 368 702 _sc
183 702 _m
183 547 _l
368 547 _l
368 477 _l
183 477 _l
183 180 _l
183 135 189 106 201 94 _c
213 81 238 75 276 75 _c
368 75 _l
368 0 _l
276 0 _l
206 0 158 13 132 39 _c
106 65 93 112 93 180 _c
93 477 _l
27 477 _l
27 547 _l
93 547 _l
93 702 _l
183 702 _l
_cl}_d
end readonly def

/BuildGlyph
 {exch begin
 CharStrings exch
 2 copy known not{pop /.notdef}if
 true 3 1 roll get exec
 end}_d

/BuildChar {
 1 index /Encoding get exch get
 1 index /BuildGlyph get exec
}_d

FontName currentdict end definefont pop
end
%%EndProlog
mpldict begin
90 252 translate
432 288 0 0 clipbox
gsave
0 0 m
432 0 l
432 288 l
0 288 l
cl
1.000 setgray
fill
grestore
gsave
54 36 m
388.8 36 l
388.8 253.44 l
54 253.44 l
cl
1.000 setgray
fill
grestore
0.800 setlinewidth
1 setlinejoin
2 setlinecap
[] 0 setdash
0.690 setgray
gsave
334.8 217.4 54 36 clipbox
69.218182 36 m
69.218182 253.44 l
stroke
grestore
0 setlinecap
0.000 setgray
gsave
/o {
gsave
newpath
translate
0.8 setlinewidth
1 setlinejoin
0 setlinecap
0 0 m
0 -3.5 l

gsave
0.000 setgray
fill
grestore
stroke
grestore
} bind def
69.2182 36 o
grestore
/DejaVuSans findfont
10.000 scalefont
setfont
gsave
66.038494 21.406250 translate
0.000000 rotate
0.000000 0.000000 m /zero glyphshow
grestore
2 setlinecap
0.690 setgray
gsave
334.8 217.4 54 36 clipbox
112.729781 36 m
112.729781 253.44 l
stroke
grestore
0 setlinecap
0.000 setgray
gsave
/o {
gsave
newpath
translate
0.8 setlinewidth
1 setlinejoin
0 setlinecap
0 0 m
0 -3.5 l

gsave
0.000 setgray
fill
grestore
stroke
grestore
} bind def
112.73 36 o
grestore
gsave
103.190719 21.406250 translate
0.000000 rotate
0.000000 0.000000 m /two glyphshow
6.362305 0.000000 m /zero glyphshow
12.724609 0.000000 m /zero glyphshow
grestore
2 setlinecap
0.690 setgray
gsave
334.8 217.4 54 36 clipbox
156.24138 36 m
156.24138 253.44 l
stroke
grestore
0 setlinecap
0.000 setgray
gsave
/o {
gsave
newpath
translate
0.8 setlinewidth
1 setlinejoin
0 setlinecap
0 0 m
0 -3.5 l

gsave
0.000 setgray
fill
grestore
stroke
grestore
} bind def
156.241 36 o
grestore
gsave
146.702318 21.406250 translate
0.000000 rotate
0.000000 0.000000 m /four glyphshow
6.362305 0.000000 m /zero glyphshow
12.724609 0.000000 m /zero glyphshow
grestore
2 setlinecap
0.690 setgray
gsave
334.8 217.4 54 36 clipbox
199.752979 36 m
199.752979 253.44 l
stroke
grestore
0 setlinecap
0.000 setgray
gsave
/o {
gsave
newpath
translate
0.8 setlinewidth
1 setlinejoin
0 setlinecap
0 0 m
0 -3.5 l

gsave
0.000 setgray
fill
grestore
stroke
grestore
} bind def
199.753 36 o
grestore
gsave
190.213917 21.406250 translate
0.000000 rotate
0.000000 0.000000 m /six glyphshow
6.362305 0.000000 m /zero glyphshow
12.724609 0.000000 m /zero glyphshow
grestore
2 setlinecap
0.690 setgray
gsave
334.8 217.4 54 36 clipbox
243.264579 36 m
243.264579 253.44 l
stroke
grestore
0 setlinecap
0.000 setgray
gsave
/o {
gsave
newpath
translate
0.8 setlinewidth
1 setlinejoin
0 setlinecap
0 0 m
0 -3.5 l

gsave
0.000 setgray
fill
grestore
stroke
grestore
} bind def
243.265 36 o
grestore
gsave
233.725516 21.406250 translate
0.000000 rotate
0.000000 0.000000 m /eight glyphshow
6.362305 0.000000 m /zero glyphshow
12.724609 0.000000 m /zero glyphshow
grestore
2 setlinecap
0.690 setgray
gsave
334.8 217.4 54 36 clipbox
286.776178 36 m
286.776178 253.44 l
stroke
grestore
0 setlinecap
0.000 setgray
gsave
/o {
gsave
newpath
translate
0.8 setlinewidth
1 setlinejoin
0 setlinecap
0 0 m
0 -3.5 l

gsave
0.000 setgray
fill
grestore
stroke
grestore
} bind def
286.776 36 o
grestore
gsave
274.057428 21.406250 translate
0.000000 rotate
0.000000 0.000000 m /one glyphshow
6.362305 0.000000 m /zero glyphshow
12.724609 0.000000 m /zero glyphshow
19.086914 0.000000 m /zero glyphshow
grestore
2 setlinecap
0.690 setgray
gsave
334.8 217.4 54 36 clipbox
330.287777 36 m
330.287777 253.44 l
stroke
grestore
0 setlinecap
0.000 setgray
gsave
/o {
gsave
newpath
translate
0.8 setlinewidth
1 setlinejoin
0 setlinecap
0 0 m
0 -3.5 l

gsave
0.000 setgray
fill
grestore
stroke
grestore
} bind def
330.288 36 o
grestore
gsave
317.569027 21.406250 translate
0.000000 rotate
0.000000 0.000000 m /one glyphshow
6.362305 0.000000 m /two glyphshow
12.724609 0.000000 m /zero glyphshow
19.086914 0.000000 m /zero glyphshow
grestore
2 setlinecap
0.690 setgray
gsave
334.8 217.4 54 36 clipbox
373.799376 36 m
373.799376 253.44 l
stroke
grestore
0 setlinecap
0.000 setgray
gsave
/o {
gsave
newpath
translate
0.8 setlinewidth
1 setlinejoin
0 setlinecap
0 0 m
0 -3.5 l

gsave
0.000 setgray
fill
grestore
stroke
grestore
} bind def
373.799 36 o
grestore
gsave
361.080626 21.406250 translate
0.000000 rotate
0.000000 0.000000 m /one glyphshow
6.362305 0.000000 m /four glyphshow
12.724609 0.000000 m /zero glyphshow
19.086914 0.000000 m /zero glyphshow
grestore
gsave
200.892188 7.734375 translate
0.000000 rotate
0.000000 0.000000 m /T glyphshow
6.108398 0.000000 m /i glyphshow
8.886719 0.000000 m /m glyphshow
18.627930 0.000000 m /e glyphshow
24.780273 0.000000 m /space glyphshow
27.958984 0.000000 m /bracketleft glyphshow
31.860352 0.000000 m /s glyphshow
37.070312 0.000000 m /bracketright glyphshow
grestore
2 setlinecap
0.690 setgray
gsave
334.8 217.4 54 36 clipbox
54 64.694725 m
388.8 64.694725 l
stroke
grestore
0 setlinecap
0.000 setgray
gsave
/o {
gsave
newpath
translate
0.8 setlinewidth
1 setlinejoin
0 setlinecap
0 0 m
-3.5 0 l

gsave
0.000 setgray
fill
grestore
stroke
grestore
} bind def
54 64.6947 o
grestore
gsave
31.093750 60.897850 translate
0.000000 rotate
0.000000 0.000000 m /zero glyphshow
6.362305 0.000000 m /period glyphshow
9.541016 0.000000 m /six glyphshow
grestore
2 setlinecap
0.690 setgray
gsave
334.8 217.4 54 36 clipbox
54 109.410135 m
388.8 109.410135 l
stroke
grestore
0 setlinecap
0.000 setgray
gsave
/o {
gsave
newpath
translate
0.8 setlinewidth
1 setlinejoin
0 setlinecap
0 0 m
-3.5 0 l

gsave
0.000 setgray
fill
grestore
stroke
grestore
} bind def
54 109.41 o
grestore
gsave
31.093750 105.613260 translate
0.000000 rotate
0.000000 0.000000 m /zero glyphshow
6.362305 0.000000 m /period glyphshow
9.541016 0.000000 m /seven glyphshow
grestore
2 setlinecap
0.690 setgray
gsave
334.8 217.4 54 36 clipbox
54 154.125544 m
388.8 154.125544 l
stroke
grestore
0 setlinecap
0.000 setgray
gsave
/o {
gsave
newpath
translate
0.8 setlinewidth
1 setlinejoin
0 setlinecap
0 0 m
-3.5 0 l

gsave
0.000 setgray
fill
grestore
stroke
grestore
} bind def
54 154.126 o
grestore
gsave
31.093750 150.328669 translate
0.000000 rotate
0.000000 0.000000 m /zero glyphshow
6.362305 0.000000 m /period glyphshow
9.541016 0.000000 m /eight glyphshow
grestore
2 setlinecap
0.690 setgray
gsave
334.8 217.4 54 36 clipbox
54 198.840954 m
388.8 198.840954 l
stroke
grestore
0 setlinecap
0.000 setgray
gsave
/o {
gsave
newpath
translate
0.8 setlinewidth
1 setlinejoin
0 setlinecap
0 0 m
-3.5 0 l

gsave
0.000 setgray
fill
grestore
stroke
grestore
} bind def
54 198.841 o
grestore
gsave
31.093750 195.044079 translate
0.000000 rotate
0.000000 0.000000 m /zero glyphshow
6.362305 0.000000 m /period glyphshow
9.541016 0.000000 m /nine glyphshow
grestore
2 setlinecap
0.690 setgray
gsave
334.8 217.4 54 36 clipbox
54 243.556364 m
388.8 243.556364 l
stroke
grestore
0 setlinecap
0.000 setgray
gsave
/o {
gsave
newpath
translate
0.8 setlinewidth
1 setlinejoin
0 setlinecap
0 0 m
-3.5 0 l

gsave
0.000 setgray
fill
grestore
stroke
grestore
} bind def
54 243.556 o
grestore
gsave
31.093750 239.759489 translate
0.000000 rotate
0.000000 0.000000 m /one glyphshow
6.362305 0.000000 m /period glyphshow
9.541016 0.000000 m /zero glyphshow
grestore
gsave
25.015625 77.337187 translate
90.000000 rotate
0.000000 0.000000 m /U glyphshow
7.319336 0.000000 m /l glyphshow
10.097656 0.000000 m /t glyphshow
14.018555 0.000000 m /r glyphshow
18.129883 0.000000 m /a glyphshow
24.257812 0.000000 m /c glyphshow
29.755859 0.000000 m /a glyphshow
35.883789 0.000000 m /p glyphshow
42.231445 0.000000 m /a glyphshow
48.359375 0.000000 m /c glyphshow
53.857422 0.000000 m /i glyphshow
56.635742 0.000000 m /t glyphshow
60.556641 0.000000 m /o glyphshow
66.674805 0.000000 m /r glyphshow
70.786133 0.000000 m /space glyphshow
73.964844 0.000000 m /S glyphshow
80.312500 0.000000 m /O glyphshow
88.183594 0.000000 m /C glyphshow
95.166016 0.000000 m /space glyphshow
98.344727 0.000000 m /bracketleft glyphshow
102.246094 0.000000 m /one glyphshow
108.608398 0.000000 m /zero glyphshow
114.970703 0.000000 m /zero glyphshow
121.333008 0.000000 m /percent glyphshow
130.834961 0.000000 m /bracketright glyphshow
grestore
1.500 setlinewidth
2 setlinecap
0.122 0.467 0.706 setrgbcolor
gsave
334.8 217.4 54 36 clipbox
69.218182 109.410135 m
69.43574 103.925604 l
69.653298 103.790182 l
69.870856 105.49022 l
70.741088 107.172033 l
71.176204 108.082792 l
71.393762 107.993125 l
71.61132 107.30638 l
71.828878 105.799785 l
72.69911 96.562894 l
72.916668 95.936527 l
73.569342 97.814299 l
73.7869 97.344628 l
74.004458 96.255729 l
74.439574 88.082199 l
74.87469 82.678049 l
75.092248 83.290532 l
75.309806 82.76462 l
75.527364 81.807617 l
75.744922 81.510586 l
75.96248 81.95836 l
76.180038 83.399218 l
76.397596 85.675501 l
76.615154 86.357613 l
76.832712 87.530591 l
77.05027 88.060071 l
77.267828 88.043354 l
77.485386 89.222061 l
77.702944 89.398833 l
78.13806 91.121519 l
79.22585 100.172211 l
79.443408 100.934008 l
79.878524 104.595595 l
80.531198 109.830118 l
80.748756 110.299889 l
80.966314 111.19606 l
81.40143 111.763393 l
81.618988 112.0482 l
81.836546 111.957096 l
82.48922 109.55042 l
82.924336 107.956303 l
83.141894 107.354767 l
84.012126 101.553577 l
84.229684 101.981675 l
84.447242 104.05832 l
84.882358 114.284571 l
85.535032 128.833103 l
85.970148 133.310192 l
86.622821 136.842332 l
86.840379 137.743672 l
87.057937 137.95903 l
87.710611 134.965987 l
87.928169 134.685041 l
88.145727 134.709689 l
88.363285 133.53815 l
88.580843 131.103563 l
89.015959 121.12163 l
89.886191 100.742612 l
90.321307 95.819973 l
90.538865 94.354384 l
90.756423 94.991678 l
90.973981 94.991678 l
91.191539 94.813656 l
91.409097 95.215343 l
91.626655 95.263299 l
92.061771 94.741441 l
92.279329 93.769429 l
92.496887 93.445937 l
92.714445 93.417902 l
92.932003 93.252344 l
93.149561 93.333911 l
93.367119 92.666705 l
94.237351 84.702701 l
94.454909 84.370825 l
94.672467 83.267898 l
94.890025 83.57699 l
95.325141 81.701811 l
95.542699 81.588027 l
95.760257 81.005475 l
95.977815 81.03134 l
96.848047 83.548493 l
97.283163 85.157019 l
97.500721 85.720049 l
97.935837 87.669284 l
98.588511 91.757498 l
98.806069 91.530009 l
99.458743 88.044086 l
99.676301 87.561884 l
100.328975 89.151476 l
100.546533 91.646441 l
100.981649 100.578182 l
101.416765 109.203879 l
101.634323 111.743639 l
101.851881 112.499496 l
102.286997 112.93782 l
102.504555 112.895701 l
102.722113 113.527914 l
103.157229 113.939829 l
103.592345 110.225008 l
104.027461 107.862971 l
104.245019 107.778277 l
104.462577 105.617192 l
104.680135 101.698611 l
105.767925 70.364419 l
106.203041 65.512497 l
106.420599 65.198649 l
106.638157 65.339405 l
106.855715 65.621841 l
107.290831 68.324056 l
107.943505 75.64433 l
108.161063 76.302058 l
108.378621 76.570792 l
108.596179 76.51471 l
108.813737 74.9838 l
109.248853 75.942705 l
109.466411 75.701638 l
109.901527 81.176274 l
110.771759 93.029726 l
110.989317 93.455649 l
111.206875 93.475524 l
111.424433 92.681655 l
111.641991 92.504527 l
112.077107 89.426896 l
112.294665 89.556143 l
112.512223 92.312183 l
112.729781 92.312183 l
113.164897 90.372615 l
113.382455 89.617889 l
114.252687 85.341778 l
114.687803 85.299824 l
115.340477 81.659366 l
115.558035 81.725072 l
115.993151 82.508764 l
116.428267 82.184735 l
116.863383 81.296668 l
117.080941 82.343766 l
117.298499 82.193264 l
117.733615 81.524261 l
117.951173 80.222563 l
118.168731 80.312015 l
118.386289 80.699468 l
118.603847 80.598735 l
118.821405 80.681368 l
119.474079 79.980121 l
119.691637 80.418898 l
119.909195 81.335565 l
120.126753 79.427672 l
120.344311 74.725492 l
120.779427 59.557677 l
120.996985 57.461568 l
121.214543 58.301455 l
121.649659 64.253958 l
122.084775 65.605889 l
122.519891 67.41984 l
122.737449 67.971077 l
122.955007 67.945399 l
123.172565 67.342862 l
123.607681 65.769235 l
123.825239 65.781374 l
124.042797 66.747431 l
124.260355 68.833121 l
124.695471 76.771148 l
125.130587 84.768461 l
125.348145 86.466806 l
125.565703 86.625118 l
125.783261 85.986695 l
126.653493 81.909438 l
126.871051 82.070002 l
127.523725 83.875865 l
128.176399 84.433529 l
128.393957 84.636545 l
128.829073 84.049028 l
129.264189 83.524574 l
129.916863 83.562772 l
130.351979 83.415435 l
131.004653 82.600872 l
131.439769 83.114242 l
131.657327 84.051986 l
131.874885 85.936157 l
132.310001 93.709169 l
132.745117 101.191763 l
132.962675 102.987585 l
133.832907 98.925156 l
134.050465 99.481759 l
134.268023 101.231393 l
134.485581 101.231393 l
134.703139 101.864051 l
134.920697 102.083126 l
135.355813 101.698195 l
135.573371 101.667295 l
136.008487 100.108545 l
136.661161 98.58852 l
137.096277 95.791633 l
137.531393 93.777908 l
137.748951 93.481271 l
137.966509 92.571313 l
138.401625 89.011787 l
138.836741 86.508311 l
139.054299 87.32146 l
139.271857 87.315615 l
139.489415 87.610325 l
139.706973 87.563566 l
139.924531 86.895375 l
140.142089 87.030525 l
140.577204 91.466154 l
141.447436 103.212629 l
141.664994 104.662603 l
142.317668 106.635755 l
142.752784 109.375717 l
142.970342 109.387006 l
143.405458 108.047843 l
143.623016 106.584466 l
144.27569 104.603966 l
144.710806 100.907941 l
145.798596 90.166033 l
146.016154 88.999985 l
146.233712 88.536838 l
146.45127 88.655549 l
146.886386 90.305624 l
147.53906 92.492147 l
147.974176 93.181381 l
148.191734 92.980762 l
148.844408 93.523591 l
149.061966 94.254711 l
149.279524 94.23608 l
149.497082 95.704533 l
150.367314 105.477255 l
150.584872 105.725228 l
151.237546 103.809318 l
151.455104 103.453135 l
151.89022 104.701453 l
152.325336 105.954166 l
152.542894 106.033953 l
152.760452 105.753027 l
152.97801 106.184453 l
153.195568 104.975825 l
153.630684 99.623659 l
154.0658 93.905398 l
154.500916 91.632014 l
154.936032 90.46168 l
155.15359 90.337712 l
155.588706 89.672411 l
156.023822 88.512595 l
156.24138 88.512595 l
157.111612 85.07242 l
157.32917 84.468579 l
157.546728 83.381402 l
158.199402 81.79386 l
158.852076 83.868943 l
159.287192 85.548603 l
159.50475 85.722034 l
159.722308 86.072849 l
160.157424 84.78013 l
160.374982 83.906754 l
160.59254 83.734801 l
161.245214 84.57652 l
161.68033 85.607296 l
161.897888 85.642559 l
162.115446 86.051686 l
162.333004 85.816797 l
163.638352 78.903097 l
164.291026 77.387848 l
164.508584 77.979192 l
165.161258 77.21568 l
165.378816 76.330042 l
165.596374 76.352222 l
166.684164 70.206699 l
166.901722 70.265862 l
167.11928 66.449338 l
167.771954 49.191746 l
167.989512 48.239216 l
168.424628 50.966738 l
168.642186 51.519969 l
169.077302 51.450531 l
169.29486 51.572403 l
169.512418 52.75816 l
169.947534 59.849166 l
170.38265 68.643169 l
171.47044 81.894332 l
172.775788 93.808145 l
172.993346 94.540692 l
173.210904 94.079187 l
173.428462 94.086965 l
173.863578 92.819892 l
174.73381 88.560338 l
175.168926 86.682697 l
175.386484 86.028005 l
175.604042 86.222297 l
175.8216 85.823719 l
176.039158 85.97988 l
176.474274 82.50613 l
176.691832 82.105065 l
176.90939 80.142105 l
177.344506 82.185545 l
177.562064 82.385213 l
177.99718 82.387974 l
178.649854 83.949766 l
179.08497 83.380071 l
179.302528 84.283538 l
179.520086 86.409383 l
180.17276 96.738105 l
180.390318 98.327163 l
180.607876 98.69344 l
180.825434 98.631716 l
181.478108 97.040042 l
181.695666 96.656504 l
182.34834 94.519512 l
182.565898 93.312498 l
183.218572 86.119433 l
183.43613 82.059739 l
184.088804 77.017293 l
184.306362 76.494239 l
184.741478 73.243952 l
184.959036 71.667663 l
185.829268 70.247375 l
186.6995 60.888129 l
187.134616 58.086995 l
187.352174 57.675375 l
187.569732 57.558726 l
187.78729 57.008025 l
188.222406 54.561136 l
188.439964 53.911763 l
188.657522 56.159397 l
189.092638 63.600498 l
189.527754 67.145543 l
189.745312 67.193177 l
189.96287 67.896563 l
190.180428 68.056843 l
190.397986 68.868264 l
190.833102 75.911093 l
191.268218 84.870753 l
191.485776 85.053208 l
191.920892 83.089301 l
192.13845 80.157169 l
192.356008 80.398977 l
192.573566 80.882737 l
192.791124 80.793629 l
193.008682 82.686205 l
193.661356 80.663875 l
193.878914 79.280069 l
194.531587 70.03986 l
194.749145 68.122557 l
194.966703 69.155382 l
195.836935 57.775734 l
196.054493 58.231921 l
196.707167 60.560851 l
196.924725 60.140665 l
197.577399 57.207563 l
197.794957 57.222271 l
198.665189 59.643322 l
199.100305 61.52063 l
199.317863 60.095654 l
199.535421 55.492158 l
199.752979 55.492158 l
199.970537 55.311212 l
200.188095 53.97295 l
200.623211 49.875918 l
200.840769 48.37944 l
201.058327 48.052222 l
201.275885 49.177396 l
201.493443 48.864219 l
201.711001 48.946519 l
203.233907 45.883636 l
203.451465 46.517983 l
204.321697 52.936537 l
204.756813 53.597794 l
204.974371 53.784466 l
205.191929 55.131595 l
205.409487 58.289435 l
206.062161 72.333191 l
206.279719 75.003828 l
206.497277 75.72684 l
206.714835 75.969401 l
207.585067 79.403884 l
208.020183 77.216796 l
208.237741 75.218787 l
208.455299 74.266538 l
209.760647 78.727205 l
209.978205 78.588389 l
210.195763 78.992911 l
210.413321 80.843043 l
210.630879 84.0424 l
212.371343 131.198782 l
213.024017 147.99378 l
213.459133 153.885673 l
213.676691 155.379832 l
213.894249 155.968329 l
214.329365 156.274689 l
214.764481 156.215247 l
215.417155 154.617626 l
215.634713 154.24304 l
215.852271 154.506313 l
216.504945 155.966426 l
216.722503 155.937337 l
217.157619 154.490977 l
217.592735 152.206523 l
218.027851 151.413169 l
218.245409 151.565611 l
218.462967 151.126307 l
219.115641 147.512548 l
219.333199 147.418549 l
219.768315 148.708986 l
219.985873 148.974348 l
220.420989 147.879888 l
220.638547 147.738405 l
221.073663 148.18062 l
221.291221 146.86488 l
221.508779 146.86488 l
221.726337 144.3019 l
221.943895 143.446017 l
222.596569 143.365358 l
222.814127 143.60809 l
223.249243 144.514426 l
223.466801 144.088849 l
223.684359 144.04211 l
223.901917 142.181811 l
224.119475 141.354275 l
224.337033 141.003291 l
224.554591 140.271201 l
224.772149 140.087986 l
225.207265 138.440887 l
225.424823 138.224106 l
226.077497 140.628337 l
226.512613 140.963793 l
226.730171 140.576382 l
227.382845 141.408854 l
227.600403 141.984262 l
227.817961 142.048817 l
228.470635 141.106004 l
228.688193 141.043111 l
229.123309 140.608485 l
229.340867 141.041141 l
229.558425 140.796831 l
229.993541 141.461233 l
230.211099 141.247403 l
230.428657 141.508204 l
230.863773 139.431355 l
231.298889 138.32166 l
231.516447 140.295859 l
231.951563 147.430537 l
232.386679 156.309929 l
232.821795 161.178858 l
233.039353 162.912308 l
233.474469 169.187804 l
233.909585 177.073696 l
234.127143 179.5256 l
234.344701 180.452888 l
235.214933 175.680538 l
235.432491 175.79978 l
235.650049 175.438515 l
236.302723 178.385711 l
236.737839 178.737118 l
236.955397 179.638708 l
237.825629 190.818367 l
238.260745 191.191531 l
238.695861 191.160782 l
243.699695 189.700177 l
244.134811 188.989016 l
244.352369 188.251242 l
244.787485 185.377859 l
245.222601 182.375278 l
245.440159 181.472784 l
245.657717 181.361001 l
246.092833 180.053608 l
246.527949 179.167422 l
246.745507 179.945058 l
246.963065 180.112358 l
247.398181 176.942434 l
247.833297 174.093312 l
248.050855 175.434576 l
248.48597 176.084103 l
248.703528 176.861865 l
248.921086 178.552889 l
249.138644 181.639349 l
250.443992 209.536532 l
250.66155 210.436895 l
250.879108 210.605796 l
251.966898 209.903181 l
252.619572 209.444192 l
252.83713 208.400579 l
253.707362 200.345647 l
253.92492 200.28376 l
254.142478 200.828588 l
254.360036 201.008114 l
254.795152 202.132396 l
255.01271 201.95091 l
255.230268 202.618653 l
255.447826 202.519232 l
255.665384 202.566734 l
256.535616 199.016464 l
256.753174 199.229973 l
256.970732 199.024457 l
257.18829 198.212541 l
257.840964 193.758985 l
258.27608 191.171174 l
258.928754 188.105843 l
259.36387 187.02386 l
259.798986 188.900737 l
260.886776 196.930038 l
261.321892 199.758668 l
261.53945 200.165859 l
261.757008 201.130114 l
262.409682 206.665475 l
262.62724 207.792339 l
264.367704 207.288841 l
265.020378 207.156147 l
330.287777 207.156147 l
330.505335 209.283285 l
330.722893 209.310396 l
330.940451 208.85649 l
331.158009 209.516447 l
331.375567 208.470329 l
332.028241 207.060414 l
332.463357 207.639027 l
332.680915 207.504238 l
333.116031 206.385147 l
333.551147 204.284136 l
333.768705 203.351139 l
334.203821 204.130968 l
334.421379 206.019874 l
335.291611 220.785921 l
336.161843 237.932885 l
336.379401 239.38843 l
336.596959 239.607239 l
336.814517 239.542013 l
337.249633 240.114407 l
337.467191 239.290287 l
337.902307 236.289248 l
338.119865 234.034612 l
338.554981 231.337007 l
338.990097 224.655276 l
340.295445 196.02204 l
340.513003 193.191526 l
340.730561 193.754609 l
341.383235 192.74532 l
341.600793 193.483738 l
342.035909 200.387879 l
343.558815 242.375315 l
343.776373 243.389472 l
343.993931 243.556364 l
344.211489 243.556364 l
344.429047 242.943006 l
344.646605 243.556364 l
345.081721 241.671786 l
345.734395 242.712056 l
345.951953 242.401849 l
346.169511 241.445281 l
346.387069 238.815573 l
346.822185 228.984279 l
347.692417 206.865207 l
348.127533 202.71721 l
348.345091 202.130476 l
348.780207 202.000586 l
352.261135 201.918699 l
356.394737 200.732649 l
360.093222 200.568157 l
360.745896 196.498197 l
360.963454 195.10629 l
361.181012 194.867675 l
361.39857 194.883603 l
362.051244 192.897285 l
362.268802 192.122447 l
362.48636 192.275415 l
362.703918 192.656873 l
364.226824 200.645602 l
364.66194 203.348483 l
365.097056 205.830815 l
365.314614 205.046101 l
365.532172 203.543831 l
365.74973 202.97008 l
365.967288 203.203376 l
366.619962 207.648681 l
366.83752 207.904142 l
367.055078 207.574889 l
368.577984 199.931061 l
368.795542 199.698792 l
369.0131 199.665877 l
369.230658 199.756174 l
369.448216 200.796397 l
369.883332 203.391013 l
370.10089 204.108212 l
370.318448 203.840428 l
370.753564 201.877601 l
371.18868 200.801452 l
371.406238 200.563071 l
372.711586 200.398704 l
373.581818 200.377109 l
373.581818 200.377109 l
stroke
grestore
0.800 setlinewidth
0 setlinejoin
[] 0 setdash
0.000 setgray
gsave
54 36 m
54 253.44 l
stroke
grestore
gsave
388.8 36 m
388.8 253.44 l
stroke
grestore
gsave
54 36 m
388.8 36 l
stroke
grestore
gsave
54 253.44 m
388.8 253.44 l
stroke
grestore

end
showpage
