%!PS-Adobe-3.0 EPSF-3.0
%%Title: act10_Battery Temperature [C].eps
%%Creator: matplotlib version 2.0.0, http://matplotlib.org/
%%CreationDate: Sun May 14 15:05:56 2017
%%Orientation: portrait
%%BoundingBox: 90 252 522 540
%%EndComments
%%BeginProlog
/mpldict 8 dict def
mpldict begin
/m { moveto } bind def
/l { lineto } bind def
/r { rlineto } bind def
/c { curveto } bind def
/cl { closepath } bind def
/box {
m
1 index 0 r
0 exch r
neg 0 r
cl
} bind def
/clipbox {
box
clip
newpath
} bind def
%!PS-Adobe-3.0 Resource-Font
%%Title: DejaVu Sans
%%Copyright: Copyright (c) 2003 by Bitstream, Inc. All Rights Reserved. Copyright (c) 2006 by Tavmjong Bah. All Rights Reserved. DejaVu changes are in public domain 
%%Creator: Converted from TrueType to type 3 by PPR
25 dict begin
/_d{bind def}bind def
/_m{moveto}_d
/_l{lineto}_d
/_cl{closepath eofill}_d
/_c{curveto}_d
/_sc{7 -1 roll{setcachedevice}{pop pop pop pop pop pop}ifelse}_d
/_e{exec}_d
/FontName /DejaVuSans def
/PaintType 0 def
/FontMatrix[.001 0 0 .001 0 0]def
/FontBBox[-1021 -463 1793 1232]def
/FontType 3 def
/Encoding [ /space /zero /one /two /three /four /six /eight /B /C /T /bracketleft /bracketright /a /e /i /m /p /r /s /t /u /y ] def
/FontInfo 10 dict dup begin
/FamilyName (DejaVu Sans) def
/FullName (DejaVu Sans) def
/Notice (Copyright (c) 2003 by Bitstream, Inc. All Rights Reserved. Copyright (c) 2006 by Tavmjong Bah. All Rights Reserved. DejaVu changes are in public domain ) def
/Weight (Book) def
/Version (Version 2.35) def
/ItalicAngle 0.0 def
/isFixedPitch false def
/UnderlinePosition -130 def
/UnderlineThickness 90 def
end readonly def
/CharStrings 23 dict dup begin
/space{318 0 0 0 0 0 _sc
}_d
/zero{636 0 66 -13 570 742 _sc
318 664 _m
267 664 229 639 203 589 _c
177 539 165 464 165 364 _c
165 264 177 189 203 139 _c
229 89 267 64 318 64 _c
369 64 407 89 433 139 _c
458 189 471 264 471 364 _c
471 464 458 539 433 589 _c
407 639 369 664 318 664 _c
318 742 _m
399 742 461 709 505 645 _c
548 580 570 486 570 364 _c
570 241 548 147 505 83 _c
461 19 399 -13 318 -13 _c
236 -13 173 19 130 83 _c
87 147 66 241 66 364 _c
66 486 87 580 130 645 _c
173 709 236 742 318 742 _c
_cl}_d
/one{636 0 110 0 544 729 _sc
124 83 _m
285 83 _l
285 639 _l
110 604 _l
110 694 _l
284 729 _l
383 729 _l
383 83 _l
544 83 _l
544 0 _l
124 0 _l
124 83 _l
_cl}_d
/two{{636 0 73 0 536 742 _sc
192 83 _m
536 83 _l
536 0 _l
73 0 _l
73 83 _l
110 121 161 173 226 239 _c
290 304 331 346 348 365 _c
380 400 402 430 414 455 _c
426 479 433 504 433 528 _c
433 566 419 598 392 622 _c
365 646 330 659 286 659 _c
255 659 222 653 188 643 _c
154 632 117 616 78 594 _c
78 694 _l
118 710 155 722 189 730 _c
223 738 255 742 284 742 _c
}_e{359 742 419 723 464 685 _c
509 647 532 597 532 534 _c
532 504 526 475 515 449 _c
504 422 484 390 454 354 _c
446 344 420 317 376 272 _c
332 227 271 164 192 83 _c
_cl}_e}_d
/three{{636 0 76 -13 556 742 _sc
406 393 _m
453 383 490 362 516 330 _c
542 298 556 258 556 212 _c
556 140 531 84 482 45 _c
432 6 362 -13 271 -13 _c
240 -13 208 -10 176 -4 _c
144 1 110 10 76 22 _c
76 117 _l
103 101 133 89 166 81 _c
198 73 232 69 268 69 _c
330 69 377 81 409 105 _c
441 129 458 165 458 212 _c
458 254 443 288 413 312 _c
383 336 341 349 287 349 _c
}_e{202 349 _l
202 430 _l
291 430 _l
339 430 376 439 402 459 _c
428 478 441 506 441 543 _c
441 580 427 609 401 629 _c
374 649 336 659 287 659 _c
260 659 231 656 200 650 _c
169 644 135 635 98 623 _c
98 711 _l
135 721 170 729 203 734 _c
235 739 266 742 296 742 _c
370 742 429 725 473 691 _c
517 657 539 611 539 553 _c
539 513 527 479 504 451 _c
481 423 448 403 406 393 _c
_cl}_e}_d
/four{636 0 49 0 580 729 _sc
378 643 _m
129 254 _l
378 254 _l
378 643 _l
352 729 _m
476 729 _l
476 254 _l
580 254 _l
580 172 _l
476 172 _l
476 0 _l
378 0 _l
378 172 _l
49 172 _l
49 267 _l
352 729 _l
_cl}_d
/six{{636 0 70 -13 573 742 _sc
330 404 _m
286 404 251 388 225 358 _c
199 328 186 286 186 234 _c
186 181 199 139 225 109 _c
251 79 286 64 330 64 _c
374 64 409 79 435 109 _c
461 139 474 181 474 234 _c
474 286 461 328 435 358 _c
409 388 374 404 330 404 _c
526 713 _m
526 623 _l
501 635 476 644 451 650 _c
425 656 400 659 376 659 _c
310 659 260 637 226 593 _c
}_e{192 549 172 482 168 394 _c
187 422 211 444 240 459 _c
269 474 301 482 336 482 _c
409 482 467 459 509 415 _c
551 371 573 310 573 234 _c
573 159 550 99 506 54 _c
462 9 403 -13 330 -13 _c
246 -13 181 19 137 83 _c
92 147 70 241 70 364 _c
70 479 97 571 152 639 _c
206 707 280 742 372 742 _c
396 742 421 739 447 735 _c
472 730 498 723 526 713 _c
_cl}_e}_d
/eight{{636 0 68 -13 568 742 _sc
318 346 _m
271 346 234 333 207 308 _c
180 283 167 249 167 205 _c
167 161 180 126 207 101 _c
234 76 271 64 318 64 _c
364 64 401 76 428 102 _c
455 127 469 161 469 205 _c
469 249 455 283 429 308 _c
402 333 365 346 318 346 _c
219 388 _m
177 398 144 418 120 447 _c
96 476 85 511 85 553 _c
85 611 105 657 147 691 _c
188 725 245 742 318 742 _c
}_e{390 742 447 725 489 691 _c
530 657 551 611 551 553 _c
551 511 539 476 515 447 _c
491 418 459 398 417 388 _c
464 377 501 355 528 323 _c
554 291 568 251 568 205 _c
568 134 546 80 503 43 _c
459 5 398 -13 318 -13 _c
237 -13 175 5 132 43 _c
89 80 68 134 68 205 _c
68 251 81 291 108 323 _c
134 355 171 377 219 388 _c
183 544 _m
183 506 194 476 218 455 _c
}_e{242 434 275 424 318 424 _c
360 424 393 434 417 455 _c
441 476 453 506 453 544 _c
453 582 441 611 417 632 _c
393 653 360 664 318 664 _c
275 664 242 653 218 632 _c
194 611 183 582 183 544 _c
_cl}_e}_d
/B{{686 0 98 0 615 729 _sc
197 348 _m
197 81 _l
355 81 _l
408 81 447 92 473 114 _c
498 136 511 169 511 215 _c
511 260 498 293 473 315 _c
447 337 408 348 355 348 _c
197 348 _l
197 648 _m
197 428 _l
343 428 _l
391 428 426 437 450 455 _c
474 473 486 500 486 538 _c
486 574 474 602 450 620 _c
426 638 391 648 343 648 _c
197 648 _l
98 729 _m
350 729 _l
}_e{425 729 483 713 524 682 _c
564 650 585 606 585 549 _c
585 504 574 468 553 442 _c
532 416 502 399 462 393 _c
510 382 548 360 575 327 _c
601 294 615 253 615 204 _c
615 138 592 88 548 53 _c
504 17 441 0 360 0 _c
98 0 _l
98 729 _l
_cl}_e}_d
/C{{698 0 56 -13 644 742 _sc
644 673 _m
644 569 _l
610 599 575 622 537 638 _c
499 653 460 661 418 661 _c
334 661 270 635 226 584 _c
182 533 160 460 160 364 _c
160 268 182 194 226 143 _c
270 92 334 67 418 67 _c
460 67 499 74 537 90 _c
575 105 610 128 644 159 _c
644 56 _l
609 32 572 15 534 4 _c
496 -7 455 -13 412 -13 _c
302 -13 215 20 151 87 _c
}_e{87 154 56 246 56 364 _c
56 481 87 573 151 641 _c
215 708 302 742 412 742 _c
456 742 497 736 535 725 _c
573 713 610 696 644 673 _c
_cl}_e}_d
/T{611 0 -2 0 614 729 _sc
-2 729 _m
614 729 _l
614 646 _l
355 646 _l
355 0 _l
256 0 _l
256 646 _l
-2 646 _l
-2 729 _l
_cl}_d
/bracketleft{390 0 86 -131 293 760 _sc
86 760 _m
293 760 _l
293 690 _l
176 690 _l
176 -61 _l
293 -61 _l
293 -131 _l
86 -131 _l
86 760 _l
_cl}_d
/bracketright{390 0 97 -131 304 760 _sc
304 760 _m
304 -131 _l
97 -131 _l
97 -61 _l
214 -61 _l
214 690 _l
97 690 _l
97 760 _l
304 760 _l
_cl}_d
/a{{613 0 60 -13 522 560 _sc
343 275 _m
270 275 220 266 192 250 _c
164 233 150 205 150 165 _c
150 133 160 107 181 89 _c
202 70 231 61 267 61 _c
317 61 357 78 387 114 _c
417 149 432 196 432 255 _c
432 275 _l
343 275 _l
522 312 _m
522 0 _l
432 0 _l
432 83 _l
411 49 385 25 355 10 _c
325 -5 287 -13 243 -13 _c
187 -13 142 2 109 33 _c
76 64 60 106 60 159 _c
}_e{60 220 80 266 122 298 _c
163 329 224 345 306 345 _c
432 345 _l
432 354 _l
432 395 418 427 391 450 _c
364 472 326 484 277 484 _c
245 484 215 480 185 472 _c
155 464 127 453 100 439 _c
100 522 _l
132 534 164 544 195 550 _c
226 556 256 560 286 560 _c
365 560 424 539 463 498 _c
502 457 522 395 522 312 _c
_cl}_e}_d
/e{{615 0 55 -13 562 560 _sc
562 296 _m
562 252 _l
149 252 _l
153 190 171 142 205 110 _c
238 78 284 62 344 62 _c
378 62 412 66 444 74 _c
476 82 509 95 541 113 _c
541 28 _l
509 14 476 3 442 -3 _c
408 -9 373 -13 339 -13 _c
251 -13 182 12 131 62 _c
80 112 55 181 55 268 _c
55 357 79 428 127 481 _c
175 533 241 560 323 560 _c
397 560 455 536 498 489 _c
}_e{540 441 562 377 562 296 _c
472 322 _m
471 371 457 410 431 440 _c
404 469 368 484 324 484 _c
274 484 234 469 204 441 _c
174 413 156 373 152 322 _c
472 322 _l
_cl}_e}_d
/i{278 0 94 0 184 760 _sc
94 547 _m
184 547 _l
184 0 _l
94 0 _l
94 547 _l
94 760 _m
184 760 _l
184 646 _l
94 646 _l
94 760 _l
_cl}_d
/m{{974 0 91 0 889 560 _sc
520 442 _m
542 482 569 511 600 531 _c
631 550 668 560 711 560 _c
767 560 811 540 842 500 _c
873 460 889 403 889 330 _c
889 0 _l
799 0 _l
799 327 _l
799 379 789 418 771 444 _c
752 469 724 482 686 482 _c
639 482 602 466 575 435 _c
548 404 535 362 535 309 _c
535 0 _l
445 0 _l
445 327 _l
445 379 435 418 417 444 _c
398 469 369 482 331 482 _c
}_e{285 482 248 466 221 435 _c
194 404 181 362 181 309 _c
181 0 _l
91 0 _l
91 547 _l
181 547 _l
181 462 _l
201 495 226 520 255 536 _c
283 552 317 560 357 560 _c
397 560 430 550 458 530 _c
486 510 506 480 520 442 _c
_cl}_e}_d
/p{{635 0 91 -207 580 560 _sc
181 82 _m
181 -207 _l
91 -207 _l
91 547 _l
181 547 _l
181 464 _l
199 496 223 520 252 536 _c
281 552 316 560 356 560 _c
422 560 476 533 518 481 _c
559 428 580 359 580 273 _c
580 187 559 117 518 65 _c
476 13 422 -13 356 -13 _c
316 -13 281 -5 252 10 _c
223 25 199 49 181 82 _c
487 273 _m
487 339 473 390 446 428 _c
418 466 381 485 334 485 _c
}_e{286 485 249 466 222 428 _c
194 390 181 339 181 273 _c
181 207 194 155 222 117 _c
249 79 286 61 334 61 _c
381 61 418 79 446 117 _c
473 155 487 207 487 273 _c
_cl}_e}_d
/r{411 0 91 0 411 560 _sc
411 463 _m
401 469 390 473 378 476 _c
366 478 353 480 339 480 _c
288 480 249 463 222 430 _c
194 397 181 350 181 288 _c
181 0 _l
91 0 _l
91 547 _l
181 547 _l
181 462 _l
199 495 224 520 254 536 _c
284 552 321 560 365 560 _c
371 560 378 559 386 559 _c
393 558 401 557 411 555 _c
411 463 _l
_cl}_d
/s{{521 0 54 -13 472 560 _sc
443 531 _m
443 446 _l
417 458 391 468 364 475 _c
336 481 308 485 279 485 _c
234 485 200 478 178 464 _c
156 450 145 430 145 403 _c
145 382 153 366 169 354 _c
185 342 217 330 265 320 _c
296 313 _l
360 299 405 279 432 255 _c
458 230 472 195 472 151 _c
472 100 452 60 412 31 _c
372 1 316 -13 246 -13 _c
216 -13 186 -10 154 -5 _c
}_e{122 0 89 8 54 20 _c
54 113 _l
87 95 120 82 152 74 _c
184 65 216 61 248 61 _c
290 61 323 68 346 82 _c
368 96 380 117 380 144 _c
380 168 371 187 355 200 _c
339 213 303 226 247 238 _c
216 245 _l
160 257 119 275 95 299 _c
70 323 58 356 58 399 _c
58 450 76 490 112 518 _c
148 546 200 560 268 560 _c
301 560 332 557 362 552 _c
391 547 418 540 443 531 _c
}_e{_cl}_e}_d
/t{392 0 27 0 368 702 _sc
183 702 _m
183 547 _l
368 547 _l
368 477 _l
183 477 _l
183 180 _l
183 135 189 106 201 94 _c
213 81 238 75 276 75 _c
368 75 _l
368 0 _l
276 0 _l
206 0 158 13 132 39 _c
106 65 93 112 93 180 _c
93 477 _l
27 477 _l
27 547 _l
93 547 _l
93 702 _l
183 702 _l
_cl}_d
/u{634 0 85 -13 543 560 _sc
85 216 _m
85 547 _l
175 547 _l
175 219 _l
175 167 185 129 205 103 _c
225 77 255 64 296 64 _c
344 64 383 79 411 110 _c
439 141 453 183 453 237 _c
453 547 _l
543 547 _l
543 0 _l
453 0 _l
453 84 _l
431 50 405 26 377 10 _c
348 -5 315 -13 277 -13 _c
214 -13 166 6 134 45 _c
101 83 85 140 85 216 _c
311 560 _m
311 560 _l
_cl}_d
/y{592 0 30 -207 562 547 _sc
322 -50 _m
296 -114 271 -157 247 -177 _c
223 -197 191 -207 151 -207 _c
79 -207 _l
79 -132 _l
132 -132 _l
156 -132 175 -126 189 -114 _c
203 -102 218 -75 235 -31 _c
251 9 _l
30 547 _l
125 547 _l
296 119 _l
467 547 _l
562 547 _l
322 -50 _l
_cl}_d
end readonly def

/BuildGlyph
 {exch begin
 CharStrings exch
 2 copy known not{pop /.notdef}if
 true 3 1 roll get exec
 end}_d

/BuildChar {
 1 index /Encoding get exch get
 1 index /BuildGlyph get exec
}_d

FontName currentdict end definefont pop
end
%%EndProlog
mpldict begin
90 252 translate
432 288 0 0 clipbox
gsave
0 0 m
432 0 l
432 288 l
0 288 l
cl
1.000 setgray
fill
grestore
gsave
54 36 m
388.8 36 l
388.8 253.44 l
54 253.44 l
cl
1.000 setgray
fill
grestore
0.800 setlinewidth
1 setlinejoin
2 setlinecap
[] 0 setdash
0.690 setgray
gsave
334.8 217.4 54 36 clipbox
69.218182 36 m
69.218182 253.44 l
stroke
grestore
0 setlinecap
0.000 setgray
gsave
/o {
gsave
newpath
translate
0.8 setlinewidth
1 setlinejoin
0 setlinecap
0 0 m
0 -3.5 l

gsave
0.000 setgray
fill
grestore
stroke
grestore
} bind def
69.2182 36 o
grestore
/DejaVuSans findfont
10.000 scalefont
setfont
gsave
66.038494 21.406250 translate
0.000000 rotate
0.000000 0.000000 m /zero glyphshow
grestore
2 setlinecap
0.690 setgray
gsave
334.8 217.4 54 36 clipbox
112.729781 36 m
112.729781 253.44 l
stroke
grestore
0 setlinecap
0.000 setgray
gsave
/o {
gsave
newpath
translate
0.8 setlinewidth
1 setlinejoin
0 setlinecap
0 0 m
0 -3.5 l

gsave
0.000 setgray
fill
grestore
stroke
grestore
} bind def
112.73 36 o
grestore
gsave
103.190719 21.406250 translate
0.000000 rotate
0.000000 0.000000 m /two glyphshow
6.362305 0.000000 m /zero glyphshow
12.724609 0.000000 m /zero glyphshow
grestore
2 setlinecap
0.690 setgray
gsave
334.8 217.4 54 36 clipbox
156.24138 36 m
156.24138 253.44 l
stroke
grestore
0 setlinecap
0.000 setgray
gsave
/o {
gsave
newpath
translate
0.8 setlinewidth
1 setlinejoin
0 setlinecap
0 0 m
0 -3.5 l

gsave
0.000 setgray
fill
grestore
stroke
grestore
} bind def
156.241 36 o
grestore
gsave
146.702318 21.406250 translate
0.000000 rotate
0.000000 0.000000 m /four glyphshow
6.362305 0.000000 m /zero glyphshow
12.724609 0.000000 m /zero glyphshow
grestore
2 setlinecap
0.690 setgray
gsave
334.8 217.4 54 36 clipbox
199.752979 36 m
199.752979 253.44 l
stroke
grestore
0 setlinecap
0.000 setgray
gsave
/o {
gsave
newpath
translate
0.8 setlinewidth
1 setlinejoin
0 setlinecap
0 0 m
0 -3.5 l

gsave
0.000 setgray
fill
grestore
stroke
grestore
} bind def
199.753 36 o
grestore
gsave
190.213917 21.406250 translate
0.000000 rotate
0.000000 0.000000 m /six glyphshow
6.362305 0.000000 m /zero glyphshow
12.724609 0.000000 m /zero glyphshow
grestore
2 setlinecap
0.690 setgray
gsave
334.8 217.4 54 36 clipbox
243.264579 36 m
243.264579 253.44 l
stroke
grestore
0 setlinecap
0.000 setgray
gsave
/o {
gsave
newpath
translate
0.8 setlinewidth
1 setlinejoin
0 setlinecap
0 0 m
0 -3.5 l

gsave
0.000 setgray
fill
grestore
stroke
grestore
} bind def
243.265 36 o
grestore
gsave
233.725516 21.406250 translate
0.000000 rotate
0.000000 0.000000 m /eight glyphshow
6.362305 0.000000 m /zero glyphshow
12.724609 0.000000 m /zero glyphshow
grestore
2 setlinecap
0.690 setgray
gsave
334.8 217.4 54 36 clipbox
286.776178 36 m
286.776178 253.44 l
stroke
grestore
0 setlinecap
0.000 setgray
gsave
/o {
gsave
newpath
translate
0.8 setlinewidth
1 setlinejoin
0 setlinecap
0 0 m
0 -3.5 l

gsave
0.000 setgray
fill
grestore
stroke
grestore
} bind def
286.776 36 o
grestore
gsave
274.057428 21.406250 translate
0.000000 rotate
0.000000 0.000000 m /one glyphshow
6.362305 0.000000 m /zero glyphshow
12.724609 0.000000 m /zero glyphshow
19.086914 0.000000 m /zero glyphshow
grestore
2 setlinecap
0.690 setgray
gsave
334.8 217.4 54 36 clipbox
330.287777 36 m
330.287777 253.44 l
stroke
grestore
0 setlinecap
0.000 setgray
gsave
/o {
gsave
newpath
translate
0.8 setlinewidth
1 setlinejoin
0 setlinecap
0 0 m
0 -3.5 l

gsave
0.000 setgray
fill
grestore
stroke
grestore
} bind def
330.288 36 o
grestore
gsave
317.569027 21.406250 translate
0.000000 rotate
0.000000 0.000000 m /one glyphshow
6.362305 0.000000 m /two glyphshow
12.724609 0.000000 m /zero glyphshow
19.086914 0.000000 m /zero glyphshow
grestore
2 setlinecap
0.690 setgray
gsave
334.8 217.4 54 36 clipbox
373.799376 36 m
373.799376 253.44 l
stroke
grestore
0 setlinecap
0.000 setgray
gsave
/o {
gsave
newpath
translate
0.8 setlinewidth
1 setlinejoin
0 setlinecap
0 0 m
0 -3.5 l

gsave
0.000 setgray
fill
grestore
stroke
grestore
} bind def
373.799 36 o
grestore
gsave
361.080626 21.406250 translate
0.000000 rotate
0.000000 0.000000 m /one glyphshow
6.362305 0.000000 m /four glyphshow
12.724609 0.000000 m /zero glyphshow
19.086914 0.000000 m /zero glyphshow
grestore
gsave
200.892188 7.734375 translate
0.000000 rotate
0.000000 0.000000 m /T glyphshow
6.108398 0.000000 m /i glyphshow
8.886719 0.000000 m /m glyphshow
18.627930 0.000000 m /e glyphshow
24.780273 0.000000 m /space glyphshow
27.958984 0.000000 m /bracketleft glyphshow
31.860352 0.000000 m /s glyphshow
37.070312 0.000000 m /bracketright glyphshow
grestore
2 setlinecap
0.690 setgray
gsave
334.8 217.4 54 36 clipbox
54 63.900676 m
388.8 63.900676 l
stroke
grestore
0 setlinecap
0.000 setgray
gsave
/o {
gsave
newpath
translate
0.8 setlinewidth
1 setlinejoin
0 setlinecap
0 0 m
-3.5 0 l

gsave
0.000 setgray
fill
grestore
stroke
grestore
} bind def
54 63.9007 o
grestore
gsave
34.281250 60.103801 translate
0.000000 rotate
0.000000 0.000000 m /two glyphshow
6.362305 0.000000 m /six glyphshow
grestore
2 setlinecap
0.690 setgray
gsave
334.8 217.4 54 36 clipbox
54 99.934761 m
388.8 99.934761 l
stroke
grestore
0 setlinecap
0.000 setgray
gsave
/o {
gsave
newpath
translate
0.8 setlinewidth
1 setlinejoin
0 setlinecap
0 0 m
-3.5 0 l

gsave
0.000 setgray
fill
grestore
stroke
grestore
} bind def
54 99.9348 o
grestore
gsave
34.281250 96.137886 translate
0.000000 rotate
0.000000 0.000000 m /two glyphshow
6.362305 0.000000 m /eight glyphshow
grestore
2 setlinecap
0.690 setgray
gsave
334.8 217.4 54 36 clipbox
54 135.968847 m
388.8 135.968847 l
stroke
grestore
0 setlinecap
0.000 setgray
gsave
/o {
gsave
newpath
translate
0.8 setlinewidth
1 setlinejoin
0 setlinecap
0 0 m
-3.5 0 l

gsave
0.000 setgray
fill
grestore
stroke
grestore
} bind def
54 135.969 o
grestore
gsave
34.281250 132.171972 translate
0.000000 rotate
0.000000 0.000000 m /three glyphshow
6.362305 0.000000 m /zero glyphshow
grestore
2 setlinecap
0.690 setgray
gsave
334.8 217.4 54 36 clipbox
54 172.002932 m
388.8 172.002932 l
stroke
grestore
0 setlinecap
0.000 setgray
gsave
/o {
gsave
newpath
translate
0.8 setlinewidth
1 setlinejoin
0 setlinecap
0 0 m
-3.5 0 l

gsave
0.000 setgray
fill
grestore
stroke
grestore
} bind def
54 172.003 o
grestore
gsave
34.281250 168.206057 translate
0.000000 rotate
0.000000 0.000000 m /three glyphshow
6.362305 0.000000 m /two glyphshow
grestore
2 setlinecap
0.690 setgray
gsave
334.8 217.4 54 36 clipbox
54 208.037017 m
388.8 208.037017 l
stroke
grestore
0 setlinecap
0.000 setgray
gsave
/o {
gsave
newpath
translate
0.8 setlinewidth
1 setlinejoin
0 setlinecap
0 0 m
-3.5 0 l

gsave
0.000 setgray
fill
grestore
stroke
grestore
} bind def
54 208.037 o
grestore
gsave
34.281250 204.240142 translate
0.000000 rotate
0.000000 0.000000 m /three glyphshow
6.362305 0.000000 m /four glyphshow
grestore
2 setlinecap
0.690 setgray
gsave
334.8 217.4 54 36 clipbox
54 244.071103 m
388.8 244.071103 l
stroke
grestore
0 setlinecap
0.000 setgray
gsave
/o {
gsave
newpath
translate
0.8 setlinewidth
1 setlinejoin
0 setlinecap
0 0 m
-3.5 0 l

gsave
0.000 setgray
fill
grestore
stroke
grestore
} bind def
54 244.071 o
grestore
gsave
34.281250 240.274228 translate
0.000000 rotate
0.000000 0.000000 m /three glyphshow
6.362305 0.000000 m /six glyphshow
grestore
gsave
28.203125 82.993437 translate
90.000000 rotate
0.000000 0.000000 m /B glyphshow
6.860352 0.000000 m /a glyphshow
12.988281 0.000000 m /t glyphshow
16.909180 0.000000 m /t glyphshow
20.830078 0.000000 m /e glyphshow
26.982422 0.000000 m /r glyphshow
31.093750 0.000000 m /y glyphshow
37.011719 0.000000 m /space glyphshow
40.190430 0.000000 m /T glyphshow
46.283203 0.000000 m /e glyphshow
52.435547 0.000000 m /m glyphshow
62.176758 0.000000 m /p glyphshow
68.524414 0.000000 m /e glyphshow
74.676758 0.000000 m /r glyphshow
78.788086 0.000000 m /a glyphshow
84.916016 0.000000 m /t glyphshow
88.836914 0.000000 m /u glyphshow
95.174805 0.000000 m /r glyphshow
99.286133 0.000000 m /e glyphshow
105.438477 0.000000 m /space glyphshow
108.617188 0.000000 m /bracketleft glyphshow
112.518555 0.000000 m /C glyphshow
119.500977 0.000000 m /bracketright glyphshow
grestore
1.500 setlinewidth
2 setlinecap
0.122 0.467 0.706 setrgbcolor
gsave
334.8 217.4 54 36 clipbox
69.218182 45.883636 m
73.134226 45.961686 l
75.96248 46.522979 l
76.397596 47.521678 l
76.832712 48.523761 l
77.267828 48.74559 l
77.920502 48.798044 l
78.13806 48.994141 l
78.573176 50.014717 l
79.008292 50.9344 l
79.443408 51.129494 l
80.31364 51.215599 l
81.183872 51.586686 l
83.794568 51.811245 l
84.6648 52.403485 l
86.840379 52.57684 l
87.275495 52.88893 l
87.710611 53.283841 l
88.363285 53.627657 l
88.580843 54.473026 l
89.015959 59.010675 l
89.668633 67.032733 l
90.103749 68.924599 l
90.321307 69.20033 l
90.756423 69.311822 l
97.283163 69.372526 l
97.718279 69.605082 l
98.806069 70.743815 l
99.458743 70.844502 l
102.939671 71.11579 l
103.374787 71.503451 l
103.809903 72.005146 l
104.462577 72.334449 l
104.680135 73.025166 l
105.115251 76.469262 l
105.550367 80.528121 l
105.985483 82.353999 l
106.203041 82.556008 l
106.855715 82.693485 l
107.290831 83.195011 l
108.596179 85.636439 l
109.248853 86.667069 l
109.901527 87.844175 l
110.336643 88.116206 l
111.424433 88.156475 l
112.294665 88.216674 l
112.512223 88.382614 l
117.080941 88.477785 l
119.256521 89.269985 l
120.344311 89.317221 l
121.214543 89.37765 l
121.649659 89.595895 l
122.955007 90.581869 l
123.825239 90.650948 l
124.042797 90.954497 l
124.260355 91.795288 l
124.695471 95.353962 l
125.130587 98.701694 l
125.348145 99.361113 l
125.565703 99.532971 l
126.871051 99.728736 l
128.176399 100.207401 l
131.222211 100.54497 l
135.355813 100.851688 l
140.359647 100.947278 l
141.229878 101.255933 l
143.405458 102.307953 l
144.493248 102.47204 l
144.928364 102.870199 l
145.581038 103.592374 l
146.016154 103.783346 l
147.103944 103.936133 l
149.279524 104.745752 l
150.367314 104.865533 l
152.107778 104.957857 l
152.97801 105.18537 l
153.630684 105.266385 l
155.15359 106.016043 l
160.810098 106.146648 l
162.115446 106.318676 l
165.596374 106.448492 l
167.11928 106.696339 l
169.729976 107.397855 l
170.165092 107.915466 l
170.600208 108.98601 l
171.035324 110.744956 l
172.123114 115.789056 l
172.55823 116.674238 l
172.993346 116.8836 l
173.64602 116.971863 l
175.168926 117.622283 l
182.783456 117.893375 l
185.394152 118.432768 l
187.134616 118.544887 l
188.004848 118.831823 l
189.092638 119.430572 l
191.703334 121.067221 l
192.573566 121.272357 l
194.096472 121.310501 l
196.924725 121.427871 l
197.794957 121.769476 l
198.665189 122.376608 l
199.535421 123.108064 l
265.455494 123.119946 l
265.673052 123.287773 l
266.108168 124.006957 l
266.543284 127.240182 l
266.9784 128.155849 l
267.413516 128.173447 l
267.848632 128.707859 l
268.718864 128.848816 l
270.024212 128.9769 l
270.459328 129.180647 l
271.112002 130.039002 l
271.547118 130.286174 l
272.634908 130.447176 l
273.50514 131.24222 l
274.375372 131.481153 l
275.68072 132.952927 l
276.115836 133.065312 l
276.76851 133.160734 l
277.421184 133.340354 l
279.379206 133.556084 l
279.814322 134.079577 l
280.902112 134.870771 l
281.11967 135.181186 l
281.554786 136.243262 l
283.947924 136.679474 l
284.600598 137.418461 l
284.818156 137.544563 l
285.688388 139.085934 l
285.905946 139.096085 l
286.341062 139.827548 l
286.776178 140.036413 l
286.993736 140.195409 l
287.428852 141.179372 l
288.081526 145.986904 l
288.299084 146.97951 l
288.7342 147.339535 l
291.99757 147.361326 l
301.78768 147.47918 l
303.310585 147.517618 l
307.009071 147.529365 l
307.661745 148.561275 l
307.879303 148.968449 l
308.096861 148.989002 l
308.531977 149.290022 l
309.184651 149.544411 l
309.619767 149.675106 l
310.272441 150.184534 l
311.142673 150.298902 l
312.012905 150.522172 l
312.665579 151.157177 l
313.100695 151.262834 l
313.318253 151.284222 l
313.535811 151.660041 l
313.970927 153.265105 l
314.406043 157.349815 l
314.841159 159.047827 l
315.276275 159.201564 l
316.364065 159.259739 l
317.234297 161.026189 l
317.451855 161.147408 l
318.104529 162.424854 l
318.539645 162.67093 l
318.974761 163.568535 l
319.409877 164.40504 l
322.238131 164.725029 l
322.673247 164.812655 l
323.108363 164.848368 l
324.196153 165.391423 l
324.631269 165.459572 l
324.848827 165.991199 l
325.066385 167.506016 l
325.501501 175.411619 l
325.936617 182.134115 l
326.371733 184.584351 l
327.241965 186.606731 l
327.894639 186.839896 l
328.547313 188.935389 l
328.982429 189.69082 l
329.635103 192.27558 l
329.852661 192.793216 l
330.287777 192.918807 l
333.986263 193.001453 l
335.074053 193.775553 l
335.726727 195.690016 l
336.379401 195.877325 l
337.249633 195.961303 l
338.119865 196.852083 l
338.337423 196.911819 l
338.554981 197.231311 l
338.772539 197.833827 l
339.207655 200.695343 l
339.425213 202.189514 l
340.077887 208.282604 l
340.295445 209.624265 l
340.730561 210.235612 l
341.383235 210.294259 l
341.600793 210.622899 l
342.471025 213.492902 l
342.688583 213.500844 l
343.341257 213.987048 l
343.776373 214.341548 l
344.211489 217.031375 l
344.646605 217.594099 l
345.081721 218.970342 l
345.734395 219.144479 l
346.169511 219.260833 l
346.387069 220.194189 l
346.822185 225.360478 l
347.474859 236.681642 l
347.692417 238.571071 l
347.909975 239.393933 l
348.127533 239.616774 l
348.780207 239.660499 l
364.444382 239.80207 l
365.314614 240.721091 l
365.74973 240.780458 l
367.490194 241.384777 l
368.360426 242.183629 l
368.795542 242.313177 l
369.230658 242.318528 l
369.883332 243.077024 l
371.406238 243.548135 l
373.581818 243.556364 l
373.581818 243.556364 l
stroke
grestore
0.800 setlinewidth
0 setlinejoin
[] 0 setdash
0.000 setgray
gsave
54 36 m
54 253.44 l
stroke
grestore
gsave
388.8 36 m
388.8 253.44 l
stroke
grestore
gsave
54 36 m
388.8 36 l
stroke
grestore
gsave
54 253.44 m
388.8 253.44 l
stroke
grestore

end
showpage
