%!PS-Adobe-3.0 EPSF-3.0
%%Title: act_Ultracapacitor Current [A].eps
%%Creator: matplotlib version 2.0.0, http://matplotlib.org/
%%CreationDate: Mon May 15 15:47:52 2017
%%Orientation: portrait
%%BoundingBox: 90 252 522 540
%%EndComments
%%BeginProlog
/mpldict 8 dict def
mpldict begin
/m { moveto } bind def
/l { lineto } bind def
/r { rlineto } bind def
/c { curveto } bind def
/cl { closepath } bind def
/box {
m
1 index 0 r
0 exch r
neg 0 r
cl
} bind def
/clipbox {
box
clip
newpath
} bind def
%!PS-Adobe-3.0 Resource-Font
%%Title: DejaVu Sans
%%Copyright: Copyright (c) 2003 by Bitstream, Inc. All Rights Reserved. Copyright (c) 2006 by Tavmjong Bah. All Rights Reserved. DejaVu changes are in public domain 
%%Creator: Converted from TrueType to type 3 by PPR
25 dict begin
/_d{bind def}bind def
/_m{moveto}_d
/_l{lineto}_d
/_cl{closepath eofill}_d
/_c{curveto}_d
/_sc{7 -1 roll{setcachedevice}{pop pop pop pop pop pop}ifelse}_d
/_e{exec}_d
/FontName /DejaVuSans def
/PaintType 0 def
/FontMatrix[.001 0 0 .001 0 0]def
/FontBBox[-1021 -463 1793 1232]def
/FontType 3 def
/Encoding [ /space /zero /one /two /four /five /six /eight /A /C /T /U /bracketleft /bracketright /a /c /e /i /l /m /n /o /p /r /s /t /u /minus ] def
/FontInfo 10 dict dup begin
/FamilyName (DejaVu Sans) def
/FullName (DejaVu Sans) def
/Notice (Copyright (c) 2003 by Bitstream, Inc. All Rights Reserved. Copyright (c) 2006 by Tavmjong Bah. All Rights Reserved. DejaVu changes are in public domain ) def
/Weight (Book) def
/Version (Version 2.35) def
/ItalicAngle 0.0 def
/isFixedPitch false def
/UnderlinePosition -130 def
/UnderlineThickness 90 def
end readonly def
/CharStrings 28 dict dup begin
/space{318 0 0 0 0 0 _sc
}_d
/zero{636 0 66 -13 570 742 _sc
318 664 _m
267 664 229 639 203 589 _c
177 539 165 464 165 364 _c
165 264 177 189 203 139 _c
229 89 267 64 318 64 _c
369 64 407 89 433 139 _c
458 189 471 264 471 364 _c
471 464 458 539 433 589 _c
407 639 369 664 318 664 _c
318 742 _m
399 742 461 709 505 645 _c
548 580 570 486 570 364 _c
570 241 548 147 505 83 _c
461 19 399 -13 318 -13 _c
236 -13 173 19 130 83 _c
87 147 66 241 66 364 _c
66 486 87 580 130 645 _c
173 709 236 742 318 742 _c
_cl}_d
/one{636 0 110 0 544 729 _sc
124 83 _m
285 83 _l
285 639 _l
110 604 _l
110 694 _l
284 729 _l
383 729 _l
383 83 _l
544 83 _l
544 0 _l
124 0 _l
124 83 _l
_cl}_d
/two{{636 0 73 0 536 742 _sc
192 83 _m
536 83 _l
536 0 _l
73 0 _l
73 83 _l
110 121 161 173 226 239 _c
290 304 331 346 348 365 _c
380 400 402 430 414 455 _c
426 479 433 504 433 528 _c
433 566 419 598 392 622 _c
365 646 330 659 286 659 _c
255 659 222 653 188 643 _c
154 632 117 616 78 594 _c
78 694 _l
118 710 155 722 189 730 _c
223 738 255 742 284 742 _c
}_e{359 742 419 723 464 685 _c
509 647 532 597 532 534 _c
532 504 526 475 515 449 _c
504 422 484 390 454 354 _c
446 344 420 317 376 272 _c
332 227 271 164 192 83 _c
_cl}_e}_d
/four{636 0 49 0 580 729 _sc
378 643 _m
129 254 _l
378 254 _l
378 643 _l
352 729 _m
476 729 _l
476 254 _l
580 254 _l
580 172 _l
476 172 _l
476 0 _l
378 0 _l
378 172 _l
49 172 _l
49 267 _l
352 729 _l
_cl}_d
/five{{636 0 77 -13 549 729 _sc
108 729 _m
495 729 _l
495 646 _l
198 646 _l
198 467 _l
212 472 227 476 241 478 _c
255 480 270 482 284 482 _c
365 482 429 459 477 415 _c
525 370 549 310 549 234 _c
549 155 524 94 475 51 _c
426 8 357 -13 269 -13 _c
238 -13 207 -10 175 -6 _c
143 -1 111 6 77 17 _c
77 116 _l
106 100 136 88 168 80 _c
199 72 232 69 267 69 _c
}_e{323 69 368 83 401 113 _c
433 143 450 183 450 234 _c
450 284 433 324 401 354 _c
368 384 323 399 267 399 _c
241 399 214 396 188 390 _c
162 384 135 375 108 363 _c
108 729 _l
_cl}_e}_d
/six{{636 0 70 -13 573 742 _sc
330 404 _m
286 404 251 388 225 358 _c
199 328 186 286 186 234 _c
186 181 199 139 225 109 _c
251 79 286 64 330 64 _c
374 64 409 79 435 109 _c
461 139 474 181 474 234 _c
474 286 461 328 435 358 _c
409 388 374 404 330 404 _c
526 713 _m
526 623 _l
501 635 476 644 451 650 _c
425 656 400 659 376 659 _c
310 659 260 637 226 593 _c
}_e{192 549 172 482 168 394 _c
187 422 211 444 240 459 _c
269 474 301 482 336 482 _c
409 482 467 459 509 415 _c
551 371 573 310 573 234 _c
573 159 550 99 506 54 _c
462 9 403 -13 330 -13 _c
246 -13 181 19 137 83 _c
92 147 70 241 70 364 _c
70 479 97 571 152 639 _c
206 707 280 742 372 742 _c
396 742 421 739 447 735 _c
472 730 498 723 526 713 _c
_cl}_e}_d
/eight{{636 0 68 -13 568 742 _sc
318 346 _m
271 346 234 333 207 308 _c
180 283 167 249 167 205 _c
167 161 180 126 207 101 _c
234 76 271 64 318 64 _c
364 64 401 76 428 102 _c
455 127 469 161 469 205 _c
469 249 455 283 429 308 _c
402 333 365 346 318 346 _c
219 388 _m
177 398 144 418 120 447 _c
96 476 85 511 85 553 _c
85 611 105 657 147 691 _c
188 725 245 742 318 742 _c
}_e{390 742 447 725 489 691 _c
530 657 551 611 551 553 _c
551 511 539 476 515 447 _c
491 418 459 398 417 388 _c
464 377 501 355 528 323 _c
554 291 568 251 568 205 _c
568 134 546 80 503 43 _c
459 5 398 -13 318 -13 _c
237 -13 175 5 132 43 _c
89 80 68 134 68 205 _c
68 251 81 291 108 323 _c
134 355 171 377 219 388 _c
183 544 _m
183 506 194 476 218 455 _c
}_e{242 434 275 424 318 424 _c
360 424 393 434 417 455 _c
441 476 453 506 453 544 _c
453 582 441 611 417 632 _c
393 653 360 664 318 664 _c
275 664 242 653 218 632 _c
194 611 183 582 183 544 _c
_cl}_e}_d
/A{684 0 8 0 676 729 _sc
342 632 _m
208 269 _l
476 269 _l
342 632 _l
286 729 _m
398 729 _l
676 0 _l
573 0 _l
507 187 _l
178 187 _l
112 0 _l
8 0 _l
286 729 _l
_cl}_d
/C{{698 0 56 -13 644 742 _sc
644 673 _m
644 569 _l
610 599 575 622 537 638 _c
499 653 460 661 418 661 _c
334 661 270 635 226 584 _c
182 533 160 460 160 364 _c
160 268 182 194 226 143 _c
270 92 334 67 418 67 _c
460 67 499 74 537 90 _c
575 105 610 128 644 159 _c
644 56 _l
609 32 572 15 534 4 _c
496 -7 455 -13 412 -13 _c
302 -13 215 20 151 87 _c
}_e{87 154 56 246 56 364 _c
56 481 87 573 151 641 _c
215 708 302 742 412 742 _c
456 742 497 736 535 725 _c
573 713 610 696 644 673 _c
_cl}_e}_d
/T{611 0 -2 0 614 729 _sc
-2 729 _m
614 729 _l
614 646 _l
355 646 _l
355 0 _l
256 0 _l
256 646 _l
-2 646 _l
-2 729 _l
_cl}_d
/U{732 0 87 -13 645 729 _sc
87 729 _m
186 729 _l
186 286 _l
186 208 200 151 228 117 _c
256 83 302 66 366 66 _c
429 66 475 83 503 117 _c
531 151 546 208 546 286 _c
546 729 _l
645 729 _l
645 274 _l
645 178 621 107 574 59 _c
527 11 458 -13 366 -13 _c
274 -13 204 11 157 59 _c
110 107 87 178 87 274 _c
87 729 _l
_cl}_d
/bracketleft{390 0 86 -131 293 760 _sc
86 760 _m
293 760 _l
293 690 _l
176 690 _l
176 -61 _l
293 -61 _l
293 -131 _l
86 -131 _l
86 760 _l
_cl}_d
/bracketright{390 0 97 -131 304 760 _sc
304 760 _m
304 -131 _l
97 -131 _l
97 -61 _l
214 -61 _l
214 690 _l
97 690 _l
97 760 _l
304 760 _l
_cl}_d
/a{{613 0 60 -13 522 560 _sc
343 275 _m
270 275 220 266 192 250 _c
164 233 150 205 150 165 _c
150 133 160 107 181 89 _c
202 70 231 61 267 61 _c
317 61 357 78 387 114 _c
417 149 432 196 432 255 _c
432 275 _l
343 275 _l
522 312 _m
522 0 _l
432 0 _l
432 83 _l
411 49 385 25 355 10 _c
325 -5 287 -13 243 -13 _c
187 -13 142 2 109 33 _c
76 64 60 106 60 159 _c
}_e{60 220 80 266 122 298 _c
163 329 224 345 306 345 _c
432 345 _l
432 354 _l
432 395 418 427 391 450 _c
364 472 326 484 277 484 _c
245 484 215 480 185 472 _c
155 464 127 453 100 439 _c
100 522 _l
132 534 164 544 195 550 _c
226 556 256 560 286 560 _c
365 560 424 539 463 498 _c
502 457 522 395 522 312 _c
_cl}_e}_d
/c{{550 0 55 -13 488 560 _sc
488 526 _m
488 442 _l
462 456 437 466 411 473 _c
385 480 360 484 334 484 _c
276 484 230 465 198 428 _c
166 391 150 339 150 273 _c
150 206 166 154 198 117 _c
230 80 276 62 334 62 _c
360 62 385 65 411 72 _c
437 79 462 90 488 104 _c
488 21 _l
462 9 436 0 410 -5 _c
383 -10 354 -13 324 -13 _c
242 -13 176 12 128 64 _c
}_e{79 115 55 185 55 273 _c
55 362 79 432 128 483 _c
177 534 244 560 330 560 _c
358 560 385 557 411 551 _c
437 545 463 537 488 526 _c
_cl}_e}_d
/e{{615 0 55 -13 562 560 _sc
562 296 _m
562 252 _l
149 252 _l
153 190 171 142 205 110 _c
238 78 284 62 344 62 _c
378 62 412 66 444 74 _c
476 82 509 95 541 113 _c
541 28 _l
509 14 476 3 442 -3 _c
408 -9 373 -13 339 -13 _c
251 -13 182 12 131 62 _c
80 112 55 181 55 268 _c
55 357 79 428 127 481 _c
175 533 241 560 323 560 _c
397 560 455 536 498 489 _c
}_e{540 441 562 377 562 296 _c
472 322 _m
471 371 457 410 431 440 _c
404 469 368 484 324 484 _c
274 484 234 469 204 441 _c
174 413 156 373 152 322 _c
472 322 _l
_cl}_e}_d
/i{278 0 94 0 184 760 _sc
94 547 _m
184 547 _l
184 0 _l
94 0 _l
94 547 _l
94 760 _m
184 760 _l
184 646 _l
94 646 _l
94 760 _l
_cl}_d
/l{278 0 94 0 184 760 _sc
94 760 _m
184 760 _l
184 0 _l
94 0 _l
94 760 _l
_cl}_d
/m{{974 0 91 0 889 560 _sc
520 442 _m
542 482 569 511 600 531 _c
631 550 668 560 711 560 _c
767 560 811 540 842 500 _c
873 460 889 403 889 330 _c
889 0 _l
799 0 _l
799 327 _l
799 379 789 418 771 444 _c
752 469 724 482 686 482 _c
639 482 602 466 575 435 _c
548 404 535 362 535 309 _c
535 0 _l
445 0 _l
445 327 _l
445 379 435 418 417 444 _c
398 469 369 482 331 482 _c
}_e{285 482 248 466 221 435 _c
194 404 181 362 181 309 _c
181 0 _l
91 0 _l
91 547 _l
181 547 _l
181 462 _l
201 495 226 520 255 536 _c
283 552 317 560 357 560 _c
397 560 430 550 458 530 _c
486 510 506 480 520 442 _c
_cl}_e}_d
/n{634 0 91 0 549 560 _sc
549 330 _m
549 0 _l
459 0 _l
459 327 _l
459 379 448 417 428 443 _c
408 469 378 482 338 482 _c
289 482 251 466 223 435 _c
195 404 181 362 181 309 _c
181 0 _l
91 0 _l
91 547 _l
181 547 _l
181 462 _l
202 494 227 519 257 535 _c
286 551 320 560 358 560 _c
420 560 468 540 500 501 _c
532 462 549 405 549 330 _c
_cl}_d
/o{612 0 55 -13 557 560 _sc
306 484 _m
258 484 220 465 192 427 _c
164 389 150 338 150 273 _c
150 207 163 156 191 118 _c
219 80 257 62 306 62 _c
354 62 392 80 420 118 _c
448 156 462 207 462 273 _c
462 337 448 389 420 427 _c
392 465 354 484 306 484 _c
306 560 _m
384 560 445 534 490 484 _c
534 433 557 363 557 273 _c
557 183 534 113 490 63 _c
445 12 384 -13 306 -13 _c
227 -13 165 12 121 63 _c
77 113 55 183 55 273 _c
55 363 77 433 121 484 _c
165 534 227 560 306 560 _c
_cl}_d
/p{{635 0 91 -207 580 560 _sc
181 82 _m
181 -207 _l
91 -207 _l
91 547 _l
181 547 _l
181 464 _l
199 496 223 520 252 536 _c
281 552 316 560 356 560 _c
422 560 476 533 518 481 _c
559 428 580 359 580 273 _c
580 187 559 117 518 65 _c
476 13 422 -13 356 -13 _c
316 -13 281 -5 252 10 _c
223 25 199 49 181 82 _c
487 273 _m
487 339 473 390 446 428 _c
418 466 381 485 334 485 _c
}_e{286 485 249 466 222 428 _c
194 390 181 339 181 273 _c
181 207 194 155 222 117 _c
249 79 286 61 334 61 _c
381 61 418 79 446 117 _c
473 155 487 207 487 273 _c
_cl}_e}_d
/r{411 0 91 0 411 560 _sc
411 463 _m
401 469 390 473 378 476 _c
366 478 353 480 339 480 _c
288 480 249 463 222 430 _c
194 397 181 350 181 288 _c
181 0 _l
91 0 _l
91 547 _l
181 547 _l
181 462 _l
199 495 224 520 254 536 _c
284 552 321 560 365 560 _c
371 560 378 559 386 559 _c
393 558 401 557 411 555 _c
411 463 _l
_cl}_d
/s{{521 0 54 -13 472 560 _sc
443 531 _m
443 446 _l
417 458 391 468 364 475 _c
336 481 308 485 279 485 _c
234 485 200 478 178 464 _c
156 450 145 430 145 403 _c
145 382 153 366 169 354 _c
185 342 217 330 265 320 _c
296 313 _l
360 299 405 279 432 255 _c
458 230 472 195 472 151 _c
472 100 452 60 412 31 _c
372 1 316 -13 246 -13 _c
216 -13 186 -10 154 -5 _c
}_e{122 0 89 8 54 20 _c
54 113 _l
87 95 120 82 152 74 _c
184 65 216 61 248 61 _c
290 61 323 68 346 82 _c
368 96 380 117 380 144 _c
380 168 371 187 355 200 _c
339 213 303 226 247 238 _c
216 245 _l
160 257 119 275 95 299 _c
70 323 58 356 58 399 _c
58 450 76 490 112 518 _c
148 546 200 560 268 560 _c
301 560 332 557 362 552 _c
391 547 418 540 443 531 _c
}_e{_cl}_e}_d
/t{392 0 27 0 368 702 _sc
183 702 _m
183 547 _l
368 547 _l
368 477 _l
183 477 _l
183 180 _l
183 135 189 106 201 94 _c
213 81 238 75 276 75 _c
368 75 _l
368 0 _l
276 0 _l
206 0 158 13 132 39 _c
106 65 93 112 93 180 _c
93 477 _l
27 477 _l
27 547 _l
93 547 _l
93 702 _l
183 702 _l
_cl}_d
/u{634 0 85 -13 543 560 _sc
85 216 _m
85 547 _l
175 547 _l
175 219 _l
175 167 185 129 205 103 _c
225 77 255 64 296 64 _c
344 64 383 79 411 110 _c
439 141 453 183 453 237 _c
453 547 _l
543 547 _l
543 0 _l
453 0 _l
453 84 _l
431 50 405 26 377 10 _c
348 -5 315 -13 277 -13 _c
214 -13 166 6 134 45 _c
101 83 85 140 85 216 _c
311 560 _m
311 560 _l
_cl}_d
/minus{838 0 106 272 732 355 _sc
106 355 _m
732 355 _l
732 272 _l
106 272 _l
106 355 _l
_cl}_d
end readonly def

/BuildGlyph
 {exch begin
 CharStrings exch
 2 copy known not{pop /.notdef}if
 true 3 1 roll get exec
 end}_d

/BuildChar {
 1 index /Encoding get exch get
 1 index /BuildGlyph get exec
}_d

FontName currentdict end definefont pop
end
%%EndProlog
mpldict begin
90 252 translate
432 288 0 0 clipbox
gsave
0 0 m
432 0 l
432 288 l
0 288 l
cl
1.000 setgray
fill
grestore
gsave
54 36 m
388.8 36 l
388.8 253.44 l
54 253.44 l
cl
1.000 setgray
fill
grestore
0.800 setlinewidth
1 setlinejoin
2 setlinecap
[] 0 setdash
0.690 setgray
gsave
334.8 217.4 54 36 clipbox
69.218182 36 m
69.218182 253.44 l
stroke
grestore
0 setlinecap
0.000 setgray
gsave
/o {
gsave
newpath
translate
0.8 setlinewidth
1 setlinejoin
0 setlinecap
0 0 m
0 -3.5 l

gsave
0.000 setgray
fill
grestore
stroke
grestore
} bind def
69.2182 36 o
grestore
/DejaVuSans findfont
10.000 scalefont
setfont
gsave
66.038494 21.406250 translate
0.000000 rotate
0.000000 0.000000 m /zero glyphshow
grestore
2 setlinecap
0.690 setgray
gsave
334.8 217.4 54 36 clipbox
112.729781 36 m
112.729781 253.44 l
stroke
grestore
0 setlinecap
0.000 setgray
gsave
/o {
gsave
newpath
translate
0.8 setlinewidth
1 setlinejoin
0 setlinecap
0 0 m
0 -3.5 l

gsave
0.000 setgray
fill
grestore
stroke
grestore
} bind def
112.73 36 o
grestore
gsave
103.190719 21.406250 translate
0.000000 rotate
0.000000 0.000000 m /two glyphshow
6.362305 0.000000 m /zero glyphshow
12.724609 0.000000 m /zero glyphshow
grestore
2 setlinecap
0.690 setgray
gsave
334.8 217.4 54 36 clipbox
156.24138 36 m
156.24138 253.44 l
stroke
grestore
0 setlinecap
0.000 setgray
gsave
/o {
gsave
newpath
translate
0.8 setlinewidth
1 setlinejoin
0 setlinecap
0 0 m
0 -3.5 l

gsave
0.000 setgray
fill
grestore
stroke
grestore
} bind def
156.241 36 o
grestore
gsave
146.702318 21.406250 translate
0.000000 rotate
0.000000 0.000000 m /four glyphshow
6.362305 0.000000 m /zero glyphshow
12.724609 0.000000 m /zero glyphshow
grestore
2 setlinecap
0.690 setgray
gsave
334.8 217.4 54 36 clipbox
199.752979 36 m
199.752979 253.44 l
stroke
grestore
0 setlinecap
0.000 setgray
gsave
/o {
gsave
newpath
translate
0.8 setlinewidth
1 setlinejoin
0 setlinecap
0 0 m
0 -3.5 l

gsave
0.000 setgray
fill
grestore
stroke
grestore
} bind def
199.753 36 o
grestore
gsave
190.213917 21.406250 translate
0.000000 rotate
0.000000 0.000000 m /six glyphshow
6.362305 0.000000 m /zero glyphshow
12.724609 0.000000 m /zero glyphshow
grestore
2 setlinecap
0.690 setgray
gsave
334.8 217.4 54 36 clipbox
243.264579 36 m
243.264579 253.44 l
stroke
grestore
0 setlinecap
0.000 setgray
gsave
/o {
gsave
newpath
translate
0.8 setlinewidth
1 setlinejoin
0 setlinecap
0 0 m
0 -3.5 l

gsave
0.000 setgray
fill
grestore
stroke
grestore
} bind def
243.265 36 o
grestore
gsave
233.725516 21.406250 translate
0.000000 rotate
0.000000 0.000000 m /eight glyphshow
6.362305 0.000000 m /zero glyphshow
12.724609 0.000000 m /zero glyphshow
grestore
2 setlinecap
0.690 setgray
gsave
334.8 217.4 54 36 clipbox
286.776178 36 m
286.776178 253.44 l
stroke
grestore
0 setlinecap
0.000 setgray
gsave
/o {
gsave
newpath
translate
0.8 setlinewidth
1 setlinejoin
0 setlinecap
0 0 m
0 -3.5 l

gsave
0.000 setgray
fill
grestore
stroke
grestore
} bind def
286.776 36 o
grestore
gsave
274.057428 21.406250 translate
0.000000 rotate
0.000000 0.000000 m /one glyphshow
6.362305 0.000000 m /zero glyphshow
12.724609 0.000000 m /zero glyphshow
19.086914 0.000000 m /zero glyphshow
grestore
2 setlinecap
0.690 setgray
gsave
334.8 217.4 54 36 clipbox
330.287777 36 m
330.287777 253.44 l
stroke
grestore
0 setlinecap
0.000 setgray
gsave
/o {
gsave
newpath
translate
0.8 setlinewidth
1 setlinejoin
0 setlinecap
0 0 m
0 -3.5 l

gsave
0.000 setgray
fill
grestore
stroke
grestore
} bind def
330.288 36 o
grestore
gsave
317.569027 21.406250 translate
0.000000 rotate
0.000000 0.000000 m /one glyphshow
6.362305 0.000000 m /two glyphshow
12.724609 0.000000 m /zero glyphshow
19.086914 0.000000 m /zero glyphshow
grestore
2 setlinecap
0.690 setgray
gsave
334.8 217.4 54 36 clipbox
373.799376 36 m
373.799376 253.44 l
stroke
grestore
0 setlinecap
0.000 setgray
gsave
/o {
gsave
newpath
translate
0.8 setlinewidth
1 setlinejoin
0 setlinecap
0 0 m
0 -3.5 l

gsave
0.000 setgray
fill
grestore
stroke
grestore
} bind def
373.799 36 o
grestore
gsave
361.080626 21.406250 translate
0.000000 rotate
0.000000 0.000000 m /one glyphshow
6.362305 0.000000 m /four glyphshow
12.724609 0.000000 m /zero glyphshow
19.086914 0.000000 m /zero glyphshow
grestore
gsave
200.892188 7.734375 translate
0.000000 rotate
0.000000 0.000000 m /T glyphshow
6.108398 0.000000 m /i glyphshow
8.886719 0.000000 m /m glyphshow
18.627930 0.000000 m /e glyphshow
24.780273 0.000000 m /space glyphshow
27.958984 0.000000 m /bracketleft glyphshow
31.860352 0.000000 m /s glyphshow
37.070312 0.000000 m /bracketright glyphshow
grestore
2 setlinecap
0.690 setgray
gsave
334.8 217.4 54 36 clipbox
54 64.278196 m
388.8 64.278196 l
stroke
grestore
0 setlinecap
0.000 setgray
gsave
/o {
gsave
newpath
translate
0.8 setlinewidth
1 setlinejoin
0 setlinecap
0 0 m
-3.5 0 l

gsave
0.000 setgray
fill
grestore
stroke
grestore
} bind def
54 64.2782 o
grestore
gsave
19.546875 60.481321 translate
0.000000 rotate
0.000000 0.000000 m /minus glyphshow
8.378906 0.000000 m /one glyphshow
14.741211 0.000000 m /five glyphshow
21.103516 0.000000 m /zero glyphshow
grestore
2 setlinecap
0.690 setgray
gsave
334.8 217.4 54 36 clipbox
54 96.6909 m
388.8 96.6909 l
stroke
grestore
0 setlinecap
0.000 setgray
gsave
/o {
gsave
newpath
translate
0.8 setlinewidth
1 setlinejoin
0 setlinecap
0 0 m
-3.5 0 l

gsave
0.000 setgray
fill
grestore
stroke
grestore
} bind def
54 96.6909 o
grestore
gsave
19.546875 92.894025 translate
0.000000 rotate
0.000000 0.000000 m /minus glyphshow
8.378906 0.000000 m /one glyphshow
14.741211 0.000000 m /zero glyphshow
21.103516 0.000000 m /zero glyphshow
grestore
2 setlinecap
0.690 setgray
gsave
334.8 217.4 54 36 clipbox
54 129.103605 m
388.8 129.103605 l
stroke
grestore
0 setlinecap
0.000 setgray
gsave
/o {
gsave
newpath
translate
0.8 setlinewidth
1 setlinejoin
0 setlinecap
0 0 m
-3.5 0 l

gsave
0.000 setgray
fill
grestore
stroke
grestore
} bind def
54 129.104 o
grestore
gsave
25.906250 125.306730 translate
0.000000 rotate
0.000000 0.000000 m /minus glyphshow
8.378906 0.000000 m /five glyphshow
14.741211 0.000000 m /zero glyphshow
grestore
2 setlinecap
0.690 setgray
gsave
334.8 217.4 54 36 clipbox
54 161.516309 m
388.8 161.516309 l
stroke
grestore
0 setlinecap
0.000 setgray
gsave
/o {
gsave
newpath
translate
0.8 setlinewidth
1 setlinejoin
0 setlinecap
0 0 m
-3.5 0 l

gsave
0.000 setgray
fill
grestore
stroke
grestore
} bind def
54 161.516 o
grestore
gsave
40.640625 157.719434 translate
0.000000 rotate
0.000000 0.000000 m /zero glyphshow
grestore
2 setlinecap
0.690 setgray
gsave
334.8 217.4 54 36 clipbox
54 193.929014 m
388.8 193.929014 l
stroke
grestore
0 setlinecap
0.000 setgray
gsave
/o {
gsave
newpath
translate
0.8 setlinewidth
1 setlinejoin
0 setlinecap
0 0 m
-3.5 0 l

gsave
0.000 setgray
fill
grestore
stroke
grestore
} bind def
54 193.929 o
grestore
gsave
34.281250 190.132139 translate
0.000000 rotate
0.000000 0.000000 m /five glyphshow
6.362305 0.000000 m /zero glyphshow
grestore
2 setlinecap
0.690 setgray
gsave
334.8 217.4 54 36 clipbox
54 226.341718 m
388.8 226.341718 l
stroke
grestore
0 setlinecap
0.000 setgray
gsave
/o {
gsave
newpath
translate
0.8 setlinewidth
1 setlinejoin
0 setlinecap
0 0 m
-3.5 0 l

gsave
0.000 setgray
fill
grestore
stroke
grestore
} bind def
54 226.342 o
grestore
gsave
27.921875 222.544843 translate
0.000000 rotate
0.000000 0.000000 m /one glyphshow
6.362305 0.000000 m /zero glyphshow
12.724609 0.000000 m /zero glyphshow
grestore
gsave
13.468750 79.821562 translate
90.000000 rotate
0.000000 0.000000 m /U glyphshow
7.319336 0.000000 m /l glyphshow
10.097656 0.000000 m /t glyphshow
14.018555 0.000000 m /r glyphshow
18.129883 0.000000 m /a glyphshow
24.257812 0.000000 m /c glyphshow
29.755859 0.000000 m /a glyphshow
35.883789 0.000000 m /p glyphshow
42.231445 0.000000 m /a glyphshow
48.359375 0.000000 m /c glyphshow
53.857422 0.000000 m /i glyphshow
56.635742 0.000000 m /t glyphshow
60.556641 0.000000 m /o glyphshow
66.674805 0.000000 m /r glyphshow
70.786133 0.000000 m /space glyphshow
73.964844 0.000000 m /C glyphshow
80.947266 0.000000 m /u glyphshow
87.285156 0.000000 m /r glyphshow
91.396484 0.000000 m /r glyphshow
95.507812 0.000000 m /e glyphshow
101.660156 0.000000 m /n glyphshow
107.998047 0.000000 m /t glyphshow
111.918945 0.000000 m /space glyphshow
115.097656 0.000000 m /bracketleft glyphshow
118.999023 0.000000 m /A glyphshow
125.839844 0.000000 m /bracketright glyphshow
grestore
1.500 setlinewidth
2 setlinecap
0.122 0.467 0.706 setrgbcolor
gsave
334.8 217.4 54 36 clipbox
69.218182 86.897646 m
69.43574 125.741812 l
69.653298 194.56502 l
69.870856 162.686129 l
70.088414 168.27479 l
70.305972 163.827404 l
70.52353 167.507969 l
70.741088 164.075709 l
70.958646 169.533783 l
71.176204 161.2538 l
71.393762 159.973994 l
71.828878 143.471988 l
72.263994 128.274599 l
72.481552 148.564785 l
72.69911 141.962712 l
72.916668 168.46232 l
73.134226 167.72134 l
73.351784 168.803086 l
73.569342 165.38266 l
73.7869 148.196379 l
74.004458 152.918767 l
74.222016 78.809229 l
74.439574 171.010444 l
74.657132 95.970223 l
74.87469 174.3391 l
75.309806 151.425375 l
75.527364 152.344603 l
75.744922 164.709332 l
75.96248 167.336129 l
76.180038 184.698222 l
76.397596 184.151624 l
76.615154 152.610616 l
76.832712 194.031805 l
77.05027 139.65825 l
77.267828 183.037884 l
77.485386 163.719855 l
77.702944 162.870844 l
77.920502 174.769233 l
78.13806 168.330313 l
78.355618 190.715869 l
78.573176 178.306047 l
78.790734 181.976414 l
79.008292 178.651781 l
79.22585 169.705743 l
79.443408 168.660389 l
79.660966 184.85242 l
80.096082 176.881935 l
80.31364 189.002 l
80.531198 161.290176 l
80.748756 171.198039 l
80.966314 169.872803 l
81.183872 160.405049 l
81.40143 166.801668 l
82.054104 149.921856 l
82.271662 154.110396 l
82.48922 153.356243 l
82.706778 149.105015 l
82.924336 162.412431 l
83.141894 148.512403 l
83.359452 145.768948 l
83.57701 152.495434 l
83.794568 139.966274 l
84.012126 150.389862 l
84.229684 181.259551 l
84.447242 183.571981 l
84.6648 222.373319 l
84.882358 223.581565 l
85.099916 212.939551 l
85.317474 209.245493 l
85.75259 180.701106 l
85.970148 180.797882 l
86.187706 169.831214 l
86.405263 175.275771 l
86.622821 169.181258 l
86.840379 171.993622 l
87.275495 144.808061 l
87.493053 162.412177 l
87.710611 139.039383 l
87.928169 178.338329 l
88.145727 145.190392 l
88.363285 154.261396 l
88.580843 119.767623 l
88.798401 113.853098 l
89.015959 97.674125 l
89.233517 112.068979 l
89.451075 87.597687 l
89.668633 140.599323 l
89.886191 103.733576 l
90.103749 158.125915 l
90.321307 126.996497 l
90.538865 166.53661 l
90.756423 169.323514 l
90.973981 160.287465 l
91.191539 159.161901 l
91.409097 171.955926 l
91.626655 152.041947 l
91.844213 164.153682 l
92.279329 148.255971 l
92.496887 168.265359 l
92.714445 154.202976 l
92.932003 165.497277 l
93.367119 150.425939 l
93.584677 131.083434 l
93.802235 160.911272 l
94.019793 107.85565 l
94.237351 181.703582 l
94.454909 134.649017 l
94.672467 166.183781 l
94.890025 163.070274 l
95.107583 139.967904 l
95.325141 165.315373 l
95.542699 155.42699 l
95.760257 155.879959 l
95.977815 167.673278 l
96.195373 167.103618 l
96.412931 162.838385 l
96.630489 173.049775 l
96.848047 169.139136 l
97.065605 172.828309 l
97.283163 163.64604 l
97.500721 170.719304 l
97.718279 170.806035 l
97.935837 172.968249 l
98.153395 176.825134 l
98.370953 176.091338 l
98.588511 172.584622 l
98.806069 145.869069 l
99.241185 153.211708 l
99.458743 145.895594 l
99.676301 167.431207 l
100.111417 163.128469 l
100.981649 221.516654 l
101.199207 200.723493 l
101.416765 196.720447 l
101.851881 160.813895 l
102.069439 167.517985 l
102.286997 159.038008 l
102.504555 163.146832 l
102.722113 172.611017 l
102.939671 155.092672 l
103.157229 171.559936 l
103.374787 104.987773 l
103.592345 189.757488 l
103.809903 113.254376 l
104.027461 182.255698 l
104.245019 139.072197 l
104.462577 140.461903 l
104.680135 103.697149 l
104.897693 91.549156 l
105.115251 94.255884 l
105.332809 85.246583 l
105.550367 102.955171 l
105.767925 132.754776 l
105.985483 134.755639 l
106.203041 146.139234 l
106.420599 170.576231 l
106.638157 155.289544 l
106.855715 173.427975 l
107.073273 173.093771 l
107.725947 194.605256 l
107.943505 169.227565 l
108.161063 167.04387 l
108.378621 161.397838 l
108.596179 160.505957 l
108.813737 131.71237 l
109.031295 203.732514 l
109.248853 126.188765 l
109.466411 191.991634 l
109.683969 204.473517 l
109.901527 155.320553 l
110.119085 234.219668 l
110.336643 170.082602 l
110.554201 200.784869 l
110.771759 165.223049 l
110.989317 166.382581 l
111.424433 150.003445 l
111.641991 169.463926 l
111.859549 127.0234 l
112.077107 160.607675 l
112.294665 165.026439 l
112.512223 213.48001 l
112.729781 154.383557 l
112.947339 146.717939 l
113.164897 159.205995 l
113.382455 148.63542 l
113.600013 150.765852 l
113.817571 140.337228 l
114.035129 166.984523 l
114.252687 141.249889 l
114.470245 181.331947 l
114.687803 141.307003 l
114.905361 154.830497 l
115.122919 141.036286 l
115.340477 162.781799 l
115.558035 161.573351 l
115.775593 170.280948 l
115.993151 159.704217 l
116.210709 161.215627 l
116.645825 153.854756 l
116.863383 163.072956 l
117.080941 181.035737 l
117.298499 138.967563 l
117.516057 176.144017 l
117.733615 141.343884 l
118.168731 169.345092 l
118.386289 161.486201 l
118.603847 159.518867 l
118.821405 165.176986 l
119.038963 152.715903 l
119.256521 163.640004 l
119.474079 157.094304 l
119.691637 174.770054 l
119.909195 166.713325 l
120.126753 117.917032 l
120.344311 110.469679 l
120.561869 45.883636 l
120.779427 138.529058 l
120.996985 142.312895 l
121.214543 197.625046 l
121.432101 198.66398 l
121.649659 170.924763 l
121.867217 164.38014 l
122.084775 173.592 l
122.302333 170.120941 l
122.519891 168.742723 l
122.737449 165.385253 l
122.955007 157.130513 l
123.390123 149.715628 l
123.607681 161.185708 l
123.825239 162.091245 l
124.042797 180.386244 l
124.260355 184.627341 l
124.477913 205.58823 l
124.695471 210.038803 l
124.913029 200.281446 l
125.130587 196.434206 l
125.348145 160.782863 l
125.565703 165.436262 l
125.783261 144.746115 l
126.000819 154.784415 l
126.218377 147.4042 l
126.435935 151.048764 l
126.871051 167.422259 l
127.088609 169.49003 l
127.306167 165.76254 l
127.523725 167.519035 l
127.741283 158.465296 l
127.958841 168.369325 l
128.176399 159.134295 l
128.393957 167.984635 l
128.611515 150.370429 l
128.829073 165.514143 l
129.046631 150.56762 l
129.264189 168.859605 l
129.481747 155.052892 l
129.699305 167.469373 l
129.916863 155.962565 l
130.134421 165.608876 l
130.351979 155.91932 l
130.569537 161.818691 l
130.787095 155.218902 l
131.004653 162.707735 l
131.222211 164.365153 l
131.439769 164.960365 l
132.310001 207.793774 l
132.527559 205.349953 l
132.745117 178.181924 l
132.962675 180.997158 l
133.180233 120.744608 l
133.397791 173.969211 l
133.615349 145.642493 l
133.832907 148.651744 l
134.050465 185.584235 l
134.268023 172.665182 l
134.485581 174.378436 l
134.703139 161.388379 l
134.920697 166.053802 l
135.138255 152.883313 l
135.355813 166.496868 l
135.790929 147.768082 l
136.008487 163.240617 l
136.226045 149.444865 l
136.443603 161.424357 l
136.661161 153.523583 l
136.878719 136.072966 l
137.096277 164.099736 l
137.313835 137.03024 l
137.531393 167.372576 l
137.748951 149.689295 l
137.966509 155.027612 l
138.184067 124.337763 l
138.401625 170.715606 l
138.619183 122.306215 l
138.836741 180.34701 l
139.054299 159.05274 l
139.271857 163.862246 l
139.489415 165.102321 l
139.924531 152.594077 l
140.359647 186.656764 l
140.577204 188.873597 l
140.794762 197.725264 l
141.01232 199.762246 l
141.229878 171.939401 l
141.447436 200.837212 l
141.664994 151.380623 l
141.882552 185.303675 l
142.10011 155.025005 l
142.317668 176.77567 l
142.535226 173.688281 l
142.752784 177.063217 l
142.970342 146.196619 l
143.1879 164.85481 l
143.405458 143.204205 l
143.840574 159.780274 l
144.058132 150.132489 l
144.27569 159.035231 l
144.493248 130.861441 l
144.710806 150.913188 l
144.928364 125.462255 l
145.145922 140.428584 l
145.36348 142.321559 l
145.581038 141.969902 l
146.668828 172.690727 l
147.103944 168.8197 l
147.321502 170.599949 l
147.53906 163.975284 l
147.756618 167.155595 l
148.191734 157.342811 l
148.409292 169.860278 l
148.62685 159.22321 l
148.844408 164.514182 l
149.061966 173.234495 l
149.279524 149.423116 l
149.497082 203.166663 l
149.71464 169.431877 l
149.932198 212.408034 l
150.149756 174.2917 l
150.367314 173.406852 l
150.584872 154.617 l
150.80243 152.955552 l
151.019988 157.800895 l
151.237546 154.404344 l
151.455104 161.458997 l
151.672662 173.172175 l
151.89022 163.388139 l
152.107778 175.664136 l
152.325336 156.563549 l
152.542894 168.075026 l
152.760452 149.303101 l
152.97801 182.413305 l
153.195568 116.291929 l
153.413126 155.522509 l
153.630684 110.999381 l
153.848242 138.120749 l
154.500916 153.541994 l
154.718474 153.930866 l
154.936032 161.104923 l
155.588706 156.928847 l
156.023822 154.697212 l
156.24138 153.805281 l
156.458938 150.480853 l
156.676496 155.422275 l
156.894054 150.920888 l
157.111612 155.432985 l
157.32917 155.445481 l
157.546728 145.704325 l
157.764286 167.543294 l
157.981844 141.114228 l
158.199402 174.124291 l
158.41696 162.098125 l
158.634518 176.321765 l
158.852076 159.90125 l
159.069634 181.966974 l
159.287192 156.038392 l
159.50475 170.485063 l
159.939866 153.223477 l
160.157424 153.989522 l
160.374982 151.463703 l
160.59254 168.107827 l
160.810098 159.93933 l
161.027656 171.006676 l
161.245214 156.040211 l
161.462772 178.182431 l
161.68033 154.407719 l
161.897888 169.334681 l
162.333004 156.371873 l
162.550562 142.101 l
162.76812 161.19967 l
162.985678 132.368793 l
163.203236 159.799809 l
163.420794 147.81621 l
163.638352 156.093266 l
163.85591 155.725248 l
164.073468 156.165 l
164.291026 158.725019 l
164.508584 176.210223 l
164.726142 141.070043 l
164.9437 176.247998 l
165.161258 142.88351 l
165.378816 162.322903 l
165.596374 161.156154 l
165.813932 135.509894 l
166.03149 151.75676 l
166.249048 142.19716 l
166.684164 164.693902 l
166.901722 159.529552 l
167.11928 86.683724 l
167.336838 108.913702 l
167.554396 95.885398 l
167.771954 125.453477 l
167.989512 178.40653 l
168.20707 174.027204 l
168.424628 174.504119 l
168.642186 159.664 l
168.859744 161.588481 l
169.077302 161.826607 l
169.29486 163.659076 l
169.729976 201.838775 l
169.947534 201.875564 l
170.165092 223.524092 l
170.38265 174.148005 l
170.600208 206.638388 l
170.817766 169.00306 l
171.035324 197.633927 l
171.252882 181.249013 l
171.47044 198.686985 l
171.687998 164.833142 l
171.905556 201.711023 l
172.123114 170.918253 l
172.340672 199.491303 l
172.55823 154.295474 l
172.775788 196.812689 l
172.993346 140.964703 l
173.210904 172.778702 l
173.428462 150.410455 l
173.64602 160.716867 l
173.863578 148.717283 l
174.081136 155.145259 l
174.298694 150.816358 l
174.516252 149.875871 l
174.73381 146.001514 l
174.951368 152.983213 l
175.168926 156.303963 l
175.386484 153.550969 l
175.604042 173.392368 l
175.8216 141.617637 l
176.039158 184.558204 l
176.256716 104.140104 l
176.474274 183.30686 l
176.691832 131.653083 l
176.90939 151.868886 l
177.126948 191.933165 l
177.344506 151.460583 l
177.562064 175.590972 l
177.779622 147.497225 l
178.214738 171.68657 l
178.432296 161.179252 l
178.649854 174.504699 l
178.867412 140.678174 l
179.08497 178.737312 l
179.302528 162.480368 l
179.520086 203.34146 l
179.737644 196.165924 l
180.17276 192.771678 l
180.390318 162.245648 l
180.607876 168.159412 l
180.825434 153.630829 l
181.042992 156.623091 l
181.26055 157.269026 l
181.478108 155.645429 l
181.695666 159.667302 l
181.913224 150.210338 l
182.130782 156.699693 l
182.34834 152.596907 l
182.565898 146.140837 l
182.783456 129.368057 l
183.001014 146.051995 l
183.43613 113.984489 l
183.653688 169.210429 l
183.871246 123.42974 l
184.088804 168.338213 l
184.306362 144.16633 l
184.52392 151.429754 l
184.741478 133.617316 l
184.959036 157.687592 l
185.394152 157.62997 l
185.61171 160.977199 l
185.829268 153.316512 l
186.046826 119.793862 l
186.264384 150.941368 l
186.481942 120.832427 l
186.6995 167.294862 l
186.917058 124.697463 l
187.134616 172.993959 l
187.352174 141.753547 l
187.569732 178.931152 l
187.78729 133.016902 l
188.004848 164.286457 l
188.222406 135.224203 l
188.439964 174.737778 l
188.87508 211.285027 l
189.092638 179.734937 l
189.310196 181.908787 l
189.527754 173.867729 l
189.745312 150.123667 l
189.96287 187.066768 l
190.180428 139.191979 l
190.397986 200.173004 l
190.615544 188.871637 l
190.833102 209.907678 l
191.05066 211.75793 l
191.268218 192.982581 l
191.485776 133.722525 l
191.703334 168.43828 l
191.920892 135.936429 l
192.13845 128.077967 l
192.356008 199.821783 l
192.573566 132.948002 l
192.791124 188.291047 l
193.008682 172.835514 l
193.22624 137.052171 l
193.443798 177.979516 l
193.661356 125.493332 l
193.878914 169.68591 l
194.096472 86.468443 l
194.31403 173.449345 l
194.531587 93.588559 l
194.749145 190.852417 l
195.184261 116.405543 l
195.401819 147.966314 l
195.619377 117.433198 l
196.054493 185.714086 l
196.272051 154.458497 l
196.489609 179.403338 l
196.924725 152.038044 l
197.142283 151.240897 l
197.359841 152.815651 l
197.577399 149.908976 l
197.794957 173.419671 l
198.012515 161.362867 l
198.230073 170.415328 l
198.447631 169.419727 l
198.665189 165.046118 l
198.882747 181.183055 l
199.317863 137.910944 l
199.535421 92.462067 l
199.752979 161.771052 l
199.970537 157.619476 l
200.188095 138.476487 l
200.405653 130.031243 l
200.623211 165.060813 l
200.840769 127.850549 l
201.058327 188.595789 l
201.275885 157.084443 l
201.493443 159.644513 l
201.711001 165.044657 l
201.928559 148.662773 l
202.146117 166.310015 l
202.363675 151.103235 l
202.581233 159.807829 l
202.798791 152.891989 l
203.016349 161.61758 l
203.233907 153.746841 l
203.451465 182.053969 l
203.669023 173.457997 l
203.886581 181.855529 l
204.104139 175.35867 l
204.321697 177.925373 l
204.539255 154.362596 l
204.756813 172.724511 l
204.974371 154.065468 l
205.191929 196.082282 l
205.409487 190.511631 l
205.627045 230.840108 l
205.844603 201.087449 l
206.062161 197.405171 l
206.497277 158.203201 l
206.714835 169.711709 l
206.932393 169.57501 l
207.149951 163.071296 l
207.367509 189.518919 l
207.585067 147.217907 l
207.802625 155.051575 l
208.237741 138.094232 l
208.455299 165.771428 l
208.672857 173.060582 l
208.890415 160.328064 l
209.107973 181.272113 l
209.325531 164.235494 l
209.543089 164.432065 l
209.760647 175.552371 l
209.978205 144.68616 l
210.195763 186.488698 l
210.413321 173.783563 l
210.630879 213.646015 l
211.065995 227.903409 l
211.283553 211.769873 l
211.501111 222.108176 l
211.718669 211.325794 l
212.153785 229.264439 l
212.371343 227.663631 l
212.588901 223.983646 l
212.806459 211.604308 l
213.024017 208.309612 l
213.241575 186.981438 l
213.459133 182.385335 l
213.894249 164.156082 l
214.111807 163.540194 l
214.329365 160.995205 l
214.546923 161.510269 l
214.764481 160.853051 l
214.982039 149.129258 l
215.199597 164.444401 l
215.417155 148.940404 l
215.634713 166.552509 l
215.852271 161.779295 l
216.069829 170.97321 l
216.287387 163.217434 l
216.504945 168.326575 l
216.722503 154.120543 l
216.940061 154.52466 l
217.157619 153.782898 l
217.375177 142.325228 l
217.592735 161.650174 l
217.810293 152.773464 l
218.027851 162.899434 l
218.245409 163.201544 l
218.462967 150.98872 l
218.680525 145.112598 l
218.898083 152.211295 l
219.115641 150.723281 l
219.333199 170.417299 l
219.550757 167.566497 l
219.768315 166.488992 l
219.985873 161.884853 l
220.203431 149.44821 l
220.420989 163.254564 l
220.638547 156.930277 l
220.856105 170.472473 l
221.508779 123.641211 l
221.726337 147.803499 l
222.161453 164.899438 l
222.379011 158.201746 l
222.596569 163.270142 l
222.814127 164.648196 l
223.031685 169.475379 l
223.466801 153.757456 l
223.684359 168.334394 l
223.901917 117.253945 l
224.119475 189.121952 l
224.337033 126.846034 l
224.554591 181.451009 l
224.772149 137.893834 l
224.989707 165.425599 l
225.207265 144.167246 l
225.424823 174.501982 l
225.642381 165.867876 l
225.859939 176.576135 l
226.077497 158.10044 l
226.295055 168.77342 l
226.512613 157.170044 l
226.730171 158.064717 l
226.947729 170.678925 l
227.165287 157.546048 l
227.382845 171.339266 l
227.600403 163.275233 l
227.817961 161.056746 l
228.035519 155.117364 l
228.253077 161.29972 l
228.470635 156.229907 l
228.688193 165.53681 l
228.905751 152.793846 l
229.123309 166.192542 l
229.340867 165.548615 l
229.558425 152.566506 l
229.775983 176.086762 l
229.993541 154.698341 l
230.211099 164.0303 l
230.428657 164.251747 l
230.646215 133.577804 l
230.863773 172.854866 l
231.081331 135.528473 l
231.298889 179.817377 l
231.516447 182.952113 l
231.734005 201.856355 l
231.951563 203.007883 l
232.169121 216.301713 l
232.386679 189.17917 l
232.604237 193.212028 l
232.821795 168.464253 l
233.039353 189.459422 l
233.256911 187.657637 l
233.474469 207.604321 l
233.692027 199.30512 l
233.909585 198.578635 l
234.127143 173.806154 l
234.344701 167.890989 l
234.562259 131.213174 l
234.779817 178.659252 l
234.997375 107.470018 l
235.214933 193.496302 l
235.432491 131.936418 l
235.650049 183.824626 l
235.867607 159.396533 l
236.085165 187.880573 l
236.302723 150.040454 l
236.520281 177.731521 l
236.737839 147.634899 l
236.955397 193.545007 l
237.172955 191.442694 l
237.390513 194.646037 l
237.608071 194.089985 l
237.825629 163.253262 l
238.043187 163.723945 l
238.260745 162.875161 l
238.478303 160.861256 l
240.436325 160.848125 l
243.699695 160.848185 l
243.917253 156.173966 l
244.134811 158.554809 l
244.352369 149.627831 l
244.569927 149.678272 l
244.787485 139.245137 l
245.222601 153.177007 l
245.440159 151.690117 l
245.657717 169.092518 l
245.875275 138.962639 l
246.092833 172.732114 l
246.310391 140.368634 l
246.527949 174.758612 l
246.745507 163.926348 l
246.963065 162.473691 l
247.180623 117.720588 l
247.398181 184.34584 l
247.615739 106.818747 l
247.833297 190.734521 l
248.050855 159.295176 l
248.268413 170.424905 l
248.48597 158.99399 l
248.703528 179.693498 l
248.921086 177.37622 l
249.138644 207.780938 l
249.57376 224.170995 l
249.791318 220.296841 l
250.66155 166.564344 l
250.879108 159.867927 l
251.096666 160.839024 l
251.314224 159.568563 l
251.531782 159.548994 l
251.74934 160.837389 l
251.966898 159.564926 l
252.184456 160.834918 l
252.402014 160.851024 l
252.619572 156.922479 l
253.054688 133.167342 l
253.272246 141.970032 l
253.489804 134.061555 l
253.707362 166.497982 l
253.92492 155.288977 l
254.142478 178.709991 l
254.360036 147.936146 l
254.577594 186.09584 l
254.795152 148.567058 l
255.01271 170.812599 l
255.230268 165.660412 l
255.447826 155.371057 l
255.665384 168.617677 l
255.882942 136.594156 l
256.1005 168.745901 l
256.318058 138.635751 l
256.535616 164.101015 l
256.753174 163.229123 l
257.18829 151.023452 l
257.405848 145.455245 l
257.623406 150.619181 l
257.840964 136.283958 l
258.058522 156.37202 l
258.27608 144.949532 l
258.493638 156.324686 l
258.711196 146.848925 l
258.928754 156.101821 l
259.146312 153.039481 l
259.36387 162.106198 l
259.581428 176.671483 l
259.798986 168.394039 l
260.016544 190.406826 l
260.234102 163.196014 l
260.45166 187.654594 l
260.669218 174.709457 l
261.104334 178.254212 l
261.53945 161.186648 l
261.757008 181.254585 l
261.974566 181.969332 l
262.192124 175.044966 l
262.409682 185.230938 l
262.62724 160.483316 l
262.844798 160.998843 l
263.062356 161.091918 l
263.497472 160.85029 l
264.80282 160.848594 l
265.020378 161.516309 l
330.070219 161.516309 l
330.287777 180.893358 l
330.505335 184.954487 l
330.722893 138.62383 l
330.940451 175.272525 l
331.375567 140.932514 l
331.593125 173.113563 l
331.810683 140.402388 l
332.028241 172.754529 l
332.245799 156.730978 l
332.463357 171.495131 l
332.680915 148.824442 l
332.898473 164.996179 l
333.116031 144.723267 l
333.333589 152.75014 l
333.551147 153.552331 l
333.768705 150.700844 l
333.986263 178.953009 l
334.203821 153.154852 l
334.421379 207.897835 l
334.638937 183.553144 l
334.856495 205.252458 l
335.074053 206.21593 l
335.291611 191.401961 l
335.509169 227.582228 l
335.726727 197.29407 l
335.944285 205.142044 l
336.379401 166.50244 l
336.596959 160.934386 l
336.814517 160.785372 l
337.032075 168.805219 l
337.467191 147.254032 l
337.684749 147.362493 l
337.902307 143.681018 l
338.119865 133.970071 l
338.337423 167.436314 l
338.554981 122.924883 l
338.772539 134.668797 l
339.207655 101.628825 l
339.425213 151.044316 l
339.642771 83.719303 l
339.860329 102.501805 l
340.077887 132.113278 l
340.295445 100.535932 l
340.513003 165.523846 l
340.730561 168.842552 l
340.948119 148.283271 l
341.165677 169.243078 l
341.383235 144.887532 l
341.600793 193.008048 l
341.818351 191.266008 l
342.035909 209.492367 l
342.253467 243.556364 l
342.471025 211.145488 l
342.906141 239.371751 l
343.123699 208.321507 l
343.341257 223.601623 l
343.776373 157.648823 l
343.993931 214.429065 l
344.211489 149.170588 l
344.646605 177.928113 l
344.864163 128.231358 l
345.081721 173.741454 l
345.299279 157.687956 l
345.516837 169.156055 l
346.169511 149.597021 l
346.387069 120.504585 l
346.604627 113.28362 l
347.039743 94.907373 l
347.474859 112.203772 l
348.127533 152.150373 l
348.345091 159.072399 l
348.562649 161.449446 l
349.867997 161.537653 l
350.955787 161.492118 l
351.826019 161.49023 l
352.043577 160.849937 l
355.742063 160.804022 l
356.612294 161.56208 l
357.04741 161.51692 l
359.875664 161.515531 l
360.093222 158.326812 l
360.31078 141.03003 l
360.528338 152.999753 l
360.745896 140.790956 l
361.181012 164.004546 l
361.39857 159.348679 l
361.616128 151.863788 l
361.833686 158.412279 l
362.051244 149.216247 l
362.48636 167.891224 l
362.703918 162.819428 l
362.921476 181.661643 l
363.139034 161.082175 l
363.356592 175.487699 l
363.57415 178.198661 l
363.791708 166.583772 l
364.009266 183.676844 l
364.226824 165.825194 l
364.444382 180.265061 l
364.66194 174.113776 l
364.879498 176.619308 l
365.097056 168.677445 l
365.314614 138.560382 l
365.532172 154.234395 l
365.74973 157.24971 l
366.184846 183.286095 l
366.402404 179.24796 l
366.619962 163.026531 l
366.83752 165.148023 l
367.055078 151.257351 l
367.272636 150.111554 l
367.490194 159.797216 l
367.707752 141.692236 l
367.92531 154.182168 l
368.142868 147.405624 l
368.360426 145.509003 l
368.577984 158.719693 l
368.795542 159.637795 l
369.0131 162.732297 l
369.230658 162.117843 l
369.448216 181.852471 l
369.883332 167.807527 l
370.10089 169.660951 l
370.318448 147.981682 l
370.753564 155.450376 l
370.971122 155.074807 l
371.18868 158.804422 l
371.406238 159.43004 l
371.623796 162.67202 l
371.841354 160.229258 l
372.27647 161.78941 l
372.494028 161.24862 l
372.711586 161.751227 l
372.929144 161.319363 l
373.146702 161.6827 l
373.36426 161.327213 l
373.581818 161.286023 l
373.581818 161.286023 l
stroke
grestore
0.800 setlinewidth
0 setlinejoin
[] 0 setdash
0.000 setgray
gsave
54 36 m
54 253.44 l
stroke
grestore
gsave
388.8 36 m
388.8 253.44 l
stroke
grestore
gsave
54 36 m
388.8 36 l
stroke
grestore
gsave
54 253.44 m
388.8 253.44 l
stroke
grestore

end
showpage
