%!PS-Adobe-3.0 EPSF-3.0
%%Title: act__Battery Temperature [C].eps
%%Creator: matplotlib version 2.0.0, http://matplotlib.org/
%%CreationDate: Sun May 14 14:55:02 2017
%%Orientation: portrait
%%BoundingBox: 90 252 522 540
%%EndComments
%%BeginProlog
/mpldict 8 dict def
mpldict begin
/m { moveto } bind def
/l { lineto } bind def
/r { rlineto } bind def
/c { curveto } bind def
/cl { closepath } bind def
/box {
m
1 index 0 r
0 exch r
neg 0 r
cl
} bind def
/clipbox {
box
clip
newpath
} bind def
%!PS-Adobe-3.0 Resource-Font
%%Title: DejaVu Sans
%%Copyright: Copyright (c) 2003 by Bitstream, Inc. All Rights Reserved. Copyright (c) 2006 by Tavmjong Bah. All Rights Reserved. DejaVu changes are in public domain 
%%Creator: Converted from TrueType to type 3 by PPR
25 dict begin
/_d{bind def}bind def
/_m{moveto}_d
/_l{lineto}_d
/_cl{closepath eofill}_d
/_c{curveto}_d
/_sc{7 -1 roll{setcachedevice}{pop pop pop pop pop pop}ifelse}_d
/_e{exec}_d
/FontName /DejaVuSans def
/PaintType 0 def
/FontMatrix[.001 0 0 .001 0 0]def
/FontBBox[-1021 -463 1793 1232]def
/FontType 3 def
/Encoding [ /space /zero /one /two /three /four /six /eight /B /C /T /bracketleft /bracketright /a /e /i /m /p /r /s /t /u /y ] def
/FontInfo 10 dict dup begin
/FamilyName (DejaVu Sans) def
/FullName (DejaVu Sans) def
/Notice (Copyright (c) 2003 by Bitstream, Inc. All Rights Reserved. Copyright (c) 2006 by Tavmjong Bah. All Rights Reserved. DejaVu changes are in public domain ) def
/Weight (Book) def
/Version (Version 2.35) def
/ItalicAngle 0.0 def
/isFixedPitch false def
/UnderlinePosition -130 def
/UnderlineThickness 90 def
end readonly def
/CharStrings 23 dict dup begin
/space{318 0 0 0 0 0 _sc
}_d
/zero{636 0 66 -13 570 742 _sc
318 664 _m
267 664 229 639 203 589 _c
177 539 165 464 165 364 _c
165 264 177 189 203 139 _c
229 89 267 64 318 64 _c
369 64 407 89 433 139 _c
458 189 471 264 471 364 _c
471 464 458 539 433 589 _c
407 639 369 664 318 664 _c
318 742 _m
399 742 461 709 505 645 _c
548 580 570 486 570 364 _c
570 241 548 147 505 83 _c
461 19 399 -13 318 -13 _c
236 -13 173 19 130 83 _c
87 147 66 241 66 364 _c
66 486 87 580 130 645 _c
173 709 236 742 318 742 _c
_cl}_d
/one{636 0 110 0 544 729 _sc
124 83 _m
285 83 _l
285 639 _l
110 604 _l
110 694 _l
284 729 _l
383 729 _l
383 83 _l
544 83 _l
544 0 _l
124 0 _l
124 83 _l
_cl}_d
/two{{636 0 73 0 536 742 _sc
192 83 _m
536 83 _l
536 0 _l
73 0 _l
73 83 _l
110 121 161 173 226 239 _c
290 304 331 346 348 365 _c
380 400 402 430 414 455 _c
426 479 433 504 433 528 _c
433 566 419 598 392 622 _c
365 646 330 659 286 659 _c
255 659 222 653 188 643 _c
154 632 117 616 78 594 _c
78 694 _l
118 710 155 722 189 730 _c
223 738 255 742 284 742 _c
}_e{359 742 419 723 464 685 _c
509 647 532 597 532 534 _c
532 504 526 475 515 449 _c
504 422 484 390 454 354 _c
446 344 420 317 376 272 _c
332 227 271 164 192 83 _c
_cl}_e}_d
/three{{636 0 76 -13 556 742 _sc
406 393 _m
453 383 490 362 516 330 _c
542 298 556 258 556 212 _c
556 140 531 84 482 45 _c
432 6 362 -13 271 -13 _c
240 -13 208 -10 176 -4 _c
144 1 110 10 76 22 _c
76 117 _l
103 101 133 89 166 81 _c
198 73 232 69 268 69 _c
330 69 377 81 409 105 _c
441 129 458 165 458 212 _c
458 254 443 288 413 312 _c
383 336 341 349 287 349 _c
}_e{202 349 _l
202 430 _l
291 430 _l
339 430 376 439 402 459 _c
428 478 441 506 441 543 _c
441 580 427 609 401 629 _c
374 649 336 659 287 659 _c
260 659 231 656 200 650 _c
169 644 135 635 98 623 _c
98 711 _l
135 721 170 729 203 734 _c
235 739 266 742 296 742 _c
370 742 429 725 473 691 _c
517 657 539 611 539 553 _c
539 513 527 479 504 451 _c
481 423 448 403 406 393 _c
_cl}_e}_d
/four{636 0 49 0 580 729 _sc
378 643 _m
129 254 _l
378 254 _l
378 643 _l
352 729 _m
476 729 _l
476 254 _l
580 254 _l
580 172 _l
476 172 _l
476 0 _l
378 0 _l
378 172 _l
49 172 _l
49 267 _l
352 729 _l
_cl}_d
/six{{636 0 70 -13 573 742 _sc
330 404 _m
286 404 251 388 225 358 _c
199 328 186 286 186 234 _c
186 181 199 139 225 109 _c
251 79 286 64 330 64 _c
374 64 409 79 435 109 _c
461 139 474 181 474 234 _c
474 286 461 328 435 358 _c
409 388 374 404 330 404 _c
526 713 _m
526 623 _l
501 635 476 644 451 650 _c
425 656 400 659 376 659 _c
310 659 260 637 226 593 _c
}_e{192 549 172 482 168 394 _c
187 422 211 444 240 459 _c
269 474 301 482 336 482 _c
409 482 467 459 509 415 _c
551 371 573 310 573 234 _c
573 159 550 99 506 54 _c
462 9 403 -13 330 -13 _c
246 -13 181 19 137 83 _c
92 147 70 241 70 364 _c
70 479 97 571 152 639 _c
206 707 280 742 372 742 _c
396 742 421 739 447 735 _c
472 730 498 723 526 713 _c
_cl}_e}_d
/eight{{636 0 68 -13 568 742 _sc
318 346 _m
271 346 234 333 207 308 _c
180 283 167 249 167 205 _c
167 161 180 126 207 101 _c
234 76 271 64 318 64 _c
364 64 401 76 428 102 _c
455 127 469 161 469 205 _c
469 249 455 283 429 308 _c
402 333 365 346 318 346 _c
219 388 _m
177 398 144 418 120 447 _c
96 476 85 511 85 553 _c
85 611 105 657 147 691 _c
188 725 245 742 318 742 _c
}_e{390 742 447 725 489 691 _c
530 657 551 611 551 553 _c
551 511 539 476 515 447 _c
491 418 459 398 417 388 _c
464 377 501 355 528 323 _c
554 291 568 251 568 205 _c
568 134 546 80 503 43 _c
459 5 398 -13 318 -13 _c
237 -13 175 5 132 43 _c
89 80 68 134 68 205 _c
68 251 81 291 108 323 _c
134 355 171 377 219 388 _c
183 544 _m
183 506 194 476 218 455 _c
}_e{242 434 275 424 318 424 _c
360 424 393 434 417 455 _c
441 476 453 506 453 544 _c
453 582 441 611 417 632 _c
393 653 360 664 318 664 _c
275 664 242 653 218 632 _c
194 611 183 582 183 544 _c
_cl}_e}_d
/B{{686 0 98 0 615 729 _sc
197 348 _m
197 81 _l
355 81 _l
408 81 447 92 473 114 _c
498 136 511 169 511 215 _c
511 260 498 293 473 315 _c
447 337 408 348 355 348 _c
197 348 _l
197 648 _m
197 428 _l
343 428 _l
391 428 426 437 450 455 _c
474 473 486 500 486 538 _c
486 574 474 602 450 620 _c
426 638 391 648 343 648 _c
197 648 _l
98 729 _m
350 729 _l
}_e{425 729 483 713 524 682 _c
564 650 585 606 585 549 _c
585 504 574 468 553 442 _c
532 416 502 399 462 393 _c
510 382 548 360 575 327 _c
601 294 615 253 615 204 _c
615 138 592 88 548 53 _c
504 17 441 0 360 0 _c
98 0 _l
98 729 _l
_cl}_e}_d
/C{{698 0 56 -13 644 742 _sc
644 673 _m
644 569 _l
610 599 575 622 537 638 _c
499 653 460 661 418 661 _c
334 661 270 635 226 584 _c
182 533 160 460 160 364 _c
160 268 182 194 226 143 _c
270 92 334 67 418 67 _c
460 67 499 74 537 90 _c
575 105 610 128 644 159 _c
644 56 _l
609 32 572 15 534 4 _c
496 -7 455 -13 412 -13 _c
302 -13 215 20 151 87 _c
}_e{87 154 56 246 56 364 _c
56 481 87 573 151 641 _c
215 708 302 742 412 742 _c
456 742 497 736 535 725 _c
573 713 610 696 644 673 _c
_cl}_e}_d
/T{611 0 -2 0 614 729 _sc
-2 729 _m
614 729 _l
614 646 _l
355 646 _l
355 0 _l
256 0 _l
256 646 _l
-2 646 _l
-2 729 _l
_cl}_d
/bracketleft{390 0 86 -131 293 760 _sc
86 760 _m
293 760 _l
293 690 _l
176 690 _l
176 -61 _l
293 -61 _l
293 -131 _l
86 -131 _l
86 760 _l
_cl}_d
/bracketright{390 0 97 -131 304 760 _sc
304 760 _m
304 -131 _l
97 -131 _l
97 -61 _l
214 -61 _l
214 690 _l
97 690 _l
97 760 _l
304 760 _l
_cl}_d
/a{{613 0 60 -13 522 560 _sc
343 275 _m
270 275 220 266 192 250 _c
164 233 150 205 150 165 _c
150 133 160 107 181 89 _c
202 70 231 61 267 61 _c
317 61 357 78 387 114 _c
417 149 432 196 432 255 _c
432 275 _l
343 275 _l
522 312 _m
522 0 _l
432 0 _l
432 83 _l
411 49 385 25 355 10 _c
325 -5 287 -13 243 -13 _c
187 -13 142 2 109 33 _c
76 64 60 106 60 159 _c
}_e{60 220 80 266 122 298 _c
163 329 224 345 306 345 _c
432 345 _l
432 354 _l
432 395 418 427 391 450 _c
364 472 326 484 277 484 _c
245 484 215 480 185 472 _c
155 464 127 453 100 439 _c
100 522 _l
132 534 164 544 195 550 _c
226 556 256 560 286 560 _c
365 560 424 539 463 498 _c
502 457 522 395 522 312 _c
_cl}_e}_d
/e{{615 0 55 -13 562 560 _sc
562 296 _m
562 252 _l
149 252 _l
153 190 171 142 205 110 _c
238 78 284 62 344 62 _c
378 62 412 66 444 74 _c
476 82 509 95 541 113 _c
541 28 _l
509 14 476 3 442 -3 _c
408 -9 373 -13 339 -13 _c
251 -13 182 12 131 62 _c
80 112 55 181 55 268 _c
55 357 79 428 127 481 _c
175 533 241 560 323 560 _c
397 560 455 536 498 489 _c
}_e{540 441 562 377 562 296 _c
472 322 _m
471 371 457 410 431 440 _c
404 469 368 484 324 484 _c
274 484 234 469 204 441 _c
174 413 156 373 152 322 _c
472 322 _l
_cl}_e}_d
/i{278 0 94 0 184 760 _sc
94 547 _m
184 547 _l
184 0 _l
94 0 _l
94 547 _l
94 760 _m
184 760 _l
184 646 _l
94 646 _l
94 760 _l
_cl}_d
/m{{974 0 91 0 889 560 _sc
520 442 _m
542 482 569 511 600 531 _c
631 550 668 560 711 560 _c
767 560 811 540 842 500 _c
873 460 889 403 889 330 _c
889 0 _l
799 0 _l
799 327 _l
799 379 789 418 771 444 _c
752 469 724 482 686 482 _c
639 482 602 466 575 435 _c
548 404 535 362 535 309 _c
535 0 _l
445 0 _l
445 327 _l
445 379 435 418 417 444 _c
398 469 369 482 331 482 _c
}_e{285 482 248 466 221 435 _c
194 404 181 362 181 309 _c
181 0 _l
91 0 _l
91 547 _l
181 547 _l
181 462 _l
201 495 226 520 255 536 _c
283 552 317 560 357 560 _c
397 560 430 550 458 530 _c
486 510 506 480 520 442 _c
_cl}_e}_d
/p{{635 0 91 -207 580 560 _sc
181 82 _m
181 -207 _l
91 -207 _l
91 547 _l
181 547 _l
181 464 _l
199 496 223 520 252 536 _c
281 552 316 560 356 560 _c
422 560 476 533 518 481 _c
559 428 580 359 580 273 _c
580 187 559 117 518 65 _c
476 13 422 -13 356 -13 _c
316 -13 281 -5 252 10 _c
223 25 199 49 181 82 _c
487 273 _m
487 339 473 390 446 428 _c
418 466 381 485 334 485 _c
}_e{286 485 249 466 222 428 _c
194 390 181 339 181 273 _c
181 207 194 155 222 117 _c
249 79 286 61 334 61 _c
381 61 418 79 446 117 _c
473 155 487 207 487 273 _c
_cl}_e}_d
/r{411 0 91 0 411 560 _sc
411 463 _m
401 469 390 473 378 476 _c
366 478 353 480 339 480 _c
288 480 249 463 222 430 _c
194 397 181 350 181 288 _c
181 0 _l
91 0 _l
91 547 _l
181 547 _l
181 462 _l
199 495 224 520 254 536 _c
284 552 321 560 365 560 _c
371 560 378 559 386 559 _c
393 558 401 557 411 555 _c
411 463 _l
_cl}_d
/s{{521 0 54 -13 472 560 _sc
443 531 _m
443 446 _l
417 458 391 468 364 475 _c
336 481 308 485 279 485 _c
234 485 200 478 178 464 _c
156 450 145 430 145 403 _c
145 382 153 366 169 354 _c
185 342 217 330 265 320 _c
296 313 _l
360 299 405 279 432 255 _c
458 230 472 195 472 151 _c
472 100 452 60 412 31 _c
372 1 316 -13 246 -13 _c
216 -13 186 -10 154 -5 _c
}_e{122 0 89 8 54 20 _c
54 113 _l
87 95 120 82 152 74 _c
184 65 216 61 248 61 _c
290 61 323 68 346 82 _c
368 96 380 117 380 144 _c
380 168 371 187 355 200 _c
339 213 303 226 247 238 _c
216 245 _l
160 257 119 275 95 299 _c
70 323 58 356 58 399 _c
58 450 76 490 112 518 _c
148 546 200 560 268 560 _c
301 560 332 557 362 552 _c
391 547 418 540 443 531 _c
}_e{_cl}_e}_d
/t{392 0 27 0 368 702 _sc
183 702 _m
183 547 _l
368 547 _l
368 477 _l
183 477 _l
183 180 _l
183 135 189 106 201 94 _c
213 81 238 75 276 75 _c
368 75 _l
368 0 _l
276 0 _l
206 0 158 13 132 39 _c
106 65 93 112 93 180 _c
93 477 _l
27 477 _l
27 547 _l
93 547 _l
93 702 _l
183 702 _l
_cl}_d
/u{634 0 85 -13 543 560 _sc
85 216 _m
85 547 _l
175 547 _l
175 219 _l
175 167 185 129 205 103 _c
225 77 255 64 296 64 _c
344 64 383 79 411 110 _c
439 141 453 183 453 237 _c
453 547 _l
543 547 _l
543 0 _l
453 0 _l
453 84 _l
431 50 405 26 377 10 _c
348 -5 315 -13 277 -13 _c
214 -13 166 6 134 45 _c
101 83 85 140 85 216 _c
311 560 _m
311 560 _l
_cl}_d
/y{592 0 30 -207 562 547 _sc
322 -50 _m
296 -114 271 -157 247 -177 _c
223 -197 191 -207 151 -207 _c
79 -207 _l
79 -132 _l
132 -132 _l
156 -132 175 -126 189 -114 _c
203 -102 218 -75 235 -31 _c
251 9 _l
30 547 _l
125 547 _l
296 119 _l
467 547 _l
562 547 _l
322 -50 _l
_cl}_d
end readonly def

/BuildGlyph
 {exch begin
 CharStrings exch
 2 copy known not{pop /.notdef}if
 true 3 1 roll get exec
 end}_d

/BuildChar {
 1 index /Encoding get exch get
 1 index /BuildGlyph get exec
}_d

FontName currentdict end definefont pop
end
%%EndProlog
mpldict begin
90 252 translate
432 288 0 0 clipbox
gsave
0 0 m
432 0 l
432 288 l
0 288 l
cl
1.000 setgray
fill
grestore
gsave
54 36 m
388.8 36 l
388.8 253.44 l
54 253.44 l
cl
1.000 setgray
fill
grestore
0.800 setlinewidth
1 setlinejoin
2 setlinecap
[] 0 setdash
0.690 setgray
gsave
334.8 217.4 54 36 clipbox
69.218182 36 m
69.218182 253.44 l
stroke
grestore
0 setlinecap
0.000 setgray
gsave
/o {
gsave
newpath
translate
0.8 setlinewidth
1 setlinejoin
0 setlinecap
0 0 m
0 -3.5 l

gsave
0.000 setgray
fill
grestore
stroke
grestore
} bind def
69.2182 36 o
grestore
/DejaVuSans findfont
10.000 scalefont
setfont
gsave
66.038494 21.406250 translate
0.000000 rotate
0.000000 0.000000 m /zero glyphshow
grestore
2 setlinecap
0.690 setgray
gsave
334.8 217.4 54 36 clipbox
112.729781 36 m
112.729781 253.44 l
stroke
grestore
0 setlinecap
0.000 setgray
gsave
/o {
gsave
newpath
translate
0.8 setlinewidth
1 setlinejoin
0 setlinecap
0 0 m
0 -3.5 l

gsave
0.000 setgray
fill
grestore
stroke
grestore
} bind def
112.73 36 o
grestore
gsave
103.190719 21.406250 translate
0.000000 rotate
0.000000 0.000000 m /two glyphshow
6.362305 0.000000 m /zero glyphshow
12.724609 0.000000 m /zero glyphshow
grestore
2 setlinecap
0.690 setgray
gsave
334.8 217.4 54 36 clipbox
156.24138 36 m
156.24138 253.44 l
stroke
grestore
0 setlinecap
0.000 setgray
gsave
/o {
gsave
newpath
translate
0.8 setlinewidth
1 setlinejoin
0 setlinecap
0 0 m
0 -3.5 l

gsave
0.000 setgray
fill
grestore
stroke
grestore
} bind def
156.241 36 o
grestore
gsave
146.702318 21.406250 translate
0.000000 rotate
0.000000 0.000000 m /four glyphshow
6.362305 0.000000 m /zero glyphshow
12.724609 0.000000 m /zero glyphshow
grestore
2 setlinecap
0.690 setgray
gsave
334.8 217.4 54 36 clipbox
199.752979 36 m
199.752979 253.44 l
stroke
grestore
0 setlinecap
0.000 setgray
gsave
/o {
gsave
newpath
translate
0.8 setlinewidth
1 setlinejoin
0 setlinecap
0 0 m
0 -3.5 l

gsave
0.000 setgray
fill
grestore
stroke
grestore
} bind def
199.753 36 o
grestore
gsave
190.213917 21.406250 translate
0.000000 rotate
0.000000 0.000000 m /six glyphshow
6.362305 0.000000 m /zero glyphshow
12.724609 0.000000 m /zero glyphshow
grestore
2 setlinecap
0.690 setgray
gsave
334.8 217.4 54 36 clipbox
243.264579 36 m
243.264579 253.44 l
stroke
grestore
0 setlinecap
0.000 setgray
gsave
/o {
gsave
newpath
translate
0.8 setlinewidth
1 setlinejoin
0 setlinecap
0 0 m
0 -3.5 l

gsave
0.000 setgray
fill
grestore
stroke
grestore
} bind def
243.265 36 o
grestore
gsave
233.725516 21.406250 translate
0.000000 rotate
0.000000 0.000000 m /eight glyphshow
6.362305 0.000000 m /zero glyphshow
12.724609 0.000000 m /zero glyphshow
grestore
2 setlinecap
0.690 setgray
gsave
334.8 217.4 54 36 clipbox
286.776178 36 m
286.776178 253.44 l
stroke
grestore
0 setlinecap
0.000 setgray
gsave
/o {
gsave
newpath
translate
0.8 setlinewidth
1 setlinejoin
0 setlinecap
0 0 m
0 -3.5 l

gsave
0.000 setgray
fill
grestore
stroke
grestore
} bind def
286.776 36 o
grestore
gsave
274.057428 21.406250 translate
0.000000 rotate
0.000000 0.000000 m /one glyphshow
6.362305 0.000000 m /zero glyphshow
12.724609 0.000000 m /zero glyphshow
19.086914 0.000000 m /zero glyphshow
grestore
2 setlinecap
0.690 setgray
gsave
334.8 217.4 54 36 clipbox
330.287777 36 m
330.287777 253.44 l
stroke
grestore
0 setlinecap
0.000 setgray
gsave
/o {
gsave
newpath
translate
0.8 setlinewidth
1 setlinejoin
0 setlinecap
0 0 m
0 -3.5 l

gsave
0.000 setgray
fill
grestore
stroke
grestore
} bind def
330.288 36 o
grestore
gsave
317.569027 21.406250 translate
0.000000 rotate
0.000000 0.000000 m /one glyphshow
6.362305 0.000000 m /two glyphshow
12.724609 0.000000 m /zero glyphshow
19.086914 0.000000 m /zero glyphshow
grestore
2 setlinecap
0.690 setgray
gsave
334.8 217.4 54 36 clipbox
373.799376 36 m
373.799376 253.44 l
stroke
grestore
0 setlinecap
0.000 setgray
gsave
/o {
gsave
newpath
translate
0.8 setlinewidth
1 setlinejoin
0 setlinecap
0 0 m
0 -3.5 l

gsave
0.000 setgray
fill
grestore
stroke
grestore
} bind def
373.799 36 o
grestore
gsave
361.080626 21.406250 translate
0.000000 rotate
0.000000 0.000000 m /one glyphshow
6.362305 0.000000 m /four glyphshow
12.724609 0.000000 m /zero glyphshow
19.086914 0.000000 m /zero glyphshow
grestore
gsave
200.892188 7.734375 translate
0.000000 rotate
0.000000 0.000000 m /T glyphshow
6.108398 0.000000 m /i glyphshow
8.886719 0.000000 m /m glyphshow
18.627930 0.000000 m /e glyphshow
24.780273 0.000000 m /space glyphshow
27.958984 0.000000 m /bracketleft glyphshow
31.860352 0.000000 m /s glyphshow
37.070312 0.000000 m /bracketright glyphshow
grestore
2 setlinecap
0.690 setgray
gsave
334.8 217.4 54 36 clipbox
54 69.942329 m
388.8 69.942329 l
stroke
grestore
0 setlinecap
0.000 setgray
gsave
/o {
gsave
newpath
translate
0.8 setlinewidth
1 setlinejoin
0 setlinecap
0 0 m
-3.5 0 l

gsave
0.000 setgray
fill
grestore
stroke
grestore
} bind def
54 69.9423 o
grestore
gsave
34.281250 66.145454 translate
0.000000 rotate
0.000000 0.000000 m /two glyphshow
6.362305 0.000000 m /six glyphshow
grestore
2 setlinecap
0.690 setgray
gsave
334.8 217.4 54 36 clipbox
54 118.059726 m
388.8 118.059726 l
stroke
grestore
0 setlinecap
0.000 setgray
gsave
/o {
gsave
newpath
translate
0.8 setlinewidth
1 setlinejoin
0 setlinecap
0 0 m
-3.5 0 l

gsave
0.000 setgray
fill
grestore
stroke
grestore
} bind def
54 118.06 o
grestore
gsave
34.281250 114.262851 translate
0.000000 rotate
0.000000 0.000000 m /two glyphshow
6.362305 0.000000 m /eight glyphshow
grestore
2 setlinecap
0.690 setgray
gsave
334.8 217.4 54 36 clipbox
54 166.177122 m
388.8 166.177122 l
stroke
grestore
0 setlinecap
0.000 setgray
gsave
/o {
gsave
newpath
translate
0.8 setlinewidth
1 setlinejoin
0 setlinecap
0 0 m
-3.5 0 l

gsave
0.000 setgray
fill
grestore
stroke
grestore
} bind def
54 166.177 o
grestore
gsave
34.281250 162.380247 translate
0.000000 rotate
0.000000 0.000000 m /three glyphshow
6.362305 0.000000 m /zero glyphshow
grestore
2 setlinecap
0.690 setgray
gsave
334.8 217.4 54 36 clipbox
54 214.294519 m
388.8 214.294519 l
stroke
grestore
0 setlinecap
0.000 setgray
gsave
/o {
gsave
newpath
translate
0.8 setlinewidth
1 setlinejoin
0 setlinecap
0 0 m
-3.5 0 l

gsave
0.000 setgray
fill
grestore
stroke
grestore
} bind def
54 214.295 o
grestore
gsave
34.281250 210.497644 translate
0.000000 rotate
0.000000 0.000000 m /three glyphshow
6.362305 0.000000 m /two glyphshow
grestore
gsave
28.203125 82.993437 translate
90.000000 rotate
0.000000 0.000000 m /B glyphshow
6.860352 0.000000 m /a glyphshow
12.988281 0.000000 m /t glyphshow
16.909180 0.000000 m /t glyphshow
20.830078 0.000000 m /e glyphshow
26.982422 0.000000 m /r glyphshow
31.093750 0.000000 m /y glyphshow
37.011719 0.000000 m /space glyphshow
40.190430 0.000000 m /T glyphshow
46.283203 0.000000 m /e glyphshow
52.435547 0.000000 m /m glyphshow
62.176758 0.000000 m /p glyphshow
68.524414 0.000000 m /e glyphshow
74.676758 0.000000 m /r glyphshow
78.788086 0.000000 m /a glyphshow
84.916016 0.000000 m /t glyphshow
88.836914 0.000000 m /u glyphshow
95.174805 0.000000 m /r glyphshow
99.286133 0.000000 m /e glyphshow
105.438477 0.000000 m /space glyphshow
108.617188 0.000000 m /bracketleft glyphshow
112.518555 0.000000 m /C glyphshow
119.500977 0.000000 m /bracketright glyphshow
grestore
1.500 setlinewidth
2 setlinecap
0.122 0.467 0.706 setrgbcolor
gsave
334.8 217.4 54 36 clipbox
69.218182 45.883636 m
72.916668 45.937572 l
73.7869 46.148558 l
74.657132 46.375276 l
75.96248 46.659681 l
76.180038 47.168614 l
76.832712 49.832351 l
77.05027 50.160125 l
77.920502 50.30043 l
78.13806 50.619876 l
79.008292 53.922466 l
79.443408 54.06642 l
80.096082 54.132903 l
81.40143 54.745001 l
83.359452 54.84473 l
83.57701 54.886503 l
83.794568 55.046863 l
84.447242 55.931893 l
84.882358 56.036375 l
86.622821 56.221145 l
88.363285 57.429935 l
88.580843 58.457816 l
88.798401 61.05081 l
89.668633 76.883578 l
89.886191 78.243943 l
90.103749 78.838168 l
90.538865 79.256427 l
90.973981 79.344863 l
97.283163 79.440356 l
97.500721 79.511875 l
97.718279 79.731561 l
98.588511 81.397847 l
99.023627 81.555886 l
100.981649 81.784144 l
101.851881 81.845556 l
102.722113 81.941729 l
103.157229 82.233259 l
104.027461 83.288284 l
104.245019 83.330465 l
104.462577 83.513819 l
104.680135 84.354579 l
104.897693 86.334886 l
105.767925 97.193534 l
105.985483 97.80576 l
106.420599 97.951679 l
106.855715 97.996362 l
107.073273 98.115733 l
107.290831 98.443068 l
107.725947 100.00456 l
108.161063 101.566613 l
108.596179 102.173869 l
109.031295 102.829452 l
109.901527 105.477182 l
110.336643 105.720832 l
112.294665 105.80025 l
112.512223 105.998036 l
116.863383 106.034625 l
117.298499 106.246377 l
118.168731 106.868421 l
119.909195 107.31677 l
120.996985 107.359091 l
121.432101 107.568019 l
122.302333 108.365489 l
122.955007 109.014438 l
123.390123 109.10422 l
123.825239 109.132635 l
124.042797 109.275184 l
124.260355 110.16911 l
124.477913 112.625261 l
125.130587 123.173047 l
125.348145 124.048128 l
125.783261 124.323922 l
126.218377 124.64686 l
126.653493 124.776334 l
127.306167 125.164738 l
129.046631 125.474075 l
129.916863 125.591187 l
131.004653 125.859019 l
135.138255 126.32263 l
140.142089 126.402101 l
141.01232 126.754186 l
141.882552 127.326706 l
142.752784 128.070201 l
143.405458 128.211226 l
144.493248 128.342218 l
144.710806 128.593642 l
145.798596 130.700345 l
147.321502 130.984965 l
148.409292 131.645454 l
150.80243 132.180983 l
152.107778 132.27366 l
153.630684 132.919058 l
154.0658 133.686818 l
154.500916 134.529246 l
154.936032 134.705637 l
158.199402 134.843866 l
160.59254 134.905981 l
161.245214 135.193915 l
161.897888 135.525553 l
164.291026 135.978887 l
165.161258 136.337364 l
166.901722 136.568786 l
167.989512 137.261577 l
169.512418 137.641174 l
170.165092 138.128598 l
170.38265 138.386411 l
170.600208 138.836652 l
170.817766 139.675464 l
171.252882 143.316887 l
172.123114 153.113966 l
172.340672 154.022125 l
172.55823 154.37885 l
172.993346 154.475678 l
173.428462 154.571305 l
173.863578 154.973983 l
174.73381 156.41501 l
175.168926 156.537123 l
175.604042 156.644052 l
176.256716 156.920319 l
177.562064 156.962398 l
183.001014 157.056979 l
183.218572 157.216434 l
183.653688 158.003937 l
184.741478 160.952326 l
185.176594 161.231169 l
186.481942 161.45062 l
186.917058 161.806359 l
187.569732 162.785001 l
188.222406 163.612302 l
188.657522 163.799261 l
189.745312 164.0114 l
190.180428 164.472348 l
190.615544 165.465243 l
191.703334 168.816526 l
192.13845 169.375865 l
192.573566 169.475599 l
193.661356 169.601432 l
194.31403 169.78017 l
195.836935 170.50611 l
196.272051 170.584517 l
197.794957 171.277483 l
198.230073 171.84645 l
198.665189 172.992474 l
199.535421 175.705028 l
203.886581 175.794528 l
207.149951 176.380244 l
207.802625 176.458584 l
208.237741 176.684289 l
208.672857 177.199541 l
209.107973 178.114148 l
209.978205 180.881334 l
210.630879 182.690473 l
211.065995 183.323996 l
211.501111 183.556202 l
212.588901 183.601435 l
213.676691 183.713226 l
213.894249 183.896466 l
214.111807 184.254641 l
214.329365 184.874068 l
214.764481 187.275515 l
215.199597 191.743106 l
215.852271 202.37348 l
216.940061 221.630754 l
217.375177 226.219532 l
217.810293 228.642083 l
218.245409 229.590529 l
218.680525 229.832062 l
220.203431 229.886091 l
224.119475 229.970494 l
233.692027 230.165477 l
234.562259 230.353013 l
235.214933 230.732828 l
235.867607 231.434464 l
236.737839 232.833622 l
238.260745 235.45436 l
239.130977 236.453059 l
240.001209 237.089427 l
241.088999 237.594567 l
242.611905 238.024016 l
243.482137 238.089201 l
360.093222 238.122028 l
361.181012 239.583959 l
361.616128 239.670145 l
362.703918 240.057075 l
364.226824 241.809643 l
365.097056 241.940135 l
365.532172 242.841162 l
366.402404 243.424794 l
367.272636 243.528504 l
373.581818 243.556364 l
373.581818 243.556364 l
stroke
grestore
0.800 setlinewidth
0 setlinejoin
[] 0 setdash
0.000 setgray
gsave
54 36 m
54 253.44 l
stroke
grestore
gsave
388.8 36 m
388.8 253.44 l
stroke
grestore
gsave
54 36 m
388.8 36 l
stroke
grestore
gsave
54 253.44 m
388.8 253.44 l
stroke
grestore

end
showpage
