%!PS-Adobe-3.0 EPSF-3.0
%%Title: act_Ultracapacitor Voltage [V].eps
%%Creator: matplotlib version 2.0.0, http://matplotlib.org/
%%CreationDate: Mon May 15 16:18:57 2017
%%Orientation: portrait
%%BoundingBox: 90 252 522 540
%%EndComments
%%BeginProlog
/mpldict 8 dict def
mpldict begin
/m { moveto } bind def
/l { lineto } bind def
/r { rlineto } bind def
/c { curveto } bind def
/cl { closepath } bind def
/box {
m
1 index 0 r
0 exch r
neg 0 r
cl
} bind def
/clipbox {
box
clip
newpath
} bind def
%!PS-Adobe-3.0 Resource-Font
%%Title: DejaVu Sans
%%Copyright: Copyright (c) 2003 by Bitstream, Inc. All Rights Reserved. Copyright (c) 2006 by Tavmjong Bah. All Rights Reserved. DejaVu changes are in public domain 
%%Creator: Converted from TrueType to type 3 by PPR
25 dict begin
/_d{bind def}bind def
/_m{moveto}_d
/_l{lineto}_d
/_cl{closepath eofill}_d
/_c{curveto}_d
/_sc{7 -1 roll{setcachedevice}{pop pop pop pop pop pop}ifelse}_d
/_e{exec}_d
/FontName /DejaVuSans def
/PaintType 0 def
/FontMatrix[.001 0 0 .001 0 0]def
/FontBBox[-1021 -463 1793 1232]def
/FontType 3 def
/Encoding [ /space /zero /one /two /three /four /six /eight /T /U /V /bracketleft /bracketright /a /c /e /g /i /l /m /o /p /r /s /t ] def
/FontInfo 10 dict dup begin
/FamilyName (DejaVu Sans) def
/FullName (DejaVu Sans) def
/Notice (Copyright (c) 2003 by Bitstream, Inc. All Rights Reserved. Copyright (c) 2006 by Tavmjong Bah. All Rights Reserved. DejaVu changes are in public domain ) def
/Weight (Book) def
/Version (Version 2.35) def
/ItalicAngle 0.0 def
/isFixedPitch false def
/UnderlinePosition -130 def
/UnderlineThickness 90 def
end readonly def
/CharStrings 25 dict dup begin
/space{318 0 0 0 0 0 _sc
}_d
/zero{636 0 66 -13 570 742 _sc
318 664 _m
267 664 229 639 203 589 _c
177 539 165 464 165 364 _c
165 264 177 189 203 139 _c
229 89 267 64 318 64 _c
369 64 407 89 433 139 _c
458 189 471 264 471 364 _c
471 464 458 539 433 589 _c
407 639 369 664 318 664 _c
318 742 _m
399 742 461 709 505 645 _c
548 580 570 486 570 364 _c
570 241 548 147 505 83 _c
461 19 399 -13 318 -13 _c
236 -13 173 19 130 83 _c
87 147 66 241 66 364 _c
66 486 87 580 130 645 _c
173 709 236 742 318 742 _c
_cl}_d
/one{636 0 110 0 544 729 _sc
124 83 _m
285 83 _l
285 639 _l
110 604 _l
110 694 _l
284 729 _l
383 729 _l
383 83 _l
544 83 _l
544 0 _l
124 0 _l
124 83 _l
_cl}_d
/two{{636 0 73 0 536 742 _sc
192 83 _m
536 83 _l
536 0 _l
73 0 _l
73 83 _l
110 121 161 173 226 239 _c
290 304 331 346 348 365 _c
380 400 402 430 414 455 _c
426 479 433 504 433 528 _c
433 566 419 598 392 622 _c
365 646 330 659 286 659 _c
255 659 222 653 188 643 _c
154 632 117 616 78 594 _c
78 694 _l
118 710 155 722 189 730 _c
223 738 255 742 284 742 _c
}_e{359 742 419 723 464 685 _c
509 647 532 597 532 534 _c
532 504 526 475 515 449 _c
504 422 484 390 454 354 _c
446 344 420 317 376 272 _c
332 227 271 164 192 83 _c
_cl}_e}_d
/three{{636 0 76 -13 556 742 _sc
406 393 _m
453 383 490 362 516 330 _c
542 298 556 258 556 212 _c
556 140 531 84 482 45 _c
432 6 362 -13 271 -13 _c
240 -13 208 -10 176 -4 _c
144 1 110 10 76 22 _c
76 117 _l
103 101 133 89 166 81 _c
198 73 232 69 268 69 _c
330 69 377 81 409 105 _c
441 129 458 165 458 212 _c
458 254 443 288 413 312 _c
383 336 341 349 287 349 _c
}_e{202 349 _l
202 430 _l
291 430 _l
339 430 376 439 402 459 _c
428 478 441 506 441 543 _c
441 580 427 609 401 629 _c
374 649 336 659 287 659 _c
260 659 231 656 200 650 _c
169 644 135 635 98 623 _c
98 711 _l
135 721 170 729 203 734 _c
235 739 266 742 296 742 _c
370 742 429 725 473 691 _c
517 657 539 611 539 553 _c
539 513 527 479 504 451 _c
481 423 448 403 406 393 _c
_cl}_e}_d
/four{636 0 49 0 580 729 _sc
378 643 _m
129 254 _l
378 254 _l
378 643 _l
352 729 _m
476 729 _l
476 254 _l
580 254 _l
580 172 _l
476 172 _l
476 0 _l
378 0 _l
378 172 _l
49 172 _l
49 267 _l
352 729 _l
_cl}_d
/six{{636 0 70 -13 573 742 _sc
330 404 _m
286 404 251 388 225 358 _c
199 328 186 286 186 234 _c
186 181 199 139 225 109 _c
251 79 286 64 330 64 _c
374 64 409 79 435 109 _c
461 139 474 181 474 234 _c
474 286 461 328 435 358 _c
409 388 374 404 330 404 _c
526 713 _m
526 623 _l
501 635 476 644 451 650 _c
425 656 400 659 376 659 _c
310 659 260 637 226 593 _c
}_e{192 549 172 482 168 394 _c
187 422 211 444 240 459 _c
269 474 301 482 336 482 _c
409 482 467 459 509 415 _c
551 371 573 310 573 234 _c
573 159 550 99 506 54 _c
462 9 403 -13 330 -13 _c
246 -13 181 19 137 83 _c
92 147 70 241 70 364 _c
70 479 97 571 152 639 _c
206 707 280 742 372 742 _c
396 742 421 739 447 735 _c
472 730 498 723 526 713 _c
_cl}_e}_d
/eight{{636 0 68 -13 568 742 _sc
318 346 _m
271 346 234 333 207 308 _c
180 283 167 249 167 205 _c
167 161 180 126 207 101 _c
234 76 271 64 318 64 _c
364 64 401 76 428 102 _c
455 127 469 161 469 205 _c
469 249 455 283 429 308 _c
402 333 365 346 318 346 _c
219 388 _m
177 398 144 418 120 447 _c
96 476 85 511 85 553 _c
85 611 105 657 147 691 _c
188 725 245 742 318 742 _c
}_e{390 742 447 725 489 691 _c
530 657 551 611 551 553 _c
551 511 539 476 515 447 _c
491 418 459 398 417 388 _c
464 377 501 355 528 323 _c
554 291 568 251 568 205 _c
568 134 546 80 503 43 _c
459 5 398 -13 318 -13 _c
237 -13 175 5 132 43 _c
89 80 68 134 68 205 _c
68 251 81 291 108 323 _c
134 355 171 377 219 388 _c
183 544 _m
183 506 194 476 218 455 _c
}_e{242 434 275 424 318 424 _c
360 424 393 434 417 455 _c
441 476 453 506 453 544 _c
453 582 441 611 417 632 _c
393 653 360 664 318 664 _c
275 664 242 653 218 632 _c
194 611 183 582 183 544 _c
_cl}_e}_d
/T{611 0 -2 0 614 729 _sc
-2 729 _m
614 729 _l
614 646 _l
355 646 _l
355 0 _l
256 0 _l
256 646 _l
-2 646 _l
-2 729 _l
_cl}_d
/U{732 0 87 -13 645 729 _sc
87 729 _m
186 729 _l
186 286 _l
186 208 200 151 228 117 _c
256 83 302 66 366 66 _c
429 66 475 83 503 117 _c
531 151 546 208 546 286 _c
546 729 _l
645 729 _l
645 274 _l
645 178 621 107 574 59 _c
527 11 458 -13 366 -13 _c
274 -13 204 11 157 59 _c
110 107 87 178 87 274 _c
87 729 _l
_cl}_d
/V{684 0 8 0 676 729 _sc
286 0 _m
8 729 _l
111 729 _l
342 115 _l
573 729 _l
676 729 _l
398 0 _l
286 0 _l
_cl}_d
/bracketleft{390 0 86 -131 293 760 _sc
86 760 _m
293 760 _l
293 690 _l
176 690 _l
176 -61 _l
293 -61 _l
293 -131 _l
86 -131 _l
86 760 _l
_cl}_d
/bracketright{390 0 97 -131 304 760 _sc
304 760 _m
304 -131 _l
97 -131 _l
97 -61 _l
214 -61 _l
214 690 _l
97 690 _l
97 760 _l
304 760 _l
_cl}_d
/a{{613 0 60 -13 522 560 _sc
343 275 _m
270 275 220 266 192 250 _c
164 233 150 205 150 165 _c
150 133 160 107 181 89 _c
202 70 231 61 267 61 _c
317 61 357 78 387 114 _c
417 149 432 196 432 255 _c
432 275 _l
343 275 _l
522 312 _m
522 0 _l
432 0 _l
432 83 _l
411 49 385 25 355 10 _c
325 -5 287 -13 243 -13 _c
187 -13 142 2 109 33 _c
76 64 60 106 60 159 _c
}_e{60 220 80 266 122 298 _c
163 329 224 345 306 345 _c
432 345 _l
432 354 _l
432 395 418 427 391 450 _c
364 472 326 484 277 484 _c
245 484 215 480 185 472 _c
155 464 127 453 100 439 _c
100 522 _l
132 534 164 544 195 550 _c
226 556 256 560 286 560 _c
365 560 424 539 463 498 _c
502 457 522 395 522 312 _c
_cl}_e}_d
/c{{550 0 55 -13 488 560 _sc
488 526 _m
488 442 _l
462 456 437 466 411 473 _c
385 480 360 484 334 484 _c
276 484 230 465 198 428 _c
166 391 150 339 150 273 _c
150 206 166 154 198 117 _c
230 80 276 62 334 62 _c
360 62 385 65 411 72 _c
437 79 462 90 488 104 _c
488 21 _l
462 9 436 0 410 -5 _c
383 -10 354 -13 324 -13 _c
242 -13 176 12 128 64 _c
}_e{79 115 55 185 55 273 _c
55 362 79 432 128 483 _c
177 534 244 560 330 560 _c
358 560 385 557 411 551 _c
437 545 463 537 488 526 _c
_cl}_e}_d
/e{{615 0 55 -13 562 560 _sc
562 296 _m
562 252 _l
149 252 _l
153 190 171 142 205 110 _c
238 78 284 62 344 62 _c
378 62 412 66 444 74 _c
476 82 509 95 541 113 _c
541 28 _l
509 14 476 3 442 -3 _c
408 -9 373 -13 339 -13 _c
251 -13 182 12 131 62 _c
80 112 55 181 55 268 _c
55 357 79 428 127 481 _c
175 533 241 560 323 560 _c
397 560 455 536 498 489 _c
}_e{540 441 562 377 562 296 _c
472 322 _m
471 371 457 410 431 440 _c
404 469 368 484 324 484 _c
274 484 234 469 204 441 _c
174 413 156 373 152 322 _c
472 322 _l
_cl}_e}_d
/g{{635 0 55 -207 544 560 _sc
454 280 _m
454 344 440 395 414 431 _c
387 467 349 485 301 485 _c
253 485 215 467 188 431 _c
161 395 148 344 148 280 _c
148 215 161 165 188 129 _c
215 93 253 75 301 75 _c
349 75 387 93 414 129 _c
440 165 454 215 454 280 _c
544 68 _m
544 -24 523 -93 482 -139 _c
440 -184 377 -207 292 -207 _c
260 -207 231 -204 203 -200 _c
175 -195 147 -188 121 -178 _c
}_e{121 -91 _l
147 -105 173 -115 199 -122 _c
225 -129 251 -133 278 -133 _c
336 -133 380 -117 410 -87 _c
439 -56 454 -10 454 52 _c
454 96 _l
435 64 411 40 382 24 _c
353 8 319 0 279 0 _c
211 0 157 25 116 76 _c
75 127 55 195 55 280 _c
55 364 75 432 116 483 _c
157 534 211 560 279 560 _c
319 560 353 552 382 536 _c
411 520 435 496 454 464 _c
454 547 _l
544 547 _l
}_e{544 68 _l
_cl}_e}_d
/i{278 0 94 0 184 760 _sc
94 547 _m
184 547 _l
184 0 _l
94 0 _l
94 547 _l
94 760 _m
184 760 _l
184 646 _l
94 646 _l
94 760 _l
_cl}_d
/l{278 0 94 0 184 760 _sc
94 760 _m
184 760 _l
184 0 _l
94 0 _l
94 760 _l
_cl}_d
/m{{974 0 91 0 889 560 _sc
520 442 _m
542 482 569 511 600 531 _c
631 550 668 560 711 560 _c
767 560 811 540 842 500 _c
873 460 889 403 889 330 _c
889 0 _l
799 0 _l
799 327 _l
799 379 789 418 771 444 _c
752 469 724 482 686 482 _c
639 482 602 466 575 435 _c
548 404 535 362 535 309 _c
535 0 _l
445 0 _l
445 327 _l
445 379 435 418 417 444 _c
398 469 369 482 331 482 _c
}_e{285 482 248 466 221 435 _c
194 404 181 362 181 309 _c
181 0 _l
91 0 _l
91 547 _l
181 547 _l
181 462 _l
201 495 226 520 255 536 _c
283 552 317 560 357 560 _c
397 560 430 550 458 530 _c
486 510 506 480 520 442 _c
_cl}_e}_d
/o{612 0 55 -13 557 560 _sc
306 484 _m
258 484 220 465 192 427 _c
164 389 150 338 150 273 _c
150 207 163 156 191 118 _c
219 80 257 62 306 62 _c
354 62 392 80 420 118 _c
448 156 462 207 462 273 _c
462 337 448 389 420 427 _c
392 465 354 484 306 484 _c
306 560 _m
384 560 445 534 490 484 _c
534 433 557 363 557 273 _c
557 183 534 113 490 63 _c
445 12 384 -13 306 -13 _c
227 -13 165 12 121 63 _c
77 113 55 183 55 273 _c
55 363 77 433 121 484 _c
165 534 227 560 306 560 _c
_cl}_d
/p{{635 0 91 -207 580 560 _sc
181 82 _m
181 -207 _l
91 -207 _l
91 547 _l
181 547 _l
181 464 _l
199 496 223 520 252 536 _c
281 552 316 560 356 560 _c
422 560 476 533 518 481 _c
559 428 580 359 580 273 _c
580 187 559 117 518 65 _c
476 13 422 -13 356 -13 _c
316 -13 281 -5 252 10 _c
223 25 199 49 181 82 _c
487 273 _m
487 339 473 390 446 428 _c
418 466 381 485 334 485 _c
}_e{286 485 249 466 222 428 _c
194 390 181 339 181 273 _c
181 207 194 155 222 117 _c
249 79 286 61 334 61 _c
381 61 418 79 446 117 _c
473 155 487 207 487 273 _c
_cl}_e}_d
/r{411 0 91 0 411 560 _sc
411 463 _m
401 469 390 473 378 476 _c
366 478 353 480 339 480 _c
288 480 249 463 222 430 _c
194 397 181 350 181 288 _c
181 0 _l
91 0 _l
91 547 _l
181 547 _l
181 462 _l
199 495 224 520 254 536 _c
284 552 321 560 365 560 _c
371 560 378 559 386 559 _c
393 558 401 557 411 555 _c
411 463 _l
_cl}_d
/s{{521 0 54 -13 472 560 _sc
443 531 _m
443 446 _l
417 458 391 468 364 475 _c
336 481 308 485 279 485 _c
234 485 200 478 178 464 _c
156 450 145 430 145 403 _c
145 382 153 366 169 354 _c
185 342 217 330 265 320 _c
296 313 _l
360 299 405 279 432 255 _c
458 230 472 195 472 151 _c
472 100 452 60 412 31 _c
372 1 316 -13 246 -13 _c
216 -13 186 -10 154 -5 _c
}_e{122 0 89 8 54 20 _c
54 113 _l
87 95 120 82 152 74 _c
184 65 216 61 248 61 _c
290 61 323 68 346 82 _c
368 96 380 117 380 144 _c
380 168 371 187 355 200 _c
339 213 303 226 247 238 _c
216 245 _l
160 257 119 275 95 299 _c
70 323 58 356 58 399 _c
58 450 76 490 112 518 _c
148 546 200 560 268 560 _c
301 560 332 557 362 552 _c
391 547 418 540 443 531 _c
}_e{_cl}_e}_d
/t{392 0 27 0 368 702 _sc
183 702 _m
183 547 _l
368 547 _l
368 477 _l
183 477 _l
183 180 _l
183 135 189 106 201 94 _c
213 81 238 75 276 75 _c
368 75 _l
368 0 _l
276 0 _l
206 0 158 13 132 39 _c
106 65 93 112 93 180 _c
93 477 _l
27 477 _l
27 547 _l
93 547 _l
93 702 _l
183 702 _l
_cl}_d
end readonly def

/BuildGlyph
 {exch begin
 CharStrings exch
 2 copy known not{pop /.notdef}if
 true 3 1 roll get exec
 end}_d

/BuildChar {
 1 index /Encoding get exch get
 1 index /BuildGlyph get exec
}_d

FontName currentdict end definefont pop
end
%%EndProlog
mpldict begin
90 252 translate
432 288 0 0 clipbox
gsave
0 0 m
432 0 l
432 288 l
0 288 l
cl
1.000 setgray
fill
grestore
gsave
54 36 m
388.8 36 l
388.8 253.44 l
54 253.44 l
cl
1.000 setgray
fill
grestore
0.800 setlinewidth
1 setlinejoin
2 setlinecap
[] 0 setdash
0.690 setgray
gsave
334.8 217.4 54 36 clipbox
69.218182 36 m
69.218182 253.44 l
stroke
grestore
0 setlinecap
0.000 setgray
gsave
/o {
gsave
newpath
translate
0.8 setlinewidth
1 setlinejoin
0 setlinecap
0 0 m
0 -3.5 l

gsave
0.000 setgray
fill
grestore
stroke
grestore
} bind def
69.2182 36 o
grestore
/DejaVuSans findfont
10.000 scalefont
setfont
gsave
66.038494 21.406250 translate
0.000000 rotate
0.000000 0.000000 m /zero glyphshow
grestore
2 setlinecap
0.690 setgray
gsave
334.8 217.4 54 36 clipbox
112.729781 36 m
112.729781 253.44 l
stroke
grestore
0 setlinecap
0.000 setgray
gsave
/o {
gsave
newpath
translate
0.8 setlinewidth
1 setlinejoin
0 setlinecap
0 0 m
0 -3.5 l

gsave
0.000 setgray
fill
grestore
stroke
grestore
} bind def
112.73 36 o
grestore
gsave
103.190719 21.406250 translate
0.000000 rotate
0.000000 0.000000 m /two glyphshow
6.362305 0.000000 m /zero glyphshow
12.724609 0.000000 m /zero glyphshow
grestore
2 setlinecap
0.690 setgray
gsave
334.8 217.4 54 36 clipbox
156.24138 36 m
156.24138 253.44 l
stroke
grestore
0 setlinecap
0.000 setgray
gsave
/o {
gsave
newpath
translate
0.8 setlinewidth
1 setlinejoin
0 setlinecap
0 0 m
0 -3.5 l

gsave
0.000 setgray
fill
grestore
stroke
grestore
} bind def
156.241 36 o
grestore
gsave
146.702318 21.406250 translate
0.000000 rotate
0.000000 0.000000 m /four glyphshow
6.362305 0.000000 m /zero glyphshow
12.724609 0.000000 m /zero glyphshow
grestore
2 setlinecap
0.690 setgray
gsave
334.8 217.4 54 36 clipbox
199.752979 36 m
199.752979 253.44 l
stroke
grestore
0 setlinecap
0.000 setgray
gsave
/o {
gsave
newpath
translate
0.8 setlinewidth
1 setlinejoin
0 setlinecap
0 0 m
0 -3.5 l

gsave
0.000 setgray
fill
grestore
stroke
grestore
} bind def
199.753 36 o
grestore
gsave
190.213917 21.406250 translate
0.000000 rotate
0.000000 0.000000 m /six glyphshow
6.362305 0.000000 m /zero glyphshow
12.724609 0.000000 m /zero glyphshow
grestore
2 setlinecap
0.690 setgray
gsave
334.8 217.4 54 36 clipbox
243.264579 36 m
243.264579 253.44 l
stroke
grestore
0 setlinecap
0.000 setgray
gsave
/o {
gsave
newpath
translate
0.8 setlinewidth
1 setlinejoin
0 setlinecap
0 0 m
0 -3.5 l

gsave
0.000 setgray
fill
grestore
stroke
grestore
} bind def
243.265 36 o
grestore
gsave
233.725516 21.406250 translate
0.000000 rotate
0.000000 0.000000 m /eight glyphshow
6.362305 0.000000 m /zero glyphshow
12.724609 0.000000 m /zero glyphshow
grestore
2 setlinecap
0.690 setgray
gsave
334.8 217.4 54 36 clipbox
286.776178 36 m
286.776178 253.44 l
stroke
grestore
0 setlinecap
0.000 setgray
gsave
/o {
gsave
newpath
translate
0.8 setlinewidth
1 setlinejoin
0 setlinecap
0 0 m
0 -3.5 l

gsave
0.000 setgray
fill
grestore
stroke
grestore
} bind def
286.776 36 o
grestore
gsave
274.057428 21.406250 translate
0.000000 rotate
0.000000 0.000000 m /one glyphshow
6.362305 0.000000 m /zero glyphshow
12.724609 0.000000 m /zero glyphshow
19.086914 0.000000 m /zero glyphshow
grestore
2 setlinecap
0.690 setgray
gsave
334.8 217.4 54 36 clipbox
330.287777 36 m
330.287777 253.44 l
stroke
grestore
0 setlinecap
0.000 setgray
gsave
/o {
gsave
newpath
translate
0.8 setlinewidth
1 setlinejoin
0 setlinecap
0 0 m
0 -3.5 l

gsave
0.000 setgray
fill
grestore
stroke
grestore
} bind def
330.288 36 o
grestore
gsave
317.569027 21.406250 translate
0.000000 rotate
0.000000 0.000000 m /one glyphshow
6.362305 0.000000 m /two glyphshow
12.724609 0.000000 m /zero glyphshow
19.086914 0.000000 m /zero glyphshow
grestore
2 setlinecap
0.690 setgray
gsave
334.8 217.4 54 36 clipbox
373.799376 36 m
373.799376 253.44 l
stroke
grestore
0 setlinecap
0.000 setgray
gsave
/o {
gsave
newpath
translate
0.8 setlinewidth
1 setlinejoin
0 setlinecap
0 0 m
0 -3.5 l

gsave
0.000 setgray
fill
grestore
stroke
grestore
} bind def
373.799 36 o
grestore
gsave
361.080626 21.406250 translate
0.000000 rotate
0.000000 0.000000 m /one glyphshow
6.362305 0.000000 m /four glyphshow
12.724609 0.000000 m /zero glyphshow
19.086914 0.000000 m /zero glyphshow
grestore
gsave
200.892188 7.734375 translate
0.000000 rotate
0.000000 0.000000 m /T glyphshow
6.108398 0.000000 m /i glyphshow
8.886719 0.000000 m /m glyphshow
18.627930 0.000000 m /e glyphshow
24.780273 0.000000 m /space glyphshow
27.958984 0.000000 m /bracketleft glyphshow
31.860352 0.000000 m /s glyphshow
37.070312 0.000000 m /bracketright glyphshow
grestore
2 setlinecap
0.690 setgray
gsave
334.8 217.4 54 36 clipbox
54 75.634306 m
388.8 75.634306 l
stroke
grestore
0 setlinecap
0.000 setgray
gsave
/o {
gsave
newpath
translate
0.8 setlinewidth
1 setlinejoin
0 setlinecap
0 0 m
-3.5 0 l

gsave
0.000 setgray
fill
grestore
stroke
grestore
} bind def
54 75.6343 o
grestore
gsave
27.921875 71.837431 translate
0.000000 rotate
0.000000 0.000000 m /two glyphshow
6.362305 0.000000 m /two glyphshow
12.724609 0.000000 m /zero glyphshow
grestore
2 setlinecap
0.690 setgray
gsave
334.8 217.4 54 36 clipbox
54 117.475466 m
388.8 117.475466 l
stroke
grestore
0 setlinecap
0.000 setgray
gsave
/o {
gsave
newpath
translate
0.8 setlinewidth
1 setlinejoin
0 setlinecap
0 0 m
-3.5 0 l

gsave
0.000 setgray
fill
grestore
stroke
grestore
} bind def
54 117.475 o
grestore
gsave
27.921875 113.678591 translate
0.000000 rotate
0.000000 0.000000 m /two glyphshow
6.362305 0.000000 m /four glyphshow
12.724609 0.000000 m /zero glyphshow
grestore
2 setlinecap
0.690 setgray
gsave
334.8 217.4 54 36 clipbox
54 159.316627 m
388.8 159.316627 l
stroke
grestore
0 setlinecap
0.000 setgray
gsave
/o {
gsave
newpath
translate
0.8 setlinewidth
1 setlinejoin
0 setlinecap
0 0 m
-3.5 0 l

gsave
0.000 setgray
fill
grestore
stroke
grestore
} bind def
54 159.317 o
grestore
gsave
27.921875 155.519752 translate
0.000000 rotate
0.000000 0.000000 m /two glyphshow
6.362305 0.000000 m /six glyphshow
12.724609 0.000000 m /zero glyphshow
grestore
2 setlinecap
0.690 setgray
gsave
334.8 217.4 54 36 clipbox
54 201.157787 m
388.8 201.157787 l
stroke
grestore
0 setlinecap
0.000 setgray
gsave
/o {
gsave
newpath
translate
0.8 setlinewidth
1 setlinejoin
0 setlinecap
0 0 m
-3.5 0 l

gsave
0.000 setgray
fill
grestore
stroke
grestore
} bind def
54 201.158 o
grestore
gsave
27.921875 197.360912 translate
0.000000 rotate
0.000000 0.000000 m /two glyphshow
6.362305 0.000000 m /eight glyphshow
12.724609 0.000000 m /zero glyphshow
grestore
2 setlinecap
0.690 setgray
gsave
334.8 217.4 54 36 clipbox
54 242.998947 m
388.8 242.998947 l
stroke
grestore
0 setlinecap
0.000 setgray
gsave
/o {
gsave
newpath
translate
0.8 setlinewidth
1 setlinejoin
0 setlinecap
0 0 m
-3.5 0 l

gsave
0.000 setgray
fill
grestore
stroke
grestore
} bind def
54 242.999 o
grestore
gsave
27.921875 239.202072 translate
0.000000 rotate
0.000000 0.000000 m /three glyphshow
6.362305 0.000000 m /zero glyphshow
12.724609 0.000000 m /zero glyphshow
grestore
gsave
21.843750 79.657500 translate
90.000000 rotate
0.000000 0.000000 m /U glyphshow
7.319336 0.000000 m /l glyphshow
10.097656 0.000000 m /t glyphshow
14.018555 0.000000 m /r glyphshow
18.129883 0.000000 m /a glyphshow
24.257812 0.000000 m /c glyphshow
29.755859 0.000000 m /a glyphshow
35.883789 0.000000 m /p glyphshow
42.231445 0.000000 m /a glyphshow
48.359375 0.000000 m /c glyphshow
53.857422 0.000000 m /i glyphshow
56.635742 0.000000 m /t glyphshow
60.556641 0.000000 m /o glyphshow
66.674805 0.000000 m /r glyphshow
70.786133 0.000000 m /space glyphshow
73.964844 0.000000 m /V glyphshow
80.805664 0.000000 m /o glyphshow
86.923828 0.000000 m /l glyphshow
89.702148 0.000000 m /t glyphshow
93.623047 0.000000 m /a glyphshow
99.750977 0.000000 m /g glyphshow
106.098633 0.000000 m /e glyphshow
112.250977 0.000000 m /space glyphshow
115.429688 0.000000 m /bracketleft glyphshow
119.331055 0.000000 m /V glyphshow
126.171875 0.000000 m /bracketright glyphshow
grestore
1.500 setlinewidth
2 setlinecap
0.122 0.467 0.706 setrgbcolor
gsave
334.8 217.4 54 36 clipbox
69.218182 170.824477 m
69.43574 168.968385 l
69.653298 183.193687 l
69.870856 179.66329 l
70.088414 181.602151 l
70.305972 181.480407 l
70.52353 182.911819 l
70.741088 182.825934 l
70.958646 184.844497 l
71.176204 183.874009 l
71.393762 183.661004 l
71.828878 176.527064 l
72.263994 163.044108 l
72.481552 162.792323 l
72.69911 158.442476 l
72.916668 163.207554 l
73.351784 166.489525 l
73.569342 166.642717 l
73.7869 161.658036 l
74.004458 160.105706 l
74.222016 136.033724 l
74.439574 149.031855 l
74.657132 128.819824 l
74.87469 141.064154 l
75.092248 139.565105 l
75.527364 133.985787 l
75.96248 136.483528 l
76.397596 147.884673 l
76.615154 143.36454 l
76.832712 154.690489 l
77.05027 144.038385 l
77.267828 152.262452 l
77.485386 149.309918 l
77.702944 148.825563 l
77.920502 152.818996 l
78.13806 154.221141 l
78.355618 163.28753 l
78.573176 165.491147 l
78.790734 169.45656 l
79.008292 171.364788 l
79.22585 170.917756 l
79.443408 171.685397 l
79.878524 181.809843 l
80.096082 184.535203 l
80.31364 191.111046 l
80.531198 187.607601 l
80.748756 190.310767 l
80.966314 191.562697 l
81.183872 190.275625 l
81.40143 192.098322 l
81.618988 191.631336 l
81.836546 190.814267 l
82.054104 187.45178 l
82.271662 186.463525 l
82.48922 184.828629 l
82.706778 182.1261 l
82.924336 184.098306 l
83.359452 177.387634 l
83.57701 176.513773 l
83.794568 170.779901 l
84.012126 169.518869 l
84.447242 180.756777 l
84.882358 208.874856 l
85.317474 225.360437 l
85.535032 228.873914 l
85.75259 230.203862 l
85.970148 233.510222 l
86.187706 234.053174 l
86.405263 237.867333 l
86.622821 239.072177 l
86.840379 241.342138 l
87.275495 232.634615 l
87.493053 234.391304 l
87.710611 227.653631 l
87.928169 236.123475 l
88.145727 230.114678 l
88.363285 230.380331 l
89.451075 169.696108 l
89.668633 173.140116 l
89.886191 159.31784 l
90.103749 165.737896 l
90.321307 155.475579 l
90.538865 160.145788 l
90.756423 160.238681 l
91.191539 159.184073 l
91.409097 162.606716 l
91.626655 158.51012 l
91.844213 160.427534 l
92.279329 154.971338 l
92.496887 158.595135 l
92.714445 155.617335 l
92.932003 157.714613 l
93.149561 156.544392 l
93.367119 153.454337 l
93.584677 145.551953 l
93.802235 148.940542 l
94.019793 132.87173 l
94.237351 145.444025 l
94.454909 135.124629 l
94.672467 139.865716 l
94.890025 139.772463 l
95.107583 132.909516 l
95.325141 136.320283 l
95.542699 133.810261 l
95.760257 132.859967 l
96.195373 137.095565 l
96.412931 137.154696 l
96.630489 140.44229 l
96.848047 140.956018 l
97.065605 142.874931 l
97.283163 141.752265 l
98.153395 153.013993 l
98.370953 155.610279 l
98.588511 156.828173 l
98.806069 150.235389 l
99.458743 143.598428 l
99.676301 147.715426 l
99.893859 148.394597 l
100.111417 148.654891 l
100.328975 153.261302 l
100.764091 169.550975 l
100.981649 182.248933 l
101.634323 194.040748 l
101.851881 192.141729 l
102.069439 194.056591 l
102.286997 192.492316 l
102.504555 193.119197 l
102.722113 196.173496 l
102.939671 192.811352 l
103.157229 196.477231 l
103.374787 178.085966 l
103.592345 193.196873 l
103.809903 175.430259 l
104.027461 187.83428 l
104.245019 179.196168 l
104.462577 175.957951 l
105.332809 117.904005 l
105.550367 109.513814 l
105.767925 108.708713 l
105.985483 105.21209 l
106.203041 104.468785 l
106.420599 108.850796 l
106.638157 104.943779 l
106.855715 108.127417 l
107.073273 109.571197 l
107.508389 121.085504 l
107.725947 128.842746 l
107.943505 127.649454 l
108.161063 127.987024 l
108.596179 125.152421 l
108.813737 116.039837 l
109.031295 132.784391 l
109.248853 118.01685 l
109.683969 141.540706 l
109.901527 134.04321 l
110.119085 155.844619 l
110.336643 149.138558 l
110.554201 159.833108 l
110.771759 156.679476 l
110.989317 158.34406 l
111.206875 156.925707 l
111.424433 154.120455 l
111.641991 157.648578 l
111.859549 145.879108 l
112.077107 149.348285 l
112.294665 150.292845 l
112.512223 165.557807 l
112.729781 153.231075 l
112.947339 149.638002 l
113.164897 150.724555 l
113.382455 147.152028 l
113.600013 145.477758 l
113.817571 140.396268 l
114.035129 144.545247 l
114.252687 137.753553 l
114.470245 146.078971 l
114.687803 137.612006 l
114.905361 138.025418 l
115.122919 132.729294 l
115.340477 135.651961 l
115.558035 135.619014 l
115.775593 138.30029 l
115.993151 136.672417 l
116.210709 136.657633 l
116.645825 133.273244 l
116.863383 134.627139 l
117.080941 140.482744 l
117.298499 131.686862 l
117.516057 139.071758 l
117.733615 131.364374 l
117.951173 131.7709 l
118.168731 134.450747 l
118.603847 132.351632 l
118.821405 133.842541 l
119.038963 131.134185 l
119.256521 133.196908 l
119.474079 131.785915 l
119.691637 136.205787 l
119.909195 135.928572 l
120.344311 111.671125 l
120.561869 83.050701 l
120.779427 90.136091 l
120.996985 87.370116 l
121.432101 107.58919 l
121.649659 105.696989 l
121.867217 104.872519 l
122.084775 107.584875 l
122.302333 108.540732 l
122.737449 111.692845 l
122.955007 111.2136 l
123.172565 109.980344 l
123.390123 106.643125 l
123.607681 106.073819 l
123.825239 104.172685 l
124.260355 113.984518 l
124.913029 145.959478 l
125.130587 151.446536 l
125.348145 145.033972 l
125.565703 143.817289 l
125.783261 136.725291 l
126.000819 136.78413 l
126.218377 134.800614 l
126.435935 135.201503 l
127.088609 139.852775 l
127.306167 139.096961 l
127.523725 139.73002 l
127.741283 138.100398 l
127.958841 140.994135 l
128.176399 139.995273 l
128.393957 142.483598 l
128.611515 138.261308 l
128.829073 140.495351 l
129.046631 136.443378 l
129.264189 139.8925 l
129.481747 137.197293 l
129.699305 140.001376 l
129.916863 137.823577 l
130.134421 139.780587 l
130.351979 137.531412 l
130.569537 138.128371 l
130.787095 136.044802 l
131.222211 137.838924 l
131.439769 138.62706 l
131.874885 147.86844 l
132.527559 174.481564 l
132.745117 174.232793 l
132.962675 178.145908 l
133.180233 163.672722 l
133.397791 172.447474 l
133.615349 166.377889 l
133.832907 164.509839 l
134.050465 173.221856 l
134.268023 173.431294 l
134.485581 173.96661 l
134.703139 172.402121 l
134.920697 173.782607 l
135.138255 170.659111 l
135.355813 173.186603 l
135.573371 170.911353 l
135.790929 167.445321 l
136.008487 169.578966 l
136.226045 165.722289 l
136.443603 167.100637 l
136.661161 164.690458 l
136.878719 158.01013 l
137.096277 161.841227 l
137.313835 154.236235 l
137.531393 158.963376 l
137.748951 154.755491 l
137.966509 154.223861 l
138.184067 143.819774 l
138.401625 150.959735 l
138.619183 138.052579 l
138.836741 148.332716 l
139.054299 145.320616 l
139.489415 147.073721 l
139.924531 143.204525 l
140.577204 159.458985 l
141.01232 174.083883 l
141.229878 172.445972 l
141.447436 182.828713 l
141.664994 175.097109 l
141.882552 183.639851 l
142.10011 179.181088 l
142.317668 184.784465 l
142.535226 186.600645 l
142.752784 189.449819 l
142.970342 182.422795 l
143.1879 184.735812 l
143.405458 178.72337 l
143.623016 177.999108 l
143.840574 179.675579 l
144.058132 177.417904 l
144.27569 178.59811 l
144.493248 169.581066 l
144.710806 169.273826 l
144.928364 158.605678 l
145.798596 147.614845 l
146.016154 147.174209 l
146.233712 148.913778 l
146.45127 149.53804 l
146.668828 152.327673 l
147.103944 154.168395 l
147.321502 156.092327 l
147.53906 156.040351 l
147.756618 157.706854 l
147.974176 157.125845 l
148.191734 155.621842 l
148.409292 158.186352 l
148.62685 156.067644 l
148.844408 157.013419 l
149.061966 160.253737 l
149.279524 155.584845 l
149.497082 170.001997 l
149.71464 167.850317 l
149.932198 182.409207 l
150.149756 180.202175 l
150.367314 182.066482 l
150.80243 176.316301 l
151.019988 176.008513 l
151.237546 174.138326 l
151.455104 174.788517 l
151.672662 178.073506 l
151.89022 177.063353 l
152.107778 181.035273 l
152.325336 178.097148 l
152.542894 181.23765 l
152.760452 177.630752 l
152.97801 186.197527 l
153.195568 170.63565 l
153.413126 174.110488 l
153.630684 158.86085 l
153.848242 156.586545 l
154.0658 152.725932 l
154.500916 149.68118 l
154.718474 149.068111 l
154.936032 151.104933 l
155.15359 151.876022 l
155.371148 152.107674 l
155.588706 151.472103 l
155.806264 149.866067 l
156.023822 147.43166 l
156.24138 147.994364 l
156.458938 145.590716 l
156.676496 145.066396 l
156.894054 142.6007 l
157.111612 142.033618 l
157.32917 140.948577 l
157.546728 136.958011 l
157.764286 140.723007 l
157.981844 133.967784 l
158.199402 140.290851 l
158.41696 139.046527 l
158.634518 143.45359 l
158.852076 141.141592 l
159.069634 147.313042 l
159.287192 142.962364 l
159.50475 145.971219 l
160.374982 137.714613 l
160.59254 141.050607 l
160.810098 140.180111 l
161.027656 143.827342 l
161.245214 141.816669 l
161.462772 148.297062 l
161.68033 144.897289 l
161.897888 148.553078 l
162.115446 147.800673 l
162.333004 145.777626 l
162.550562 139.675182 l
162.76812 140.709323 l
162.985678 130.737413 l
163.203236 132.657728 l
163.420794 128.164993 l
163.638352 128.181984 l
163.85591 127.690273 l
164.073468 127.808721 l
164.291026 128.819411 l
164.508584 134.663982 l
164.726142 127.491991 l
164.9437 134.559832 l
165.161258 126.876545 l
165.378816 128.591407 l
165.596374 127.432487 l
165.813932 118.734341 l
166.03149 118.222381 l
166.249048 113.295578 l
166.466606 113.290102 l
166.684164 115.754409 l
166.901722 115.555501 l
167.11928 94.133921 l
167.336838 87.934256 l
167.554396 74.888674 l
167.771954 71.916377 l
167.989512 81.007893 l
168.424628 84.162121 l
168.642186 81.71383 l
169.077302 82.134758 l
169.29486 82.929462 l
169.947534 104.231241 l
170.165092 116.536609 l
170.38265 111.52345 l
170.600208 122.807312 l
170.817766 119.993739 l
171.035324 131.468718 l
171.252882 135.527239 l
171.47044 147.090417 l
171.687998 146.010832 l
171.905556 159.097881 l
172.123114 157.388127 l
172.340672 166.970972 l
172.55823 159.058664 l
172.775788 169.30942 l
172.993346 158.039256 l
173.210904 163.353658 l
173.428462 158.323271 l
173.64602 158.901353 l
173.863578 154.291133 l
174.081136 152.702584 l
174.73381 142.27558 l
174.951368 142.100079 l
175.168926 142.764198 l
175.386484 142.536469 l
175.604042 148.527048 l
175.8216 142.21142 l
176.039158 152.02841 l
176.256716 132.03109 l
176.474274 145.034564 l
176.691832 132.905311 l
176.90939 133.003093 l
177.126948 142.842447 l
177.344506 135.893346 l
177.562064 141.161759 l
177.779622 135.25436 l
178.214738 141.276117 l
178.432296 139.96942 l
178.649854 143.928452 l
178.867412 136.115129 l
179.08497 143.790569 l
179.302528 142.049896 l
179.520086 154.572237 l
180.17276 171.679263 l
180.390318 168.412274 l
180.607876 170.603424 l
180.825434 167.764139 l
181.26055 167.423772 l
181.478108 166.800287 l
181.695666 167.745677 l
181.913224 165.50961 l
182.130782 166.417333 l
182.34834 165.233225 l
182.565898 162.307952 l
182.783456 154.595242 l
183.001014 153.216837 l
183.43613 131.124535 l
183.653688 136.461051 l
183.871246 121.157303 l
184.088804 124.885023 l
184.306362 116.370008 l
184.52392 113.536141 l
184.741478 105.194177 l
184.959036 106.912423 l
185.176594 106.318864 l
185.394152 106.097517 l
185.61171 107.094865 l
185.829268 105.480106 l
186.046826 94.735313 l
186.264384 97.443135 l
186.481942 87.525193 l
186.6995 95.379102 l
186.917058 85.066837 l
187.134616 94.494023 l
187.352174 88.726459 l
187.569732 97.681715 l
187.78729 87.956903 l
188.004848 92.566653 l
188.222406 84.048344 l
188.657522 97.037677 l
188.87508 106.656247 l
189.092638 104.703548 l
189.310196 107.426015 l
189.527754 107.943822 l
189.745312 102.859026 l
189.96287 112.362178 l
190.180428 103.661559 l
190.397986 119.543511 l
190.615544 125.172728 l
191.05066 150.414543 l
191.268218 156.111259 l
191.485776 145.88748 l
191.703334 152.653668 l
192.13845 137.936228 l
192.356008 152.876932 l
192.573566 138.698232 l
192.791124 148.858681 l
193.008682 147.750133 l
193.22624 137.824186 l
193.443798 144.681226 l
193.661356 130.981362 l
193.878914 136.82466 l
194.096472 112.16193 l
194.31403 123.283828 l
194.531587 99.684456 l
194.749145 114.716998 l
194.966703 106.80584 l
195.184261 92.74978 l
195.401819 93.081564 l
195.619377 81.158544 l
195.836935 82.207017 l
196.054493 92.038642 l
196.272051 87.897459 l
196.489609 94.866946 l
196.707167 93.432121 l
197.142283 88.227221 l
197.577399 83.77013 l
197.794957 88.927064 l
198.012515 88.186627 l
198.447631 95.185005 l
198.665189 97.222949 l
198.882747 104.659219 l
199.100305 102.437698 l
199.317863 97.137118 l
199.535421 79.842175 l
199.752979 93.292098 l
199.970537 92.089358 l
200.405653 78.897105 l
200.623211 83.692272 l
200.840769 73.120534 l
201.058327 85.222114 l
201.275885 80.608012 l
201.493443 80.509357 l
201.711001 81.732498 l
201.928559 77.409952 l
202.146117 80.385286 l
202.363675 76.759635 l
202.581233 77.660244 l
202.798791 75.57187 l
203.016349 77.077275 l
203.233907 75.339257 l
203.451465 83.210558 l
203.669023 85.285455 l
204.104139 93.970001 l
204.321697 98.51581 l
204.539255 95.713976 l
204.756813 101.235334 l
204.974371 98.921453 l
205.191929 111.380067 l
205.409487 117.053094 l
205.627045 135.377411 l
205.844603 139.806189 l
206.062161 146.504172 l
206.279719 148.043284 l
206.497277 145.169179 l
206.714835 148.065526 l
206.932393 149.32026 l
207.149951 148.379924 l
207.367509 155.872882 l
207.585067 147.175595 l
207.802625 145.501 l
208.237741 132.070449 l
208.455299 133.422367 l
208.672857 133.23984 l
208.890415 127.973592 l
209.107973 130.192514 l
209.543089 120.893206 l
209.760647 120.546246 l
209.978205 109.741401 l
210.195763 115.446702 l
210.413321 112.744918 l
211.065995 144.528467 l
211.283553 150.497505 l
212.806459 226.462861 l
213.024017 234.335927 l
213.459133 237.61438 l
213.676691 235.826094 l
214.111807 229.040581 l
214.764481 210.905896 l
215.417155 179.718463 l
215.634713 172.933039 l
216.287387 144.698981 l
216.504945 137.224604 l
216.940061 116.614306 l
217.592735 95.585062 l
217.810293 89.38279 l
218.245409 86.814478 l
218.680525 78.193672 l
218.898083 77.240701 l
219.115641 75.273695 l
219.333199 79.570202 l
219.768315 82.000228 l
219.985873 82.009147 l
220.203431 78.844545 l
220.420989 81.340533 l
220.638547 80.340665 l
220.856105 84.233825 l
221.073663 82.578356 l
221.508779 73.121408 l
221.943895 74.150298 l
222.161453 75.626505 l
222.379011 74.286916 l
222.814127 76.099861 l
223.031685 78.217986 l
223.249243 77.15139 l
223.466801 75.067571 l
223.684359 78.200138 l
223.901917 64.317312 l
224.119475 78.083668 l
224.337033 64.648291 l
224.554591 75.023256 l
224.772149 65.863887 l
224.989707 70.17436 l
225.207265 64.863439 l
225.424823 71.204071 l
225.642381 71.365108 l
225.859939 75.783148 l
226.077497 73.406705 l
226.295055 76.446435 l
226.512613 74.749541 l
226.730171 74.71354 l
226.947729 78.353245 l
227.165287 76.550754 l
227.382845 80.43702 l
227.600403 80.246262 l
227.817961 80.330956 l
228.035519 78.876648 l
228.253077 79.955134 l
228.470635 78.746535 l
228.688193 80.896457 l
228.905751 78.083602 l
229.123309 80.769052 l
229.340867 81.62725 l
229.558425 78.638482 l
229.775983 84.211816 l
229.993541 80.521239 l
230.211099 82.156002 l
230.428657 82.702302 l
230.646215 74.012921 l
230.863773 80.737586 l
231.081331 71.580733 l
231.734005 93.845923 l
232.604237 120.381673 l
232.821795 118.446803 l
233.692027 144.901323 l
233.909585 150.567001 l
234.127143 148.715983 l
234.344701 147.831511 l
234.562259 136.4604 l
234.779817 143.446371 l
234.997375 123.238441 l
235.214933 137.074112 l
235.432491 122.005745 l
235.650049 129.649569 l
235.867607 123.6177 l
236.085165 128.905319 l
236.302723 119.352258 l
236.520281 122.536649 l
236.737839 113.363572 l
236.955397 121.535282 l
237.172955 123.620374 l
237.608071 129.822167 l
237.825629 123.602831 l
240.218767 99.518114 l
241.524115 90.485915 l
242.394347 85.544005 l
243.047021 82.706287 l
243.264579 83.627026 l
243.699695 83.384758 l
243.917253 81.859388 l
244.134811 81.606054 l
245.005043 69.139085 l
245.222601 68.410157 l
245.440159 66.451511 l
245.657717 69.898033 l
245.875275 62.219971 l
246.092833 68.275966 l
246.310391 60.586757 l
246.527949 67.084077 l
246.745507 66.230721 l
246.963065 66.231262 l
247.180623 52.960047 l
247.398181 65.035344 l
247.615739 45.883636 l
247.833297 61.176825 l
248.050855 57.029163 l
248.268413 59.970071 l
248.48597 58.151147 l
248.703528 63.912416 l
248.921086 66.511861 l
249.791318 112.030946 l
250.226434 122.218235 l
250.443992 122.462083 l
250.66155 122.421219 l
250.879108 121.324703 l
251.096666 121.317582 l
251.531782 120.4541 l
251.74934 120.484478 l
251.966898 119.979112 l
252.184456 120.00685 l
252.402014 119.88815 l
252.619572 118.587311 l
253.489804 99.227307 l
253.707362 103.994237 l
253.92492 101.530011 l
254.142478 107.437143 l
254.360036 101.309311 l
254.577594 110.311158 l
254.795152 103.493084 l
255.01271 107.828366 l
255.230268 107.965997 l
255.447826 105.626198 l
255.665384 108.491605 l
255.882942 100.158562 l
256.1005 105.299139 l
256.318058 97.56416 l
256.535616 101.066125 l
256.753174 101.272809 l
257.18829 96.855972 l
257.405848 93.280761 l
257.623406 91.920176 l
257.840964 85.63787 l
258.058522 87.098017 l
258.27608 82.733774 l
258.493638 83.147484 l
258.711196 79.359498 l
258.928754 79.480004 l
259.146312 77.578341 l
259.36387 78.765291 l
259.581428 83.247964 l
259.798986 83.508943 l
260.016544 91.36902 l
260.234102 88.432287 l
260.45166 96.084707 l
260.669218 96.934697 l
261.104334 103.099101 l
261.321892 103.666619 l
261.53945 102.552032 l
261.974566 112.314465 l
262.192124 113.942461 l
262.409682 119.455351 l
262.62724 116.320201 l
263.062356 116.221933 l
264.80282 115.235993 l
265.020378 115.235993 l
265.237936 114.803079 l
265.455494 113.812949 l
265.89061 104.535486 l
266.108168 104.232311 l
266.325726 88.897767 l
266.543284 96.226287 l
266.760842 87.084588 l
266.9784 89.939942 l
267.195958 90.490464 l
267.413516 91.932014 l
267.631074 84.859118 l
267.848632 89.848443 l
268.06619 86.625006 l
268.283748 89.304125 l
268.501306 87.916891 l
268.718864 89.071962 l
268.936422 88.24771 l
269.15398 88.532904 l
269.371538 91.651749 l
269.589096 90.923259 l
269.806654 90.785722 l
270.024212 91.237111 l
270.24177 94.640411 l
270.459328 90.233607 l
270.676886 98.237049 l
270.894444 93.026262 l
271.112002 99.735666 l
271.32956 98.630277 l
271.547118 100.815776 l
271.764676 99.995708 l
271.982234 101.176435 l
272.199792 99.278649 l
272.41735 100.174671 l
272.852466 93.25372 l
273.070024 92.938846 l
273.287582 87.828315 l
273.50514 91.010456 l
273.722698 88.143338 l
273.940256 90.31511 l
274.157814 90.77476 l
274.375372 85.615276 l
274.59293 92.004522 l
274.810488 84.327285 l
275.028046 90.36479 l
275.245604 82.743699 l
275.463162 84.757648 l
275.68072 80.898221 l
275.898278 81.351879 l
276.115836 82.477866 l
276.333394 80.77077 l
276.550952 82.112569 l
276.76851 78.550841 l
276.986068 81.783933 l
277.203626 78.826415 l
277.421184 77.920439 l
277.638742 78.178045 l
277.8563 76.886656 l
278.073858 77.031493 l
278.291416 77.32025 l
278.508974 78.332578 l
278.94409 78.901473 l
279.161648 77.047401 l
279.596764 69.107698 l
279.814322 70.912568 l
280.03188 66.049553 l
280.249438 71.773429 l
280.684554 69.074245 l
280.902112 62.346567 l
281.11967 64.487545 l
281.337228 55.266831 l
281.554786 60.197784 l
281.772344 57.458942 l
281.989902 59.3415 l
282.20746 57.488993 l
282.425018 57.6198 l
282.642576 55.109736 l
282.860134 57.369976 l
283.077692 58.383086 l
283.29525 57.435071 l
283.512808 60.16408 l
283.730366 58.625776 l
283.947924 54.247457 l
284.165482 60.989407 l
284.38304 54.644965 l
284.600598 60.788445 l
284.818156 57.503303 l
285.035714 65.975271 l
285.253272 62.913169 l
285.47083 71.211732 l
285.688388 69.043247 l
285.905946 69.280722 l
286.123504 61.094324 l
286.55862 67.717441 l
286.776178 61.945498 l
286.993736 62.523057 l
287.211294 72.206372 l
287.428852 69.691243 l
287.64641 87.316388 l
287.863968 84.033904 l
288.081526 94.486439 l
288.299084 94.906859 l
288.516642 96.952223 l
289.169316 95.817965 l
289.82199 95.446615 l
290.039548 94.945791 l
290.257106 94.972237 l
290.474664 94.471901 l
290.692222 94.49801 l
297.654078 90.616781 l
297.871636 90.114968 l
298.089194 90.140854 l
298.306752 89.641253 l
298.52431 89.666846 l
301.135006 88.21498 l
301.78768 84.797434 l
302.005238 84.022159 l
302.440353 85.319758 l
302.875469 84.830073 l
306.791513 82.648901 l
307.009071 81.898979 l
307.226629 75.169856 l
307.444187 75.960586 l
307.661745 68.451716 l
308.096861 72.706634 l
308.314419 77.932876 l
308.531977 76.556735 l
308.749535 77.179512 l
308.967093 79.329223 l
309.184651 79.261289 l
309.619767 73.916524 l
310.054883 68.807569 l
310.272441 69.65593 l
310.489999 69.950771 l
310.925115 73.160495 l
311.142673 74.179092 l
311.360231 71.801612 l
311.577789 71.485296 l
312.012905 66.460654 l
312.230463 73.249933 l
312.448021 67.832964 l
312.665579 73.260259 l
312.883137 71.781054 l
313.318253 73.953258 l
313.753369 87.906984 l
313.970927 88.665114 l
314.188485 105.23201 l
314.406043 99.346244 l
314.623601 110.369005 l
315.058717 110.209414 l
315.276275 109.54321 l
315.493833 109.745425 l
315.711391 110.1385 l
315.928949 110.822837 l
316.146507 110.506626 l
316.364065 107.686127 l
316.581623 99.982786 l
316.799181 102.469706 l
317.016739 94.64311 l
317.234297 96.702169 l
317.451855 101.574833 l
317.669413 91.966196 l
317.886971 100.622443 l
318.104529 94.62218 l
318.322087 94.944777 l
318.539645 100.403454 l
318.757203 91.88586 l
318.974761 101.066969 l
319.192319 91.481741 l
319.409877 95.891442 l
319.627435 94.579566 l
319.844993 94.569515 l
320.062551 94.403006 l
320.280109 95.95639 l
320.497667 93.500259 l
320.932783 93.792287 l
321.150341 91.193482 l
321.367899 91.608611 l
321.585457 89.601921 l
321.803015 90.049343 l
322.020573 90.050978 l
322.238131 86.431118 l
322.455689 87.568882 l
322.673247 86.598557 l
322.890805 86.155317 l
323.108363 84.666518 l
323.325921 89.656178 l
323.543479 84.095976 l
323.761037 88.489072 l
324.196153 84.435652 l
324.413711 83.956394 l
324.631269 85.817876 l
325.066385 104.072883 l
325.501501 130.51617 l
325.719059 140.634277 l
327.024407 166.098401 l
327.241965 166.962014 l
327.459523 168.579773 l
327.677081 167.972187 l
327.894639 164.511166 l
328.112197 155.3642 l
328.764871 146.465799 l
328.982429 154.953545 l
329.199987 141.137186 l
329.417545 151.445328 l
329.635103 140.472915 l
329.852661 147.484713 l
330.070219 143.139312 l
330.505335 154.000313 l
330.722893 144.300312 l
330.940451 151.19901 l
331.158009 149.375789 l
331.375567 143.28468 l
331.593125 149.195906 l
331.810683 141.471913 l
332.028241 147.401348 l
332.245799 144.528903 l
332.463357 148.27995 l
332.680915 142.97227 l
332.898473 145.998429 l
333.116031 139.851389 l
333.333589 140.188557 l
333.551147 137.482139 l
333.768705 137.0992 l
333.986263 140.767358 l
334.203821 141.590995 l
334.421379 150.135543 l
334.638937 153.729184 l
334.856495 166.065081 l
335.074053 167.640818 l
335.291611 181.687226 l
335.509169 185.955239 l
335.944285 199.297086 l
336.161843 201.509215 l
336.379401 201.920817 l
336.814517 200.923734 l
337.032075 200.801143 l
337.249633 199.897628 l
337.467191 189.716121 l
337.684749 189.623456 l
337.902307 180.379078 l
338.119865 179.618337 l
338.337423 183.712278 l
338.554981 178.666913 l
338.990097 179.523904 l
339.207655 172.726048 l
339.425213 183.686436 l
339.642771 173.173914 l
339.860329 168.254259 l
340.077887 176.160848 l
340.295445 162.388075 l
340.513003 173.872055 l
340.730561 173.809042 l
340.948119 169.896661 l
341.165677 171.812679 l
341.383235 168.124873 l
341.600793 171.617638 l
341.818351 172.044265 l
342.253467 190.171057 l
343.341257 239.976807 l
343.558815 242.739694 l
343.776373 243.556364 l
343.993931 243.453036 l
344.211489 242.884668 l
344.646605 242.561047 l
351.826019 238.573763 l
352.043577 238.713564 l
373.581818 238.713564 l
373.581818 238.713564 l
stroke
grestore
0.800 setlinewidth
0 setlinejoin
[] 0 setdash
0.000 setgray
gsave
54 36 m
54 253.44 l
stroke
grestore
gsave
388.8 36 m
388.8 253.44 l
stroke
grestore
gsave
54 36 m
388.8 36 l
stroke
grestore
gsave
54 253.44 m
388.8 253.44 l
stroke
grestore

end
showpage
