%!PS-Adobe-3.0 EPSF-3.0
%%Title: act__Ultracapacitor Current [A].eps
%%Creator: matplotlib version 2.0.0, http://matplotlib.org/
%%CreationDate: Sun May 14 14:55:03 2017
%%Orientation: portrait
%%BoundingBox: 90 252 522 540
%%EndComments
%%BeginProlog
/mpldict 8 dict def
mpldict begin
/m { moveto } bind def
/l { lineto } bind def
/r { rlineto } bind def
/c { curveto } bind def
/cl { closepath } bind def
/box {
m
1 index 0 r
0 exch r
neg 0 r
cl
} bind def
/clipbox {
box
clip
newpath
} bind def
%!PS-Adobe-3.0 Resource-Font
%%Title: DejaVu Sans
%%Copyright: Copyright (c) 2003 by Bitstream, Inc. All Rights Reserved. Copyright (c) 2006 by Tavmjong Bah. All Rights Reserved. DejaVu changes are in public domain 
%%Creator: Converted from TrueType to type 3 by PPR
25 dict begin
/_d{bind def}bind def
/_m{moveto}_d
/_l{lineto}_d
/_cl{closepath eofill}_d
/_c{curveto}_d
/_sc{7 -1 roll{setcachedevice}{pop pop pop pop pop pop}ifelse}_d
/_e{exec}_d
/FontName /DejaVuSans def
/PaintType 0 def
/FontMatrix[.001 0 0 .001 0 0]def
/FontBBox[-1021 -463 1793 1232]def
/FontType 3 def
/Encoding [ /space /zero /one /two /four /five /six /eight /A /C /T /U /bracketleft /bracketright /a /c /e /i /l /m /n /o /p /r /s /t /u /minus ] def
/FontInfo 10 dict dup begin
/FamilyName (DejaVu Sans) def
/FullName (DejaVu Sans) def
/Notice (Copyright (c) 2003 by Bitstream, Inc. All Rights Reserved. Copyright (c) 2006 by Tavmjong Bah. All Rights Reserved. DejaVu changes are in public domain ) def
/Weight (Book) def
/Version (Version 2.35) def
/ItalicAngle 0.0 def
/isFixedPitch false def
/UnderlinePosition -130 def
/UnderlineThickness 90 def
end readonly def
/CharStrings 28 dict dup begin
/space{318 0 0 0 0 0 _sc
}_d
/zero{636 0 66 -13 570 742 _sc
318 664 _m
267 664 229 639 203 589 _c
177 539 165 464 165 364 _c
165 264 177 189 203 139 _c
229 89 267 64 318 64 _c
369 64 407 89 433 139 _c
458 189 471 264 471 364 _c
471 464 458 539 433 589 _c
407 639 369 664 318 664 _c
318 742 _m
399 742 461 709 505 645 _c
548 580 570 486 570 364 _c
570 241 548 147 505 83 _c
461 19 399 -13 318 -13 _c
236 -13 173 19 130 83 _c
87 147 66 241 66 364 _c
66 486 87 580 130 645 _c
173 709 236 742 318 742 _c
_cl}_d
/one{636 0 110 0 544 729 _sc
124 83 _m
285 83 _l
285 639 _l
110 604 _l
110 694 _l
284 729 _l
383 729 _l
383 83 _l
544 83 _l
544 0 _l
124 0 _l
124 83 _l
_cl}_d
/two{{636 0 73 0 536 742 _sc
192 83 _m
536 83 _l
536 0 _l
73 0 _l
73 83 _l
110 121 161 173 226 239 _c
290 304 331 346 348 365 _c
380 400 402 430 414 455 _c
426 479 433 504 433 528 _c
433 566 419 598 392 622 _c
365 646 330 659 286 659 _c
255 659 222 653 188 643 _c
154 632 117 616 78 594 _c
78 694 _l
118 710 155 722 189 730 _c
223 738 255 742 284 742 _c
}_e{359 742 419 723 464 685 _c
509 647 532 597 532 534 _c
532 504 526 475 515 449 _c
504 422 484 390 454 354 _c
446 344 420 317 376 272 _c
332 227 271 164 192 83 _c
_cl}_e}_d
/four{636 0 49 0 580 729 _sc
378 643 _m
129 254 _l
378 254 _l
378 643 _l
352 729 _m
476 729 _l
476 254 _l
580 254 _l
580 172 _l
476 172 _l
476 0 _l
378 0 _l
378 172 _l
49 172 _l
49 267 _l
352 729 _l
_cl}_d
/five{{636 0 77 -13 549 729 _sc
108 729 _m
495 729 _l
495 646 _l
198 646 _l
198 467 _l
212 472 227 476 241 478 _c
255 480 270 482 284 482 _c
365 482 429 459 477 415 _c
525 370 549 310 549 234 _c
549 155 524 94 475 51 _c
426 8 357 -13 269 -13 _c
238 -13 207 -10 175 -6 _c
143 -1 111 6 77 17 _c
77 116 _l
106 100 136 88 168 80 _c
199 72 232 69 267 69 _c
}_e{323 69 368 83 401 113 _c
433 143 450 183 450 234 _c
450 284 433 324 401 354 _c
368 384 323 399 267 399 _c
241 399 214 396 188 390 _c
162 384 135 375 108 363 _c
108 729 _l
_cl}_e}_d
/six{{636 0 70 -13 573 742 _sc
330 404 _m
286 404 251 388 225 358 _c
199 328 186 286 186 234 _c
186 181 199 139 225 109 _c
251 79 286 64 330 64 _c
374 64 409 79 435 109 _c
461 139 474 181 474 234 _c
474 286 461 328 435 358 _c
409 388 374 404 330 404 _c
526 713 _m
526 623 _l
501 635 476 644 451 650 _c
425 656 400 659 376 659 _c
310 659 260 637 226 593 _c
}_e{192 549 172 482 168 394 _c
187 422 211 444 240 459 _c
269 474 301 482 336 482 _c
409 482 467 459 509 415 _c
551 371 573 310 573 234 _c
573 159 550 99 506 54 _c
462 9 403 -13 330 -13 _c
246 -13 181 19 137 83 _c
92 147 70 241 70 364 _c
70 479 97 571 152 639 _c
206 707 280 742 372 742 _c
396 742 421 739 447 735 _c
472 730 498 723 526 713 _c
_cl}_e}_d
/eight{{636 0 68 -13 568 742 _sc
318 346 _m
271 346 234 333 207 308 _c
180 283 167 249 167 205 _c
167 161 180 126 207 101 _c
234 76 271 64 318 64 _c
364 64 401 76 428 102 _c
455 127 469 161 469 205 _c
469 249 455 283 429 308 _c
402 333 365 346 318 346 _c
219 388 _m
177 398 144 418 120 447 _c
96 476 85 511 85 553 _c
85 611 105 657 147 691 _c
188 725 245 742 318 742 _c
}_e{390 742 447 725 489 691 _c
530 657 551 611 551 553 _c
551 511 539 476 515 447 _c
491 418 459 398 417 388 _c
464 377 501 355 528 323 _c
554 291 568 251 568 205 _c
568 134 546 80 503 43 _c
459 5 398 -13 318 -13 _c
237 -13 175 5 132 43 _c
89 80 68 134 68 205 _c
68 251 81 291 108 323 _c
134 355 171 377 219 388 _c
183 544 _m
183 506 194 476 218 455 _c
}_e{242 434 275 424 318 424 _c
360 424 393 434 417 455 _c
441 476 453 506 453 544 _c
453 582 441 611 417 632 _c
393 653 360 664 318 664 _c
275 664 242 653 218 632 _c
194 611 183 582 183 544 _c
_cl}_e}_d
/A{684 0 8 0 676 729 _sc
342 632 _m
208 269 _l
476 269 _l
342 632 _l
286 729 _m
398 729 _l
676 0 _l
573 0 _l
507 187 _l
178 187 _l
112 0 _l
8 0 _l
286 729 _l
_cl}_d
/C{{698 0 56 -13 644 742 _sc
644 673 _m
644 569 _l
610 599 575 622 537 638 _c
499 653 460 661 418 661 _c
334 661 270 635 226 584 _c
182 533 160 460 160 364 _c
160 268 182 194 226 143 _c
270 92 334 67 418 67 _c
460 67 499 74 537 90 _c
575 105 610 128 644 159 _c
644 56 _l
609 32 572 15 534 4 _c
496 -7 455 -13 412 -13 _c
302 -13 215 20 151 87 _c
}_e{87 154 56 246 56 364 _c
56 481 87 573 151 641 _c
215 708 302 742 412 742 _c
456 742 497 736 535 725 _c
573 713 610 696 644 673 _c
_cl}_e}_d
/T{611 0 -2 0 614 729 _sc
-2 729 _m
614 729 _l
614 646 _l
355 646 _l
355 0 _l
256 0 _l
256 646 _l
-2 646 _l
-2 729 _l
_cl}_d
/U{732 0 87 -13 645 729 _sc
87 729 _m
186 729 _l
186 286 _l
186 208 200 151 228 117 _c
256 83 302 66 366 66 _c
429 66 475 83 503 117 _c
531 151 546 208 546 286 _c
546 729 _l
645 729 _l
645 274 _l
645 178 621 107 574 59 _c
527 11 458 -13 366 -13 _c
274 -13 204 11 157 59 _c
110 107 87 178 87 274 _c
87 729 _l
_cl}_d
/bracketleft{390 0 86 -131 293 760 _sc
86 760 _m
293 760 _l
293 690 _l
176 690 _l
176 -61 _l
293 -61 _l
293 -131 _l
86 -131 _l
86 760 _l
_cl}_d
/bracketright{390 0 97 -131 304 760 _sc
304 760 _m
304 -131 _l
97 -131 _l
97 -61 _l
214 -61 _l
214 690 _l
97 690 _l
97 760 _l
304 760 _l
_cl}_d
/a{{613 0 60 -13 522 560 _sc
343 275 _m
270 275 220 266 192 250 _c
164 233 150 205 150 165 _c
150 133 160 107 181 89 _c
202 70 231 61 267 61 _c
317 61 357 78 387 114 _c
417 149 432 196 432 255 _c
432 275 _l
343 275 _l
522 312 _m
522 0 _l
432 0 _l
432 83 _l
411 49 385 25 355 10 _c
325 -5 287 -13 243 -13 _c
187 -13 142 2 109 33 _c
76 64 60 106 60 159 _c
}_e{60 220 80 266 122 298 _c
163 329 224 345 306 345 _c
432 345 _l
432 354 _l
432 395 418 427 391 450 _c
364 472 326 484 277 484 _c
245 484 215 480 185 472 _c
155 464 127 453 100 439 _c
100 522 _l
132 534 164 544 195 550 _c
226 556 256 560 286 560 _c
365 560 424 539 463 498 _c
502 457 522 395 522 312 _c
_cl}_e}_d
/c{{550 0 55 -13 488 560 _sc
488 526 _m
488 442 _l
462 456 437 466 411 473 _c
385 480 360 484 334 484 _c
276 484 230 465 198 428 _c
166 391 150 339 150 273 _c
150 206 166 154 198 117 _c
230 80 276 62 334 62 _c
360 62 385 65 411 72 _c
437 79 462 90 488 104 _c
488 21 _l
462 9 436 0 410 -5 _c
383 -10 354 -13 324 -13 _c
242 -13 176 12 128 64 _c
}_e{79 115 55 185 55 273 _c
55 362 79 432 128 483 _c
177 534 244 560 330 560 _c
358 560 385 557 411 551 _c
437 545 463 537 488 526 _c
_cl}_e}_d
/e{{615 0 55 -13 562 560 _sc
562 296 _m
562 252 _l
149 252 _l
153 190 171 142 205 110 _c
238 78 284 62 344 62 _c
378 62 412 66 444 74 _c
476 82 509 95 541 113 _c
541 28 _l
509 14 476 3 442 -3 _c
408 -9 373 -13 339 -13 _c
251 -13 182 12 131 62 _c
80 112 55 181 55 268 _c
55 357 79 428 127 481 _c
175 533 241 560 323 560 _c
397 560 455 536 498 489 _c
}_e{540 441 562 377 562 296 _c
472 322 _m
471 371 457 410 431 440 _c
404 469 368 484 324 484 _c
274 484 234 469 204 441 _c
174 413 156 373 152 322 _c
472 322 _l
_cl}_e}_d
/i{278 0 94 0 184 760 _sc
94 547 _m
184 547 _l
184 0 _l
94 0 _l
94 547 _l
94 760 _m
184 760 _l
184 646 _l
94 646 _l
94 760 _l
_cl}_d
/l{278 0 94 0 184 760 _sc
94 760 _m
184 760 _l
184 0 _l
94 0 _l
94 760 _l
_cl}_d
/m{{974 0 91 0 889 560 _sc
520 442 _m
542 482 569 511 600 531 _c
631 550 668 560 711 560 _c
767 560 811 540 842 500 _c
873 460 889 403 889 330 _c
889 0 _l
799 0 _l
799 327 _l
799 379 789 418 771 444 _c
752 469 724 482 686 482 _c
639 482 602 466 575 435 _c
548 404 535 362 535 309 _c
535 0 _l
445 0 _l
445 327 _l
445 379 435 418 417 444 _c
398 469 369 482 331 482 _c
}_e{285 482 248 466 221 435 _c
194 404 181 362 181 309 _c
181 0 _l
91 0 _l
91 547 _l
181 547 _l
181 462 _l
201 495 226 520 255 536 _c
283 552 317 560 357 560 _c
397 560 430 550 458 530 _c
486 510 506 480 520 442 _c
_cl}_e}_d
/n{634 0 91 0 549 560 _sc
549 330 _m
549 0 _l
459 0 _l
459 327 _l
459 379 448 417 428 443 _c
408 469 378 482 338 482 _c
289 482 251 466 223 435 _c
195 404 181 362 181 309 _c
181 0 _l
91 0 _l
91 547 _l
181 547 _l
181 462 _l
202 494 227 519 257 535 _c
286 551 320 560 358 560 _c
420 560 468 540 500 501 _c
532 462 549 405 549 330 _c
_cl}_d
/o{612 0 55 -13 557 560 _sc
306 484 _m
258 484 220 465 192 427 _c
164 389 150 338 150 273 _c
150 207 163 156 191 118 _c
219 80 257 62 306 62 _c
354 62 392 80 420 118 _c
448 156 462 207 462 273 _c
462 337 448 389 420 427 _c
392 465 354 484 306 484 _c
306 560 _m
384 560 445 534 490 484 _c
534 433 557 363 557 273 _c
557 183 534 113 490 63 _c
445 12 384 -13 306 -13 _c
227 -13 165 12 121 63 _c
77 113 55 183 55 273 _c
55 363 77 433 121 484 _c
165 534 227 560 306 560 _c
_cl}_d
/p{{635 0 91 -207 580 560 _sc
181 82 _m
181 -207 _l
91 -207 _l
91 547 _l
181 547 _l
181 464 _l
199 496 223 520 252 536 _c
281 552 316 560 356 560 _c
422 560 476 533 518 481 _c
559 428 580 359 580 273 _c
580 187 559 117 518 65 _c
476 13 422 -13 356 -13 _c
316 -13 281 -5 252 10 _c
223 25 199 49 181 82 _c
487 273 _m
487 339 473 390 446 428 _c
418 466 381 485 334 485 _c
}_e{286 485 249 466 222 428 _c
194 390 181 339 181 273 _c
181 207 194 155 222 117 _c
249 79 286 61 334 61 _c
381 61 418 79 446 117 _c
473 155 487 207 487 273 _c
_cl}_e}_d
/r{411 0 91 0 411 560 _sc
411 463 _m
401 469 390 473 378 476 _c
366 478 353 480 339 480 _c
288 480 249 463 222 430 _c
194 397 181 350 181 288 _c
181 0 _l
91 0 _l
91 547 _l
181 547 _l
181 462 _l
199 495 224 520 254 536 _c
284 552 321 560 365 560 _c
371 560 378 559 386 559 _c
393 558 401 557 411 555 _c
411 463 _l
_cl}_d
/s{{521 0 54 -13 472 560 _sc
443 531 _m
443 446 _l
417 458 391 468 364 475 _c
336 481 308 485 279 485 _c
234 485 200 478 178 464 _c
156 450 145 430 145 403 _c
145 382 153 366 169 354 _c
185 342 217 330 265 320 _c
296 313 _l
360 299 405 279 432 255 _c
458 230 472 195 472 151 _c
472 100 452 60 412 31 _c
372 1 316 -13 246 -13 _c
216 -13 186 -10 154 -5 _c
}_e{122 0 89 8 54 20 _c
54 113 _l
87 95 120 82 152 74 _c
184 65 216 61 248 61 _c
290 61 323 68 346 82 _c
368 96 380 117 380 144 _c
380 168 371 187 355 200 _c
339 213 303 226 247 238 _c
216 245 _l
160 257 119 275 95 299 _c
70 323 58 356 58 399 _c
58 450 76 490 112 518 _c
148 546 200 560 268 560 _c
301 560 332 557 362 552 _c
391 547 418 540 443 531 _c
}_e{_cl}_e}_d
/t{392 0 27 0 368 702 _sc
183 702 _m
183 547 _l
368 547 _l
368 477 _l
183 477 _l
183 180 _l
183 135 189 106 201 94 _c
213 81 238 75 276 75 _c
368 75 _l
368 0 _l
276 0 _l
206 0 158 13 132 39 _c
106 65 93 112 93 180 _c
93 477 _l
27 477 _l
27 547 _l
93 547 _l
93 702 _l
183 702 _l
_cl}_d
/u{634 0 85 -13 543 560 _sc
85 216 _m
85 547 _l
175 547 _l
175 219 _l
175 167 185 129 205 103 _c
225 77 255 64 296 64 _c
344 64 383 79 411 110 _c
439 141 453 183 453 237 _c
453 547 _l
543 547 _l
543 0 _l
453 0 _l
453 84 _l
431 50 405 26 377 10 _c
348 -5 315 -13 277 -13 _c
214 -13 166 6 134 45 _c
101 83 85 140 85 216 _c
311 560 _m
311 560 _l
_cl}_d
/minus{838 0 106 272 732 355 _sc
106 355 _m
732 355 _l
732 272 _l
106 272 _l
106 355 _l
_cl}_d
end readonly def

/BuildGlyph
 {exch begin
 CharStrings exch
 2 copy known not{pop /.notdef}if
 true 3 1 roll get exec
 end}_d

/BuildChar {
 1 index /Encoding get exch get
 1 index /BuildGlyph get exec
}_d

FontName currentdict end definefont pop
end
%%EndProlog
mpldict begin
90 252 translate
432 288 0 0 clipbox
gsave
0 0 m
432 0 l
432 288 l
0 288 l
cl
1.000 setgray
fill
grestore
gsave
54 36 m
388.8 36 l
388.8 253.44 l
54 253.44 l
cl
1.000 setgray
fill
grestore
0.800 setlinewidth
1 setlinejoin
2 setlinecap
[] 0 setdash
0.690 setgray
gsave
334.8 217.4 54 36 clipbox
69.218182 36 m
69.218182 253.44 l
stroke
grestore
0 setlinecap
0.000 setgray
gsave
/o {
gsave
newpath
translate
0.8 setlinewidth
1 setlinejoin
0 setlinecap
0 0 m
0 -3.5 l

gsave
0.000 setgray
fill
grestore
stroke
grestore
} bind def
69.2182 36 o
grestore
/DejaVuSans findfont
10.000 scalefont
setfont
gsave
66.038494 21.406250 translate
0.000000 rotate
0.000000 0.000000 m /zero glyphshow
grestore
2 setlinecap
0.690 setgray
gsave
334.8 217.4 54 36 clipbox
112.729781 36 m
112.729781 253.44 l
stroke
grestore
0 setlinecap
0.000 setgray
gsave
/o {
gsave
newpath
translate
0.8 setlinewidth
1 setlinejoin
0 setlinecap
0 0 m
0 -3.5 l

gsave
0.000 setgray
fill
grestore
stroke
grestore
} bind def
112.73 36 o
grestore
gsave
103.190719 21.406250 translate
0.000000 rotate
0.000000 0.000000 m /two glyphshow
6.362305 0.000000 m /zero glyphshow
12.724609 0.000000 m /zero glyphshow
grestore
2 setlinecap
0.690 setgray
gsave
334.8 217.4 54 36 clipbox
156.24138 36 m
156.24138 253.44 l
stroke
grestore
0 setlinecap
0.000 setgray
gsave
/o {
gsave
newpath
translate
0.8 setlinewidth
1 setlinejoin
0 setlinecap
0 0 m
0 -3.5 l

gsave
0.000 setgray
fill
grestore
stroke
grestore
} bind def
156.241 36 o
grestore
gsave
146.702318 21.406250 translate
0.000000 rotate
0.000000 0.000000 m /four glyphshow
6.362305 0.000000 m /zero glyphshow
12.724609 0.000000 m /zero glyphshow
grestore
2 setlinecap
0.690 setgray
gsave
334.8 217.4 54 36 clipbox
199.752979 36 m
199.752979 253.44 l
stroke
grestore
0 setlinecap
0.000 setgray
gsave
/o {
gsave
newpath
translate
0.8 setlinewidth
1 setlinejoin
0 setlinecap
0 0 m
0 -3.5 l

gsave
0.000 setgray
fill
grestore
stroke
grestore
} bind def
199.753 36 o
grestore
gsave
190.213917 21.406250 translate
0.000000 rotate
0.000000 0.000000 m /six glyphshow
6.362305 0.000000 m /zero glyphshow
12.724609 0.000000 m /zero glyphshow
grestore
2 setlinecap
0.690 setgray
gsave
334.8 217.4 54 36 clipbox
243.264579 36 m
243.264579 253.44 l
stroke
grestore
0 setlinecap
0.000 setgray
gsave
/o {
gsave
newpath
translate
0.8 setlinewidth
1 setlinejoin
0 setlinecap
0 0 m
0 -3.5 l

gsave
0.000 setgray
fill
grestore
stroke
grestore
} bind def
243.265 36 o
grestore
gsave
233.725516 21.406250 translate
0.000000 rotate
0.000000 0.000000 m /eight glyphshow
6.362305 0.000000 m /zero glyphshow
12.724609 0.000000 m /zero glyphshow
grestore
2 setlinecap
0.690 setgray
gsave
334.8 217.4 54 36 clipbox
286.776178 36 m
286.776178 253.44 l
stroke
grestore
0 setlinecap
0.000 setgray
gsave
/o {
gsave
newpath
translate
0.8 setlinewidth
1 setlinejoin
0 setlinecap
0 0 m
0 -3.5 l

gsave
0.000 setgray
fill
grestore
stroke
grestore
} bind def
286.776 36 o
grestore
gsave
274.057428 21.406250 translate
0.000000 rotate
0.000000 0.000000 m /one glyphshow
6.362305 0.000000 m /zero glyphshow
12.724609 0.000000 m /zero glyphshow
19.086914 0.000000 m /zero glyphshow
grestore
2 setlinecap
0.690 setgray
gsave
334.8 217.4 54 36 clipbox
330.287777 36 m
330.287777 253.44 l
stroke
grestore
0 setlinecap
0.000 setgray
gsave
/o {
gsave
newpath
translate
0.8 setlinewidth
1 setlinejoin
0 setlinecap
0 0 m
0 -3.5 l

gsave
0.000 setgray
fill
grestore
stroke
grestore
} bind def
330.288 36 o
grestore
gsave
317.569027 21.406250 translate
0.000000 rotate
0.000000 0.000000 m /one glyphshow
6.362305 0.000000 m /two glyphshow
12.724609 0.000000 m /zero glyphshow
19.086914 0.000000 m /zero glyphshow
grestore
2 setlinecap
0.690 setgray
gsave
334.8 217.4 54 36 clipbox
373.799376 36 m
373.799376 253.44 l
stroke
grestore
0 setlinecap
0.000 setgray
gsave
/o {
gsave
newpath
translate
0.8 setlinewidth
1 setlinejoin
0 setlinecap
0 0 m
0 -3.5 l

gsave
0.000 setgray
fill
grestore
stroke
grestore
} bind def
373.799 36 o
grestore
gsave
361.080626 21.406250 translate
0.000000 rotate
0.000000 0.000000 m /one glyphshow
6.362305 0.000000 m /four glyphshow
12.724609 0.000000 m /zero glyphshow
19.086914 0.000000 m /zero glyphshow
grestore
gsave
200.892188 7.734375 translate
0.000000 rotate
0.000000 0.000000 m /T glyphshow
6.108398 0.000000 m /i glyphshow
8.886719 0.000000 m /m glyphshow
18.627930 0.000000 m /e glyphshow
24.780273 0.000000 m /space glyphshow
27.958984 0.000000 m /bracketleft glyphshow
31.860352 0.000000 m /s glyphshow
37.070312 0.000000 m /bracketright glyphshow
grestore
2 setlinecap
0.690 setgray
gsave
334.8 217.4 54 36 clipbox
54 65.178106 m
388.8 65.178106 l
stroke
grestore
0 setlinecap
0.000 setgray
gsave
/o {
gsave
newpath
translate
0.8 setlinewidth
1 setlinejoin
0 setlinecap
0 0 m
-3.5 0 l

gsave
0.000 setgray
fill
grestore
stroke
grestore
} bind def
54 65.1781 o
grestore
gsave
19.546875 61.381231 translate
0.000000 rotate
0.000000 0.000000 m /minus glyphshow
8.378906 0.000000 m /one glyphshow
14.741211 0.000000 m /five glyphshow
21.103516 0.000000 m /zero glyphshow
grestore
2 setlinecap
0.690 setgray
gsave
334.8 217.4 54 36 clipbox
54 98.751251 m
388.8 98.751251 l
stroke
grestore
0 setlinecap
0.000 setgray
gsave
/o {
gsave
newpath
translate
0.8 setlinewidth
1 setlinejoin
0 setlinecap
0 0 m
-3.5 0 l

gsave
0.000 setgray
fill
grestore
stroke
grestore
} bind def
54 98.7513 o
grestore
gsave
19.546875 94.954376 translate
0.000000 rotate
0.000000 0.000000 m /minus glyphshow
8.378906 0.000000 m /one glyphshow
14.741211 0.000000 m /zero glyphshow
21.103516 0.000000 m /zero glyphshow
grestore
2 setlinecap
0.690 setgray
gsave
334.8 217.4 54 36 clipbox
54 132.324396 m
388.8 132.324396 l
stroke
grestore
0 setlinecap
0.000 setgray
gsave
/o {
gsave
newpath
translate
0.8 setlinewidth
1 setlinejoin
0 setlinecap
0 0 m
-3.5 0 l

gsave
0.000 setgray
fill
grestore
stroke
grestore
} bind def
54 132.324 o
grestore
gsave
25.906250 128.527521 translate
0.000000 rotate
0.000000 0.000000 m /minus glyphshow
8.378906 0.000000 m /five glyphshow
14.741211 0.000000 m /zero glyphshow
grestore
2 setlinecap
0.690 setgray
gsave
334.8 217.4 54 36 clipbox
54 165.897541 m
388.8 165.897541 l
stroke
grestore
0 setlinecap
0.000 setgray
gsave
/o {
gsave
newpath
translate
0.8 setlinewidth
1 setlinejoin
0 setlinecap
0 0 m
-3.5 0 l

gsave
0.000 setgray
fill
grestore
stroke
grestore
} bind def
54 165.898 o
grestore
gsave
40.640625 162.100666 translate
0.000000 rotate
0.000000 0.000000 m /zero glyphshow
grestore
2 setlinecap
0.690 setgray
gsave
334.8 217.4 54 36 clipbox
54 199.470687 m
388.8 199.470687 l
stroke
grestore
0 setlinecap
0.000 setgray
gsave
/o {
gsave
newpath
translate
0.8 setlinewidth
1 setlinejoin
0 setlinecap
0 0 m
-3.5 0 l

gsave
0.000 setgray
fill
grestore
stroke
grestore
} bind def
54 199.471 o
grestore
gsave
34.281250 195.673812 translate
0.000000 rotate
0.000000 0.000000 m /five glyphshow
6.362305 0.000000 m /zero glyphshow
grestore
2 setlinecap
0.690 setgray
gsave
334.8 217.4 54 36 clipbox
54 233.043832 m
388.8 233.043832 l
stroke
grestore
0 setlinecap
0.000 setgray
gsave
/o {
gsave
newpath
translate
0.8 setlinewidth
1 setlinejoin
0 setlinecap
0 0 m
-3.5 0 l

gsave
0.000 setgray
fill
grestore
stroke
grestore
} bind def
54 233.044 o
grestore
gsave
27.921875 229.246957 translate
0.000000 rotate
0.000000 0.000000 m /one glyphshow
6.362305 0.000000 m /zero glyphshow
12.724609 0.000000 m /zero glyphshow
grestore
gsave
13.468750 79.821562 translate
90.000000 rotate
0.000000 0.000000 m /U glyphshow
7.319336 0.000000 m /l glyphshow
10.097656 0.000000 m /t glyphshow
14.018555 0.000000 m /r glyphshow
18.129883 0.000000 m /a glyphshow
24.257812 0.000000 m /c glyphshow
29.755859 0.000000 m /a glyphshow
35.883789 0.000000 m /p glyphshow
42.231445 0.000000 m /a glyphshow
48.359375 0.000000 m /c glyphshow
53.857422 0.000000 m /i glyphshow
56.635742 0.000000 m /t glyphshow
60.556641 0.000000 m /o glyphshow
66.674805 0.000000 m /r glyphshow
70.786133 0.000000 m /space glyphshow
73.964844 0.000000 m /C glyphshow
80.947266 0.000000 m /u glyphshow
87.285156 0.000000 m /r glyphshow
91.396484 0.000000 m /r glyphshow
95.507812 0.000000 m /e glyphshow
101.660156 0.000000 m /n glyphshow
107.998047 0.000000 m /t glyphshow
111.918945 0.000000 m /space glyphshow
115.097656 0.000000 m /bracketleft glyphshow
118.999023 0.000000 m /A glyphshow
125.839844 0.000000 m /bracketright glyphshow
grestore
1.500 setlinewidth
2 setlinecap
0.122 0.467 0.706 setrgbcolor
gsave
334.8 217.4 54 36 clipbox
69.218182 88.428613 m
69.43574 128.781647 l
69.653298 200.227517 l
69.870856 167.33716 l
70.088414 173.153211 l
70.305972 168.354658 l
70.52353 171.807054 l
70.741088 167.944545 l
70.958646 173.668837 l
71.176204 165.632781 l
71.393762 165.058159 l
72.046436 136.568501 l
72.263994 129.995387 l
72.481552 150.794236 l
72.69911 144.911554 l
72.916668 174.005782 l
73.134226 174.40396 l
73.351784 175.294507 l
73.569342 170.151616 l
73.7869 150.397948 l
74.004458 154.39979 l
74.222016 78.342592 l
74.439574 175.997374 l
74.657132 100.214481 l
74.87469 182.070591 l
75.309806 154.918623 l
75.527364 153.780086 l
75.744922 165.890667 l
75.96248 169.70891 l
76.180038 190.115914 l
76.397596 192.102157 l
76.615154 160.703015 l
76.832712 202.887856 l
77.05027 143.83755 l
77.267828 185.505945 l
77.485386 163.492433 l
77.702944 163.273941 l
77.920502 178.625963 l
78.13806 175.778713 l
78.355618 201.074789 l
78.573176 187.443003 l
78.790734 188.112379 l
79.008292 181.284965 l
79.22585 170.45736 l
79.443408 170.352201 l
79.660966 189.630797 l
79.878524 188.248153 l
80.096082 184.156126 l
80.31364 195.809454 l
80.531198 165.678321 l
80.748756 175.130677 l
80.966314 173.87492 l
81.183872 164.622965 l
81.40143 171.676521 l
81.836546 163.350553 l
82.054104 153.294378 l
82.271662 157.493057 l
82.48922 156.928322 l
82.706778 153.023391 l
82.924336 167.592773 l
83.141894 153.641293 l
83.359452 150.829098 l
83.57701 156.909982 l
83.794568 142.564563 l
84.012126 152.298199 l
84.229684 184.358153 l
84.447242 188.110814 l
84.6648 230.283834 l
84.882358 232.794298 l
85.75259 183.126135 l
85.970148 184.12844 l
86.187706 174.998092 l
86.405263 182.656478 l
86.622821 176.696552 l
86.840379 178.005784 l
87.275495 145.34694 l
87.493053 163.805998 l
87.710611 141.837896 l
87.928169 185.560477 l
88.145727 152.976583 l
88.363285 161.690313 l
88.580843 123.085157 l
88.798401 113.571406 l
89.015959 94.922181 l
89.233517 110.751249 l
89.451075 88.531097 l
89.668633 147.09612 l
89.886191 110.785931 l
90.103749 166.181063 l
90.321307 130.627238 l
90.538865 168.014961 l
90.756423 167.057378 l
90.973981 164.622165 l
91.191539 163.456134 l
91.409097 176.730214 l
91.626655 156.068329 l
91.844213 168.611177 l
92.279329 152.123317 l
92.496887 172.9303 l
92.714445 158.419079 l
92.932003 170.163394 l
93.367119 154.314433 l
93.584677 134.05877 l
93.802235 164.956755 l
94.019793 110.121994 l
94.237351 187.129685 l
94.454909 138.736561 l
94.672467 171.474682 l
94.890025 167.787356 l
95.107583 142.98458 l
95.325141 168.5723 l
95.542699 158.303956 l
95.760257 159.610236 l
95.977815 173.176456 l
96.195373 173.615417 l
96.412931 169.161551 l
96.630489 178.526785 l
96.848047 172.676279 l
97.065605 175.201394 l
97.283163 165.715757 l
97.500721 174.489768 l
97.718279 176.617393 l
98.153395 184.308036 l
98.370953 182.148849 l
98.588511 176.54027 l
98.806069 147.386584 l
99.241185 155.976431 l
99.458743 150.112687 l
99.676301 173.833559 l
100.111417 168.9711 l
100.981649 226.594966 l
101.199207 206.123804 l
101.416765 203.186517 l
101.851881 166.464129 l
102.069439 172.724312 l
102.286997 163.211 l
102.504555 166.993706 l
102.722113 176.862873 l
102.939671 158.653195 l
103.157229 175.664487 l
103.374787 106.360183 l
103.592345 194.390829 l
103.809903 115.938862 l
104.027461 188.855892 l
104.245019 145.217784 l
104.462577 146.533203 l
104.680135 106.629278 l
104.897693 91.379845 l
105.115251 92.303218 l
105.332809 83.213536 l
105.550367 104.185409 l
105.767925 138.652848 l
105.985483 143.039267 l
106.203041 154.271454 l
106.420599 176.396227 l
106.638157 156.589538 l
106.855715 173.183563 l
107.073273 173.764355 l
107.725947 204.994294 l
107.943505 177.285127 l
108.161063 171.576598 l
108.378621 162.432921 l
108.596179 160.466958 l
108.813737 132.32568 l
109.031295 210.318676 l
109.248853 132.594543 l
109.466411 201.322278 l
109.683969 212.420321 l
109.901527 158.493721 l
110.119085 238.129474 l
110.336643 171.416123 l
110.554201 204.958642 l
110.771759 170.512071 l
110.989317 173.466404 l
111.424433 155.47645 l
111.641991 173.929948 l
111.859549 128.503259 l
112.077107 163.031854 l
112.294665 168.017978 l
112.512223 219.369282 l
112.729781 158.502142 l
112.947339 150.576964 l
113.164897 163.569185 l
113.382455 152.656887 l
113.600013 154.875027 l
113.817571 144.007008 l
114.035129 171.522923 l
114.252687 144.711399 l
114.470245 186.201865 l
114.687803 144.755546 l
114.905361 158.94012 l
115.122919 144.878793 l
115.340477 167.640474 l
115.558035 166.475018 l
115.775593 175.371093 l
115.993151 164.041174 l
116.210709 165.110517 l
116.645825 157.019954 l
116.863383 167.04558 l
117.080941 186.541866 l
117.298499 143.756307 l
117.516057 182.580411 l
117.733615 145.938547 l
118.168731 172.555149 l
118.386289 163.937554 l
118.603847 162.482744 l
118.821405 169.683974 l
119.038963 158.060911 l
119.256521 169.902238 l
119.474079 162.620539 l
119.691637 179.837176 l
119.909195 170.468815 l
120.126753 119.479572 l
120.344311 112.087763 l
120.561869 45.883636 l
120.779427 142.741279 l
120.996985 147.179481 l
121.214543 204.498436 l
121.432101 204.892106 l
121.649659 174.834887 l
121.867217 166.598565 l
122.084775 175.527241 l
122.302333 173.011346 l
122.519891 174.486954 l
122.737449 174.402398 l
123.390123 152.975815 l
123.607681 158.811211 l
123.825239 156.533029 l
124.477913 218.763267 l
124.695471 227.919478 l
125.130587 204.660115 l
125.348145 159.157459 l
125.565703 159.030187 l
125.783261 138.722637 l
126.000819 155.325565 l
126.218377 154.866932 l
126.871051 175.121598 l
127.088609 172.444437 l
127.306167 165.887465 l
127.523725 168.076225 l
127.741283 161.142733 l
127.958841 173.989371 l
128.176399 165.662044 l
128.393957 174.383487 l
128.611515 154.704481 l
128.829073 169.162097 l
129.046631 153.221421 l
129.264189 172.763452 l
129.481747 159.327256 l
129.699305 172.960427 l
129.916863 161.189291 l
130.134421 170.778159 l
130.351979 160.077935 l
130.569537 165.648279 l
130.787095 158.614919 l
131.004653 166.604843 l
131.222211 168.768955 l
131.439769 169.753415 l
132.310001 213.485697 l
132.527559 210.903346 l
132.745117 182.884607 l
132.962675 186.124663 l
133.180233 124.016508 l
133.397791 179.545574 l
133.615349 150.382089 l
133.832907 153.304952 l
134.050465 190.942132 l
134.268023 176.54982 l
134.485581 179.193114 l
134.703139 165.775141 l
134.920697 170.60869 l
135.138255 156.996227 l
135.355813 171.082536 l
135.790929 151.651985 l
136.008487 167.605626 l
136.226045 153.277633 l
136.443603 165.646061 l
136.661161 157.487942 l
136.878719 139.530504 l
137.096277 168.65199 l
137.313835 140.768962 l
137.531393 172.232446 l
137.748951 153.901258 l
137.966509 159.30805 l
138.184067 127.41329 l
138.401625 175.255915 l
138.619183 125.106459 l
138.836741 185.168049 l
139.054299 163.153085 l
139.271857 168.168491 l
139.489415 169.483255 l
139.924531 156.828332 l
140.359647 192.513475 l
140.577204 194.756429 l
140.794762 203.539695 l
141.01232 205.047185 l
141.229878 175.773126 l
141.447436 205.611128 l
141.664994 154.986716 l
141.882552 191.025322 l
142.10011 160.487641 l
142.317668 183.072008 l
142.535226 178.969091 l
142.752784 180.903872 l
142.970342 147.619565 l
143.1879 166.625218 l
143.405458 145.45619 l
143.840574 167.473989 l
144.058132 158.738525 l
144.27569 167.128144 l
144.493248 135.296241 l
144.710806 152.704824 l
144.928364 123.884676 l
145.145922 138.968693 l
145.581038 145.308807 l
146.233712 169.427007 l
146.45127 169.449321 l
146.668828 176.924001 l
146.886386 173.351071 l
147.103944 172.117817 l
147.321502 174.997268 l
147.53906 169.326376 l
147.756618 173.002894 l
148.191734 161.034768 l
148.409292 172.811446 l
148.62685 161.333958 l
148.844408 167.348954 l
149.061966 177.645088 l
149.279524 154.457897 l
149.497082 211.069609 l
149.71464 176.389626 l
149.932198 220.254222 l
150.149756 179.840479 l
150.367314 177.853724 l
150.584872 157.746465 l
150.80243 155.731697 l
151.019988 160.805586 l
151.237546 157.430498 l
151.455104 164.782108 l
151.672662 176.781354 l
151.89022 166.730137 l
152.107778 179.922169 l
152.325336 161.328147 l
152.542894 174.913695 l
152.760452 157.036473 l
152.97801 191.920911 l
153.195568 122.561099 l
153.413126 160.695302 l
153.630684 111.256703 l
153.848242 136.39105 l
154.0658 140.887489 l
154.500916 155.105324 l
154.718474 159.504674 l
154.936032 170.385388 l
155.15359 170.335555 l
155.371148 168.455907 l
155.806264 159.893542 l
156.023822 155.123536 l
156.24138 157.902065 l
156.458938 154.439968 l
156.676496 159.546851 l
156.894054 154.878196 l
157.111612 159.573174 l
157.32917 159.648893 l
157.546728 149.661162 l
157.764286 172.440889 l
157.981844 145.201116 l
158.199402 179.492274 l
158.41696 166.99763 l
158.634518 181.528529 l
158.852076 164.123851 l
159.069634 186.472379 l
159.287192 159.055062 l
159.50475 173.558521 l
159.939866 155.448428 l
160.157424 156.614663 l
160.374982 154.708677 l
160.59254 172.963101 l
160.810098 165.697711 l
161.027656 178.393338 l
161.245214 163.919665 l
161.462772 187.456604 l
161.68033 162.723866 l
161.897888 177.243718 l
162.333004 159.677591 l
162.550562 142.391144 l
162.76812 160.142805 l
162.985678 129.234343 l
163.203236 157.981513 l
163.420794 147.268655 l
163.638352 158.569774 l
164.073468 164.481716 l
164.291026 168.820854 l
164.508584 187.20772 l
164.726142 149.619216 l
164.9437 183.811903 l
165.161258 146.509916 l
165.378816 164.122904 l
165.596374 161.19814 l
165.813932 134.044507 l
166.03149 151.502673 l
166.249048 143.203202 l
166.684164 170.818744 l
166.901722 167.162994 l
167.11928 92.541337 l
167.336838 115.43644 l
167.554396 100.910785 l
167.771954 129.882339 l
167.989512 182.963521 l
168.20707 176.989945 l
168.424628 176.84517 l
168.642186 161.796984 l
168.859744 164.868356 l
169.077302 166.344074 l
169.29486 168.814593 l
169.729976 205.651881 l
169.947534 202.913814 l
170.165092 223.001294 l
170.38265 171.254644 l
170.600208 206.926464 l
170.817766 172.464775 l
171.035324 208.06522 l
171.252882 196.610102 l
171.47044 217.942932 l
171.687998 182.811295 l
171.905556 217.725756 l
172.123114 180.552473 l
172.340672 204.748235 l
172.55823 154.02154 l
172.775788 196.531568 l
172.993346 139.186319 l
173.210904 173.629705 l
173.428462 151.619421 l
173.64602 162.229399 l
173.863578 148.547871 l
174.081136 153.541357 l
174.298694 148.158049 l
174.516252 147.971095 l
174.73381 146.572192 l
175.168926 164.909213 l
175.386484 164.720497 l
175.604042 186.085341 l
175.8216 152.126787 l
176.039158 194.284753 l
176.256716 108.20571 l
176.474274 187.856508 l
176.691832 132.784667 l
176.90939 153.105435 l
177.126948 194.749888 l
177.344506 153.378172 l
177.562064 179.098208 l
177.779622 150.763895 l
178.214738 176.474517 l
178.432296 165.586039 l
178.649854 179.424098 l
178.867412 144.321811 l
179.08497 183.806381 l
179.302528 166.996848 l
179.520086 209.508313 l
179.737644 202.281334 l
180.17276 199.289112 l
180.390318 167.873266 l
180.607876 174.235629 l
180.825434 159.41422 l
181.042992 162.84144 l
181.26055 163.997735 l
181.478108 162.994599 l
181.695666 168.006069 l
181.913224 159.023995 l
182.130782 166.301856 l
182.34834 161.975249 l
182.565898 154.256513 l
182.783456 134.689767 l
183.001014 148.771161 l
183.43613 107.379943 l
183.653688 161.09473 l
183.871246 111.228514 l
184.088804 157.07383 l
184.306362 133.040622 l
184.52392 143.09909 l
184.741478 128.096294 l
184.959036 156.833575 l
185.61171 168.146902 l
185.829268 161.221998 l
186.046826 126.997475 l
186.264384 159.809783 l
186.481942 129.288374 l
186.6995 178.460956 l
186.917058 135.324001 l
187.134616 186.278473 l
187.352174 154.092998 l
187.569732 192.09324 l
187.78729 142.754632 l
188.004848 172.615018 l
188.222406 139.191342 l
188.439964 176.834549 l
188.87508 210.002347 l
189.092638 176.652511 l
189.310196 179.548484 l
189.527754 173.095446 l
189.745312 151.22 l
189.96287 192.843147 l
190.180428 146.583217 l
190.397986 212.997681 l
190.615544 203.981314 l
190.833102 227.737061 l
191.05066 230.707052 l
191.268218 211.235798 l
191.485776 148.6243 l
191.703334 182.377369 l
191.920892 145.617126 l
192.13845 133.9278 l
192.356008 204.734551 l
192.573566 132.410662 l
192.791124 187.651501 l
193.008682 170.700896 l
193.22624 133.579098 l
193.443798 176.725192 l
193.661356 122.955905 l
193.878914 169.017891 l
194.096472 82.101869 l
194.31403 171.018993 l
194.531587 86.561579 l
194.749145 186.2705 l
195.184261 109.822459 l
195.401819 144.807726 l
195.619377 116.426893 l
196.054493 193.451261 l
196.272051 162.544489 l
196.489609 188.59766 l
196.924725 157.319277 l
197.142283 154.736152 l
197.359841 155.354585 l
197.577399 152.467441 l
197.794957 178.352741 l
198.012515 168.283122 l
198.230073 180.510503 l
198.447631 182.153712 l
198.665189 179.369593 l
198.882747 196.878196 l
199.317863 149.455616 l
199.535421 99.748305 l
199.752979 166.161558 l
199.970537 161.855379 l
200.188095 142.009245 l
200.405653 133.226782 l
200.623211 169.476513 l
200.840769 130.867052 l
201.058327 193.732148 l
201.275885 161.025315 l
201.493443 163.625561 l
201.711001 169.213885 l
201.928559 152.309066 l
202.146117 170.76816 l
202.363675 155.328114 l
202.581233 164.811913 l
202.798791 158.266732 l
203.016349 168.062307 l
203.233907 160.763483 l
203.451465 191.000791 l
203.669023 183.004866 l
203.886581 192.547998 l
204.104139 186.539867 l
204.321697 189.755392 l
204.539255 165.696925 l
204.756813 184.854698 l
204.974371 165.436181 l
205.191929 208.669791 l
205.409487 202.416357 l
205.627045 243.556364 l
205.844603 211.958911 l
206.062161 207.254366 l
206.497277 164.59397 l
206.714835 175.366786 l
206.932393 173.978202 l
207.149951 165.859403 l
207.367509 191.716863 l
207.585067 146.148131 l
207.802625 152.293187 l
208.237741 130.182332 l
208.455299 156.397656 l
208.672857 161.501518 l
208.890415 145.997392 l
209.107973 165.657604 l
209.325531 146.378647 l
209.543089 145.519637 l
209.760647 156.62145 l
209.978205 124.966308 l
210.195763 169.339226 l
210.413321 157.946878 l
210.630879 201.628719 l
211.065995 222.381043 l
211.283553 208.873461 l
211.501111 222.667419 l
211.718669 214.260632 l
212.153785 236.785465 l
212.371343 236.075442 l
212.588901 232.428021 l
212.806459 218.957376 l
213.024017 214.080739 l
213.241575 189.726119 l
213.459133 181.925156 l
213.894249 154.857502 l
214.764481 129.685227 l
214.982039 112.040597 l
215.199597 122.870295 l
215.417155 102.480053 l
215.634713 117.35754 l
215.852271 110.211716 l
216.069829 118.839224 l
216.287387 111.311345 l
216.504945 118.483755 l
216.722503 106.931825 l
217.157619 115.985098 l
217.375177 109.824163 l
217.592735 135.834933 l
217.810293 132.593349 l
218.027851 148.743244 l
218.245409 154.189962 l
218.462967 145.976953 l
218.680525 143.5545 l
218.898083 153.752852 l
219.115641 154.300272 l
219.333199 176.112854 l
219.550757 174.03755 l
219.768315 173.413727 l
219.985873 168.908458 l
220.203431 156.18036 l
220.420989 170.650422 l
220.638547 164.334685 l
220.856105 178.70082 l
221.291221 147.481768 l
221.508779 126.800813 l
221.726337 151.828289 l
222.161453 169.613934 l
222.379011 162.752416 l
222.596569 168.076025 l
222.814127 169.586509 l
223.031685 174.663152 l
223.466801 158.632843 l
223.684359 173.817648 l
223.901917 121.172245 l
224.119475 195.628023 l
224.337033 131.362779 l
224.554591 187.97563 l
224.772149 143.071551 l
224.989707 171.708821 l
225.207265 149.890562 l
225.424823 181.412198 l
225.642381 172.604325 l
225.859939 183.789429 l
226.077497 164.798097 l
226.295055 175.942085 l
226.512613 164.029598 l
226.730171 165.032776 l
226.947729 178.103746 l
227.165287 164.522617 l
227.382845 178.751568 l
227.600403 170.336456 l
227.817961 167.949579 l
228.035519 161.696968 l
228.253077 167.950452 l
228.470635 162.544478 l
228.688193 171.980614 l
228.905751 158.611235 l
229.123309 172.267499 l
229.340867 171.382148 l
229.558425 157.767421 l
229.775983 181.889859 l
229.993541 159.514009 l
230.211099 169.002857 l
230.428657 169.012349 l
230.646215 137.173057 l
230.863773 177.69379 l
231.081331 139.003483 l
231.298889 184.745559 l
231.516447 187.891607 l
231.734005 207.352428 l
231.951563 208.404727 l
232.169121 221.951544 l
232.386679 193.742818 l
232.604237 197.538795 l
232.821795 171.772187 l
233.039353 192.990089 l
233.256911 190.682911 l
233.474469 210.560222 l
233.692027 201.175234 l
233.909585 199.419426 l
234.127143 172.806966 l
234.344701 165.587618 l
234.562259 126.569001 l
234.779817 174.390226 l
234.997375 99.591388 l
235.214933 187.31021 l
235.432491 122.434496 l
235.650049 175.019058 l
235.867607 148.717364 l
236.085165 177.316417 l
236.302723 137.487795 l
236.520281 165.612321 l
236.737839 134.157247 l
236.955397 181.487188 l
237.172955 179.267873 l
237.390513 182.738346 l
237.608071 182.418169 l
237.825629 151.004752 l
238.043187 152.108271 l
238.260745 151.873809 l
238.478303 150.573809 l
239.783651 154.693439 l
240.436325 156.19516 l
241.306557 157.577455 l
241.741673 158.069434 l
242.176789 158.776453 l
243.047021 160.659053 l
243.264579 165.20549 l
243.699695 165.205497 l
243.917253 160.363931 l
244.134811 162.830014 l
244.352369 153.583431 l
244.569927 153.635678 l
244.787485 142.829016 l
245.222601 157.259675 l
245.440159 155.719552 l
245.657717 173.744994 l
245.875275 142.536404 l
246.092833 177.514895 l
246.310391 143.992736 l
246.527949 179.613946 l
246.745507 168.393865 l
246.963065 166.889199 l
247.180623 120.533844 l
247.398181 189.544416 l
247.615739 109.241695 l
247.833297 196.161825 l
248.050855 163.596887 l
248.268413 175.125083 l
248.48597 163.284918 l
248.703528 184.72551 l
248.921086 182.325269 l
249.138644 213.818538 l
249.57376 230.795392 l
249.791318 226.782536 l
250.66155 171.126306 l
250.879108 164.190143 l
251.096666 165.196008 l
251.314224 163.880062 l
251.531782 163.859792 l
251.74934 165.194315 l
251.966898 163.876295 l
252.184456 165.191755 l
252.402014 165.208438 l
252.619572 161.139243 l
253.054688 136.533624 l
253.272246 145.651467 l
253.489804 137.459851 l
253.707362 171.057568 l
253.92492 159.447258 l
254.142478 183.706792 l
254.360036 151.831181 l
254.577594 191.357069 l
254.795152 152.484681 l
255.01271 175.526658 l
255.230268 170.190011 l
255.447826 159.532276 l
255.665384 173.253152 l
255.882942 140.083125 l
256.1005 173.385967 l
256.318058 142.197812 l
256.535616 168.574785 l
256.753174 167.671677 l
257.18829 155.029019 l
257.405848 149.261459 l
257.623406 154.610274 l
257.840964 139.761821 l
258.058522 160.569076 l
258.27608 148.73764 l
258.493638 160.520048 l
258.711196 150.705035 l
258.928754 160.289204 l
259.146312 157.117225 l
259.36387 166.50855 l
259.581428 181.595301 l
259.798986 173.021508 l
260.016544 195.822397 l
260.234102 167.637383 l
260.45166 192.97163 l
260.669218 179.563031 l
261.104334 183.234695 l
261.53945 165.556078 l
261.757008 186.342487 l
261.974566 187.082824 l
262.192124 179.910552 l
262.409682 190.461202 l
262.62724 164.827565 l
262.844798 165.361549 l
263.062356 165.457956 l
263.497472 165.207677 l
265.020378 165.205922 l
265.237936 164.130699 l
265.455494 161.783189 l
265.673052 147.899888 l
265.89061 143.140681 l
266.108168 155.829155 l
266.325726 109.034535 l
266.543284 168.618865 l
266.760842 135.457527 l
266.9784 163.672859 l
267.413516 171.270609 l
267.631074 143.641823 l
267.848632 174.275499 l
268.06619 158.105536 l
268.283748 172.045161 l
268.501306 163.552124 l
268.718864 168.95007 l
268.936422 164.265989 l
269.15398 166.233931 l
269.371538 176.784166 l
269.589096 167.702377 l
269.806654 166.138952 l
270.024212 167.549575 l
270.24177 178.286569 l
270.459328 155.615878 l
270.676886 189.415371 l
270.894444 157.256446 l
271.112002 185.604232 l
271.32956 169.900046 l
271.547118 175.019759 l
271.764676 166.687045 l
271.982234 170.281524 l
272.199792 161.092547 l
272.41735 167.081695 l
272.634908 153.410163 l
272.852466 150.040932 l
273.070024 158.524771 l
273.287582 145.354 l
273.50514 168.723511 l
273.722698 157.132704 l
273.940256 169.910186 l
274.157814 169.073349 l
274.375372 149.367725 l
274.59293 181.372506 l
274.810488 145.563555 l
275.028046 178.651412 l
275.245604 144.678222 l
275.463162 164.427843 l
275.68072 152.008159 l
276.115836 168.216355 l
276.333394 160.931176 l
276.550952 168.554673 l
276.76851 154.670863 l
276.986068 172.593315 l
277.203626 158.355396 l
277.421184 159.783432 l
277.638742 164.361482 l
277.8563 160.836005 l
278.291416 166.295393 l
278.508974 169.545623 l
278.94409 167.756055 l
279.596764 145.470879 l
279.814322 164.02126 l
280.03188 148.386751 l
280.249438 178.689468 l
280.466996 166.72149 l
280.684554 161.165958 l
280.902112 140.825582 l
281.11967 163.338245 l
281.337228 133.091328 l
281.554786 169.890975 l
281.772344 158.037877 l
281.989902 169.271924 l
282.20746 160.848356 l
282.425018 164.34654 l
282.642576 156.628295 l
282.860134 170.015214 l
283.077692 171.023226 l
283.29525 164.661281 l
283.512808 174.81652 l
283.947924 150.101057 l
284.165482 182.879333 l
284.38304 150.756263 l
284.600598 181.075703 l
284.818156 160.589068 l
285.035714 193.002633 l
285.253272 166.087096 l
285.47083 194.584733 l
285.688388 169.795437 l
285.905946 168.261829 l
286.123504 138.609673 l
286.341062 167.359479 l
286.55862 177.031011 l
286.776178 148.530216 l
286.993736 161.002728 l
287.211294 197.343169 l
287.428852 169.693986 l
287.64641 228.171328 l
287.863968 179.271633 l
288.081526 207.238924 l
288.299084 183.738925 l
288.516642 180.02371 l
288.7342 170.030625 l
288.951758 165.705323 l
289.169316 165.209522 l
289.82199 165.189741 l
290.039548 163.890143 l
290.257106 165.192788 l
290.474664 163.893036 l
290.692222 165.192774 l
292.432686 165.205237 l
297.654078 165.20488 l
297.871636 163.892734 l
298.089194 165.191889 l
298.306752 163.895211 l
298.52431 165.191857 l
300.047216 165.205388 l
301.135006 165.205402 l
301.570122 158.022109 l
301.78768 161.300128 l
302.005238 161.401652 l
302.440353 168.589454 l
302.657911 166.007958 l
302.875469 165.209896 l
306.791513 165.20543 l
307.009071 163.037517 l
307.226629 141.562673 l
307.444187 158.975076 l
307.661745 137.26348 l
307.879303 162.373619 l
308.096861 171.341067 l
308.314419 186.075088 l
308.749535 173.350893 l
308.967093 176.26463 l
309.184651 169.773867 l
309.619767 152.892086 l
309.837325 149.555056 l
310.054883 152.988772 l
310.272441 163.704222 l
310.489999 166.044453 l
310.707557 172.461637 l
310.925115 173.060939 l
311.142673 172.249776 l
311.360231 160.219053 l
311.577789 162.555421 l
312.012905 152.454235 l
312.230463 183.975549 l
312.448021 154.388681 l
312.665579 180.04667 l
312.883137 166.40762 l
313.100695 169.831313 l
313.318253 171.215145 l
313.535811 193.107482 l
313.753369 199.694833 l
313.970927 181.912059 l
314.188485 229.367128 l
314.406043 170.770095 l
314.623601 205.83411 l
314.841159 181.530389 l
315.276275 165.920173 l
315.711391 167.532797 l
315.928949 168.905395 l
316.146507 165.999912 l
316.364065 156.213533 l
316.581623 135.498029 l
316.799181 162.418621 l
317.016739 137.533381 l
317.451855 181.053334 l
317.669413 138.777865 l
317.886971 184.989865 l
318.104529 152.779758 l
318.322087 161.808602 l
318.539645 183.096866 l
318.757203 143.349854 l
318.974761 188.612292 l
319.192319 141.855699 l
319.409877 171.568855 l
319.627435 163.623093 l
319.844993 164.961069 l
320.062551 164.952133 l
320.280109 170.878492 l
320.497667 159.404164 l
320.715225 163.981023 l
320.932783 165.486402 l
321.150341 156.774291 l
321.367899 163.711469 l
321.585457 158.112036 l
321.803015 164.353229 l
322.020573 165.290857 l
322.238131 153.176331 l
322.455689 164.776403 l
322.673247 162.107495 l
322.890805 162.866572 l
323.108363 159.562637 l
323.325921 180.589252 l
323.543479 152.552171 l
323.761037 175.752755 l
323.978595 163.070452 l
324.196153 157.535777 l
324.413711 160.929704 l
324.631269 170.345866 l
324.848827 198.537185 l
325.066385 210.903421 l
325.283943 234.986129 l
325.501501 233.219323 l
325.719059 227.476118 l
325.936617 205.123393 l
326.154175 203.465817 l
326.371733 190.356855 l
326.589291 188.17757 l
326.806849 192.679818 l
327.024407 187.393789 l
327.241965 177.398388 l
327.459523 176.035381 l
327.677081 167.82234 l
327.894639 154.727711 l
328.112197 129.931528 l
328.547313 149.407859 l
328.764871 145.938601 l
328.982429 187.248131 l
329.199987 126.726592 l
329.417545 185.906987 l
329.635103 136.000272 l
329.852661 178.218766 l
330.070219 155.800703 l
330.287777 185.987826 l
330.505335 190.23206 l
330.722893 142.10222 l
330.940451 180.248239 l
331.375567 144.660079 l
331.593125 177.857795 l
331.810683 144.008765 l
332.028241 177.662332 l
332.245799 160.658574 l
332.463357 176.753263 l
332.680915 151.901857 l
332.898473 170.781938 l
333.116031 146.640256 l
333.333589 159.424529 l
333.551147 153.999727 l
333.768705 159.859753 l
333.986263 176.150743 l
334.203821 172.802696 l
334.421379 198.095577 l
334.638937 191.054315 l
334.856495 218.404265 l
335.074053 192.149316 l
335.291611 224.735982 l
335.509169 203.942346 l
335.726727 211.050045 l
336.596959 167.732718 l
336.814517 165.223117 l
337.032075 165.207459 l
337.249633 162.508758 l
337.467191 129.449787 l
337.684749 151.126526 l
337.902307 128.167799 l
338.337423 173.041203 l
338.554981 151.334442 l
338.772539 162.040415 l
338.990097 165.40581 l
339.207655 142.264722 l
339.425213 194.316688 l
339.642771 140.920337 l
339.860329 139.031956 l
340.077887 182.505915 l
340.295445 124.996584 l
340.513003 189.275131 l
340.948119 155.997415 l
341.165677 168.578246 l
341.383235 154.245514 l
341.600793 173.319974 l
341.818351 170.311472 l
342.253467 213.327324 l
342.471025 220.128594 l
342.688583 233.512626 l
342.906141 231.022958 l
343.341257 210.218175 l
343.776373 179.458056 l
344.211489 165.928525 l
344.429047 165.212604 l
349.215323 165.207249 l
351.826019 165.20723 l
352.043577 165.897541 l
373.581818 165.897541 l
373.581818 165.897541 l
stroke
grestore
0.800 setlinewidth
0 setlinejoin
[] 0 setdash
0.000 setgray
gsave
54 36 m
54 253.44 l
stroke
grestore
gsave
388.8 36 m
388.8 253.44 l
stroke
grestore
gsave
54 36 m
388.8 36 l
stroke
grestore
gsave
54 253.44 m
388.8 253.44 l
stroke
grestore

end
showpage
