%!PS-Adobe-3.0 EPSF-3.0
%%Title: act_HESS voltage [V].eps
%%Creator: matplotlib version 2.0.0, http://matplotlib.org/
%%CreationDate: Mon May 15 21:37:29 2017
%%Orientation: portrait
%%BoundingBox: 90 252 522 540
%%EndComments
%%BeginProlog
/mpldict 8 dict def
mpldict begin
/m { moveto } bind def
/l { lineto } bind def
/r { rlineto } bind def
/c { curveto } bind def
/cl { closepath } bind def
/box {
m
1 index 0 r
0 exch r
neg 0 r
cl
} bind def
/clipbox {
box
clip
newpath
} bind def
%!PS-Adobe-3.0 Resource-Font
%%Title: DejaVu Sans
%%Copyright: Copyright (c) 2003 by Bitstream, Inc. All Rights Reserved. Copyright (c) 2006 by Tavmjong Bah. All Rights Reserved. DejaVu changes are in public domain 
%%Creator: Converted from TrueType to type 3 by PPR
25 dict begin
/_d{bind def}bind def
/_m{moveto}_d
/_l{lineto}_d
/_cl{closepath eofill}_d
/_c{curveto}_d
/_sc{7 -1 roll{setcachedevice}{pop pop pop pop pop pop}ifelse}_d
/_e{exec}_d
/FontName /DejaVuSans def
/PaintType 0 def
/FontMatrix[.001 0 0 .001 0 0]def
/FontBBox[-1021 -463 1793 1232]def
/FontType 3 def
/Encoding [ /space /zero /one /two /three /four /five /six /eight /nine /E /H /S /T /V /bracketleft /bracketright /a /e /g /i /l /m /o /s /t /v ] def
/FontInfo 10 dict dup begin
/FamilyName (DejaVu Sans) def
/FullName (DejaVu Sans) def
/Notice (Copyright (c) 2003 by Bitstream, Inc. All Rights Reserved. Copyright (c) 2006 by Tavmjong Bah. All Rights Reserved. DejaVu changes are in public domain ) def
/Weight (Book) def
/Version (Version 2.35) def
/ItalicAngle 0.0 def
/isFixedPitch false def
/UnderlinePosition -130 def
/UnderlineThickness 90 def
end readonly def
/CharStrings 27 dict dup begin
/space{318 0 0 0 0 0 _sc
}_d
/zero{636 0 66 -13 570 742 _sc
318 664 _m
267 664 229 639 203 589 _c
177 539 165 464 165 364 _c
165 264 177 189 203 139 _c
229 89 267 64 318 64 _c
369 64 407 89 433 139 _c
458 189 471 264 471 364 _c
471 464 458 539 433 589 _c
407 639 369 664 318 664 _c
318 742 _m
399 742 461 709 505 645 _c
548 580 570 486 570 364 _c
570 241 548 147 505 83 _c
461 19 399 -13 318 -13 _c
236 -13 173 19 130 83 _c
87 147 66 241 66 364 _c
66 486 87 580 130 645 _c
173 709 236 742 318 742 _c
_cl}_d
/one{636 0 110 0 544 729 _sc
124 83 _m
285 83 _l
285 639 _l
110 604 _l
110 694 _l
284 729 _l
383 729 _l
383 83 _l
544 83 _l
544 0 _l
124 0 _l
124 83 _l
_cl}_d
/two{{636 0 73 0 536 742 _sc
192 83 _m
536 83 _l
536 0 _l
73 0 _l
73 83 _l
110 121 161 173 226 239 _c
290 304 331 346 348 365 _c
380 400 402 430 414 455 _c
426 479 433 504 433 528 _c
433 566 419 598 392 622 _c
365 646 330 659 286 659 _c
255 659 222 653 188 643 _c
154 632 117 616 78 594 _c
78 694 _l
118 710 155 722 189 730 _c
223 738 255 742 284 742 _c
}_e{359 742 419 723 464 685 _c
509 647 532 597 532 534 _c
532 504 526 475 515 449 _c
504 422 484 390 454 354 _c
446 344 420 317 376 272 _c
332 227 271 164 192 83 _c
_cl}_e}_d
/three{{636 0 76 -13 556 742 _sc
406 393 _m
453 383 490 362 516 330 _c
542 298 556 258 556 212 _c
556 140 531 84 482 45 _c
432 6 362 -13 271 -13 _c
240 -13 208 -10 176 -4 _c
144 1 110 10 76 22 _c
76 117 _l
103 101 133 89 166 81 _c
198 73 232 69 268 69 _c
330 69 377 81 409 105 _c
441 129 458 165 458 212 _c
458 254 443 288 413 312 _c
383 336 341 349 287 349 _c
}_e{202 349 _l
202 430 _l
291 430 _l
339 430 376 439 402 459 _c
428 478 441 506 441 543 _c
441 580 427 609 401 629 _c
374 649 336 659 287 659 _c
260 659 231 656 200 650 _c
169 644 135 635 98 623 _c
98 711 _l
135 721 170 729 203 734 _c
235 739 266 742 296 742 _c
370 742 429 725 473 691 _c
517 657 539 611 539 553 _c
539 513 527 479 504 451 _c
481 423 448 403 406 393 _c
_cl}_e}_d
/four{636 0 49 0 580 729 _sc
378 643 _m
129 254 _l
378 254 _l
378 643 _l
352 729 _m
476 729 _l
476 254 _l
580 254 _l
580 172 _l
476 172 _l
476 0 _l
378 0 _l
378 172 _l
49 172 _l
49 267 _l
352 729 _l
_cl}_d
/five{{636 0 77 -13 549 729 _sc
108 729 _m
495 729 _l
495 646 _l
198 646 _l
198 467 _l
212 472 227 476 241 478 _c
255 480 270 482 284 482 _c
365 482 429 459 477 415 _c
525 370 549 310 549 234 _c
549 155 524 94 475 51 _c
426 8 357 -13 269 -13 _c
238 -13 207 -10 175 -6 _c
143 -1 111 6 77 17 _c
77 116 _l
106 100 136 88 168 80 _c
199 72 232 69 267 69 _c
}_e{323 69 368 83 401 113 _c
433 143 450 183 450 234 _c
450 284 433 324 401 354 _c
368 384 323 399 267 399 _c
241 399 214 396 188 390 _c
162 384 135 375 108 363 _c
108 729 _l
_cl}_e}_d
/six{{636 0 70 -13 573 742 _sc
330 404 _m
286 404 251 388 225 358 _c
199 328 186 286 186 234 _c
186 181 199 139 225 109 _c
251 79 286 64 330 64 _c
374 64 409 79 435 109 _c
461 139 474 181 474 234 _c
474 286 461 328 435 358 _c
409 388 374 404 330 404 _c
526 713 _m
526 623 _l
501 635 476 644 451 650 _c
425 656 400 659 376 659 _c
310 659 260 637 226 593 _c
}_e{192 549 172 482 168 394 _c
187 422 211 444 240 459 _c
269 474 301 482 336 482 _c
409 482 467 459 509 415 _c
551 371 573 310 573 234 _c
573 159 550 99 506 54 _c
462 9 403 -13 330 -13 _c
246 -13 181 19 137 83 _c
92 147 70 241 70 364 _c
70 479 97 571 152 639 _c
206 707 280 742 372 742 _c
396 742 421 739 447 735 _c
472 730 498 723 526 713 _c
_cl}_e}_d
/eight{{636 0 68 -13 568 742 _sc
318 346 _m
271 346 234 333 207 308 _c
180 283 167 249 167 205 _c
167 161 180 126 207 101 _c
234 76 271 64 318 64 _c
364 64 401 76 428 102 _c
455 127 469 161 469 205 _c
469 249 455 283 429 308 _c
402 333 365 346 318 346 _c
219 388 _m
177 398 144 418 120 447 _c
96 476 85 511 85 553 _c
85 611 105 657 147 691 _c
188 725 245 742 318 742 _c
}_e{390 742 447 725 489 691 _c
530 657 551 611 551 553 _c
551 511 539 476 515 447 _c
491 418 459 398 417 388 _c
464 377 501 355 528 323 _c
554 291 568 251 568 205 _c
568 134 546 80 503 43 _c
459 5 398 -13 318 -13 _c
237 -13 175 5 132 43 _c
89 80 68 134 68 205 _c
68 251 81 291 108 323 _c
134 355 171 377 219 388 _c
183 544 _m
183 506 194 476 218 455 _c
}_e{242 434 275 424 318 424 _c
360 424 393 434 417 455 _c
441 476 453 506 453 544 _c
453 582 441 611 417 632 _c
393 653 360 664 318 664 _c
275 664 242 653 218 632 _c
194 611 183 582 183 544 _c
_cl}_e}_d
/nine{{636 0 63 -13 566 742 _sc
110 15 _m
110 105 _l
134 93 159 84 185 78 _c
210 72 235 69 260 69 _c
324 69 374 90 408 134 _c
442 178 462 244 468 334 _c
448 306 424 284 396 269 _c
367 254 335 247 300 247 _c
226 247 168 269 126 313 _c
84 357 63 417 63 494 _c
63 568 85 628 129 674 _c
173 719 232 742 306 742 _c
390 742 455 709 499 645 _c
543 580 566 486 566 364 _c
}_e{566 248 538 157 484 89 _c
429 21 356 -13 264 -13 _c
239 -13 214 -10 189 -6 _c
163 -2 137 5 110 15 _c
306 324 _m
350 324 385 339 411 369 _c
437 399 450 441 450 494 _c
450 546 437 588 411 618 _c
385 648 350 664 306 664 _c
262 664 227 648 201 618 _c
175 588 162 546 162 494 _c
162 441 175 399 201 369 _c
227 339 262 324 306 324 _c
_cl}_e}_d
/E{632 0 98 0 568 729 _sc
98 729 _m
559 729 _l
559 646 _l
197 646 _l
197 430 _l
544 430 _l
544 347 _l
197 347 _l
197 83 _l
568 83 _l
568 0 _l
98 0 _l
98 729 _l
_cl}_d
/H{752 0 98 0 654 729 _sc
98 729 _m
197 729 _l
197 430 _l
555 430 _l
555 729 _l
654 729 _l
654 0 _l
555 0 _l
555 347 _l
197 347 _l
197 0 _l
98 0 _l
98 729 _l
_cl}_d
/S{{635 0 66 -13 579 742 _sc
535 705 _m
535 609 _l
497 627 462 640 429 649 _c
395 657 363 662 333 662 _c
279 662 237 651 208 631 _c
179 610 165 580 165 542 _c
165 510 174 485 194 469 _c
213 452 250 439 304 429 _c
364 417 _l
437 403 491 378 526 343 _c
561 307 579 260 579 201 _c
579 130 555 77 508 41 _c
460 5 391 -13 300 -13 _c
265 -13 228 -9 189 -2 _c
}_e{150 5 110 16 69 32 _c
69 134 _l
109 111 148 94 186 83 _c
224 71 262 66 300 66 _c
356 66 399 77 430 99 _c
460 121 476 152 476 194 _c
476 230 465 258 443 278 _c
421 298 385 313 335 323 _c
275 335 _l
201 349 148 372 115 404 _c
82 435 66 478 66 534 _c
66 598 88 649 134 686 _c
179 723 242 742 322 742 _c
356 742 390 739 426 733 _c
461 727 497 717 535 705 _c
}_e{_cl}_e}_d
/T{611 0 -2 0 614 729 _sc
-2 729 _m
614 729 _l
614 646 _l
355 646 _l
355 0 _l
256 0 _l
256 646 _l
-2 646 _l
-2 729 _l
_cl}_d
/V{684 0 8 0 676 729 _sc
286 0 _m
8 729 _l
111 729 _l
342 115 _l
573 729 _l
676 729 _l
398 0 _l
286 0 _l
_cl}_d
/bracketleft{390 0 86 -131 293 760 _sc
86 760 _m
293 760 _l
293 690 _l
176 690 _l
176 -61 _l
293 -61 _l
293 -131 _l
86 -131 _l
86 760 _l
_cl}_d
/bracketright{390 0 97 -131 304 760 _sc
304 760 _m
304 -131 _l
97 -131 _l
97 -61 _l
214 -61 _l
214 690 _l
97 690 _l
97 760 _l
304 760 _l
_cl}_d
/a{{613 0 60 -13 522 560 _sc
343 275 _m
270 275 220 266 192 250 _c
164 233 150 205 150 165 _c
150 133 160 107 181 89 _c
202 70 231 61 267 61 _c
317 61 357 78 387 114 _c
417 149 432 196 432 255 _c
432 275 _l
343 275 _l
522 312 _m
522 0 _l
432 0 _l
432 83 _l
411 49 385 25 355 10 _c
325 -5 287 -13 243 -13 _c
187 -13 142 2 109 33 _c
76 64 60 106 60 159 _c
}_e{60 220 80 266 122 298 _c
163 329 224 345 306 345 _c
432 345 _l
432 354 _l
432 395 418 427 391 450 _c
364 472 326 484 277 484 _c
245 484 215 480 185 472 _c
155 464 127 453 100 439 _c
100 522 _l
132 534 164 544 195 550 _c
226 556 256 560 286 560 _c
365 560 424 539 463 498 _c
502 457 522 395 522 312 _c
_cl}_e}_d
/e{{615 0 55 -13 562 560 _sc
562 296 _m
562 252 _l
149 252 _l
153 190 171 142 205 110 _c
238 78 284 62 344 62 _c
378 62 412 66 444 74 _c
476 82 509 95 541 113 _c
541 28 _l
509 14 476 3 442 -3 _c
408 -9 373 -13 339 -13 _c
251 -13 182 12 131 62 _c
80 112 55 181 55 268 _c
55 357 79 428 127 481 _c
175 533 241 560 323 560 _c
397 560 455 536 498 489 _c
}_e{540 441 562 377 562 296 _c
472 322 _m
471 371 457 410 431 440 _c
404 469 368 484 324 484 _c
274 484 234 469 204 441 _c
174 413 156 373 152 322 _c
472 322 _l
_cl}_e}_d
/g{{635 0 55 -207 544 560 _sc
454 280 _m
454 344 440 395 414 431 _c
387 467 349 485 301 485 _c
253 485 215 467 188 431 _c
161 395 148 344 148 280 _c
148 215 161 165 188 129 _c
215 93 253 75 301 75 _c
349 75 387 93 414 129 _c
440 165 454 215 454 280 _c
544 68 _m
544 -24 523 -93 482 -139 _c
440 -184 377 -207 292 -207 _c
260 -207 231 -204 203 -200 _c
175 -195 147 -188 121 -178 _c
}_e{121 -91 _l
147 -105 173 -115 199 -122 _c
225 -129 251 -133 278 -133 _c
336 -133 380 -117 410 -87 _c
439 -56 454 -10 454 52 _c
454 96 _l
435 64 411 40 382 24 _c
353 8 319 0 279 0 _c
211 0 157 25 116 76 _c
75 127 55 195 55 280 _c
55 364 75 432 116 483 _c
157 534 211 560 279 560 _c
319 560 353 552 382 536 _c
411 520 435 496 454 464 _c
454 547 _l
544 547 _l
}_e{544 68 _l
_cl}_e}_d
/i{278 0 94 0 184 760 _sc
94 547 _m
184 547 _l
184 0 _l
94 0 _l
94 547 _l
94 760 _m
184 760 _l
184 646 _l
94 646 _l
94 760 _l
_cl}_d
/l{278 0 94 0 184 760 _sc
94 760 _m
184 760 _l
184 0 _l
94 0 _l
94 760 _l
_cl}_d
/m{{974 0 91 0 889 560 _sc
520 442 _m
542 482 569 511 600 531 _c
631 550 668 560 711 560 _c
767 560 811 540 842 500 _c
873 460 889 403 889 330 _c
889 0 _l
799 0 _l
799 327 _l
799 379 789 418 771 444 _c
752 469 724 482 686 482 _c
639 482 602 466 575 435 _c
548 404 535 362 535 309 _c
535 0 _l
445 0 _l
445 327 _l
445 379 435 418 417 444 _c
398 469 369 482 331 482 _c
}_e{285 482 248 466 221 435 _c
194 404 181 362 181 309 _c
181 0 _l
91 0 _l
91 547 _l
181 547 _l
181 462 _l
201 495 226 520 255 536 _c
283 552 317 560 357 560 _c
397 560 430 550 458 530 _c
486 510 506 480 520 442 _c
_cl}_e}_d
/o{612 0 55 -13 557 560 _sc
306 484 _m
258 484 220 465 192 427 _c
164 389 150 338 150 273 _c
150 207 163 156 191 118 _c
219 80 257 62 306 62 _c
354 62 392 80 420 118 _c
448 156 462 207 462 273 _c
462 337 448 389 420 427 _c
392 465 354 484 306 484 _c
306 560 _m
384 560 445 534 490 484 _c
534 433 557 363 557 273 _c
557 183 534 113 490 63 _c
445 12 384 -13 306 -13 _c
227 -13 165 12 121 63 _c
77 113 55 183 55 273 _c
55 363 77 433 121 484 _c
165 534 227 560 306 560 _c
_cl}_d
/s{{521 0 54 -13 472 560 _sc
443 531 _m
443 446 _l
417 458 391 468 364 475 _c
336 481 308 485 279 485 _c
234 485 200 478 178 464 _c
156 450 145 430 145 403 _c
145 382 153 366 169 354 _c
185 342 217 330 265 320 _c
296 313 _l
360 299 405 279 432 255 _c
458 230 472 195 472 151 _c
472 100 452 60 412 31 _c
372 1 316 -13 246 -13 _c
216 -13 186 -10 154 -5 _c
}_e{122 0 89 8 54 20 _c
54 113 _l
87 95 120 82 152 74 _c
184 65 216 61 248 61 _c
290 61 323 68 346 82 _c
368 96 380 117 380 144 _c
380 168 371 187 355 200 _c
339 213 303 226 247 238 _c
216 245 _l
160 257 119 275 95 299 _c
70 323 58 356 58 399 _c
58 450 76 490 112 518 _c
148 546 200 560 268 560 _c
301 560 332 557 362 552 _c
391 547 418 540 443 531 _c
}_e{_cl}_e}_d
/t{392 0 27 0 368 702 _sc
183 702 _m
183 547 _l
368 547 _l
368 477 _l
183 477 _l
183 180 _l
183 135 189 106 201 94 _c
213 81 238 75 276 75 _c
368 75 _l
368 0 _l
276 0 _l
206 0 158 13 132 39 _c
106 65 93 112 93 180 _c
93 477 _l
27 477 _l
27 547 _l
93 547 _l
93 702 _l
183 702 _l
_cl}_d
/v{592 0 30 0 562 547 _sc
30 547 _m
125 547 _l
296 88 _l
467 547 _l
562 547 _l
357 0 _l
235 0 _l
30 547 _l
_cl}_d
end readonly def

/BuildGlyph
 {exch begin
 CharStrings exch
 2 copy known not{pop /.notdef}if
 true 3 1 roll get exec
 end}_d

/BuildChar {
 1 index /Encoding get exch get
 1 index /BuildGlyph get exec
}_d

FontName currentdict end definefont pop
end
%%EndProlog
mpldict begin
90 252 translate
432 288 0 0 clipbox
gsave
0 0 m
432 0 l
432 288 l
0 288 l
cl
1.000 setgray
fill
grestore
gsave
54 36 m
388.8 36 l
388.8 253.44 l
54 253.44 l
cl
1.000 setgray
fill
grestore
0.800 setlinewidth
1 setlinejoin
2 setlinecap
[] 0 setdash
0.690 setgray
gsave
334.8 217.4 54 36 clipbox
69.218182 36 m
69.218182 253.44 l
stroke
grestore
0 setlinecap
0.000 setgray
gsave
/o {
gsave
newpath
translate
0.8 setlinewidth
1 setlinejoin
0 setlinecap
0 0 m
0 -3.5 l

gsave
0.000 setgray
fill
grestore
stroke
grestore
} bind def
69.2182 36 o
grestore
/DejaVuSans findfont
10.000 scalefont
setfont
gsave
66.038494 21.406250 translate
0.000000 rotate
0.000000 0.000000 m /zero glyphshow
grestore
2 setlinecap
0.690 setgray
gsave
334.8 217.4 54 36 clipbox
112.729781 36 m
112.729781 253.44 l
stroke
grestore
0 setlinecap
0.000 setgray
gsave
/o {
gsave
newpath
translate
0.8 setlinewidth
1 setlinejoin
0 setlinecap
0 0 m
0 -3.5 l

gsave
0.000 setgray
fill
grestore
stroke
grestore
} bind def
112.73 36 o
grestore
gsave
103.190719 21.406250 translate
0.000000 rotate
0.000000 0.000000 m /two glyphshow
6.362305 0.000000 m /zero glyphshow
12.724609 0.000000 m /zero glyphshow
grestore
2 setlinecap
0.690 setgray
gsave
334.8 217.4 54 36 clipbox
156.24138 36 m
156.24138 253.44 l
stroke
grestore
0 setlinecap
0.000 setgray
gsave
/o {
gsave
newpath
translate
0.8 setlinewidth
1 setlinejoin
0 setlinecap
0 0 m
0 -3.5 l

gsave
0.000 setgray
fill
grestore
stroke
grestore
} bind def
156.241 36 o
grestore
gsave
146.702318 21.406250 translate
0.000000 rotate
0.000000 0.000000 m /four glyphshow
6.362305 0.000000 m /zero glyphshow
12.724609 0.000000 m /zero glyphshow
grestore
2 setlinecap
0.690 setgray
gsave
334.8 217.4 54 36 clipbox
199.752979 36 m
199.752979 253.44 l
stroke
grestore
0 setlinecap
0.000 setgray
gsave
/o {
gsave
newpath
translate
0.8 setlinewidth
1 setlinejoin
0 setlinecap
0 0 m
0 -3.5 l

gsave
0.000 setgray
fill
grestore
stroke
grestore
} bind def
199.753 36 o
grestore
gsave
190.213917 21.406250 translate
0.000000 rotate
0.000000 0.000000 m /six glyphshow
6.362305 0.000000 m /zero glyphshow
12.724609 0.000000 m /zero glyphshow
grestore
2 setlinecap
0.690 setgray
gsave
334.8 217.4 54 36 clipbox
243.264579 36 m
243.264579 253.44 l
stroke
grestore
0 setlinecap
0.000 setgray
gsave
/o {
gsave
newpath
translate
0.8 setlinewidth
1 setlinejoin
0 setlinecap
0 0 m
0 -3.5 l

gsave
0.000 setgray
fill
grestore
stroke
grestore
} bind def
243.265 36 o
grestore
gsave
233.725516 21.406250 translate
0.000000 rotate
0.000000 0.000000 m /eight glyphshow
6.362305 0.000000 m /zero glyphshow
12.724609 0.000000 m /zero glyphshow
grestore
2 setlinecap
0.690 setgray
gsave
334.8 217.4 54 36 clipbox
286.776178 36 m
286.776178 253.44 l
stroke
grestore
0 setlinecap
0.000 setgray
gsave
/o {
gsave
newpath
translate
0.8 setlinewidth
1 setlinejoin
0 setlinecap
0 0 m
0 -3.5 l

gsave
0.000 setgray
fill
grestore
stroke
grestore
} bind def
286.776 36 o
grestore
gsave
274.057428 21.406250 translate
0.000000 rotate
0.000000 0.000000 m /one glyphshow
6.362305 0.000000 m /zero glyphshow
12.724609 0.000000 m /zero glyphshow
19.086914 0.000000 m /zero glyphshow
grestore
2 setlinecap
0.690 setgray
gsave
334.8 217.4 54 36 clipbox
330.287777 36 m
330.287777 253.44 l
stroke
grestore
0 setlinecap
0.000 setgray
gsave
/o {
gsave
newpath
translate
0.8 setlinewidth
1 setlinejoin
0 setlinecap
0 0 m
0 -3.5 l

gsave
0.000 setgray
fill
grestore
stroke
grestore
} bind def
330.288 36 o
grestore
gsave
317.569027 21.406250 translate
0.000000 rotate
0.000000 0.000000 m /one glyphshow
6.362305 0.000000 m /two glyphshow
12.724609 0.000000 m /zero glyphshow
19.086914 0.000000 m /zero glyphshow
grestore
2 setlinecap
0.690 setgray
gsave
334.8 217.4 54 36 clipbox
373.799376 36 m
373.799376 253.44 l
stroke
grestore
0 setlinecap
0.000 setgray
gsave
/o {
gsave
newpath
translate
0.8 setlinewidth
1 setlinejoin
0 setlinecap
0 0 m
0 -3.5 l

gsave
0.000 setgray
fill
grestore
stroke
grestore
} bind def
373.799 36 o
grestore
gsave
361.080626 21.406250 translate
0.000000 rotate
0.000000 0.000000 m /one glyphshow
6.362305 0.000000 m /four glyphshow
12.724609 0.000000 m /zero glyphshow
19.086914 0.000000 m /zero glyphshow
grestore
gsave
200.892188 7.734375 translate
0.000000 rotate
0.000000 0.000000 m /T glyphshow
6.108398 0.000000 m /i glyphshow
8.886719 0.000000 m /m glyphshow
18.627930 0.000000 m /e glyphshow
24.780273 0.000000 m /space glyphshow
27.958984 0.000000 m /bracketleft glyphshow
31.860352 0.000000 m /s glyphshow
37.070312 0.000000 m /bracketright glyphshow
grestore
2 setlinecap
0.690 setgray
gsave
334.8 217.4 54 36 clipbox
54 44.000955 m
388.8 44.000955 l
stroke
grestore
0 setlinecap
0.000 setgray
gsave
/o {
gsave
newpath
translate
0.8 setlinewidth
1 setlinejoin
0 setlinecap
0 0 m
-3.5 0 l

gsave
0.000 setgray
fill
grestore
stroke
grestore
} bind def
54 44.001 o
grestore
gsave
27.921875 40.204080 translate
0.000000 rotate
0.000000 0.000000 m /one glyphshow
6.362305 0.000000 m /nine glyphshow
12.724609 0.000000 m /zero glyphshow
grestore
2 setlinecap
0.690 setgray
gsave
334.8 217.4 54 36 clipbox
54 74.70857 m
388.8 74.70857 l
stroke
grestore
0 setlinecap
0.000 setgray
gsave
/o {
gsave
newpath
translate
0.8 setlinewidth
1 setlinejoin
0 setlinecap
0 0 m
-3.5 0 l

gsave
0.000 setgray
fill
grestore
stroke
grestore
} bind def
54 74.7086 o
grestore
gsave
27.921875 70.911695 translate
0.000000 rotate
0.000000 0.000000 m /two glyphshow
6.362305 0.000000 m /zero glyphshow
12.724609 0.000000 m /zero glyphshow
grestore
2 setlinecap
0.690 setgray
gsave
334.8 217.4 54 36 clipbox
54 105.416186 m
388.8 105.416186 l
stroke
grestore
0 setlinecap
0.000 setgray
gsave
/o {
gsave
newpath
translate
0.8 setlinewidth
1 setlinejoin
0 setlinecap
0 0 m
-3.5 0 l

gsave
0.000 setgray
fill
grestore
stroke
grestore
} bind def
54 105.416 o
grestore
gsave
27.921875 101.619311 translate
0.000000 rotate
0.000000 0.000000 m /two glyphshow
6.362305 0.000000 m /one glyphshow
12.724609 0.000000 m /zero glyphshow
grestore
2 setlinecap
0.690 setgray
gsave
334.8 217.4 54 36 clipbox
54 136.123802 m
388.8 136.123802 l
stroke
grestore
0 setlinecap
0.000 setgray
gsave
/o {
gsave
newpath
translate
0.8 setlinewidth
1 setlinejoin
0 setlinecap
0 0 m
-3.5 0 l

gsave
0.000 setgray
fill
grestore
stroke
grestore
} bind def
54 136.124 o
grestore
gsave
27.921875 132.326927 translate
0.000000 rotate
0.000000 0.000000 m /two glyphshow
6.362305 0.000000 m /two glyphshow
12.724609 0.000000 m /zero glyphshow
grestore
2 setlinecap
0.690 setgray
gsave
334.8 217.4 54 36 clipbox
54 166.831417 m
388.8 166.831417 l
stroke
grestore
0 setlinecap
0.000 setgray
gsave
/o {
gsave
newpath
translate
0.8 setlinewidth
1 setlinejoin
0 setlinecap
0 0 m
-3.5 0 l

gsave
0.000 setgray
fill
grestore
stroke
grestore
} bind def
54 166.831 o
grestore
gsave
27.921875 163.034542 translate
0.000000 rotate
0.000000 0.000000 m /two glyphshow
6.362305 0.000000 m /three glyphshow
12.724609 0.000000 m /zero glyphshow
grestore
2 setlinecap
0.690 setgray
gsave
334.8 217.4 54 36 clipbox
54 197.539033 m
388.8 197.539033 l
stroke
grestore
0 setlinecap
0.000 setgray
gsave
/o {
gsave
newpath
translate
0.8 setlinewidth
1 setlinejoin
0 setlinecap
0 0 m
-3.5 0 l

gsave
0.000 setgray
fill
grestore
stroke
grestore
} bind def
54 197.539 o
grestore
gsave
27.921875 193.742158 translate
0.000000 rotate
0.000000 0.000000 m /two glyphshow
6.362305 0.000000 m /four glyphshow
12.724609 0.000000 m /zero glyphshow
grestore
2 setlinecap
0.690 setgray
gsave
334.8 217.4 54 36 clipbox
54 228.246648 m
388.8 228.246648 l
stroke
grestore
0 setlinecap
0.000 setgray
gsave
/o {
gsave
newpath
translate
0.8 setlinewidth
1 setlinejoin
0 setlinecap
0 0 m
-3.5 0 l

gsave
0.000 setgray
fill
grestore
stroke
grestore
} bind def
54 228.247 o
grestore
gsave
27.921875 224.449773 translate
0.000000 rotate
0.000000 0.000000 m /two glyphshow
6.362305 0.000000 m /five glyphshow
12.724609 0.000000 m /zero glyphshow
grestore
gsave
21.843750 102.259062 translate
90.000000 rotate
0.000000 0.000000 m /H glyphshow
7.519531 0.000000 m /E glyphshow
13.837891 0.000000 m /S glyphshow
20.185547 0.000000 m /S glyphshow
26.533203 0.000000 m /space glyphshow
29.711914 0.000000 m /v glyphshow
35.629883 0.000000 m /o glyphshow
41.748047 0.000000 m /l glyphshow
44.526367 0.000000 m /t glyphshow
48.447266 0.000000 m /a glyphshow
54.575195 0.000000 m /g glyphshow
60.922852 0.000000 m /e glyphshow
67.075195 0.000000 m /space glyphshow
70.253906 0.000000 m /bracketleft glyphshow
74.155273 0.000000 m /V glyphshow
80.996094 0.000000 m /bracketright glyphshow
grestore
1.500 setlinewidth
2 setlinecap
0.122 0.467 0.706 setrgbcolor
gsave
334.8 217.4 54 36 clipbox
69.218182 143.521668 m
69.870856 143.175883 l
70.088414 143.230971 l
70.741088 143.872222 l
70.958646 143.421274 l
71.393762 142.103378 l
71.61132 142.610982 l
72.046436 146.01413 l
72.263994 146.183354 l
72.481552 143.376842 l
73.134226 129.293896 l
73.351784 131.456352 l
74.222016 156.383748 l
74.439574 155.20579 l
74.87469 150.747481 l
75.092248 149.911686 l
75.309806 148.264349 l
75.527364 143.036329 l
75.96248 118.641575 l
76.397596 96.768571 l
76.615154 98.345171 l
76.832712 109.945706 l
77.267828 143.963718 l
77.485386 151.270773 l
77.702944 145.609759 l
78.355618 96.166121 l
78.573176 94.636152 l
78.790734 104.902481 l
79.22585 135.492387 l
79.443408 142.662779 l
79.660966 141.840685 l
80.31364 125.514802 l
80.531198 124.491238 l
80.748756 126.123824 l
81.183872 134.655866 l
81.618988 144.936448 l
81.836546 147.583946 l
82.054104 147.19749 l
82.48922 139.463951 l
82.706778 135.721201 l
82.924336 134.736591 l
83.141894 138.134761 l
83.57701 155.811223 l
84.012126 170.420893 l
84.229684 168.838256 l
84.6648 150.236852 l
84.882358 141.133287 l
85.099916 137.066339 l
85.317474 138.25707 l
85.75259 144.302135 l
85.970148 142.679288 l
86.622821 126.192403 l
86.840379 124.329729 l
87.057937 124.31182 l
87.275495 124.169043 l
87.493053 123.328741 l
87.710611 124.020678 l
87.928169 130.345669 l
88.145727 146.111309 l
89.015959 243.556364 l
89.233517 242.641163 l
89.668633 205.650146 l
90.103749 170.412189 l
90.538865 158.399794 l
90.756423 155.496945 l
90.973981 143.582918 l
92.496887 143.503331 l
92.932003 143.500429 l
93.584677 143.938288 l
93.802235 143.684839 l
94.237351 142.651844 l
94.454909 142.64431 l
94.672467 143.414405 l
95.107583 146.402311 l
95.325141 146.674702 l
95.542699 145.051479 l
96.195373 136.198015 l
96.412931 136.916134 l
96.848047 142.327401 l
97.065605 141.894678 l
97.283163 136.785587 l
97.935837 111.172775 l
98.153395 110.317693 l
98.370953 115.424111 l
99.023627 137.339812 l
99.241185 138.247246 l
99.676301 134.587784 l
99.893859 135.041224 l
100.111417 138.711625 l
100.764091 153.795405 l
100.981649 153.749494 l
101.416765 146.135621 l
101.851881 139.570938 l
102.286997 137.410902 l
102.504555 135.336907 l
102.939671 126.340198 l
103.374787 117.539932 l
103.592345 116.831379 l
103.809903 120.799081 l
104.027461 130.715142 l
104.462577 170.31568 l
104.897693 216.978786 l
105.115251 228.437555 l
105.332809 226.07613 l
105.767925 188.46184 l
106.203041 150.425196 l
106.420599 142.058468 l
106.855715 133.157893 l
107.725947 98.399321 l
107.943505 102.449411 l
108.378621 120.17944 l
108.596179 123.094202 l
108.813737 118.849794 l
109.248853 103.026904 l
109.466411 101.658911 l
109.683969 107.656837 l
110.336643 137.217635 l
110.554201 140.030261 l
110.771759 139.868262 l
110.989317 139.474914 l
111.206875 140.873318 l
111.641991 146.376307 l
111.859549 145.794533 l
112.077107 140.192764 l
112.512223 117.499011 l
112.729781 143.090059 l
113.817571 143.107263 l
114.252687 143.273478 l
114.687803 143.008934 l
115.122919 142.675827 l
115.340477 142.82092 l
115.993151 144.057835 l
116.210709 143.487122 l
116.428267 141.591746 l
116.863383 133.394386 l
117.298499 124.407797 l
117.516057 122.747621 l
117.733615 123.897794 l
118.386289 132.350777 l
118.603847 132.202769 l
119.038963 129.369235 l
119.256521 130.048929 l
119.691637 137.998694 l
120.126753 145.22113 l
120.344311 145.06159 l
120.561869 142.364097 l
121.432101 124.779622 l
121.649659 122.987848 l
122.519891 120.134061 l
122.737449 121.235903 l
122.955007 126.38142 l
123.607681 150.030594 l
123.825239 141.425961 l
124.260355 86.749258 l
124.477913 58.371097 l
124.695471 45.883636 l
124.913029 55.966145 l
125.783261 165.923061 l
126.000819 162.043512 l
126.653493 124.227535 l
126.871051 123.441735 l
127.306167 131.231948 l
127.523725 132.582008 l
127.958841 130.360492 l
128.176399 130.935271 l
129.046631 140.742014 l
129.264189 138.663234 l
129.916863 129.961319 l
130.134421 129.695861 l
130.569537 132.442274 l
130.787095 133.818982 l
131.004653 134.436345 l
131.222211 134.376973 l
131.657327 133.856046 l
131.874885 133.990298 l
132.527559 134.782427 l
132.745117 134.735639 l
133.832907 133.645277 l
134.268023 132.593549 l
134.485581 142.156687 l
135.355813 142.105798 l
136.661161 142.113188 l
137.096277 141.897001 l
137.313835 141.867575 l
137.531393 142.074444 l
138.401625 143.70923 l
138.619183 143.500341 l
138.836741 142.921164 l
139.271857 140.377489 l
139.924531 134.270099 l
140.577204 128.11074 l
141.01232 126.624984 l
141.229878 126.099388 l
141.447436 125.168735 l
142.10011 120.434681 l
142.317668 120.87529 l
142.535226 123.318622 l
143.1879 134.311856 l
143.405458 135.552717 l
143.623016 135.844411 l
143.840574 137.053545 l
144.058132 141.035223 l
144.493248 159.177483 l
144.928364 176.72808 l
145.145922 178.116207 l
145.36348 173.412001 l
146.233712 139.196078 l
146.668828 133.933277 l
147.103944 128.890923 l
147.53906 123.543595 l
147.756618 123.188738 l
147.974176 124.807716 l
148.409292 130.241229 l
148.62685 131.579924 l
148.844408 131.204117 l
149.279524 128.056912 l
149.497082 127.673638 l
149.71464 129.027263 l
150.149756 136.456889 l
150.584872 143.874007 l
150.80243 145.449412 l
151.019988 145.196445 l
151.237546 143.404995 l
151.672662 137.089841 l
152.325336 126.009006 l
152.542894 124.022122 l
152.760452 124.673954 l
152.97801 129.170313 l
153.413126 149.355275 l
153.848242 171.273435 l
154.0658 175.488163 l
154.283358 172.94609 l
154.718474 152.811705 l
155.15359 133.76037 l
155.371148 130.959367 l
155.588706 132.775566 l
156.023822 143.27802 l
156.24138 141.90097 l
157.32917 141.955704 l
158.199402 141.591007 l
158.41696 141.684335 l
158.852076 142.309301 l
159.069634 142.650903 l
159.287192 142.751431 l
159.50475 142.411305 l
159.722308 141.443613 l
160.157424 137.457378 l
161.027656 126.329961 l
161.245214 124.982435 l
161.462772 125.097346 l
161.68033 126.991567 l
162.115446 136.1557 l
162.76812 153.44535 l
162.985678 155.833487 l
163.203236 155.173097 l
163.420794 151.480692 l
164.291026 127.61965 l
164.508584 125.761299 l
164.726142 126.688825 l
165.161258 134.071185 l
165.596374 140.911117 l
165.813932 141.634288 l
166.03149 140.160771 l
166.466606 132.508898 l
166.901722 124.5102 l
167.11928 122.482241 l
167.336838 122.379562 l
167.554396 124.108372 l
168.424628 135.357591 l
168.642186 134.987317 l
169.077302 129.577973 l
169.512418 124.378971 l
169.947534 122.907353 l
170.165092 120.886903 l
170.38265 115.619981 l
170.817766 93.195863 l
171.252882 67.468336 l
171.47044 61.661127 l
171.687998 63.768003 l
171.905556 73.667087 l
172.993346 144.160415 l
173.863578 167.039559 l
174.081136 171.092493 l
174.298694 171.886255 l
174.516252 168.278838 l
174.951368 149.888643 l
175.386484 130.667536 l
175.604042 125.925519 l
175.8216 125.24618 l
176.039158 127.744825 l
176.90939 142.423824 l
177.126948 143.786143 l
177.344506 144.301241 l
177.562064 144.244682 l
177.779622 143.918259 l
177.99718 141.159566 l
178.649854 141.176448 l
179.302528 141.283748 l
180.17276 140.997394 l
180.607876 141.239173 l
181.042992 141.721941 l
181.26055 141.791869 l
181.478108 141.627279 l
181.913224 140.968775 l
182.130782 141.139308 l
182.34834 142.339193 l
182.565898 145.06613 l
183.001014 155.733264 l
183.653688 176.253741 l
183.871246 180.066789 l
184.088804 180.749105 l
184.306362 178.223987 l
184.741478 165.646631 l
185.394152 143.676167 l
185.829268 134.856668 l
187.352174 113.578519 l
187.569732 113.311782 l
187.78729 115.037769 l
188.222406 122.855944 l
188.657522 131.624489 l
188.87508 134.228523 l
189.092638 134.859422 l
189.310196 133.33811 l
189.745312 124.971004 l
190.615544 104.179448 l
190.833102 101.486502 l
191.05066 100.566996 l
191.268218 101.635155 l
191.485776 104.804116 l
191.920892 116.615436 l
192.791124 144.374385 l
193.22624 149.519816 l
193.878914 150.770323 l
194.31403 155.079749 l
194.749145 159.836082 l
194.966703 159.947269 l
195.184261 157.511184 l
195.619377 145.803733 l
196.272051 127.712451 l
196.489609 125.626848 l
196.707167 125.69184 l
197.142283 127.934275 l
197.359841 127.827673 l
197.577399 125.866147 l
198.012515 116.510843 l
198.665189 101.76 l
198.882747 100.17869 l
199.100305 101.058981 l
199.535421 108.200981 l
199.752979 140.431119 l
200.405653 140.529384 l
201.058327 140.791187 l
201.493443 140.99123 l
201.711001 141.000555 l
201.928559 140.894771 l
202.146117 140.593732 l
202.581233 139.288993 l
203.016349 136.980269 l
204.321697 128.891258 l
204.539255 128.296411 l
204.756813 128.051551 l
204.974371 128.191111 l
205.191929 128.658603 l
205.627045 130.498733 l
206.279719 134.904544 l
206.932393 140.680538 l
207.585067 148.497581 l
208.237741 159.438296 l
209.107973 175.084804 l
209.543089 179.737566 l
209.760647 180.513492 l
209.978205 180.062238 l
210.195763 178.337177 l
210.630879 171.484288 l
212.153785 139.710325 l
212.371343 138.111672 l
212.588901 137.832046 l
212.806459 138.921232 l
213.024017 141.38659 l
213.459133 150.331281 l
214.111807 172.603814 l
215.417155 226.141851 l
215.852271 235.389893 l
216.069829 236.821173 l
216.287387 235.89997 l
216.504945 232.683674 l
216.940061 220.165529 l
217.810293 182.251914 l
218.462967 157.064373 l
218.898083 146.31751 l
219.333199 140.533688 l
219.768315 138.265935 l
220.203431 137.568195 l
220.638547 136.890436 l
221.073663 135.614211 l
221.291221 134.814815 l
221.508779 141.919492 l
221.943895 141.849173 l
222.379011 141.664287 l
223.249243 141.089356 l
226.512613 137.743276 l
226.947729 137.599776 l
227.165287 137.559147 l
227.817961 137.893305 l
228.253077 138.300943 l
228.905751 139.167125 l
230.428657 141.586065 l
230.646215 141.696831 l
230.863773 141.965914 l
231.081331 142.0114 l
232.386679 143.393015 l
232.604237 144.02612 l
232.821795 144.247678 l
233.474469 147.160582 l
234.127143 151.722695 l
236.302723 169.523585 l
236.737839 170.929215 l
236.955397 171.308821 l
237.172955 171.387984 l
237.390513 171.147208 l
237.608071 170.736479 l
238.260745 167.827311 l
239.566093 160.63219 l
240.871441 156.095899 l
242.176789 153.240235 l
243.047021 150.191423 l
243.264579 142.769881 l
351.826019 142.769881 l
352.043577 141.642127 l
359.875664 141.605582 l
360.093222 136.202397 l
360.31078 106.89985 l
360.528338 127.142084 l
360.745896 106.448478 l
361.181012 145.837417 l
361.39857 137.684525 l
361.616128 125.294108 l
361.833686 136.073249 l
362.051244 120.681535 l
362.48636 151.993936 l
362.703918 144.24719 l
362.921476 174.826094 l
363.139034 141.830056 l
363.356592 164.035208 l
363.57415 170.843838 l
363.791708 149.625747 l
364.009266 178.538673 l
364.226824 150.64863 l
364.444382 149.351802 l
364.66194 137.916847 l
364.879498 144.485592 l
365.314614 101.804426 l
365.532172 134.218002 l
365.74973 118.407971 l
366.184846 164.848989 l
366.402404 153.198646 l
366.619962 153.155224 l
366.83752 148.506543 l
367.055078 146.628343 l
367.272636 141.024993 l
367.490194 141.836665 l
367.707752 143.567063 l
367.92531 141.571506 l
369.230658 141.553338 l
369.448216 139.795217 l
369.665774 140.217677 l
369.883332 140.087524 l
370.10089 140.215595 l
370.318448 141.842677 l
370.536006 141.544725 l
373.581818 141.527639 l
373.581818 141.527639 l
stroke
grestore
0.800 setlinewidth
0 setlinejoin
[] 0 setdash
0.000 setgray
gsave
54 36 m
54 253.44 l
stroke
grestore
gsave
388.8 36 m
388.8 253.44 l
stroke
grestore
gsave
54 36 m
388.8 36 l
stroke
grestore
gsave
54 253.44 m
388.8 253.44 l
stroke
grestore

end
showpage
