%!PS-Adobe-3.0 EPSF-3.0
%%Title: ./plots/good2_1/fixed_init_obj.eps
%%Creator: matplotlib version 2.0.0, http://matplotlib.org/
%%CreationDate: Mon May  1 11:53:31 2017
%%Orientation: portrait
%%BoundingBox: 90 252 522 540
%%EndComments
%%BeginProlog
/mpldict 8 dict def
mpldict begin
/m { moveto } bind def
/l { lineto } bind def
/r { rlineto } bind def
/c { curveto } bind def
/cl { closepath } bind def
/box {
m
1 index 0 r
0 exch r
neg 0 r
cl
} bind def
/clipbox {
box
clip
newpath
} bind def
%!PS-Adobe-3.0 Resource-Font
%%Title: DejaVu Sans
%%Copyright: Copyright (c) 2003 by Bitstream, Inc. All Rights Reserved. Copyright (c) 2006 by Tavmjong Bah. All Rights Reserved. DejaVu changes are in public domain 
%%Creator: Converted from TrueType to type 3 by PPR
25 dict begin
/_d{bind def}bind def
/_m{moveto}_d
/_l{lineto}_d
/_cl{closepath eofill}_d
/_c{curveto}_d
/_sc{7 -1 roll{setcachedevice}{pop pop pop pop pop pop}ifelse}_d
/_e{exec}_d
/FontName /DejaVuSans def
/PaintType 0 def
/FontMatrix[.001 0 0 .001 0 0]def
/FontBBox[-1021 -463 1793 1232]def
/FontType 3 def
/Encoding [ /space /zero /one /two /four /five /six /eight /B /F /N /O /T /V /a /b /c /e /g /h /i /j /l /m /n /o /r /s /t /u /v ] def
/FontInfo 10 dict dup begin
/FamilyName (DejaVu Sans) def
/FullName (DejaVu Sans) def
/Notice (Copyright (c) 2003 by Bitstream, Inc. All Rights Reserved. Copyright (c) 2006 by Tavmjong Bah. All Rights Reserved. DejaVu changes are in public domain ) def
/Weight (Book) def
/Version (Version 2.35) def
/ItalicAngle 0.0 def
/isFixedPitch false def
/UnderlinePosition -130 def
/UnderlineThickness 90 def
end readonly def
/CharStrings 31 dict dup begin
/space{318 0 0 0 0 0 _sc
}_d
/zero{636 0 66 -13 570 742 _sc
318 664 _m
267 664 229 639 203 589 _c
177 539 165 464 165 364 _c
165 264 177 189 203 139 _c
229 89 267 64 318 64 _c
369 64 407 89 433 139 _c
458 189 471 264 471 364 _c
471 464 458 539 433 589 _c
407 639 369 664 318 664 _c
318 742 _m
399 742 461 709 505 645 _c
548 580 570 486 570 364 _c
570 241 548 147 505 83 _c
461 19 399 -13 318 -13 _c
236 -13 173 19 130 83 _c
87 147 66 241 66 364 _c
66 486 87 580 130 645 _c
173 709 236 742 318 742 _c
_cl}_d
/one{636 0 110 0 544 729 _sc
124 83 _m
285 83 _l
285 639 _l
110 604 _l
110 694 _l
284 729 _l
383 729 _l
383 83 _l
544 83 _l
544 0 _l
124 0 _l
124 83 _l
_cl}_d
/two{{636 0 73 0 536 742 _sc
192 83 _m
536 83 _l
536 0 _l
73 0 _l
73 83 _l
110 121 161 173 226 239 _c
290 304 331 346 348 365 _c
380 400 402 430 414 455 _c
426 479 433 504 433 528 _c
433 566 419 598 392 622 _c
365 646 330 659 286 659 _c
255 659 222 653 188 643 _c
154 632 117 616 78 594 _c
78 694 _l
118 710 155 722 189 730 _c
223 738 255 742 284 742 _c
}_e{359 742 419 723 464 685 _c
509 647 532 597 532 534 _c
532 504 526 475 515 449 _c
504 422 484 390 454 354 _c
446 344 420 317 376 272 _c
332 227 271 164 192 83 _c
_cl}_e}_d
/four{636 0 49 0 580 729 _sc
378 643 _m
129 254 _l
378 254 _l
378 643 _l
352 729 _m
476 729 _l
476 254 _l
580 254 _l
580 172 _l
476 172 _l
476 0 _l
378 0 _l
378 172 _l
49 172 _l
49 267 _l
352 729 _l
_cl}_d
/five{{636 0 77 -13 549 729 _sc
108 729 _m
495 729 _l
495 646 _l
198 646 _l
198 467 _l
212 472 227 476 241 478 _c
255 480 270 482 284 482 _c
365 482 429 459 477 415 _c
525 370 549 310 549 234 _c
549 155 524 94 475 51 _c
426 8 357 -13 269 -13 _c
238 -13 207 -10 175 -6 _c
143 -1 111 6 77 17 _c
77 116 _l
106 100 136 88 168 80 _c
199 72 232 69 267 69 _c
}_e{323 69 368 83 401 113 _c
433 143 450 183 450 234 _c
450 284 433 324 401 354 _c
368 384 323 399 267 399 _c
241 399 214 396 188 390 _c
162 384 135 375 108 363 _c
108 729 _l
_cl}_e}_d
/six{{636 0 70 -13 573 742 _sc
330 404 _m
286 404 251 388 225 358 _c
199 328 186 286 186 234 _c
186 181 199 139 225 109 _c
251 79 286 64 330 64 _c
374 64 409 79 435 109 _c
461 139 474 181 474 234 _c
474 286 461 328 435 358 _c
409 388 374 404 330 404 _c
526 713 _m
526 623 _l
501 635 476 644 451 650 _c
425 656 400 659 376 659 _c
310 659 260 637 226 593 _c
}_e{192 549 172 482 168 394 _c
187 422 211 444 240 459 _c
269 474 301 482 336 482 _c
409 482 467 459 509 415 _c
551 371 573 310 573 234 _c
573 159 550 99 506 54 _c
462 9 403 -13 330 -13 _c
246 -13 181 19 137 83 _c
92 147 70 241 70 364 _c
70 479 97 571 152 639 _c
206 707 280 742 372 742 _c
396 742 421 739 447 735 _c
472 730 498 723 526 713 _c
_cl}_e}_d
/eight{{636 0 68 -13 568 742 _sc
318 346 _m
271 346 234 333 207 308 _c
180 283 167 249 167 205 _c
167 161 180 126 207 101 _c
234 76 271 64 318 64 _c
364 64 401 76 428 102 _c
455 127 469 161 469 205 _c
469 249 455 283 429 308 _c
402 333 365 346 318 346 _c
219 388 _m
177 398 144 418 120 447 _c
96 476 85 511 85 553 _c
85 611 105 657 147 691 _c
188 725 245 742 318 742 _c
}_e{390 742 447 725 489 691 _c
530 657 551 611 551 553 _c
551 511 539 476 515 447 _c
491 418 459 398 417 388 _c
464 377 501 355 528 323 _c
554 291 568 251 568 205 _c
568 134 546 80 503 43 _c
459 5 398 -13 318 -13 _c
237 -13 175 5 132 43 _c
89 80 68 134 68 205 _c
68 251 81 291 108 323 _c
134 355 171 377 219 388 _c
183 544 _m
183 506 194 476 218 455 _c
}_e{242 434 275 424 318 424 _c
360 424 393 434 417 455 _c
441 476 453 506 453 544 _c
453 582 441 611 417 632 _c
393 653 360 664 318 664 _c
275 664 242 653 218 632 _c
194 611 183 582 183 544 _c
_cl}_e}_d
/B{{686 0 98 0 615 729 _sc
197 348 _m
197 81 _l
355 81 _l
408 81 447 92 473 114 _c
498 136 511 169 511 215 _c
511 260 498 293 473 315 _c
447 337 408 348 355 348 _c
197 348 _l
197 648 _m
197 428 _l
343 428 _l
391 428 426 437 450 455 _c
474 473 486 500 486 538 _c
486 574 474 602 450 620 _c
426 638 391 648 343 648 _c
197 648 _l
98 729 _m
350 729 _l
}_e{425 729 483 713 524 682 _c
564 650 585 606 585 549 _c
585 504 574 468 553 442 _c
532 416 502 399 462 393 _c
510 382 548 360 575 327 _c
601 294 615 253 615 204 _c
615 138 592 88 548 53 _c
504 17 441 0 360 0 _c
98 0 _l
98 729 _l
_cl}_e}_d
/F{575 0 98 0 517 729 _sc
98 729 _m
517 729 _l
517 646 _l
197 646 _l
197 431 _l
486 431 _l
486 348 _l
197 348 _l
197 0 _l
98 0 _l
98 729 _l
_cl}_d
/N{748 0 98 0 650 729 _sc
98 729 _m
231 729 _l
554 119 _l
554 729 _l
650 729 _l
650 0 _l
517 0 _l
194 610 _l
194 0 _l
98 0 _l
98 729 _l
_cl}_d
/O{787 0 56 -13 731 742 _sc
394 662 _m
322 662 265 635 223 582 _c
181 528 160 456 160 364 _c
160 272 181 199 223 146 _c
265 92 322 66 394 66 _c
465 66 522 92 564 146 _c
606 199 627 272 627 364 _c
627 456 606 528 564 582 _c
522 635 465 662 394 662 _c
394 742 _m
496 742 577 707 639 639 _c
700 571 731 479 731 364 _c
731 248 700 157 639 89 _c
577 21 496 -13 394 -13 _c
291 -13 209 21 148 89 _c
86 157 56 248 56 364 _c
56 479 86 571 148 639 _c
209 707 291 742 394 742 _c
_cl}_d
/T{611 0 -2 0 614 729 _sc
-2 729 _m
614 729 _l
614 646 _l
355 646 _l
355 0 _l
256 0 _l
256 646 _l
-2 646 _l
-2 729 _l
_cl}_d
/V{684 0 8 0 676 729 _sc
286 0 _m
8 729 _l
111 729 _l
342 115 _l
573 729 _l
676 729 _l
398 0 _l
286 0 _l
_cl}_d
/a{{613 0 60 -13 522 560 _sc
343 275 _m
270 275 220 266 192 250 _c
164 233 150 205 150 165 _c
150 133 160 107 181 89 _c
202 70 231 61 267 61 _c
317 61 357 78 387 114 _c
417 149 432 196 432 255 _c
432 275 _l
343 275 _l
522 312 _m
522 0 _l
432 0 _l
432 83 _l
411 49 385 25 355 10 _c
325 -5 287 -13 243 -13 _c
187 -13 142 2 109 33 _c
76 64 60 106 60 159 _c
}_e{60 220 80 266 122 298 _c
163 329 224 345 306 345 _c
432 345 _l
432 354 _l
432 395 418 427 391 450 _c
364 472 326 484 277 484 _c
245 484 215 480 185 472 _c
155 464 127 453 100 439 _c
100 522 _l
132 534 164 544 195 550 _c
226 556 256 560 286 560 _c
365 560 424 539 463 498 _c
502 457 522 395 522 312 _c
_cl}_e}_d
/b{{635 0 91 -13 580 760 _sc
487 273 _m
487 339 473 390 446 428 _c
418 466 381 485 334 485 _c
286 485 249 466 222 428 _c
194 390 181 339 181 273 _c
181 207 194 155 222 117 _c
249 79 286 61 334 61 _c
381 61 418 79 446 117 _c
473 155 487 207 487 273 _c
181 464 _m
199 496 223 520 252 536 _c
281 552 316 560 356 560 _c
422 560 476 533 518 481 _c
559 428 580 359 580 273 _c
}_e{580 187 559 117 518 65 _c
476 13 422 -13 356 -13 _c
316 -13 281 -5 252 10 _c
223 25 199 49 181 82 _c
181 0 _l
91 0 _l
91 760 _l
181 760 _l
181 464 _l
_cl}_e}_d
/c{{550 0 55 -13 488 560 _sc
488 526 _m
488 442 _l
462 456 437 466 411 473 _c
385 480 360 484 334 484 _c
276 484 230 465 198 428 _c
166 391 150 339 150 273 _c
150 206 166 154 198 117 _c
230 80 276 62 334 62 _c
360 62 385 65 411 72 _c
437 79 462 90 488 104 _c
488 21 _l
462 9 436 0 410 -5 _c
383 -10 354 -13 324 -13 _c
242 -13 176 12 128 64 _c
}_e{79 115 55 185 55 273 _c
55 362 79 432 128 483 _c
177 534 244 560 330 560 _c
358 560 385 557 411 551 _c
437 545 463 537 488 526 _c
_cl}_e}_d
/e{{615 0 55 -13 562 560 _sc
562 296 _m
562 252 _l
149 252 _l
153 190 171 142 205 110 _c
238 78 284 62 344 62 _c
378 62 412 66 444 74 _c
476 82 509 95 541 113 _c
541 28 _l
509 14 476 3 442 -3 _c
408 -9 373 -13 339 -13 _c
251 -13 182 12 131 62 _c
80 112 55 181 55 268 _c
55 357 79 428 127 481 _c
175 533 241 560 323 560 _c
397 560 455 536 498 489 _c
}_e{540 441 562 377 562 296 _c
472 322 _m
471 371 457 410 431 440 _c
404 469 368 484 324 484 _c
274 484 234 469 204 441 _c
174 413 156 373 152 322 _c
472 322 _l
_cl}_e}_d
/g{{635 0 55 -207 544 560 _sc
454 280 _m
454 344 440 395 414 431 _c
387 467 349 485 301 485 _c
253 485 215 467 188 431 _c
161 395 148 344 148 280 _c
148 215 161 165 188 129 _c
215 93 253 75 301 75 _c
349 75 387 93 414 129 _c
440 165 454 215 454 280 _c
544 68 _m
544 -24 523 -93 482 -139 _c
440 -184 377 -207 292 -207 _c
260 -207 231 -204 203 -200 _c
175 -195 147 -188 121 -178 _c
}_e{121 -91 _l
147 -105 173 -115 199 -122 _c
225 -129 251 -133 278 -133 _c
336 -133 380 -117 410 -87 _c
439 -56 454 -10 454 52 _c
454 96 _l
435 64 411 40 382 24 _c
353 8 319 0 279 0 _c
211 0 157 25 116 76 _c
75 127 55 195 55 280 _c
55 364 75 432 116 483 _c
157 534 211 560 279 560 _c
319 560 353 552 382 536 _c
411 520 435 496 454 464 _c
454 547 _l
544 547 _l
}_e{544 68 _l
_cl}_e}_d
/h{634 0 91 0 549 760 _sc
549 330 _m
549 0 _l
459 0 _l
459 327 _l
459 379 448 417 428 443 _c
408 469 378 482 338 482 _c
289 482 251 466 223 435 _c
195 404 181 362 181 309 _c
181 0 _l
91 0 _l
91 760 _l
181 760 _l
181 462 _l
202 494 227 519 257 535 _c
286 551 320 560 358 560 _c
420 560 468 540 500 501 _c
532 462 549 405 549 330 _c
_cl}_d
/i{278 0 94 0 184 760 _sc
94 547 _m
184 547 _l
184 0 _l
94 0 _l
94 547 _l
94 760 _m
184 760 _l
184 646 _l
94 646 _l
94 760 _l
_cl}_d
/j{278 0 -17 -207 184 760 _sc
94 547 _m
184 547 _l
184 -9 _l
184 -78 170 -128 144 -160 _c
117 -191 74 -207 16 -207 _c
-17 -207 _l
-17 -131 _l
6 -131 _l
40 -131 63 -123 75 -107 _c
87 -91 94 -58 94 -9 _c
94 547 _l
94 760 _m
184 760 _l
184 646 _l
94 646 _l
94 760 _l
_cl}_d
/l{278 0 94 0 184 760 _sc
94 760 _m
184 760 _l
184 0 _l
94 0 _l
94 760 _l
_cl}_d
/m{{974 0 91 0 889 560 _sc
520 442 _m
542 482 569 511 600 531 _c
631 550 668 560 711 560 _c
767 560 811 540 842 500 _c
873 460 889 403 889 330 _c
889 0 _l
799 0 _l
799 327 _l
799 379 789 418 771 444 _c
752 469 724 482 686 482 _c
639 482 602 466 575 435 _c
548 404 535 362 535 309 _c
535 0 _l
445 0 _l
445 327 _l
445 379 435 418 417 444 _c
398 469 369 482 331 482 _c
}_e{285 482 248 466 221 435 _c
194 404 181 362 181 309 _c
181 0 _l
91 0 _l
91 547 _l
181 547 _l
181 462 _l
201 495 226 520 255 536 _c
283 552 317 560 357 560 _c
397 560 430 550 458 530 _c
486 510 506 480 520 442 _c
_cl}_e}_d
/n{634 0 91 0 549 560 _sc
549 330 _m
549 0 _l
459 0 _l
459 327 _l
459 379 448 417 428 443 _c
408 469 378 482 338 482 _c
289 482 251 466 223 435 _c
195 404 181 362 181 309 _c
181 0 _l
91 0 _l
91 547 _l
181 547 _l
181 462 _l
202 494 227 519 257 535 _c
286 551 320 560 358 560 _c
420 560 468 540 500 501 _c
532 462 549 405 549 330 _c
_cl}_d
/o{612 0 55 -13 557 560 _sc
306 484 _m
258 484 220 465 192 427 _c
164 389 150 338 150 273 _c
150 207 163 156 191 118 _c
219 80 257 62 306 62 _c
354 62 392 80 420 118 _c
448 156 462 207 462 273 _c
462 337 448 389 420 427 _c
392 465 354 484 306 484 _c
306 560 _m
384 560 445 534 490 484 _c
534 433 557 363 557 273 _c
557 183 534 113 490 63 _c
445 12 384 -13 306 -13 _c
227 -13 165 12 121 63 _c
77 113 55 183 55 273 _c
55 363 77 433 121 484 _c
165 534 227 560 306 560 _c
_cl}_d
/r{411 0 91 0 411 560 _sc
411 463 _m
401 469 390 473 378 476 _c
366 478 353 480 339 480 _c
288 480 249 463 222 430 _c
194 397 181 350 181 288 _c
181 0 _l
91 0 _l
91 547 _l
181 547 _l
181 462 _l
199 495 224 520 254 536 _c
284 552 321 560 365 560 _c
371 560 378 559 386 559 _c
393 558 401 557 411 555 _c
411 463 _l
_cl}_d
/s{{521 0 54 -13 472 560 _sc
443 531 _m
443 446 _l
417 458 391 468 364 475 _c
336 481 308 485 279 485 _c
234 485 200 478 178 464 _c
156 450 145 430 145 403 _c
145 382 153 366 169 354 _c
185 342 217 330 265 320 _c
296 313 _l
360 299 405 279 432 255 _c
458 230 472 195 472 151 _c
472 100 452 60 412 31 _c
372 1 316 -13 246 -13 _c
216 -13 186 -10 154 -5 _c
}_e{122 0 89 8 54 20 _c
54 113 _l
87 95 120 82 152 74 _c
184 65 216 61 248 61 _c
290 61 323 68 346 82 _c
368 96 380 117 380 144 _c
380 168 371 187 355 200 _c
339 213 303 226 247 238 _c
216 245 _l
160 257 119 275 95 299 _c
70 323 58 356 58 399 _c
58 450 76 490 112 518 _c
148 546 200 560 268 560 _c
301 560 332 557 362 552 _c
391 547 418 540 443 531 _c
}_e{_cl}_e}_d
/t{392 0 27 0 368 702 _sc
183 702 _m
183 547 _l
368 547 _l
368 477 _l
183 477 _l
183 180 _l
183 135 189 106 201 94 _c
213 81 238 75 276 75 _c
368 75 _l
368 0 _l
276 0 _l
206 0 158 13 132 39 _c
106 65 93 112 93 180 _c
93 477 _l
27 477 _l
27 547 _l
93 547 _l
93 702 _l
183 702 _l
_cl}_d
/u{634 0 85 -13 543 560 _sc
85 216 _m
85 547 _l
175 547 _l
175 219 _l
175 167 185 129 205 103 _c
225 77 255 64 296 64 _c
344 64 383 79 411 110 _c
439 141 453 183 453 237 _c
453 547 _l
543 547 _l
543 0 _l
453 0 _l
453 84 _l
431 50 405 26 377 10 _c
348 -5 315 -13 277 -13 _c
214 -13 166 6 134 45 _c
101 83 85 140 85 216 _c
311 560 _m
311 560 _l
_cl}_d
/v{592 0 30 0 562 547 _sc
30 547 _m
125 547 _l
296 88 _l
467 547 _l
562 547 _l
357 0 _l
235 0 _l
30 547 _l
_cl}_d
end readonly def

/BuildGlyph
 {exch begin
 CharStrings exch
 2 copy known not{pop /.notdef}if
 true 3 1 roll get exec
 end}_d

/BuildChar {
 1 index /Encoding get exch get
 1 index /BuildGlyph get exec
}_d

FontName currentdict end definefont pop
end
%%EndProlog
mpldict begin
90 252 translate
432 288 0 0 clipbox
gsave
0 0 m
432 0 l
432 288 l
0 288 l
cl
1.000 setgray
fill
grestore
gsave
54 36 m
388.8 36 l
388.8 253.44 l
54 253.44 l
cl
1.000 setgray
fill
grestore
0.800 setlinewidth
1 setlinejoin
2 setlinecap
[] 0 setdash
0.690 setgray
gsave
334.8 217.4 54 36 clipbox
69.218182 36 m
69.218182 253.44 l
stroke
grestore
0 setlinecap
0.000 setgray
gsave
/o {
gsave
newpath
translate
0.8 setlinewidth
1 setlinejoin
0 setlinecap
0 0 m
0 -3.5 l

gsave
0.000 setgray
fill
grestore
stroke
grestore
} bind def
69.2182 36 o
grestore
/DejaVuSans findfont
10.000 scalefont
setfont
gsave
66.038494 21.406250 translate
0.000000 rotate
0.000000 0.000000 m /zero glyphshow
grestore
2 setlinecap
0.690 setgray
gsave
334.8 217.4 54 36 clipbox
125.581818 36 m
125.581818 253.44 l
stroke
grestore
0 setlinecap
0.000 setgray
gsave
/o {
gsave
newpath
translate
0.8 setlinewidth
1 setlinejoin
0 setlinecap
0 0 m
0 -3.5 l

gsave
0.000 setgray
fill
grestore
stroke
grestore
} bind def
125.582 36 o
grestore
gsave
116.042756 21.406250 translate
0.000000 rotate
0.000000 0.000000 m /five glyphshow
6.362305 0.000000 m /zero glyphshow
12.724609 0.000000 m /zero glyphshow
grestore
2 setlinecap
0.690 setgray
gsave
334.8 217.4 54 36 clipbox
181.945455 36 m
181.945455 253.44 l
stroke
grestore
0 setlinecap
0.000 setgray
gsave
/o {
gsave
newpath
translate
0.8 setlinewidth
1 setlinejoin
0 setlinecap
0 0 m
0 -3.5 l

gsave
0.000 setgray
fill
grestore
stroke
grestore
} bind def
181.945 36 o
grestore
gsave
169.226705 21.406250 translate
0.000000 rotate
0.000000 0.000000 m /one glyphshow
6.362305 0.000000 m /zero glyphshow
12.724609 0.000000 m /zero glyphshow
19.086914 0.000000 m /zero glyphshow
grestore
2 setlinecap
0.690 setgray
gsave
334.8 217.4 54 36 clipbox
238.309091 36 m
238.309091 253.44 l
stroke
grestore
0 setlinecap
0.000 setgray
gsave
/o {
gsave
newpath
translate
0.8 setlinewidth
1 setlinejoin
0 setlinecap
0 0 m
0 -3.5 l

gsave
0.000 setgray
fill
grestore
stroke
grestore
} bind def
238.309 36 o
grestore
gsave
225.590341 21.406250 translate
0.000000 rotate
0.000000 0.000000 m /one glyphshow
6.362305 0.000000 m /five glyphshow
12.724609 0.000000 m /zero glyphshow
19.086914 0.000000 m /zero glyphshow
grestore
2 setlinecap
0.690 setgray
gsave
334.8 217.4 54 36 clipbox
294.672727 36 m
294.672727 253.44 l
stroke
grestore
0 setlinecap
0.000 setgray
gsave
/o {
gsave
newpath
translate
0.8 setlinewidth
1 setlinejoin
0 setlinecap
0 0 m
0 -3.5 l

gsave
0.000 setgray
fill
grestore
stroke
grestore
} bind def
294.673 36 o
grestore
gsave
281.953977 21.406250 translate
0.000000 rotate
0.000000 0.000000 m /two glyphshow
6.362305 0.000000 m /zero glyphshow
12.724609 0.000000 m /zero glyphshow
19.086914 0.000000 m /zero glyphshow
grestore
2 setlinecap
0.690 setgray
gsave
334.8 217.4 54 36 clipbox
351.036364 36 m
351.036364 253.44 l
stroke
grestore
0 setlinecap
0.000 setgray
gsave
/o {
gsave
newpath
translate
0.8 setlinewidth
1 setlinejoin
0 setlinecap
0 0 m
0 -3.5 l

gsave
0.000 setgray
fill
grestore
stroke
grestore
} bind def
351.036 36 o
grestore
gsave
338.317614 21.406250 translate
0.000000 rotate
0.000000 0.000000 m /two glyphshow
6.362305 0.000000 m /five glyphshow
12.724609 0.000000 m /zero glyphshow
19.086914 0.000000 m /zero glyphshow
grestore
gsave
163.282813 7.734375 translate
0.000000 rotate
0.000000 0.000000 m /B glyphshow
6.860352 0.000000 m /a glyphshow
12.988281 0.000000 m /t glyphshow
16.909180 0.000000 m /c glyphshow
22.407227 0.000000 m /h glyphshow
28.745117 0.000000 m /space glyphshow
31.923828 0.000000 m /T glyphshow
38.016602 0.000000 m /r glyphshow
42.127930 0.000000 m /a glyphshow
48.255859 0.000000 m /i glyphshow
51.034180 0.000000 m /n glyphshow
57.372070 0.000000 m /i glyphshow
60.150391 0.000000 m /n glyphshow
66.488281 0.000000 m /g glyphshow
72.835938 0.000000 m /space glyphshow
76.014648 0.000000 m /N glyphshow
83.495117 0.000000 m /u glyphshow
89.833008 0.000000 m /m glyphshow
99.574219 0.000000 m /b glyphshow
105.921875 0.000000 m /e glyphshow
112.074219 0.000000 m /r glyphshow
grestore
2 setlinecap
0.690 setgray
gsave
334.8 217.4 54 36 clipbox
54 58.334424 m
388.8 58.334424 l
stroke
grestore
0 setlinecap
0.000 setgray
gsave
/o {
gsave
newpath
translate
0.8 setlinewidth
1 setlinejoin
0 setlinecap
0 0 m
-3.5 0 l

gsave
0.000 setgray
fill
grestore
stroke
grestore
} bind def
54 58.3344 o
grestore
gsave
34.281250 54.537549 translate
0.000000 rotate
0.000000 0.000000 m /six glyphshow
6.362305 0.000000 m /zero glyphshow
grestore
2 setlinecap
0.690 setgray
gsave
334.8 217.4 54 36 clipbox
54 86.780339 m
388.8 86.780339 l
stroke
grestore
0 setlinecap
0.000 setgray
gsave
/o {
gsave
newpath
translate
0.8 setlinewidth
1 setlinejoin
0 setlinecap
0 0 m
-3.5 0 l

gsave
0.000 setgray
fill
grestore
stroke
grestore
} bind def
54 86.7803 o
grestore
gsave
34.281250 82.983464 translate
0.000000 rotate
0.000000 0.000000 m /eight glyphshow
6.362305 0.000000 m /zero glyphshow
grestore
2 setlinecap
0.690 setgray
gsave
334.8 217.4 54 36 clipbox
54 115.226255 m
388.8 115.226255 l
stroke
grestore
0 setlinecap
0.000 setgray
gsave
/o {
gsave
newpath
translate
0.8 setlinewidth
1 setlinejoin
0 setlinecap
0 0 m
-3.5 0 l

gsave
0.000 setgray
fill
grestore
stroke
grestore
} bind def
54 115.226 o
grestore
gsave
27.921875 111.429380 translate
0.000000 rotate
0.000000 0.000000 m /one glyphshow
6.362305 0.000000 m /zero glyphshow
12.724609 0.000000 m /zero glyphshow
grestore
2 setlinecap
0.690 setgray
gsave
334.8 217.4 54 36 clipbox
54 143.67217 m
388.8 143.67217 l
stroke
grestore
0 setlinecap
0.000 setgray
gsave
/o {
gsave
newpath
translate
0.8 setlinewidth
1 setlinejoin
0 setlinecap
0 0 m
-3.5 0 l

gsave
0.000 setgray
fill
grestore
stroke
grestore
} bind def
54 143.672 o
grestore
gsave
27.921875 139.875295 translate
0.000000 rotate
0.000000 0.000000 m /one glyphshow
6.362305 0.000000 m /two glyphshow
12.724609 0.000000 m /zero glyphshow
grestore
2 setlinecap
0.690 setgray
gsave
334.8 217.4 54 36 clipbox
54 172.118085 m
388.8 172.118085 l
stroke
grestore
0 setlinecap
0.000 setgray
gsave
/o {
gsave
newpath
translate
0.8 setlinewidth
1 setlinejoin
0 setlinecap
0 0 m
-3.5 0 l

gsave
0.000 setgray
fill
grestore
stroke
grestore
} bind def
54 172.118 o
grestore
gsave
27.921875 168.321210 translate
0.000000 rotate
0.000000 0.000000 m /one glyphshow
6.362305 0.000000 m /four glyphshow
12.724609 0.000000 m /zero glyphshow
grestore
2 setlinecap
0.690 setgray
gsave
334.8 217.4 54 36 clipbox
54 200.564001 m
388.8 200.564001 l
stroke
grestore
0 setlinecap
0.000 setgray
gsave
/o {
gsave
newpath
translate
0.8 setlinewidth
1 setlinejoin
0 setlinecap
0 0 m
-3.5 0 l

gsave
0.000 setgray
fill
grestore
stroke
grestore
} bind def
54 200.564 o
grestore
gsave
27.921875 196.767126 translate
0.000000 rotate
0.000000 0.000000 m /one glyphshow
6.362305 0.000000 m /six glyphshow
12.724609 0.000000 m /zero glyphshow
grestore
2 setlinecap
0.690 setgray
gsave
334.8 217.4 54 36 clipbox
54 229.009916 m
388.8 229.009916 l
stroke
grestore
0 setlinecap
0.000 setgray
gsave
/o {
gsave
newpath
translate
0.8 setlinewidth
1 setlinejoin
0 setlinecap
0 0 m
-3.5 0 l

gsave
0.000 setgray
fill
grestore
stroke
grestore
} bind def
54 229.01 o
grestore
gsave
27.921875 225.213041 translate
0.000000 rotate
0.000000 0.000000 m /one glyphshow
6.362305 0.000000 m /eight glyphshow
12.724609 0.000000 m /zero glyphshow
grestore
gsave
21.843750 82.134062 translate
90.000000 rotate
0.000000 0.000000 m /O glyphshow
7.871094 0.000000 m /b glyphshow
14.218750 0.000000 m /j glyphshow
16.997070 0.000000 m /e glyphshow
23.149414 0.000000 m /c glyphshow
28.647461 0.000000 m /t glyphshow
32.568359 0.000000 m /i glyphshow
35.346680 0.000000 m /v glyphshow
41.264648 0.000000 m /e glyphshow
47.416992 0.000000 m /space glyphshow
50.595703 0.000000 m /F glyphshow
56.347656 0.000000 m /u glyphshow
62.685547 0.000000 m /n glyphshow
69.023438 0.000000 m /c glyphshow
74.521484 0.000000 m /t glyphshow
78.442383 0.000000 m /i glyphshow
81.220703 0.000000 m /o glyphshow
87.338867 0.000000 m /n glyphshow
93.676758 0.000000 m /space glyphshow
96.855469 0.000000 m /V glyphshow
103.696289 0.000000 m /a glyphshow
109.824219 0.000000 m /l glyphshow
112.602539 0.000000 m /u glyphshow
118.940430 0.000000 m /e glyphshow
grestore
1.500 setlinewidth
2 setlinecap
0.122 0.467 0.706 setrgbcolor
gsave
334.8 217.4 54 36 clipbox
69.218182 227.471612 m
69.443636 231.074691 l
69.669091 235.104134 l
69.781818 235.185836 l
70.458182 242.955396 l
70.570909 242.908569 l
70.683636 243.556364 l
70.796364 243.243473 l
71.134545 240.213279 l
71.247273 240.192805 l
71.36 238.346622 l
71.472727 238.564617 l
71.698182 236.351047 l
72.036364 234.947202 l
72.374545 231.842772 l
72.487273 231.402046 l
72.712727 231.508971 l
72.825455 231.407972 l
72.938182 230.812725 l
73.050909 231.935239 l
73.163636 231.227103 l
73.276364 231.419589 l
73.389091 231.834406 l
73.614545 231.106543 l
73.727273 230.854284 l
73.84 229.957274 l
73.952727 230.237997 l
74.065455 229.650104 l
74.403636 226.425543 l
74.741818 222.657494 l
75.08 224.285902 l
76.207273 214.507844 l
76.545455 210.268304 l
76.770909 209.139438 l
77.672727 199.6344 l
78.123636 192.399906 l
78.461818 185.785072 l
78.8 180.962873 l
79.138182 177.806469 l
79.701818 170.281267 l
80.152727 165.250165 l
80.603636 158.334792 l
81.054545 152.19754 l
81.392727 148.456632 l
81.956364 141.370528 l
83.76 126.823971 l
83.872727 126.64719 l
84.210909 123.547247 l
84.774545 120.978536 l
84.887273 120.831663 l
85.112727 119.857279 l
85.225455 120.064187 l
85.450909 119.333133 l
85.563636 119.031126 l
85.676364 119.271233 l
86.014545 118.065255 l
86.352727 114.903236 l
86.803636 112.606224 l
87.029091 111.827641 l
88.043636 107.063923 l
88.156364 107.354641 l
88.269091 106.774532 l
88.381818 106.878374 l
88.607273 105.995623 l
88.72 106.128783 l
88.945455 105.379661 l
89.283636 104.655626 l
89.396364 105.23671 l
89.621818 104.636598 l
89.847273 104.902341 l
89.96 105.373199 l
90.185455 104.661822 l
90.410909 103.755915 l
90.523636 103.99633 l
90.636364 103.697054 l
90.749091 103.936576 l
90.861818 103.130526 l
90.974545 103.625203 l
91.2 102.233372 l
91.538182 100.007909 l
91.763636 100.864912 l
91.989091 101.492187 l
92.101818 101.262341 l
92.552727 99.515889 l
92.665455 99.605748 l
93.003636 98.866036 l
93.116364 98.779646 l
93.341818 97.692702 l
93.567273 96.470179 l
94.018182 96.003872 l
94.807273 96.896624 l
95.032727 96.657673 l
95.145455 96.164892 l
95.258182 96.321504 l
95.370909 96.28659 l
95.483636 96.672544 l
95.596364 96.179617 l
95.821818 97.143468 l
96.047273 96.706448 l
96.385455 98.671274 l
96.610909 98.220814 l
96.836364 98.881593 l
97.287273 97.279118 l
97.738182 98.295392 l
97.850909 98.21456 l
97.963636 98.593517 l
98.076364 98.478114 l
98.189091 98.770895 l
98.301818 98.615921 l
98.414545 98.698169 l
98.865455 99.613629 l
98.978182 99.599657 l
99.429091 101.58661 l
99.541818 101.427689 l
99.654545 101.019066 l
99.767273 101.23 l
99.88 101.842989 l
100.330909 101.621854 l
100.556364 102.386093 l
100.669091 101.746263 l
100.894545 102.118192 l
101.232727 103.257395 l
101.345455 102.94056 l
101.458182 103.008893 l
101.570909 104.134618 l
101.683636 103.79702 l
101.796364 104.078811 l
101.909091 104.037036 l
102.021818 103.586775 l
102.36 103.647849 l
102.810909 105.320224 l
103.036364 104.492503 l
103.261818 103.858489 l
103.938182 107.149678 l
104.050909 107.222342 l
104.276364 107.744328 l
104.501818 107.736676 l
105.290909 110.417056 l
105.403636 110.205322 l
105.516364 110.574068 l
105.629091 110.538231 l
105.741818 110.312906 l
105.854545 110.435205 l
105.967273 110.850236 l
106.08 110.516903 l
106.305455 111.096309 l
106.530909 111.114367 l
106.869091 110.65653 l
107.094545 109.856206 l
107.32 110.105886 l
107.545455 109.135381 l
107.770909 107.944262 l
107.883636 108.079549 l
107.996364 107.184601 l
108.334545 107.953681 l
109.123636 113.333591 l
109.236364 113.330232 l
109.687273 114.638312 l
110.025455 113.716914 l
110.138182 113.788698 l
110.250909 114.216746 l
110.701818 112.25408 l
110.814545 112.538488 l
111.04 113.900522 l
111.152727 113.130533 l
111.490909 114.298423 l
111.603636 114.2079 l
111.829091 114.485274 l
112.054545 115.116033 l
112.167273 116.001056 l
112.28 115.818503 l
112.392727 116.331619 l
112.505455 116.063823 l
112.730909 116.772322 l
112.843636 116.368194 l
113.069091 116.849537 l
113.181818 116.800906 l
113.745455 118.056097 l
113.970909 117.016031 l
114.083636 117.247935 l
114.196364 117.066398 l
114.534545 117.642873 l
114.647273 117.540625 l
114.872727 116.724022 l
114.985455 116.623598 l
115.210909 118.262831 l
115.323636 118.025218 l
115.549091 118.828266 l
115.661818 118.265113 l
115.774545 119.506967 l
116 118.612174 l
116.112727 120.079186 l
116.225455 120.019748 l
116.338182 120.651451 l
116.450909 120.079864 l
116.563636 120.098845 l
116.676364 120.532893 l
116.789091 119.92569 l
117.352727 122.252944 l
117.690909 121.998517 l
118.254545 123.570139 l
118.367273 123.7037 l
118.592727 125.046735 l
118.818182 124.552519 l
118.930909 124.732282 l
119.156364 125.603598 l
119.269091 126.626248 l
119.381818 125.943466 l
119.494545 126.663236 l
119.607273 126.596838 l
119.832727 126.881798 l
119.945455 126.76542 l
120.058182 126.430821 l
120.283636 124.667219 l
120.509091 125.020649 l
120.621818 125.700106 l
120.847273 124.973981 l
120.96 125.083557 l
121.072727 126.052724 l
121.298182 125.489572 l
121.410909 125.913388 l
121.523636 125.68467 l
121.749091 125.766524 l
122.087273 127.170211 l
122.2 126.622444 l
122.425455 127.659818 l
122.538182 127.485966 l
122.650909 127.237965 l
122.876364 127.85911 l
123.101818 128.177708 l
123.44 127.192182 l
123.552727 127.792718 l
123.665455 127.686894 l
123.890909 128.533714 l
124.229091 128.355351 l
124.341818 127.675665 l
124.567273 128.637843 l
124.905455 127.948335 l
125.018182 128.193596 l
125.243636 129.669089 l
125.356364 130.077424 l
125.469091 131.233898 l
125.581818 130.975984 l
125.694545 131.40389 l
125.92 133.690859 l
126.032727 134.014007 l
126.258182 134.727812 l
126.483636 133.444336 l
126.709091 134.077644 l
126.821818 133.535733 l
126.934545 134.629736 l
127.047273 134.173859 l
127.272727 136.052999 l
127.498182 134.931536 l
127.610909 134.51678 l
127.836364 135.670925 l
127.949091 135.158096 l
128.174545 135.761766 l
128.512727 134.477242 l
129.076364 138.350208 l
129.189091 138.282229 l
129.301818 138.475525 l
129.414545 139.085649 l
129.527273 138.941326 l
129.978182 137.298281 l
130.203636 137.595031 l
130.316364 137.382056 l
130.541818 136.330861 l
130.654545 136.897337 l
130.767273 136.687056 l
130.992727 136.751948 l
131.105455 136.668524 l
131.443636 135.700578 l
131.556364 136.329371 l
131.781818 135.006926 l
132.007273 133.764871 l
132.12 134.084302 l
132.232727 133.787508 l
132.345455 132.817353 l
132.458182 133.03078 l
132.570909 133.61804 l
132.796364 133.050991 l
133.021818 133.779762 l
133.247273 134.059888 l
133.585455 132.085493 l
133.810909 131.789791 l
133.923636 132.067081 l
134.036364 131.611694 l
134.149091 131.817667 l
134.261818 131.394942 l
134.374545 131.624663 l
134.487273 132.505897 l
134.712727 131.428669 l
135.050909 128.813424 l
135.163636 128.188438 l
135.276364 128.376826 l
135.389091 128.299131 l
135.501818 127.885476 l
135.614545 128.562371 l
135.84 128.058837 l
135.952727 128.480096 l
136.178182 128.39789 l
136.290909 128.392064 l
136.629091 126.42733 l
136.741818 126.136152 l
136.854545 126.714347 l
137.192727 124.344748 l
137.418182 123.73528 l
137.643636 123.279869 l
137.756364 123.271905 l
137.869091 123.536964 l
137.981818 123.128973 l
138.094545 123.608869 l
138.432727 121.235281 l
138.658182 120.039044 l
138.770909 119.685023 l
139.109091 117.62633 l
139.221818 117.732047 l
139.56 116.014039 l
139.672727 116.200376 l
139.785455 116.801562 l
140.123636 114.504999 l
140.236364 114.601014 l
140.574545 112.332724 l
140.8 112.162894 l
141.250909 113.540512 l
141.363636 113.699372 l
141.476364 113.570609 l
141.701818 114.613863 l
142.378182 112.143206 l
142.490909 112.334374 l
142.603636 112.098668 l
142.716364 112.897255 l
142.829091 112.298329 l
143.054545 113.166675 l
143.28 114.650935 l
143.392727 114.144208 l
143.618182 114.109286 l
143.956364 115.236737 l
144.069091 115.19443 l
144.52 113.438372 l
144.632727 113.720382 l
144.745455 113.684857 l
144.858182 114.322228 l
144.970909 114.260283 l
145.083636 114.717194 l
145.196364 114.477901 l
145.309091 114.693094 l
145.647273 113.305375 l
145.76 112.701664 l
145.872727 112.969793 l
146.098182 114.067386 l
146.210909 113.616596 l
146.323636 113.797225 l
146.549091 114.821934 l
146.661818 114.40043 l
146.774545 114.873321 l
146.887273 114.656577 l
147 114.752832 l
147.225455 113.971294 l
147.450909 115.207864 l
147.563636 114.598119 l
147.789091 114.977536 l
147.901818 115.995813 l
148.127273 114.627524 l
148.24 114.480931 l
148.803636 111.753997 l
149.141818 110.979983 l
149.254545 111.156661 l
149.367273 110.615863 l
149.48 110.705601 l
149.818182 109.809895 l
150.043636 110.119748 l
150.156364 110.499704 l
150.269091 110.080813 l
150.494545 110.696733 l
150.607273 110.673399 l
150.832727 111.132423 l
151.283636 109.940157 l
151.396364 110.564067 l
151.509091 110.452335 l
151.734545 110.688897 l
151.847273 110.849821 l
151.96 110.469766 l
152.185455 110.594396 l
152.410909 110.184037 l
152.523636 109.38324 l
152.636364 109.480675 l
152.861818 110.259503 l
152.974545 110.133613 l
153.087273 110.218511 l
153.312727 111.721655 l
153.425455 111.188629 l
153.538182 111.2014 l
153.650909 111.551975 l
153.763636 111.433752 l
153.876364 111.940332 l
153.989091 111.393357 l
154.101818 111.40273 l
154.327273 111.907408 l
154.552727 110.952504 l
154.778182 111.632292 l
154.890909 111.553545 l
155.003636 111.661067 l
155.229091 110.511623 l
155.454545 111.351868 l
155.567273 111.208531 l
155.792727 111.76275 l
155.905455 111.561062 l
156.130909 111.821565 l
156.356364 111.049685 l
156.469091 110.845242 l
156.581818 109.959954 l
156.694545 110.480167 l
156.92 110.222999 l
157.032727 110.263776 l
157.483636 108.463108 l
157.596364 109.310382 l
158.047273 107.624898 l
158.385455 107.429055 l
158.498182 107.60928 l
158.723636 105.871369 l
158.836364 106.019592 l
159.061818 106.182461 l
159.174545 105.151194 l
159.287273 105.389175 l
159.4 105.02286 l
159.850909 106.678281 l
160.076364 105.929217 l
160.189091 106.164159 l
160.301818 106.004949 l
160.527273 106.429079 l
160.64 105.781445 l
160.865455 106.499169 l
161.316364 108.068319 l
161.767273 107.279615 l
161.88 107.603663 l
162.105455 107.085665 l
162.443636 107.808465 l
162.781818 106.812153 l
163.007273 105.979938 l
163.232727 106.231599 l
163.345455 105.751959 l
163.458182 105.878934 l
163.683636 105.611473 l
163.796364 106.199434 l
164.021818 105.430252 l
164.36 104.066889 l
164.472727 104.303302 l
164.585455 102.926724 l
164.698182 103.512758 l
165.036364 102.842959 l
165.712727 98.554702 l
165.825455 98.801705 l
166.050909 98.247952 l
166.163636 98.870445 l
166.276364 98.767695 l
166.389091 98.934485 l
166.501818 98.894966 l
166.727273 99.419533 l
166.84 99.599778 l
167.065455 99.002184 l
167.178182 99.250976 l
167.629091 97.840865 l
167.854545 98.634364 l
167.967273 98.383261 l
168.192727 97.976892 l
168.305455 97.507791 l
168.418182 97.711665 l
168.643636 97.635365 l
168.756364 98.685367 l
168.869091 97.680108 l
168.981818 98.033925 l
169.094545 97.779669 l
169.432727 98.046107 l
169.545455 98.440481 l
169.883636 97.326513 l
169.996364 97.423681 l
170.109091 97.404008 l
170.221818 96.503349 l
170.334545 96.635207 l
170.447273 96.508179 l
170.672727 97.663293 l
170.785455 96.966779 l
170.898182 97.044509 l
171.123636 96.43939 l
171.349091 96.914257 l
171.574545 96.14307 l
171.687273 96.042106 l
171.8 95.671002 l
171.912727 95.83676 l
172.589091 93.620095 l
172.814545 94.056847 l
172.927273 93.954009 l
173.04 94.248387 l
173.152727 94.163329 l
173.265455 94.659325 l
173.603636 93.937126 l
173.716364 93.888172 l
173.829091 94.345603 l
173.941818 94.051576 l
174.167273 93.235419 l
174.505455 94.340871 l
174.618182 94.483638 l
174.730909 93.832466 l
174.843636 94.217312 l
174.956364 93.974041 l
175.294545 92.687508 l
175.407273 92.772246 l
175.52 91.96043 l
175.858182 92.032404 l
176.083636 91.603062 l
176.196364 91.737171 l
176.421818 91.501491 l
176.534545 91.577463 l
176.76 92.324629 l
176.985455 92.798701 l
177.098182 92.645569 l
178.112727 88.360349 l
178.225455 88.241346 l
178.450909 87.224269 l
178.563636 87.159772 l
179.014545 86.100108 l
179.352727 85.743284 l
179.578182 86.662852 l
179.690909 86.435999 l
179.916364 87.315899 l
180.029091 86.376091 l
180.141818 86.513439 l
180.254545 85.98089 l
180.367273 86.212346 l
180.592727 86.950234 l
180.705455 86.644315 l
180.818182 85.944504 l
180.930909 86.410343 l
181.043636 86.294445 l
181.156364 86.395477 l
181.269091 86.790945 l
181.381818 86.374502 l
181.494545 86.737266 l
181.72 86.409081 l
181.945455 85.424101 l
182.058182 85.581967 l
182.283636 85.451283 l
182.396364 85.877121 l
182.509091 85.4695 l
182.621818 85.615996 l
182.734545 85.441867 l
182.847273 85.686175 l
183.185455 84.398076 l
183.410909 84.939743 l
183.523636 85.02146 l
183.636364 84.950799 l
183.749091 85.23323 l
183.861818 85.187112 l
183.974545 84.967772 l
184.2 85.081494 l
184.425455 84.141454 l
184.650909 83.739196 l
184.763636 83.881623 l
184.989091 83.371069 l
185.214545 83.562198 l
185.327273 83.445957 l
185.44 83.745226 l
185.890909 81.567259 l
186.003636 81.735284 l
186.116364 81.449083 l
186.229091 81.658901 l
186.341818 81.573661 l
186.68 81.973648 l
186.792727 82.599409 l
186.905455 82.433518 l
187.018182 81.765712 l
187.130909 81.842347 l
187.243636 81.38389 l
187.469091 81.389602 l
187.581818 81.595655 l
187.92 80.982476 l
188.032727 80.948405 l
188.258182 80.627897 l
188.596364 80.85812 l
188.934545 81.607847 l
189.047273 81.902015 l
189.16 81.613543 l
189.272727 81.733275 l
189.949091 84.203672 l
190.061818 84.286894 l
190.174545 84.224533 l
190.287273 84.82005 l
190.512727 84.338374 l
190.625455 85.158581 l
190.850909 84.616219 l
191.076364 84.444212 l
191.189091 83.682653 l
191.301818 83.972606 l
191.414545 83.382064 l
191.64 84.355555 l
191.978182 83.100199 l
192.090909 83.019842 l
192.316364 82.317667 l
192.429091 82.524306 l
192.654545 81.561771 l
192.767273 81.218839 l
192.992727 81.63255 l
193.105455 81.454214 l
193.330909 80.646597 l
193.556364 79.854848 l
193.669091 79.769771 l
193.781818 80.064376 l
193.894545 80.040188 l
194.007273 80.293575 l
194.232727 79.823657 l
194.458182 80.812353 l
194.683636 79.94802 l
194.796364 79.88225 l
195.021818 80.104385 l
195.134545 80.029736 l
195.247273 79.71516 l
195.472727 78.875323 l
195.698182 79.188917 l
195.810909 79.173129 l
195.923636 79.499194 l
196.149091 78.73252 l
196.487273 77.89723 l
196.712727 77.92293 l
196.938182 78.11869 l
197.050909 78.291734 l
197.163636 78.787768 l
197.389091 78.452253 l
197.614545 78.951693 l
197.727273 78.757799 l
198.065455 77.120422 l
198.178182 77.297116 l
198.290909 77.597131 l
198.516364 77.118298 l
198.629091 77.000617 l
198.741818 76.71522 l
199.08 77.018103 l
199.418182 76.811838 l
199.869091 77.506791 l
200.094545 77.740136 l
200.32 76.933547 l
200.545455 76.749771 l
201.221818 74.365947 l
201.334545 74.571049 l
201.447273 74.429431 l
201.672727 73.585153 l
201.785455 73.601129 l
202.010909 72.761192 l
202.123636 72.578831 l
202.349091 72.798912 l
202.574545 72.213565 l
202.687273 72.811229 l
202.912727 72.240213 l
203.025455 72.235976 l
203.250909 72.54283 l
203.589091 73.477719 l
203.814545 73.359361 l
204.04 73.807183 l
204.378182 73.098324 l
204.603636 74.027025 l
204.829091 74.846821 l
204.941818 74.364433 l
205.167273 74.446691 l
205.28 74.271562 l
205.505455 74.495661 l
205.618182 74.451177 l
205.730909 73.920074 l
205.843636 73.950028 l
205.956364 73.797702 l
206.069091 74.014227 l
206.407273 72.794179 l
206.52 72.544827 l
206.745455 73.605211 l
206.858182 73.448715 l
206.970909 73.683199 l
207.196364 72.858593 l
207.421818 73.247465 l
207.647273 73.56929 l
207.76 73.861445 l
207.872727 73.82713 l
208.098182 72.807497 l
208.210909 73.083773 l
208.436364 72.757967 l
208.661818 73.186328 l
208.887273 72.358366 l
209.112727 72.901493 l
209.338182 72.863944 l
209.450909 72.950869 l
209.563636 72.490537 l
209.789091 73.136674 l
209.901818 72.717261 l
210.014545 72.757817 l
210.24 72.286535 l
210.690909 70.993463 l
210.916364 70.1691 l
211.141818 70.10975 l
211.48 69.532095 l
211.592727 69.672187 l
211.818182 70.5113 l
211.930909 70.329898 l
212.156364 70.751163 l
212.269091 70.81878 l
212.494545 71.257876 l
212.607273 71.093197 l
212.72 71.128747 l
212.832727 70.567802 l
212.945455 71.046748 l
213.058182 71.017092 l
213.170909 71.146207 l
213.283636 70.819242 l
213.396364 70.936256 l
213.621818 70.85463 l
213.96 70.984183 l
214.072727 70.692148 l
214.298182 70.709923 l
214.523636 70.16914 l
214.636364 70.242719 l
214.749091 70.659709 l
214.861818 70.570771 l
214.974545 70.768036 l
215.087273 70.349875 l
215.2 70.42211 l
215.876364 72.581051 l
215.989091 72.003518 l
216.101818 72.08565 l
216.214545 72.531936 l
216.44 71.884572 l
216.552727 71.86029 l
216.778182 72.064591 l
217.003636 71.507449 l
217.116364 71.57316 l
217.229091 71.786389 l
217.341818 71.598035 l
217.567273 72.199659 l
217.68 72.029244 l
217.792727 72.106951 l
218.018182 71.025107 l
218.243636 70.803385 l
218.356364 71.327098 l
218.469091 71.219177 l
218.694545 70.59342 l
218.807273 70.547295 l
219.145455 69.410184 l
219.370909 70.030815 l
219.596364 69.852055 l
219.709091 69.479905 l
219.821818 69.56673 l
219.934545 69.32121 l
220.047273 69.381522 l
220.16 69.607215 l
220.272727 69.32775 l
220.385455 69.835351 l
220.498182 69.579731 l
220.610909 70.006088 l
220.836364 69.487696 l
220.949091 69.424894 l
221.061818 68.936628 l
221.174545 69.124676 l
221.4 69.101833 l
221.738182 69.714159 l
221.850909 69.783517 l
222.076364 70.033628 l
222.189091 69.795787 l
222.301818 70.010677 l
222.414545 69.704899 l
222.527273 69.793994 l
222.64 69.50422 l
222.752727 69.87247 l
222.865455 69.795037 l
222.978182 69.209623 l
223.203636 69.434962 l
223.429091 69.21181 l
223.541818 69.642551 l
223.654545 69.273672 l
223.992727 69.834769 l
224.105455 70.380979 l
224.218182 70.20896 l
224.443636 70.721029 l
224.556364 70.796473 l
224.669091 71.007138 l
224.894545 70.674725 l
225.007273 70.85335 l
225.12 70.749347 l
225.232727 70.36479 l
225.345455 70.443128 l
225.458182 69.950604 l
225.796364 70.211824 l
225.909091 70.228508 l
226.134545 69.765621 l
226.247273 69.59308 l
226.36 69.779239 l
226.472727 69.543763 l
226.810909 67.589625 l
226.923636 67.388298 l
227.149091 66.481118 l
227.261818 67.024013 l
227.487273 66.590747 l
227.6 66.939056 l
227.712727 66.901316 l
227.825455 67.001548 l
228.050909 66.921939 l
228.163636 66.933661 l
228.389091 67.229244 l
228.614545 66.763209 l
228.84 66.417009 l
228.952727 66.485262 l
229.065455 66.083949 l
229.178182 66.094051 l
229.290909 66.40605 l
229.403636 66.316234 l
229.629091 65.919098 l
229.741818 65.80459 l
230.08 66.880445 l
230.192727 66.954483 l
230.418182 67.409885 l
230.643636 66.850049 l
230.981818 67.63193 l
231.432727 66.856858 l
231.545455 66.91651 l
231.658182 66.530415 l
231.770909 66.65288 l
231.883636 66.137833 l
231.996364 66.233187 l
232.334545 67.537738 l
232.447273 67.544158 l
232.56 67.42314 l
232.672727 67.555875 l
232.785455 67.441773 l
233.349091 68.682441 l
233.461818 68.866682 l
233.687273 68.327679 l
233.8 68.257233 l
233.912727 68.369899 l
234.138182 67.66977 l
234.250909 67.782799 l
234.476364 67.040165 l
234.701818 66.998007 l
234.814545 66.446243 l
234.927273 66.973041 l
235.265455 66.223654 l
235.490909 65.844857 l
235.716364 65.112873 l
235.941818 65.354193 l
236.054545 65.189402 l
236.167273 65.398347 l
236.28 65.215431 l
236.505455 65.546148 l
236.618182 65.703238 l
236.843636 65.432315 l
236.956364 65.481545 l
237.181818 65.105199 l
237.294545 65.347319 l
237.407273 64.812326 l
237.632727 65.459694 l
237.858182 66.331397 l
237.970909 66.19726 l
238.196364 66.510572 l
238.421818 66.044806 l
238.647273 65.145753 l
238.872727 65.499964 l
239.098182 65.722998 l
239.323636 64.934661 l
239.436364 64.992912 l
239.549091 64.924197 l
239.774545 65.271439 l
240.338182 67.041777 l
240.450909 67.397407 l
240.563636 67.145378 l
240.676364 67.279277 l
240.901818 66.718885 l
241.127273 67.021995 l
241.24 66.705202 l
241.690909 67.617379 l
241.916364 69.011593 l
242.029091 68.745858 l
242.141818 68.793691 l
242.367273 68.402737 l
242.705455 69.273288 l
242.818182 68.736876 l
243.269091 69.679863 l
243.381818 69.062356 l
243.494545 69.109545 l
243.607273 68.622348 l
243.832727 69.275124 l
244.170909 69.118118 l
244.734545 67.673851 l
244.847273 67.595553 l
244.96 68.230094 l
245.298182 68.083716 l
245.410909 68.18922 l
245.523636 68.041023 l
245.636364 68.232868 l
245.974545 67.401551 l
246.087273 67.574066 l
246.2 67.325923 l
246.425455 67.560113 l
246.538182 67.517632 l
246.989091 67.989094 l
247.101818 67.936399 l
247.214545 67.643142 l
247.552727 68.779819 l
247.778182 68.282141 l
247.890909 68.362421 l
248.003636 68.766674 l
248.116364 68.508118 l
248.229091 68.590072 l
248.454545 69.19008 l
248.567273 68.981601 l
248.68 69.17741 l
248.792727 68.875724 l
248.905455 69.139997 l
249.018182 68.601693 l
249.243636 68.921061 l
249.469091 68.763322 l
249.581818 69.044648 l
249.807273 68.607544 l
249.92 68.724994 l
250.032727 68.49714 l
250.258182 67.517397 l
250.370909 67.538946 l
250.483636 67.295575 l
250.596364 67.655219 l
250.821818 67.493723 l
251.047273 66.891936 l
251.385455 65.833232 l
251.498182 65.845568 l
251.949091 64.870778 l
252.174545 65.072708 l
252.512727 64.754407 l
252.625455 64.523733 l
252.738182 64.734551 l
252.963636 63.886265 l
253.189091 62.513911 l
253.301818 62.464925 l
253.414545 61.761019 l
253.64 61.841914 l
253.865455 61.381375 l
253.978182 61.180026 l
254.090909 61.307883 l
254.429091 60.479702 l
254.541818 60.266643 l
254.654545 60.807844 l
254.88 60.751083 l
255.105455 59.960025 l
255.443636 61.149501 l
255.669091 61.363094 l
255.781818 61.066398 l
256.007273 61.326368 l
256.12 61.487948 l
256.345455 61.201581 l
256.570909 61.941909 l
256.683636 61.752757 l
256.796364 61.861818 l
257.021818 62.225783 l
257.698182 63.157736 l
257.810909 63.151739 l
257.923636 62.926401 l
258.036364 63.224681 l
258.149091 62.725735 l
258.261818 62.837377 l
258.374545 62.689008 l
258.487273 62.877874 l
258.712727 62.164186 l
258.938182 61.225566 l
259.050909 61.174138 l
259.389091 60.631187 l
259.501818 60.919549 l
259.727273 60.339988 l
259.84 60.292532 l
260.065455 59.857725 l
260.178182 59.340379 l
260.403636 59.428404 l
260.629091 58.934765 l
260.741818 58.96078 l
260.967273 59.426495 l
261.08 59.603254 l
261.192727 59.995581 l
261.305455 59.924256 l
261.418182 60.096867 l
261.530909 60.556728 l
261.643636 60.490806 l
262.658182 63.052665 l
262.883636 63.009205 l
262.996364 63.474356 l
263.109091 63.362221 l
263.221818 64.052293 l
263.334545 63.531997 l
263.447273 63.59459 l
263.56 64.077457 l
263.672727 63.916103 l
264.123636 64.038249 l
264.236364 63.939222 l
264.349091 64.130427 l
264.461818 64.844514 l
264.574545 64.761628 l
264.8 65.155285 l
264.912727 65.021811 l
265.025455 65.327195 l
265.250909 64.845348 l
265.363636 64.925518 l
265.589091 65.237727 l
265.701818 64.991242 l
265.814545 65.092257 l
266.04 64.735361 l
266.152727 64.951317 l
266.265455 64.765602 l
266.378182 64.978755 l
266.490909 64.71111 l
266.603636 65.162899 l
266.716364 64.786177 l
266.829091 64.819388 l
266.941818 64.668209 l
267.167273 65.181332 l
267.505455 64.796237 l
267.618182 64.897198 l
267.843636 63.648239 l
267.956364 63.945416 l
268.069091 63.911048 l
268.181818 63.700691 l
268.407273 64.928459 l
268.52 64.787166 l
268.745455 64.090512 l
268.858182 63.903093 l
268.970909 63.456165 l
269.421818 64.367941 l
269.534545 64.00225 l
269.647273 64.128285 l
269.872727 63.700258 l
270.323636 64.252059 l
270.436364 64.021552 l
270.549091 64.051826 l
270.661818 64.340867 l
270.887273 63.364544 l
271 63.619424 l
271.112727 63.285734 l
271.338182 64.478822 l
271.563636 64.121595 l
271.676364 63.817021 l
271.789091 63.879827 l
272.014545 64.42748 l
272.24 63.860698 l
272.465455 63.395153 l
272.578182 63.814399 l
272.690909 63.767083 l
273.029091 62.886917 l
273.141818 62.561625 l
273.254545 62.72932 l
273.367273 62.489605 l
273.48 62.759159 l
273.592727 61.968567 l
273.705455 62.114829 l
273.818182 61.632489 l
273.930909 61.687241 l
274.043636 61.397382 l
274.156364 61.500712 l
274.381818 60.860868 l
274.494545 60.470009 l
274.607273 60.993727 l
274.72 60.85398 l
274.945455 60.37607 l
275.058182 60.514568 l
275.283636 60.320527 l
275.396364 59.698361 l
275.509091 60.193832 l
275.847273 59.522057 l
275.96 59.693174 l
276.298182 59.036042 l
276.636364 59.455565 l
276.974545 58.614893 l
277.087273 58.645788 l
277.2 58.375869 l
277.312727 58.579283 l
277.425455 58.156076 l
277.538182 58.935577 l
277.650909 58.909804 l
277.876364 58.320131 l
277.989091 58.395873 l
278.101818 58.330888 l
278.327273 59.115288 l
278.44 59.099477 l
278.778182 60.459808 l
278.890909 60.44414 l
279.116364 61.464352 l
279.229091 61.343906 l
279.454545 61.701549 l
279.68 60.384665 l
280.018182 60.606742 l
280.130909 60.3164 l
280.243636 60.475053 l
280.356364 60.332979 l
280.469091 59.737312 l
280.694545 59.951397 l
280.807273 60.029703 l
280.92 59.751248 l
281.145455 60.19226 l
281.258182 59.96379 l
281.370909 60.032752 l
281.483636 60.241721 l
281.596364 59.966366 l
281.821818 60.446233 l
281.934545 60.098422 l
282.16 60.93641 l
282.385455 60.276099 l
282.723636 59.572009 l
282.836364 59.822614 l
282.949091 59.767985 l
283.512727 58.912296 l
283.625455 59.248292 l
283.738182 59.131199 l
283.963636 58.237861 l
284.076364 58.404338 l
284.189091 58.189176 l
284.527273 58.823105 l
284.64 58.744464 l
284.752727 58.309343 l
285.090909 59.212644 l
285.203636 59.038289 l
285.992727 61.278597 l
286.105455 61.360104 l
286.443636 61.055618 l
286.556364 60.74962 l
286.669091 61.381422 l
287.007273 61.219597 l
287.12 61.44623 l
287.232727 61.162877 l
287.458182 61.599245 l
287.683636 61.656789 l
287.909091 61.123339 l
288.021818 61.293757 l
288.247273 61.731758 l
288.36 61.675761 l
288.472727 61.844444 l
288.698182 61.690619 l
288.923636 60.730117 l
289.261818 60.516182 l
289.6 59.816085 l
289.712727 60.045119 l
289.938182 59.176679 l
290.163636 58.5887 l
290.276364 58.768078 l
290.501818 58.230512 l
290.614545 58.130602 l
290.84 57.628156 l
291.178182 58.265758 l
291.290909 58.350773 l
291.516364 58.846507 l
291.629091 58.628918 l
291.741818 58.664374 l
291.854545 58.422551 l
292.869091 60.544657 l
292.981818 60.459255 l
293.207273 60.97396 l
293.32 60.713302 l
293.658182 62.605289 l
293.770909 62.157782 l
293.883636 62.190596 l
293.996364 62.487677 l
294.221818 62.070908 l
294.334545 62.912057 l
294.447273 62.770449 l
294.56 62.861965 l
294.785455 63.774663 l
295.010909 63.248677 l
295.123636 63.365266 l
295.236364 63.919337 l
295.349091 63.863147 l
295.461818 64.106673 l
295.574545 63.897337 l
295.912727 62.737857 l
296.025455 62.897545 l
296.250909 63.45866 l
296.476364 62.896542 l
296.589091 63.092092 l
296.814545 62.297787 l
296.927273 62.377906 l
297.152727 61.23431 l
297.490909 61.612249 l
297.716364 61.305076 l
297.829091 61.367202 l
298.167273 61.011823 l
298.28 60.982854 l
298.392727 60.696918 l
299.069091 61.238007 l
299.407273 60.962661 l
299.745455 61.422656 l
299.858182 61.439335 l
300.196364 62.155502 l
300.309091 62.334471 l
300.421818 61.728162 l
300.647273 62.253901 l
300.985455 61.543085 l
301.210909 61.789807 l
301.436364 62.106945 l
301.549091 61.888052 l
301.887273 62.562128 l
302.112727 63.013483 l
302.563636 62.558203 l
302.901818 62.457165 l
303.014545 62.725519 l
303.465455 62.142008 l
303.578182 62.096645 l
303.803636 62.388987 l
304.029091 61.570362 l
304.141818 61.233732 l
304.367273 61.518151 l
304.592727 61.212763 l
304.818182 60.430433 l
304.930909 60.386197 l
305.043636 60.863656 l
305.269091 60.693707 l
305.494545 61.773257 l
305.72 61.561155 l
305.832727 61.844007 l
306.058182 61.151882 l
306.170909 61.342804 l
306.396364 62.155518 l
306.621818 61.834327 l
306.847273 62.002645 l
307.072727 62.546152 l
307.298182 62.052969 l
307.861818 59.707062 l
308.087273 60.015112 l
308.2 59.707322 l
308.312727 59.837866 l
308.538182 59.618257 l
308.763636 59.741607 l
308.876364 59.484064 l
309.101818 60.080727 l
309.327273 59.31278 l
309.44 59.728464 l
309.665455 59.567359 l
310.003636 59.159759 l
310.341818 58.320933 l
310.567273 58.518083 l
311.018182 58.974373 l
311.130909 58.817903 l
311.243636 58.876593 l
311.356364 58.674409 l
311.469091 58.815939 l
311.694545 59.592836 l
311.92 59.240805 l
312.145455 59.078745 l
312.370909 59.449337 l
312.596364 59.56622 l
312.934545 59.136556 l
313.047273 59.152352 l
313.272727 58.600638 l
313.498182 58.70856 l
314.061818 57.466513 l
314.174545 57.611527 l
314.4 57.474544 l
315.076364 55.675532 l
315.414545 56.349825 l
315.865455 54.812927 l
316.090909 54.762013 l
316.316364 53.763459 l
316.429091 53.876372 l
316.541818 53.762836 l
317.218182 51.849277 l
317.330909 51.890511 l
317.781818 50.395 l
317.894545 50.861548 l
318.007273 50.552236 l
318.12 50.667947 l
318.345455 49.747009 l
318.458182 49.838596 l
318.570909 49.720175 l
318.796364 49.433765 l
319.134545 50.766711 l
319.247273 50.555888 l
319.810909 51.899606 l
320.036364 51.395441 l
320.261818 51.554851 l
320.374545 51.39802 l
320.6 51.980752 l
320.712727 51.666769 l
320.938182 52.335127 l
321.050909 52.336878 l
321.163636 52.150442 l
321.276364 52.206023 l
321.389091 52.403785 l
321.614545 53.070738 l
321.727273 53.093783 l
321.952727 53.322744 l
322.065455 53.286083 l
322.178182 53.490272 l
322.290909 53.399447 l
322.629091 53.668464 l
322.741818 53.502457 l
322.854545 52.855711 l
323.305455 53.197158 l
323.418182 53.420306 l
323.981818 52.520542 l
324.094545 52.710887 l
324.545455 52.507248 l
325.221818 53.82083 l
325.447273 55.850523 l
325.898182 57.577671 l
326.010909 57.419176 l
326.236364 58.206567 l
326.349091 57.926412 l
326.8 58.67772 l
327.025455 59.336015 l
327.138182 59.349293 l
327.814545 61.760463 l
327.927273 61.66707 l
328.265455 62.55351 l
328.603636 62.890861 l
328.716364 63.140846 l
328.829091 63.742316 l
329.054545 63.697533 l
329.167273 63.370172 l
329.28 63.648628 l
329.392727 63.386559 l
329.618182 64.358615 l
330.069091 65.530387 l
330.294545 65.306138 l
330.407273 65.503355 l
330.632727 65.198323 l
330.745455 64.896789 l
330.858182 65.106838 l
331.083636 64.50861 l
331.196364 64.282562 l
331.421818 64.732375 l
331.534545 64.55763 l
331.647273 64.688196 l
331.872727 64.452104 l
331.985455 64.961124 l
332.210909 64.357209 l
332.323636 64.247875 l
332.549091 64.985145 l
332.774545 64.53471 l
332.887273 64.890133 l
333.450909 64.220735 l
333.676364 64.530692 l
333.789091 64.211007 l
333.901818 64.31363 l
334.014545 64.235045 l
334.24 64.91197 l
334.352727 65.046158 l
334.578182 64.658565 l
334.916364 65.050813 l
335.029091 65.006728 l
335.254545 65.572266 l
335.367273 65.508646 l
335.48 65.679728 l
335.705455 65.207448 l
335.818182 65.270953 l
336.269091 64.480622 l
336.494545 63.860344 l
336.832727 62.279759 l
336.945455 62.147358 l
337.170909 61.46548 l
337.283636 61.710659 l
337.396364 61.416121 l
337.621818 61.369262 l
337.847273 60.729839 l
337.96 60.694034 l
338.072727 61.061398 l
338.298182 60.972913 l
338.410909 60.741423 l
338.749091 58.887354 l
338.861818 58.708193 l
339.087273 57.921873 l
339.2 57.901051 l
339.312727 57.586103 l
339.425455 57.831737 l
339.538182 57.627404 l
339.650909 57.838011 l
339.763636 58.300633 l
339.989091 58.157768 l
340.101818 57.675802 l
340.327273 58.532445 l
340.44 58.349876 l
340.552727 58.488541 l
340.665455 58.941202 l
341.003636 58.281176 l
341.454545 59.492114 l
341.792727 59.272993 l
342.018182 59.879685 l
342.130909 59.715957 l
342.356364 60.008792 l
342.581818 60.261981 l
342.807273 60.444542 l
343.145455 60.119111 l
343.370909 59.570316 l
343.596364 59.90289 l
343.934545 59.564015 l
344.047273 59.7379 l
344.16 59.32993 l
344.272727 59.585447 l
344.385455 59.316989 l
344.498182 59.42189 l
344.949091 58.438269 l
345.061818 58.859416 l
345.287273 58.863774 l
345.625455 58.091448 l
346.527273 56.212567 l
346.978182 57.0792 l
347.316364 57.453012 l
347.541818 57.063038 l
347.767273 57.384941 l
347.88 57.225176 l
348.105455 56.451887 l
348.218182 56.214941 l
348.330909 56.257966 l
348.443636 56.444558 l
348.669091 56.115967 l
348.781818 55.937023 l
349.007273 56.482861 l
349.345455 55.582709 l
349.683636 56.438199 l
349.909091 57.564747 l
350.021818 57.376609 l
350.134545 57.319842 l
350.585455 58.050269 l
350.810909 57.309829 l
351.036364 56.957172 l
351.261818 57.19936 l
351.487273 56.429742 l
351.6 56.587726 l
351.712727 57.038643 l
351.938182 56.706124 l
352.163636 56.822725 l
352.276364 57.295321 l
352.389091 57.088648 l
353.178182 54.171679 l
353.290909 54.159585 l
353.403636 53.94766 l
353.516364 54.036033 l
353.741818 53.821754 l
353.854545 53.778267 l
354.08 53.530396 l
354.305455 53.922601 l
354.418182 53.888144 l
354.643636 54.517733 l
354.756364 54.172521 l
354.869091 54.195305 l
355.207273 54.594303 l
355.32 54.445086 l
355.658182 55.442302 l
355.770909 55.188897 l
356.334545 55.893234 l
356.56 55.64066 l
356.785455 55.157402 l
357.010909 55.363933 l
357.236364 56.128168 l
357.349091 56.189047 l
357.574545 57.187636 l
357.687273 57.060672 l
357.8 57.485661 l
357.912727 57.276529 l
358.138182 58.098753 l
358.363636 57.96747 l
358.589091 57.474583 l
359.04 58.048415 l
359.152727 57.770994 l
359.603636 58.055391 l
359.829091 57.175143 l
359.941818 57.271136 l
360.167273 57.159305 l
360.28 57.06324 l
360.505455 57.589026 l
360.618182 57.515599 l
360.956364 56.47413 l
361.181818 55.598634 l
361.294545 55.90546 l
361.407273 55.637207 l
361.632727 56.020201 l
361.970909 55.576483 l
362.196364 56.077146 l
362.309091 55.816211 l
362.421818 55.929779 l
362.534545 55.841997 l
362.647273 56.326406 l
362.872727 55.904632 l
363.098182 55.707636 l
363.323636 55.484995 l
363.436364 55.539824 l
363.549091 55.00846 l
363.774545 55.426318 l
364.338182 57.313137 l
364.563636 56.977377 l
364.676364 57.280162 l
364.789091 57.089185 l
365.014545 57.172385 l
365.127273 56.976644 l
365.24 57.093052 l
365.578182 56.29979 l
365.690909 56.595511 l
365.916364 55.913049 l
366.029091 55.916991 l
366.254545 55.556798 l
366.367273 55.627839 l
366.592727 55.230792 l
366.930909 53.930107 l
367.043636 54.170304 l
367.156364 54.09039 l
367.269091 53.529426 l
367.381818 54.047279 l
367.494545 54.014718 l
367.72 53.299766 l
367.945455 54.144282 l
368.170909 53.929302 l
368.283636 53.821392 l
368.396364 53.885643 l
368.509091 53.609012 l
368.621818 53.808005 l
369.636364 51.74129 l
369.861818 52.017463 l
369.974545 51.882567 l
370.087273 51.934118 l
370.2 51.451976 l
370.538182 52.620156 l
370.763636 52.548683 l
371.101818 53.211547 l
371.214545 53.084337 l
371.327273 53.157046 l
371.44 52.651936 l
371.552727 52.858355 l
371.778182 52.397132 l
372.003636 52.577673 l
372.454545 53.428228 l
372.68 53.865936 l
373.018182 52.882377 l
373.469091 53.515131 l
373.581818 53.95751 l
373.581818 53.95751 l
stroke
grestore
1.000 0.498 0.055 setrgbcolor
gsave
334.8 217.4 54 36 clipbox
69.218182 223.725668 m
69.330909 216.670527 l
69.443636 216.964646 l
70.007273 225.19888 l
70.232727 226.239516 l
70.345455 226.00537 l
70.570909 227.1634 l
70.683636 225.336757 l
70.796364 225.33914 l
70.909091 224.29462 l
71.134545 225.171557 l
71.247273 226.620213 l
71.472727 225.010985 l
71.810909 226.152824 l
71.923636 226.170214 l
72.149091 223.821539 l
72.261818 225.064562 l
72.938182 219.787895 l
73.050909 220.057212 l
73.163636 221.149542 l
73.389091 220.58689 l
73.501818 221.715143 l
73.727273 219.44006 l
73.84 219.978702 l
74.178182 219.027297 l
74.516364 215.176572 l
74.967273 212.66891 l
75.08 212.569801 l
75.192727 212.93424 l
75.305455 212.214613 l
75.530909 209.604506 l
76.207273 205.591514 l
76.432727 202.187782 l
76.545455 201.410568 l
76.770909 197.867424 l
76.883636 197.529655 l
77.221818 191.493493 l
77.898182 185.835905 l
78.349091 177.814829 l
78.574545 173.262321 l
79.250909 163.193872 l
79.476364 159.814301 l
79.589091 160.030588 l
79.701818 159.44621 l
79.927273 156.311605 l
80.603636 145.791727 l
81.28 138.708599 l
81.392727 138.938128 l
81.618182 137.501702 l
81.956364 133.95051 l
82.069091 133.311205 l
82.632727 126.873449 l
82.858182 123.88865 l
83.196364 120.021357 l
83.76 115.315408 l
83.872727 115.10629 l
84.436364 108.576476 l
84.549091 108.798012 l
84.887273 105.809562 l
85 105.683232 l
85.225455 104.054386 l
85.338182 104.318919 l
85.789091 102.641571 l
86.014545 102.194547 l
86.465455 99.839596 l
86.690909 98.243379 l
86.916364 97.395572 l
87.367273 95.163345 l
87.48 94.940293 l
87.705455 94.148577 l
87.818182 93.515295 l
87.930909 93.541951 l
88.043636 93.813242 l
88.269091 93.373845 l
88.381818 93.431921 l
88.607273 92.636651 l
88.832727 92.009029 l
89.058182 91.537415 l
89.170909 90.781338 l
89.396364 91.498255 l
89.509091 92.112353 l
89.621818 91.854387 l
89.847273 92.471582 l
89.96 91.672006 l
90.072727 91.749062 l
90.185455 92.415858 l
90.298182 92.133929 l
90.523636 92.912227 l
90.636364 92.388134 l
90.749091 92.651271 l
91.087273 90.492983 l
91.425455 90.609866 l
91.538182 90.455529 l
91.763636 89.50822 l
92.214545 88.08798 l
92.778182 84.063711 l
93.003636 84.015102 l
93.116364 83.602852 l
93.229091 84.104022 l
93.341818 83.933238 l
93.454545 84.251884 l
93.567273 84.224937 l
93.792727 84.418045 l
93.905455 84.828968 l
94.130909 84.487986 l
94.243636 84.63967 l
94.356364 84.40733 l
94.581818 85.445916 l
94.694545 85.286965 l
94.807273 85.217787 l
95.032727 84.896216 l
95.145455 84.929235 l
95.258182 85.643375 l
95.370909 85.633046 l
95.709091 86.475095 l
95.821818 85.789345 l
95.934545 86.178037 l
96.16 85.435919 l
96.272727 85.553267 l
96.498182 86.507363 l
96.610909 86.052767 l
96.836364 87.08615 l
97.174545 88.41389 l
97.4 87.689323 l
97.512727 88.124792 l
97.625455 88.000191 l
97.738182 88.365549 l
97.850909 88.197033 l
98.189091 89.429057 l
98.414545 88.87407 l
98.752727 90.023636 l
98.865455 90.454912 l
99.203636 89.088746 l
99.429091 89.573144 l
99.541818 89.897691 l
99.654545 90.949814 l
99.767273 90.553643 l
99.88 90.763231 l
99.992727 90.687502 l
100.105455 90.776624 l
100.218182 91.070536 l
100.330909 90.810755 l
100.556364 91.473712 l
100.669091 91.47254 l
100.781818 91.247693 l
100.894545 91.304791 l
101.007273 90.364231 l
101.12 90.397258 l
101.232727 90.661458 l
101.345455 90.383653 l
101.458182 89.676852 l
101.570909 89.946582 l
101.796364 89.653607 l
102.021818 90.051048 l
102.134545 89.976887 l
102.36 90.989966 l
102.472727 92.133213 l
102.585455 92.129828 l
102.923636 93.818206 l
103.036364 93.656702 l
103.374545 95.261267 l
103.487273 95.230817 l
103.825455 95.895891 l
103.938182 96.036539 l
104.276364 97.702169 l
104.389091 98.157287 l
104.614545 97.366959 l
105.065455 98.214886 l
105.178182 97.80965 l
105.403636 98.332789 l
105.629091 97.937689 l
105.741818 98.223483 l
105.854545 98.131118 l
106.08 97.403308 l
106.305455 98.473487 l
106.530909 98.092781 l
106.756364 98.760314 l
106.869091 98.694204 l
106.981818 98.368397 l
107.207273 98.541864 l
107.32 98.374871 l
107.432727 98.965805 l
107.658182 98.068015 l
107.883636 98.379489 l
108.221818 97.372778 l
108.334545 96.772674 l
108.672727 97.620311 l
108.898182 96.797947 l
109.010909 96.634879 l
109.123636 96.996172 l
109.349091 96.888591 l
109.461818 96.720262 l
109.574545 96.82667 l
109.687273 97.9763 l
109.8 97.745124 l
109.912727 97.965604 l
110.138182 96.953705 l
110.250909 97.018165 l
110.476364 97.958478 l
110.589091 97.701598 l
110.701818 98.0883 l
110.927273 97.688663 l
111.265455 98.443689 l
111.378182 98.128661 l
111.603636 98.423383 l
111.716364 97.854675 l
111.829091 98.639436 l
112.054545 98.258181 l
112.167273 98.189621 l
112.28 99.324329 l
112.392727 98.737663 l
112.618182 99.329217 l
112.730909 99.380388 l
112.843636 99.735003 l
112.956364 99.60401 l
113.069091 99.709869 l
113.181818 100.111836 l
113.294545 99.663476 l
113.407273 100.55595 l
113.52 100.247872 l
113.632727 100.606386 l
113.745455 99.299928 l
113.858182 99.587268 l
113.970909 99.517737 l
114.083636 99.013972 l
114.309091 100.432072 l
114.421818 99.984674 l
114.534545 100.603381 l
114.647273 100.160436 l
114.76 100.560128 l
114.872727 100.166761 l
115.098182 101.297713 l
115.210909 101.82258 l
115.436364 101.2613 l
115.549091 101.817701 l
115.661818 101.702823 l
115.887273 101.948422 l
116.112727 102.631579 l
116.225455 102.198816 l
116.450909 103.695571 l
116.563636 103.677286 l
116.676364 103.561827 l
116.901818 105.810629 l
117.014545 105.086038 l
117.24 105.662069 l
117.465455 107.13538 l
117.578182 106.709621 l
117.690909 106.778922 l
117.803636 106.475338 l
117.916364 107.095651 l
118.141818 106.578863 l
118.254545 106.792573 l
118.367273 107.449357 l
118.48 107.42367 l
118.592727 107.634501 l
118.705455 107.530003 l
119.269091 109.533648 l
119.494545 109.748125 l
119.607273 110.052399 l
119.832727 111.02317 l
120.058182 111.642816 l
120.170909 111.666448 l
120.396364 112.156769 l
120.621818 112.056318 l
120.847273 113.863437 l
120.96 113.218701 l
121.185455 114.295306 l
121.298182 114.45711 l
121.523636 115.685894 l
121.636364 115.316296 l
121.861818 115.391234 l
121.974545 114.798917 l
122.087273 115.635868 l
122.2 114.582219 l
122.312727 114.589443 l
122.425455 114.738846 l
122.650909 115.661698 l
122.763636 115.120231 l
122.989091 115.681684 l
123.214545 114.848381 l
123.44 116.163816 l
123.552727 115.393312 l
123.665455 115.735117 l
123.778182 115.491673 l
123.890909 115.752834 l
124.003636 116.511769 l
124.116364 115.916015 l
124.341818 116.646744 l
124.454545 116.452628 l
124.567273 116.874894 l
124.792727 116.009132 l
124.905455 116.088347 l
125.130909 116.397484 l
125.243636 115.671341 l
125.356364 115.74148 l
125.469091 115.520335 l
125.581818 114.929584 l
125.807273 115.362515 l
125.92 115.281817 l
126.032727 115.029931 l
126.145455 115.548971 l
126.258182 114.657981 l
126.370909 114.842132 l
126.596364 113.929176 l
126.709091 113.714142 l
126.821818 112.923106 l
127.16 113.784668 l
127.272727 113.547023 l
127.498182 114.489352 l
127.723636 114.058654 l
127.836364 114.114404 l
127.949091 114.500159 l
128.174545 113.109302 l
128.4 113.790348 l
128.738182 113.024431 l
128.963636 113.497419 l
129.189091 112.660371 l
129.865455 115.697513 l
130.090909 114.900126 l
130.316364 113.638221 l
130.429091 114.076439 l
130.654545 113.386379 l
130.88 113.724177 l
130.992727 112.54809 l
131.105455 112.697436 l
131.330909 112.171182 l
131.443636 112.223642 l
131.669091 111.102151 l
131.781818 111.197408 l
131.894545 111.51652 l
132.12 109.322179 l
132.232727 109.459729 l
132.570909 107.718418 l
132.683636 108.127033 l
132.796364 107.587545 l
132.909091 108.363233 l
133.021818 108.352497 l
133.134545 108.838718 l
133.247273 108.440302 l
133.36 107.526141 l
133.472727 108.041751 l
133.698182 107.676055 l
133.923636 106.41682 l
134.036364 106.713847 l
134.149091 106.18394 l
134.261818 106.720184 l
134.374545 106.419894 l
134.6 106.95144 l
134.712727 106.691558 l
134.825455 107.155537 l
134.938182 107.105122 l
135.276364 106.376218 l
135.501818 107.334292 l
135.614545 107.038702 l
135.84 106.248429 l
135.952727 106.312837 l
136.065455 106.906275 l
136.403636 105.528861 l
136.629091 106.225478 l
136.741818 105.99708 l
136.967273 106.257659 l
137.08 105.221276 l
137.305455 106.276065 l
137.530909 105.328077 l
137.643636 104.851238 l
137.756364 105.150476 l
137.869091 104.809101 l
137.981818 104.850568 l
138.094545 106.085364 l
138.207273 105.430319 l
138.432727 105.504948 l
138.545455 105.894494 l
138.658182 105.055142 l
138.770909 105.268002 l
138.996364 104.030814 l
139.221818 103.850839 l
139.334545 104.026565 l
139.898182 102.360705 l
140.123636 100.957108 l
140.349091 100.941243 l
140.461818 100.440872 l
140.574545 100.748914 l
140.687273 100.717015 l
140.912727 99.615696 l
141.138182 98.223064 l
141.363636 98.864748 l
141.476364 98.902518 l
141.701818 99.553552 l
141.814545 99.576125 l
142.04 99.984998 l
142.265455 99.990681 l
142.378182 100.0633 l
142.490909 101.314723 l
142.716364 101.177108 l
142.829091 101.807195 l
142.941818 101.655084 l
143.167273 102.071613 l
143.392727 102.408671 l
143.618182 101.715877 l
143.843636 102.796337 l
143.956364 102.808873 l
144.181818 102.121562 l
144.407273 101.41028 l
144.52 101.568216 l
144.745455 102.430466 l
144.858182 102.408189 l
144.970909 102.228843 l
145.083636 102.379596 l
145.309091 102.254044 l
145.421818 102.395765 l
145.534545 101.932624 l
145.76 102.051023 l
145.985455 100.803839 l
146.323636 99.55895 l
146.436364 99.545418 l
146.549091 99.733917 l
146.661818 99.49645 l
146.887273 98.722058 l
147 99.167154 l
147.112727 98.903249 l
147.225455 98.949487 l
147.338182 98.283117 l
147.676364 99.469995 l
147.789091 98.869861 l
148.014545 99.349873 l
148.127273 99.50129 l
148.24 99.056087 l
148.352727 100.433338 l
148.465455 99.987309 l
148.578182 99.042533 l
148.803636 99.956574 l
148.916364 99.973794 l
149.141818 99.431566 l
149.254545 99.494527 l
149.367273 99.092101 l
149.48 99.491959 l
150.043636 96.842288 l
150.269091 98.147409 l
150.381818 97.884955 l
150.494545 98.076723 l
150.72 97.664748 l
150.945455 97.524054 l
151.396364 98.688447 l
151.509091 98.317807 l
151.621818 98.939132 l
151.734545 100.219602 l
151.96 99.297813 l
152.072727 99.001732 l
152.298182 99.026383 l
152.410909 98.807964 l
152.636364 97.836576 l
152.749091 97.992502 l
152.861818 97.649461 l
153.087273 96.558383 l
153.2 96.101397 l
153.312727 96.346631 l
153.538182 95.567523 l
153.650909 95.567579 l
153.763636 94.292249 l
153.876364 94.352077 l
153.989091 94.67051 l
154.101818 94.20977 l
154.214545 94.958366 l
154.44 94.579582 l
154.778182 94.896315 l
154.890909 94.639291 l
155.003636 93.889232 l
155.116364 93.980487 l
155.341818 92.853993 l
155.454545 93.124637 l
155.792727 92.762596 l
156.018182 91.613925 l
156.130909 92.008476 l
156.243636 91.327778 l
156.581818 92.300099 l
156.694545 92.321166 l
156.92 92.675681 l
157.145455 92.172452 l
157.258182 91.932159 l
157.370909 92.284223 l
157.483636 92.109403 l
157.596364 92.576877 l
157.821818 91.740479 l
157.934545 91.999359 l
158.047273 91.65032 l
158.16 91.92719 l
158.385455 91.297428 l
158.723636 91.222955 l
158.949091 90.60405 l
159.287273 89.923599 l
159.4 89.281548 l
159.512727 89.429254 l
159.625455 87.871361 l
159.738182 87.938296 l
159.850909 88.196326 l
160.076364 87.396645 l
160.414545 87.390927 l
160.527273 87.693959 l
160.64 87.435875 l
160.865455 88.140824 l
160.978182 88.005053 l
161.203636 88.969949 l
161.316364 88.715095 l
161.429091 88.050408 l
161.654545 88.743626 l
161.88 87.48778 l
161.992727 87.449169 l
162.105455 87.622371 l
162.218182 86.880456 l
162.330909 87.34592 l
162.443636 86.762752 l
162.669091 88.049005 l
162.781818 87.918459 l
162.894545 87.986293 l
163.007273 87.013257 l
163.232727 87.319147 l
163.345455 87.048241 l
163.458182 87.079747 l
163.570909 86.850781 l
163.796364 87.174923 l
163.909091 87.291367 l
164.36 86.191421 l
164.472727 86.310809 l
164.585455 85.831988 l
164.810909 86.396851 l
164.923636 85.839978 l
165.149091 86.429347 l
165.374545 86.930874 l
165.712727 85.605796 l
165.825455 85.719097 l
166.050909 85.552421 l
166.163636 85.925641 l
166.276364 85.835908 l
166.389091 85.260247 l
166.614545 85.669436 l
166.727273 85.617644 l
167.065455 86.865661 l
167.178182 86.762994 l
167.516364 88.122928 l
167.854545 86.542472 l
168.08 86.925208 l
168.192727 86.148168 l
168.418182 87.241934 l
168.530909 87.183632 l
168.643636 86.702307 l
168.756364 87.269483 l
168.869091 86.682137 l
169.207273 86.690413 l
169.432727 86.124146 l
169.658182 86.872065 l
169.770909 86.484986 l
169.883636 86.737227 l
169.996364 86.627844 l
170.109091 86.733183 l
170.221818 86.553344 l
170.334545 86.671706 l
170.447273 86.017911 l
170.56 86.171159 l
170.898182 87.339923 l
171.349091 86.958646 l
171.461818 87.186813 l
171.574545 86.932041 l
171.687273 87.251501 l
171.8 86.77294 l
171.912727 86.902347 l
172.138182 85.617292 l
172.250909 85.017878 l
172.363636 85.092367 l
172.476364 84.6233 l
172.701818 84.818304 l
172.927273 83.958841 l
173.04 84.126987 l
173.265455 84.973189 l
173.490909 84.984468 l
173.603636 84.683452 l
173.716364 85.192335 l
173.941818 83.222812 l
174.054545 83.50676 l
174.28 82.736472 l
174.392727 82.480825 l
174.505455 82.724775 l
174.618182 83.405551 l
174.730909 82.891798 l
175.181818 83.521798 l
175.294545 83.510473 l
175.407273 83.7577 l
175.745455 83.488779 l
175.858182 83.939116 l
176.083636 83.123167 l
176.196364 82.938892 l
176.309091 82.328782 l
176.421818 82.331452 l
176.76 81.012273 l
176.985455 81.067338 l
177.098182 81.183038 l
177.210909 81.583492 l
177.323636 81.525007 l
177.549091 80.969445 l
177.661818 81.380121 l
177.887273 81.26235 l
178.112727 80.272945 l
178.563636 78.331392 l
178.676364 77.966848 l
178.789091 76.991534 l
178.901818 77.016291 l
179.24 76.43212 l
179.352727 75.687912 l
179.465455 76.243268 l
179.690909 75.659641 l
179.916364 76.19856 l
180.029091 75.701064 l
180.254545 75.767832 l
180.367273 75.720061 l
180.48 75.480477 l
180.592727 75.646953 l
180.930909 75.256478 l
181.043636 75.508879 l
181.269091 74.997713 l
181.381818 74.84767 l
181.72 75.564636 l
181.945455 75.043855 l
182.058182 74.493215 l
182.170909 74.496667 l
182.509091 74.203731 l
182.621818 74.348927 l
182.847273 74.047666 l
183.072727 73.463675 l
183.185455 72.850555 l
183.523636 74.275328 l
183.636364 73.936997 l
183.749091 74.353277 l
183.861818 74.340598 l
183.974545 73.829843 l
184.2 74.859346 l
184.312727 74.747318 l
184.538182 73.77678 l
184.763636 73.608434 l
184.989091 73.223942 l
185.101818 73.782164 l
185.214545 73.487959 l
185.552727 73.515155 l
185.665455 73.257589 l
186.003636 72.03086 l
186.116364 71.614236 l
186.229091 71.80716 l
186.792727 71.278945 l
186.905455 72.317865 l
187.018182 72.101989 l
187.130909 71.619053 l
187.243636 71.644902 l
187.469091 72.804986 l
187.807273 72.326824 l
188.032727 72.854016 l
188.258182 73.220553 l
188.483636 72.757889 l
188.709091 73.47795 l
188.821818 73.709013 l
188.934545 73.545174 l
189.047273 73.725805 l
189.272727 74.234765 l
189.385455 74.553194 l
189.610909 74.492939 l
189.836364 75.072427 l
189.949091 75.098996 l
190.061818 74.869987 l
190.512727 76.095227 l
190.625455 76.810405 l
190.738182 76.702602 l
190.963636 76.857787 l
191.076364 76.710111 l
191.189091 76.363054 l
191.301818 76.750246 l
191.414545 76.486464 l
191.527273 76.601519 l
191.64 77.036954 l
191.752727 76.761223 l
192.090909 77.34223 l
192.88 76.199461 l
192.992727 76.373397 l
193.218182 75.745942 l
193.330909 76.012467 l
193.443636 75.554684 l
193.669091 75.623124 l
193.781818 75.497335 l
193.894545 75.188174 l
194.12 75.387622 l
194.232727 75.391718 l
194.458182 75.933691 l
194.796364 74.280724 l
195.021818 73.778079 l
195.247273 74.559173 l
195.585455 73.442634 l
195.698182 73.322815 l
195.923636 73.87157 l
196.036364 73.977869 l
196.261818 73.683263 l
196.487273 73.475018 l
196.825455 74.02798 l
197.050909 73.774017 l
197.389091 74.194445 l
197.501818 74.152423 l
197.614545 73.885177 l
197.952727 74.136315 l
198.065455 73.985756 l
198.178182 73.098546 l
198.403636 73.124931 l
198.516364 73.067004 l
198.741818 71.941609 l
198.854545 71.862532 l
198.967273 71.403128 l
199.08 71.592453 l
199.869091 68.944174 l
199.981818 69.578998 l
200.094545 69.074932 l
200.32 69.215035 l
200.432727 68.50669 l
200.545455 69.055396 l
200.658182 68.151429 l
200.883636 68.530997 l
201.221818 67.786837 l
201.334545 67.993934 l
202.574545 64.733086 l
202.687273 64.817573 l
202.8 64.476166 l
202.912727 63.766998 l
203.025455 63.779127 l
203.363636 62.718601 l
203.589091 63.785795 l
203.701818 63.619961 l
203.814545 63.753051 l
203.927273 64.209386 l
204.04 64.021175 l
204.152727 64.352222 l
204.378182 63.814025 l
204.490909 64.441438 l
204.603636 64.004628 l
204.829091 64.271123 l
205.054545 64.479911 l
205.28 64.143658 l
205.505455 64.487775 l
205.618182 64.424206 l
205.843636 64.192496 l
206.069091 64.587055 l
206.181818 64.557602 l
206.294545 64.736785 l
206.858182 63.235604 l
206.970909 63.523537 l
207.196364 63.081457 l
207.309091 63.094731 l
207.534545 62.652412 l
207.647273 62.879228 l
207.872727 63.464336 l
208.098182 63.126343 l
208.210909 63.523438 l
208.323636 63.488234 l
208.436364 63.805819 l
208.549091 63.568854 l
208.661818 63.658068 l
208.887273 63.081603 l
209 63.103124 l
209.112727 62.972557 l
209.338182 63.308477 l
209.563636 63.729105 l
209.901818 63.426924 l
210.127273 63.740192 l
210.24 63.909694 l
210.465455 63.681452 l
210.690909 64.081189 l
210.803636 64.045918 l
211.029091 64.201575 l
211.141818 64.219557 l
211.254545 63.615323 l
211.367273 64.254871 l
211.48 64.034356 l
211.592727 63.43304 l
211.705455 63.747876 l
211.818182 63.281081 l
211.930909 64.168095 l
212.269091 63.494733 l
212.494545 63.447329 l
212.72 63.991818 l
212.832727 63.788747 l
212.945455 63.932486 l
213.283636 63.573762 l
213.509091 63.360786 l
213.847273 64.562669 l
213.96 64.515692 l
214.298182 65.254359 l
214.410909 65.13815 l
214.523636 65.360269 l
214.636364 65.32969 l
214.861818 63.933112 l
215.087273 63.924143 l
215.312727 63.540465 l
215.425455 63.377014 l
215.650909 63.848027 l
215.763636 63.470543 l
215.989091 64.093567 l
216.327273 63.624703 l
216.552727 63.835755 l
216.890909 62.66513 l
217.003636 63.191121 l
217.116364 62.929744 l
217.341818 62.961599 l
217.454545 62.704502 l
217.68 61.926729 l
217.905455 61.836072 l
218.018182 61.906247 l
218.130909 62.342629 l
218.469091 61.446966 l
218.581818 61.41392 l
219.032727 60.789281 l
219.258182 59.94383 l
219.483636 59.52512 l
219.596364 59.555296 l
219.709091 58.938815 l
219.821818 59.460967 l
220.16 58.318653 l
220.272727 57.912939 l
220.498182 58.044606 l
220.949091 56.775691 l
221.174545 57.015185 l
221.625455 56.82141 l
221.963636 56.272402 l
222.076364 56.363638 l
222.301818 55.855917 l
222.414545 55.857086 l
222.64 55.381822 l
222.865455 55.592951 l
222.978182 55.598997 l
223.090909 55.483947 l
223.203636 54.930206 l
223.316364 55.023081 l
223.429091 54.852298 l
223.88 55.791279 l
224.105455 55.502857 l
224.218182 55.667913 l
224.330909 55.445699 l
224.781818 56.577957 l
224.894545 56.470662 l
225.007273 56.717367 l
225.12 56.583648 l
225.232727 57.132635 l
225.345455 57.031492 l
225.570909 56.783195 l
225.683636 56.889397 l
225.796364 56.636596 l
225.909091 56.673912 l
226.134545 57.486116 l
226.247273 57.442954 l
226.472727 57.919891 l
227.149091 56.85453 l
227.374545 56.23652 l
227.487273 56.279973 l
227.6 56.548739 l
227.825455 56.193568 l
228.050909 57.017451 l
228.163636 56.948783 l
228.276364 56.702148 l
228.389091 57.182796 l
228.614545 56.686629 l
228.727273 57.586998 l
228.952727 57.63697 l
229.065455 57.905948 l
229.516364 57.262622 l
229.629091 57.492093 l
229.741818 57.400199 l
229.854545 57.453846 l
230.08 58.744635 l
230.192727 58.724107 l
230.305455 58.921861 l
230.756364 58.358117 l
230.981818 58.80428 l
231.094545 58.701683 l
231.545455 60.076931 l
231.658182 60.31591 l
231.770909 59.800368 l
231.883636 60.016231 l
231.996364 59.963003 l
232.785455 61.272591 l
233.010909 61.055104 l
233.236364 61.555725 l
233.349091 61.466527 l
233.461818 61.134407 l
233.687273 61.615859 l
233.8 61.689972 l
234.138182 60.668442 l
234.250909 60.660554 l
234.363636 61.17897 l
234.476364 60.971125 l
234.589091 61.112471 l
234.701818 61.762002 l
234.814545 61.61603 l
234.927273 61.221364 l
235.04 61.31138 l
235.378182 60.4427 l
235.603636 60.509022 l
235.716364 60.083144 l
235.941818 60.29158 l
236.28 59.140835 l
236.392727 59.139319 l
236.618182 58.548635 l
236.956364 57.757783 l
237.181818 58.241894 l
237.294545 57.79899 l
237.407273 58.016817 l
237.52 57.794191 l
237.745455 56.945797 l
238.083636 58.605197 l
238.196364 58.300598 l
238.647273 59.01081 l
238.872727 58.844516 l
238.985455 58.990249 l
239.098182 58.852076 l
239.323636 57.874582 l
239.436364 58.009067 l
239.661818 57.886232 l
239.774545 58.255481 l
240 57.690401 l
240.225455 57.703958 l
240.338182 57.655604 l
240.789091 58.891861 l
240.901818 58.810344 l
241.127273 60.049698 l
241.578182 58.154717 l
241.690909 58.837003 l
241.803636 58.772149 l
242.029091 59.676206 l
242.141818 59.669205 l
242.367273 59.800699 l
242.48 59.653835 l
242.705455 60.006686 l
242.930909 59.878272 l
243.043636 60.319632 l
243.269091 60.267673 l
243.494545 61.13879 l
243.607273 60.995003 l
243.945455 59.962644 l
244.170909 60.569255 l
244.283636 60.538457 l
244.396364 60.277984 l
244.509091 60.315227 l
244.621818 60.488372 l
244.734545 61.08114 l
244.847273 60.62125 l
245.410909 61.655127 l
245.523636 61.484487 l
245.636364 60.724954 l
245.749091 60.980285 l
245.974545 59.82954 l
246.2 59.555744 l
246.312727 59.025021 l
246.425455 59.130178 l
246.650909 60.464328 l
246.876364 59.773894 l
247.101818 60.100503 l
247.214545 59.731993 l
247.327273 60.254496 l
247.44 60.196859 l
247.665455 60.793852 l
247.778182 60.808643 l
248.003636 61.568734 l
248.116364 61.12426 l
248.229091 61.523561 l
248.341818 61.309974 l
248.454545 61.349369 l
248.567273 61.684277 l
248.68 61.255738 l
248.792727 61.328541 l
248.905455 61.872197 l
249.018182 61.799466 l
249.243636 60.494343 l
249.469091 60.72126 l
249.581818 60.611747 l
249.694545 60.770202 l
249.807273 60.448777 l
250.032727 60.638358 l
250.145455 60.516392 l
250.483636 61.426982 l
250.709091 60.849642 l
250.821818 61.14997 l
251.272727 60.117983 l
251.498182 60.335326 l
251.949091 59.662577 l
252.174545 59.513977 l
252.512727 58.167969 l
252.625455 58.161261 l
252.850909 59.444435 l
252.963636 59.108772 l
253.076364 59.231481 l
253.414545 57.998837 l
253.527273 58.091258 l
253.752727 58.139098 l
253.865455 57.815009 l
253.978182 57.90561 l
254.203636 57.371814 l
254.429091 57.449815 l
254.541818 57.417749 l
254.654545 57.164632 l
254.88 56.01663 l
254.992727 56.073482 l
255.105455 55.836698 l
255.218182 56.16405 l
255.443636 55.642873 l
255.556364 56.130619 l
255.669091 56.118682 l
255.781818 56.349455 l
256.007273 55.850867 l
256.12 55.863514 l
256.232727 55.73129 l
256.345455 55.808426 l
256.458182 55.602163 l
256.683636 56.383817 l
256.796364 56.497333 l
257.021818 57.036453 l
257.247273 57.549564 l
257.36 57.499976 l
257.472727 57.737447 l
257.585455 58.242173 l
257.923636 57.401533 l
258.149091 58.184284 l
258.374545 58.517124 l
258.487273 58.403147 l
258.6 58.169482 l
258.712727 58.882383 l
258.938182 57.913162 l
259.050909 58.235084 l
259.276364 57.426384 l
259.389091 57.796105 l
259.501818 57.602935 l
259.614545 57.740324 l
259.84 57.274301 l
260.065455 58.059851 l
260.178182 58.08463 l
260.516364 57.713214 l
260.629091 57.145175 l
260.967273 57.109491 l
261.08 57.464072 l
261.305455 57.156118 l
261.418182 57.2063 l
261.530909 57.062215 l
261.981818 57.791255 l
262.207273 57.583693 l
262.545455 58.256461 l
262.658182 58.740496 l
262.770909 58.719243 l
262.883636 59.042494 l
262.996364 58.820585 l
263.109091 59.536336 l
263.221818 59.39939 l
263.334545 59.638684 l
263.672727 60.884735 l
263.785455 61.191743 l
264.123636 59.994348 l
264.349091 60.320919 l
264.461818 60.043537 l
264.687273 60.640506 l
264.8 60.496906 l
264.912727 60.003205 l
265.025455 60.407724 l
265.250909 59.945397 l
265.363636 60.019386 l
265.476364 60.41111 l
265.589091 60.222644 l
265.701818 60.291346 l
265.927273 59.984315 l
266.378182 61.197152 l
266.716364 61.734247 l
266.941818 61.327277 l
267.167273 61.541091 l
267.28 61.380124 l
267.505455 61.380327 l
268.407273 59.762962 l
268.745455 60.271405 l
268.858182 59.999053 l
268.970909 60.067749 l
269.083636 59.652417 l
269.196364 59.768551 l
269.309091 59.623865 l
269.421818 59.710225 l
269.647273 58.88496 l
269.76 59.307472 l
269.872727 59.272348 l
270.098182 58.499188 l
270.210909 59.017673 l
270.661818 58.569015 l
270.774545 58.572759 l
270.887273 58.415214 l
271 58.521679 l
271.450909 57.308895 l
271.789091 58.319685 l
271.901818 58.502817 l
272.014545 58.239835 l
272.127273 58.265838 l
272.24 57.991491 l
272.352727 58.129687 l
272.465455 57.994454 l
272.578182 58.065487 l
272.690909 58.451056 l
272.803636 58.439098 l
273.029091 57.72793 l
273.367273 57.190848 l
273.48 57.209133 l
273.592727 56.923928 l
273.818182 57.157604 l
274.043636 56.441202 l
274.269091 56.206849 l
274.381818 55.601037 l
274.494545 55.901478 l
274.832727 54.977563 l
274.945455 55.076549 l
275.058182 54.637399 l
275.170909 54.712339 l
275.283636 55.184439 l
275.396364 54.993571 l
275.621818 54.585654 l
275.734545 55.396521 l
275.847273 55.091882 l
276.185455 55.212361 l
276.298182 54.921537 l
276.523636 55.565106 l
276.749091 55.36502 l
276.974545 55.113207 l
277.2 55.104873 l
277.425455 55.585755 l
277.763636 54.376283 l
277.876364 54.252761 l
277.989091 53.820584 l
278.101818 53.912804 l
278.214545 53.827064 l
278.327273 53.479031 l
278.552727 53.509984 l
278.778182 53.367293 l
279.003636 54.301616 l
279.116364 54.023027 l
279.229091 54.361411 l
279.341818 54.244832 l
279.567273 54.54807 l
279.68 54.421909 l
279.905455 53.883598 l
280.130909 53.690813 l
280.243636 53.612208 l
280.356364 53.179821 l
280.469091 53.445644 l
280.694545 52.8704 l
280.807273 53.176324 l
281.145455 52.352487 l
281.370909 52.842509 l
281.596364 52.154834 l
281.821818 52.213076 l
282.047273 53.074007 l
282.272727 52.684965 l
282.610909 53.706227 l
282.723636 53.557013 l
282.949091 53.038044 l
283.174545 52.575201 l
283.287273 52.876248 l
283.4 52.853217 l
283.512727 52.943611 l
283.738182 52.424055 l
284.076364 51.482336 l
284.301818 51.65893 l
284.527273 52.283251 l
284.752727 52.662744 l
284.978182 53.055444 l
285.090909 52.982752 l
285.316364 53.799813 l
285.541818 54.513627 l
285.654545 54.309888 l
285.767273 54.495848 l
285.992727 54.238321 l
286.105455 54.344929 l
286.556364 53.978572 l
286.669091 54.327325 l
286.894545 55.505202 l
287.007273 55.248123 l
287.12 55.504982 l
287.232727 55.060446 l
287.345455 55.34745 l
287.796364 54.232515 l
288.021818 54.555546 l
288.134545 54.433963 l
288.247273 54.542559 l
288.36 54.92358 l
288.472727 54.651113 l
288.585455 53.952565 l
289.036364 54.99062 l
289.149091 54.701603 l
289.261818 54.877336 l
289.487273 54.563807 l
289.6 54.785336 l
289.825455 54.276512 l
289.938182 54.258704 l
290.163636 53.644866 l
290.276364 52.952379 l
290.389091 53.160841 l
290.501818 53.011138 l
290.614545 53.333132 l
290.727273 53.257282 l
290.84 53.587402 l
290.952727 53.481498 l
291.178182 53.648051 l
291.403636 53.357509 l
291.629091 53.96954 l
291.741818 53.722863 l
291.967273 54.135618 l
292.192727 53.994628 l
292.418182 54.551006 l
292.756364 53.926448 l
292.869091 54.023831 l
293.094545 55.066855 l
293.207273 54.642045 l
293.32 54.859852 l
293.545455 55.794241 l
293.770909 54.66237 l
293.883636 54.852257 l
293.996364 54.520736 l
294.109091 54.858649 l
294.221818 54.841653 l
294.447273 55.379438 l
294.672727 55.732956 l
294.785455 55.546581 l
295.010909 56.26389 l
295.236364 56.676757 l
295.461818 56.464947 l
295.574545 56.850603 l
295.8 56.507529 l
296.025455 56.182634 l
296.138182 55.864769 l
296.250909 55.916175 l
296.701818 54.476531 l
296.814545 54.50332 l
296.927273 54.709674 l
297.152727 54.328783 l
297.265455 54.498838 l
297.603636 54.432385 l
297.829091 55.118589 l
297.941818 54.900367 l
298.167273 54.101959 l
298.392727 54.317453 l
298.618182 53.921178 l
298.730909 54.438981 l
298.843636 54.181041 l
299.069091 54.90829 l
299.294545 54.675781 l
299.407273 54.788405 l
299.632727 54.281193 l
299.745455 54.415624 l
299.858182 54.810149 l
300.083636 54.003881 l
300.196364 54.356135 l
300.309091 53.990452 l
300.421818 54.169365 l
300.647273 53.701517 l
300.76 53.523037 l
301.098182 54.253093 l
301.323636 55.243023 l
301.436364 55.124751 l
301.549091 55.224098 l
301.661818 55.071393 l
301.774545 55.405143 l
302.112727 54.625651 l
302.225455 54.898874 l
302.338182 54.748098 l
302.676364 55.086878 l
302.901818 54.332612 l
303.014545 54.657916 l
303.352727 54.277292 l
303.465455 54.457098 l
303.578182 54.336707 l
303.803636 54.592829 l
304.141818 55.49739 l
304.254545 55.482381 l
304.592727 53.932814 l
304.705455 53.838318 l
304.818182 53.43272 l
305.156364 54.406765 l
305.269091 54.540647 l
305.381818 54.133239 l
305.494545 54.282576 l
305.607273 53.947451 l
305.832727 54.36486 l
306.058182 53.909929 l
306.170909 53.558963 l
306.396364 53.740086 l
306.509091 53.59048 l
306.734545 54.172374 l
306.847273 53.866762 l
307.072727 54.839795 l
307.185455 54.611599 l
307.410909 55.048802 l
307.636364 55.018521 l
307.749091 54.71062 l
307.861818 54.891052 l
308.087273 54.691477 l
308.425455 54.476831 l
308.538182 54.651366 l
308.650909 54.334354 l
308.876364 54.846424 l
309.665455 52.937179 l
309.778182 53.41682 l
310.003636 52.863811 l
310.116364 53.26783 l
310.229091 53.166559 l
310.454545 52.316041 l
310.567273 52.275706 l
310.68 52.490852 l
310.792727 52.18507 l
310.905455 52.907053 l
311.018182 52.763609 l
311.243636 52.249905 l
311.356364 52.542184 l
311.469091 52.018921 l
311.581818 52.045134 l
311.807273 52.915446 l
311.92 52.796576 l
312.032727 53.035553 l
312.145455 52.771423 l
312.370909 52.882461 l
312.596364 52.371648 l
312.821818 52.730197 l
312.934545 52.752589 l
313.16 52.276008 l
313.272727 52.622841 l
313.610909 52.384473 l
313.723636 52.075207 l
313.949091 52.433962 l
314.174545 53.110191 l
314.4 52.567057 l
314.512727 52.557939 l
314.625455 52.40215 l
314.738182 52.445905 l
314.963636 52.111437 l
315.64 50.802232 l
315.865455 51.282948 l
315.978182 50.979166 l
316.090909 51.206025 l
316.203636 51.079673 l
316.429091 50.594997 l
316.541818 50.652961 l
316.88 50.28773 l
317.105455 49.615358 l
317.330909 50.058439 l
317.443636 49.988498 l
317.556364 49.717765 l
317.781818 49.886194 l
318.12 48.983317 l
318.345455 48.610678 l
318.796364 47.664916 l
318.909091 48.057751 l
319.021818 48.003329 l
319.134545 47.496291 l
319.247273 47.504934 l
319.810909 46.546084 l
319.923636 46.564014 l
320.036364 46.167867 l
320.149091 46.209794 l
320.261818 45.883636 l
320.374545 46.06375 l
320.6 47.231484 l
321.050909 46.871643 l
321.163636 47.292665 l
321.501818 46.487838 l
321.84 47.062893 l
321.952727 46.704557 l
322.065455 46.953593 l
322.178182 46.44825 l
322.403636 46.981003 l
322.516364 47.482749 l
322.741818 47.397456 l
322.854545 47.770808 l
323.08 47.211761 l
323.192727 47.537924 l
323.418182 47.308735 l
323.530909 47.014348 l
323.643636 47.314234 l
323.981818 46.626501 l
324.094545 46.786515 l
324.32 47.31039 l
324.432727 47.265149 l
324.545455 46.92451 l
324.658182 47.026606 l
324.770909 46.805685 l
324.996364 47.027184 l
325.109091 46.79213 l
325.221818 46.95077 l
325.447273 46.777709 l
325.672727 47.534542 l
326.461818 48.80899 l
326.574545 48.603318 l
326.687273 48.655837 l
326.912727 49.544504 l
327.025455 49.428017 l
327.250909 48.974178 l
327.363636 49.290313 l
327.589091 48.8754 l
327.701818 48.712591 l
327.927273 50.117629 l
328.04 50.081374 l
328.265455 50.740724 l
328.490909 50.622007 l
328.716364 51.223945 l
328.829091 51.069673 l
329.054545 51.20925 l
329.167273 51.295423 l
329.392727 51.82985 l
329.618182 51.168312 l
329.730909 51.654434 l
329.956364 51.495813 l
330.181818 51.359398 l
330.407273 52.009825 l
330.52 51.987802 l
330.632727 52.4585 l
330.745455 52.042602 l
330.970909 52.970031 l
331.309091 52.853052 l
331.421818 52.401621 l
331.534545 52.892321 l
331.647273 52.72265 l
331.872727 52.038733 l
331.985455 51.953516 l
332.098182 52.164234 l
332.210909 53.009603 l
332.436364 52.990607 l
332.549091 53.172407 l
332.661818 53.085345 l
333 54.033799 l
333.338182 54.29344 l
333.563636 53.678634 l
333.676364 53.895673 l
333.789091 53.822633 l
333.901818 53.610884 l
334.014545 54.057098 l
334.24 53.699181 l
334.578182 54.413349 l
334.803636 54.611994 l
335.029091 54.683684 l
335.141818 55.422222 l
335.254545 55.417297 l
335.48 54.536759 l
335.818182 55.318434 l
336.381818 54.208182 l
336.494545 54.395465 l
336.607273 53.92497 l
336.72 54.000233 l
336.832727 53.23519 l
336.945455 53.381357 l
337.058182 53.304184 l
337.170909 53.402026 l
337.509091 52.210955 l
337.96 52.754684 l
338.072727 52.24411 l
338.185455 52.461325 l
338.298182 52.426194 l
338.410909 52.522369 l
338.523636 52.915915 l
338.636364 52.683698 l
338.861818 53.271125 l
338.974545 53.312643 l
339.425455 51.253388 l
339.538182 51.248406 l
339.650909 51.359247 l
339.763636 50.769065 l
339.876364 50.987179 l
340.101818 50.683087 l
340.44 51.329428 l
340.552727 51.17054 l
340.665455 50.914059 l
340.890909 51.316307 l
341.003636 51.10034 l
341.116364 51.21441 l
341.229091 51.039691 l
341.454545 51.646054 l
341.567273 51.463173 l
341.792727 51.829053 l
341.905455 51.429349 l
342.130909 52.865688 l
342.356364 53.521073 l
342.469091 53.272043 l
342.581818 53.516028 l
342.694545 53.422106 l
342.92 54.053547 l
343.032727 54.52383 l
343.145455 54.059736 l
343.258182 54.404344 l
343.370909 54.300501 l
343.483636 53.489966 l
343.596364 53.498656 l
344.047273 52.625412 l
344.272727 51.889124 l
344.385455 51.80574 l
344.610909 52.106158 l
344.836364 52.721552 l
345.061818 52.0512 l
345.174545 52.160844 l
345.4 51.690632 l
345.512727 51.838031 l
345.625455 51.564959 l
345.850909 51.592047 l
346.076364 51.35547 l
346.189091 51.396336 l
346.301818 51.262461 l
346.414545 50.558543 l
346.752727 51.09141 l
346.865455 50.792984 l
346.978182 50.96713 l
347.090909 50.759834 l
347.654545 52.428666 l
347.767273 52.298951 l
347.88 52.719268 l
347.992727 52.359954 l
348.105455 52.514537 l
348.218182 51.977583 l
348.781818 53.297889 l
349.007273 52.687596 l
349.232727 52.872528 l
349.458182 52.259366 l
349.683636 52.377458 l
349.796364 52.175116 l
350.021818 52.331437 l
350.247273 51.705778 l
350.36 51.7517 l
350.472727 51.666816 l
350.810909 53.406647 l
351.036364 53.809082 l
351.149091 53.268116 l
351.261818 53.336162 l
351.374545 53.597989 l
351.712727 52.670344 l
352.050909 53.196008 l
352.163636 52.731791 l
352.501818 52.975807 l
352.614545 53.080069 l
352.727273 52.616493 l
352.84 52.699906 l
353.178182 52.117765 l
353.629091 49.718888 l
353.741818 49.750859 l
353.854545 49.61748 l
353.967273 49.816568 l
354.192727 49.006437 l
354.643636 49.195766 l
354.756364 49.080958 l
354.869091 49.486594 l
354.981818 49.377285 l
355.207273 49.918651 l
355.32 49.735142 l
355.545455 50.380718 l
355.770909 50.505247 l
355.883636 50.185193 l
356.109091 50.701455 l
356.221818 50.492268 l
356.56 51.042382 l
356.672727 51.107347 l
357.461818 49.428821 l
357.912727 50.762805 l
358.363636 50.46697 l
358.476364 50.055797 l
358.701818 50.162038 l
359.04 49.139649 l
359.378182 49.602913 l
359.490909 49.965615 l
359.603636 49.904609 l
359.829091 49.432993 l
359.941818 49.304412 l
360.167273 48.826802 l
360.618182 48.433572 l
361.069091 47.925721 l
361.294545 47.109413 l
361.52 47.510415 l
361.632727 47.312516 l
361.745455 47.576136 l
361.858182 46.610118 l
361.970909 46.863255 l
362.083636 46.304949 l
362.647273 47.144582 l
362.76 47.565234 l
363.098182 47.424675 l
363.210909 47.775183 l
363.323636 47.262881 l
363.436364 47.453589 l
363.549091 47.979818 l
363.887273 47.202991 l
364 47.988826 l
364.112727 47.775109 l
364.450909 48.643517 l
364.563636 48.492765 l
364.676364 48.668793 l
364.789091 48.57791 l
365.014545 49.472114 l
365.352727 50.008247 l
365.690909 49.637398 l
365.803636 49.513044 l
366.029091 50.009332 l
366.141818 49.570918 l
366.254545 49.778704 l
366.367273 49.663312 l
366.592727 50.148098 l
366.818182 49.421358 l
367.043636 49.333651 l
367.156364 49.430302 l
367.381818 48.537891 l
367.494545 48.578327 l
367.72 48.115561 l
367.832727 48.278783 l
368.058182 48.92312 l
368.170909 49.214439 l
368.283636 49.099171 l
368.621818 49.472582 l
368.734545 50.285633 l
368.847273 50.192798 l
368.96 50.387472 l
369.185455 49.523267 l
369.523636 49.935397 l
369.636364 49.740405 l
369.749091 50.359949 l
369.861818 49.864229 l
370.312727 50.598423 l
370.425455 50.337873 l
370.538182 50.433268 l
370.763636 50.777957 l
370.989091 50.643844 l
371.44 50.132771 l
371.665455 50.567711 l
371.890909 50.282403 l
372.003636 50.191739 l
372.116364 50.332776 l
372.229091 50.251089 l
372.341818 50.449926 l
372.454545 51.122684 l
372.792727 51.191109 l
372.905455 51.483118 l
373.018182 51.131917 l
373.130909 51.327254 l
373.469091 50.361564 l
373.581818 50.62286 l
373.581818 50.62286 l
stroke
grestore
0.800 setlinewidth
0 setlinejoin
[] 0 setdash
0.000 setgray
gsave
54 36 m
54 253.44 l
stroke
grestore
gsave
388.8 36 m
388.8 253.44 l
stroke
grestore
gsave
54 36 m
388.8 36 l
stroke
grestore
gsave
54 253.44 m
388.8 253.44 l
stroke
grestore
1.000 setlinewidth
0 setlinecap
0.800 setgray
gsave
308.878125 216.09625 m
381.8 216.09625 l
383.133333 216.09625 383.8 216.762917 383.8 218.09625 c
383.8 246.44 l
383.8 247.773333 383.133333 248.44 381.8 248.44 c
308.878125 248.44 l
307.544792 248.44 306.878125 247.773333 306.878125 246.44 c
306.878125 218.09625 l
306.878125 216.762917 307.544792 216.09625 308.878125 216.09625 c
cl
gsave
1.000 setgray
fill
grestore
stroke
grestore
1.500 setlinewidth
1 setlinejoin
2 setlinecap
[] 0 setdash
0.122 0.467 0.706 setrgbcolor
gsave
310.878125 240.34625 m
330.878125 240.34625 l
stroke
grestore
0.000 setgray
gsave
338.878125 236.846250 translate
0.000000 rotate
0.000000 0.000000 m /T glyphshow
6.092773 0.000000 m /r glyphshow
10.204102 0.000000 m /a glyphshow
16.332031 0.000000 m /i glyphshow
19.110352 0.000000 m /n glyphshow
25.448242 0.000000 m /i glyphshow
28.226562 0.000000 m /n glyphshow
34.564453 0.000000 m /g glyphshow
grestore
1.000 0.498 0.055 setrgbcolor
gsave
310.878125 225.674375 m
330.878125 225.674375 l
stroke
grestore
0.000 setgray
gsave
338.878125 222.174375 translate
0.000000 rotate
0.000000 0.000000 m /T glyphshow
6.092773 0.000000 m /e glyphshow
12.245117 0.000000 m /s glyphshow
17.455078 0.000000 m /t glyphshow
21.375977 0.000000 m /i glyphshow
24.154297 0.000000 m /n glyphshow
30.492188 0.000000 m /g glyphshow
grestore

end
showpage
