%!PS-Adobe-3.0 EPSF-3.0
%%Title: ./plots/good2_1/fixed_init_obj.eps
%%Creator: matplotlib version 2.0.0, http://matplotlib.org/
%%CreationDate: Mon May  1 17:29:10 2017
%%Orientation: portrait
%%BoundingBox: 90 252 522 540
%%EndComments
%%BeginProlog
/mpldict 8 dict def
mpldict begin
/m { moveto } bind def
/l { lineto } bind def
/r { rlineto } bind def
/c { curveto } bind def
/cl { closepath } bind def
/box {
m
1 index 0 r
0 exch r
neg 0 r
cl
} bind def
/clipbox {
box
clip
newpath
} bind def
%!PS-Adobe-3.0 Resource-Font
%%Title: DejaVu Sans
%%Copyright: Copyright (c) 2003 by Bitstream, Inc. All Rights Reserved. Copyright (c) 2006 by Tavmjong Bah. All Rights Reserved. DejaVu changes are in public domain 
%%Creator: Converted from TrueType to type 3 by PPR
25 dict begin
/_d{bind def}bind def
/_m{moveto}_d
/_l{lineto}_d
/_cl{closepath eofill}_d
/_c{curveto}_d
/_sc{7 -1 roll{setcachedevice}{pop pop pop pop pop pop}ifelse}_d
/_e{exec}_d
/FontName /DejaVuSans def
/PaintType 0 def
/FontMatrix[.001 0 0 .001 0 0]def
/FontBBox[-1021 -463 1793 1232]def
/FontType 3 def
/Encoding [ /space /zero /one /two /three /five /B /F /N /O /T /V /a /b /c /e /g /h /i /j /l /m /n /o /r /s /t /u /v ] def
/FontInfo 10 dict dup begin
/FamilyName (DejaVu Sans) def
/FullName (DejaVu Sans) def
/Notice (Copyright (c) 2003 by Bitstream, Inc. All Rights Reserved. Copyright (c) 2006 by Tavmjong Bah. All Rights Reserved. DejaVu changes are in public domain ) def
/Weight (Book) def
/Version (Version 2.35) def
/ItalicAngle 0.0 def
/isFixedPitch false def
/UnderlinePosition -130 def
/UnderlineThickness 90 def
end readonly def
/CharStrings 29 dict dup begin
/space{318 0 0 0 0 0 _sc
}_d
/zero{636 0 66 -13 570 742 _sc
318 664 _m
267 664 229 639 203 589 _c
177 539 165 464 165 364 _c
165 264 177 189 203 139 _c
229 89 267 64 318 64 _c
369 64 407 89 433 139 _c
458 189 471 264 471 364 _c
471 464 458 539 433 589 _c
407 639 369 664 318 664 _c
318 742 _m
399 742 461 709 505 645 _c
548 580 570 486 570 364 _c
570 241 548 147 505 83 _c
461 19 399 -13 318 -13 _c
236 -13 173 19 130 83 _c
87 147 66 241 66 364 _c
66 486 87 580 130 645 _c
173 709 236 742 318 742 _c
_cl}_d
/one{636 0 110 0 544 729 _sc
124 83 _m
285 83 _l
285 639 _l
110 604 _l
110 694 _l
284 729 _l
383 729 _l
383 83 _l
544 83 _l
544 0 _l
124 0 _l
124 83 _l
_cl}_d
/two{{636 0 73 0 536 742 _sc
192 83 _m
536 83 _l
536 0 _l
73 0 _l
73 83 _l
110 121 161 173 226 239 _c
290 304 331 346 348 365 _c
380 400 402 430 414 455 _c
426 479 433 504 433 528 _c
433 566 419 598 392 622 _c
365 646 330 659 286 659 _c
255 659 222 653 188 643 _c
154 632 117 616 78 594 _c
78 694 _l
118 710 155 722 189 730 _c
223 738 255 742 284 742 _c
}_e{359 742 419 723 464 685 _c
509 647 532 597 532 534 _c
532 504 526 475 515 449 _c
504 422 484 390 454 354 _c
446 344 420 317 376 272 _c
332 227 271 164 192 83 _c
_cl}_e}_d
/three{{636 0 76 -13 556 742 _sc
406 393 _m
453 383 490 362 516 330 _c
542 298 556 258 556 212 _c
556 140 531 84 482 45 _c
432 6 362 -13 271 -13 _c
240 -13 208 -10 176 -4 _c
144 1 110 10 76 22 _c
76 117 _l
103 101 133 89 166 81 _c
198 73 232 69 268 69 _c
330 69 377 81 409 105 _c
441 129 458 165 458 212 _c
458 254 443 288 413 312 _c
383 336 341 349 287 349 _c
}_e{202 349 _l
202 430 _l
291 430 _l
339 430 376 439 402 459 _c
428 478 441 506 441 543 _c
441 580 427 609 401 629 _c
374 649 336 659 287 659 _c
260 659 231 656 200 650 _c
169 644 135 635 98 623 _c
98 711 _l
135 721 170 729 203 734 _c
235 739 266 742 296 742 _c
370 742 429 725 473 691 _c
517 657 539 611 539 553 _c
539 513 527 479 504 451 _c
481 423 448 403 406 393 _c
_cl}_e}_d
/five{{636 0 77 -13 549 729 _sc
108 729 _m
495 729 _l
495 646 _l
198 646 _l
198 467 _l
212 472 227 476 241 478 _c
255 480 270 482 284 482 _c
365 482 429 459 477 415 _c
525 370 549 310 549 234 _c
549 155 524 94 475 51 _c
426 8 357 -13 269 -13 _c
238 -13 207 -10 175 -6 _c
143 -1 111 6 77 17 _c
77 116 _l
106 100 136 88 168 80 _c
199 72 232 69 267 69 _c
}_e{323 69 368 83 401 113 _c
433 143 450 183 450 234 _c
450 284 433 324 401 354 _c
368 384 323 399 267 399 _c
241 399 214 396 188 390 _c
162 384 135 375 108 363 _c
108 729 _l
_cl}_e}_d
/B{{686 0 98 0 615 729 _sc
197 348 _m
197 81 _l
355 81 _l
408 81 447 92 473 114 _c
498 136 511 169 511 215 _c
511 260 498 293 473 315 _c
447 337 408 348 355 348 _c
197 348 _l
197 648 _m
197 428 _l
343 428 _l
391 428 426 437 450 455 _c
474 473 486 500 486 538 _c
486 574 474 602 450 620 _c
426 638 391 648 343 648 _c
197 648 _l
98 729 _m
350 729 _l
}_e{425 729 483 713 524 682 _c
564 650 585 606 585 549 _c
585 504 574 468 553 442 _c
532 416 502 399 462 393 _c
510 382 548 360 575 327 _c
601 294 615 253 615 204 _c
615 138 592 88 548 53 _c
504 17 441 0 360 0 _c
98 0 _l
98 729 _l
_cl}_e}_d
/F{575 0 98 0 517 729 _sc
98 729 _m
517 729 _l
517 646 _l
197 646 _l
197 431 _l
486 431 _l
486 348 _l
197 348 _l
197 0 _l
98 0 _l
98 729 _l
_cl}_d
/N{748 0 98 0 650 729 _sc
98 729 _m
231 729 _l
554 119 _l
554 729 _l
650 729 _l
650 0 _l
517 0 _l
194 610 _l
194 0 _l
98 0 _l
98 729 _l
_cl}_d
/O{787 0 56 -13 731 742 _sc
394 662 _m
322 662 265 635 223 582 _c
181 528 160 456 160 364 _c
160 272 181 199 223 146 _c
265 92 322 66 394 66 _c
465 66 522 92 564 146 _c
606 199 627 272 627 364 _c
627 456 606 528 564 582 _c
522 635 465 662 394 662 _c
394 742 _m
496 742 577 707 639 639 _c
700 571 731 479 731 364 _c
731 248 700 157 639 89 _c
577 21 496 -13 394 -13 _c
291 -13 209 21 148 89 _c
86 157 56 248 56 364 _c
56 479 86 571 148 639 _c
209 707 291 742 394 742 _c
_cl}_d
/T{611 0 -2 0 614 729 _sc
-2 729 _m
614 729 _l
614 646 _l
355 646 _l
355 0 _l
256 0 _l
256 646 _l
-2 646 _l
-2 729 _l
_cl}_d
/V{684 0 8 0 676 729 _sc
286 0 _m
8 729 _l
111 729 _l
342 115 _l
573 729 _l
676 729 _l
398 0 _l
286 0 _l
_cl}_d
/a{{613 0 60 -13 522 560 _sc
343 275 _m
270 275 220 266 192 250 _c
164 233 150 205 150 165 _c
150 133 160 107 181 89 _c
202 70 231 61 267 61 _c
317 61 357 78 387 114 _c
417 149 432 196 432 255 _c
432 275 _l
343 275 _l
522 312 _m
522 0 _l
432 0 _l
432 83 _l
411 49 385 25 355 10 _c
325 -5 287 -13 243 -13 _c
187 -13 142 2 109 33 _c
76 64 60 106 60 159 _c
}_e{60 220 80 266 122 298 _c
163 329 224 345 306 345 _c
432 345 _l
432 354 _l
432 395 418 427 391 450 _c
364 472 326 484 277 484 _c
245 484 215 480 185 472 _c
155 464 127 453 100 439 _c
100 522 _l
132 534 164 544 195 550 _c
226 556 256 560 286 560 _c
365 560 424 539 463 498 _c
502 457 522 395 522 312 _c
_cl}_e}_d
/b{{635 0 91 -13 580 760 _sc
487 273 _m
487 339 473 390 446 428 _c
418 466 381 485 334 485 _c
286 485 249 466 222 428 _c
194 390 181 339 181 273 _c
181 207 194 155 222 117 _c
249 79 286 61 334 61 _c
381 61 418 79 446 117 _c
473 155 487 207 487 273 _c
181 464 _m
199 496 223 520 252 536 _c
281 552 316 560 356 560 _c
422 560 476 533 518 481 _c
559 428 580 359 580 273 _c
}_e{580 187 559 117 518 65 _c
476 13 422 -13 356 -13 _c
316 -13 281 -5 252 10 _c
223 25 199 49 181 82 _c
181 0 _l
91 0 _l
91 760 _l
181 760 _l
181 464 _l
_cl}_e}_d
/c{{550 0 55 -13 488 560 _sc
488 526 _m
488 442 _l
462 456 437 466 411 473 _c
385 480 360 484 334 484 _c
276 484 230 465 198 428 _c
166 391 150 339 150 273 _c
150 206 166 154 198 117 _c
230 80 276 62 334 62 _c
360 62 385 65 411 72 _c
437 79 462 90 488 104 _c
488 21 _l
462 9 436 0 410 -5 _c
383 -10 354 -13 324 -13 _c
242 -13 176 12 128 64 _c
}_e{79 115 55 185 55 273 _c
55 362 79 432 128 483 _c
177 534 244 560 330 560 _c
358 560 385 557 411 551 _c
437 545 463 537 488 526 _c
_cl}_e}_d
/e{{615 0 55 -13 562 560 _sc
562 296 _m
562 252 _l
149 252 _l
153 190 171 142 205 110 _c
238 78 284 62 344 62 _c
378 62 412 66 444 74 _c
476 82 509 95 541 113 _c
541 28 _l
509 14 476 3 442 -3 _c
408 -9 373 -13 339 -13 _c
251 -13 182 12 131 62 _c
80 112 55 181 55 268 _c
55 357 79 428 127 481 _c
175 533 241 560 323 560 _c
397 560 455 536 498 489 _c
}_e{540 441 562 377 562 296 _c
472 322 _m
471 371 457 410 431 440 _c
404 469 368 484 324 484 _c
274 484 234 469 204 441 _c
174 413 156 373 152 322 _c
472 322 _l
_cl}_e}_d
/g{{635 0 55 -207 544 560 _sc
454 280 _m
454 344 440 395 414 431 _c
387 467 349 485 301 485 _c
253 485 215 467 188 431 _c
161 395 148 344 148 280 _c
148 215 161 165 188 129 _c
215 93 253 75 301 75 _c
349 75 387 93 414 129 _c
440 165 454 215 454 280 _c
544 68 _m
544 -24 523 -93 482 -139 _c
440 -184 377 -207 292 -207 _c
260 -207 231 -204 203 -200 _c
175 -195 147 -188 121 -178 _c
}_e{121 -91 _l
147 -105 173 -115 199 -122 _c
225 -129 251 -133 278 -133 _c
336 -133 380 -117 410 -87 _c
439 -56 454 -10 454 52 _c
454 96 _l
435 64 411 40 382 24 _c
353 8 319 0 279 0 _c
211 0 157 25 116 76 _c
75 127 55 195 55 280 _c
55 364 75 432 116 483 _c
157 534 211 560 279 560 _c
319 560 353 552 382 536 _c
411 520 435 496 454 464 _c
454 547 _l
544 547 _l
}_e{544 68 _l
_cl}_e}_d
/h{634 0 91 0 549 760 _sc
549 330 _m
549 0 _l
459 0 _l
459 327 _l
459 379 448 417 428 443 _c
408 469 378 482 338 482 _c
289 482 251 466 223 435 _c
195 404 181 362 181 309 _c
181 0 _l
91 0 _l
91 760 _l
181 760 _l
181 462 _l
202 494 227 519 257 535 _c
286 551 320 560 358 560 _c
420 560 468 540 500 501 _c
532 462 549 405 549 330 _c
_cl}_d
/i{278 0 94 0 184 760 _sc
94 547 _m
184 547 _l
184 0 _l
94 0 _l
94 547 _l
94 760 _m
184 760 _l
184 646 _l
94 646 _l
94 760 _l
_cl}_d
/j{278 0 -17 -207 184 760 _sc
94 547 _m
184 547 _l
184 -9 _l
184 -78 170 -128 144 -160 _c
117 -191 74 -207 16 -207 _c
-17 -207 _l
-17 -131 _l
6 -131 _l
40 -131 63 -123 75 -107 _c
87 -91 94 -58 94 -9 _c
94 547 _l
94 760 _m
184 760 _l
184 646 _l
94 646 _l
94 760 _l
_cl}_d
/l{278 0 94 0 184 760 _sc
94 760 _m
184 760 _l
184 0 _l
94 0 _l
94 760 _l
_cl}_d
/m{{974 0 91 0 889 560 _sc
520 442 _m
542 482 569 511 600 531 _c
631 550 668 560 711 560 _c
767 560 811 540 842 500 _c
873 460 889 403 889 330 _c
889 0 _l
799 0 _l
799 327 _l
799 379 789 418 771 444 _c
752 469 724 482 686 482 _c
639 482 602 466 575 435 _c
548 404 535 362 535 309 _c
535 0 _l
445 0 _l
445 327 _l
445 379 435 418 417 444 _c
398 469 369 482 331 482 _c
}_e{285 482 248 466 221 435 _c
194 404 181 362 181 309 _c
181 0 _l
91 0 _l
91 547 _l
181 547 _l
181 462 _l
201 495 226 520 255 536 _c
283 552 317 560 357 560 _c
397 560 430 550 458 530 _c
486 510 506 480 520 442 _c
_cl}_e}_d
/n{634 0 91 0 549 560 _sc
549 330 _m
549 0 _l
459 0 _l
459 327 _l
459 379 448 417 428 443 _c
408 469 378 482 338 482 _c
289 482 251 466 223 435 _c
195 404 181 362 181 309 _c
181 0 _l
91 0 _l
91 547 _l
181 547 _l
181 462 _l
202 494 227 519 257 535 _c
286 551 320 560 358 560 _c
420 560 468 540 500 501 _c
532 462 549 405 549 330 _c
_cl}_d
/o{612 0 55 -13 557 560 _sc
306 484 _m
258 484 220 465 192 427 _c
164 389 150 338 150 273 _c
150 207 163 156 191 118 _c
219 80 257 62 306 62 _c
354 62 392 80 420 118 _c
448 156 462 207 462 273 _c
462 337 448 389 420 427 _c
392 465 354 484 306 484 _c
306 560 _m
384 560 445 534 490 484 _c
534 433 557 363 557 273 _c
557 183 534 113 490 63 _c
445 12 384 -13 306 -13 _c
227 -13 165 12 121 63 _c
77 113 55 183 55 273 _c
55 363 77 433 121 484 _c
165 534 227 560 306 560 _c
_cl}_d
/r{411 0 91 0 411 560 _sc
411 463 _m
401 469 390 473 378 476 _c
366 478 353 480 339 480 _c
288 480 249 463 222 430 _c
194 397 181 350 181 288 _c
181 0 _l
91 0 _l
91 547 _l
181 547 _l
181 462 _l
199 495 224 520 254 536 _c
284 552 321 560 365 560 _c
371 560 378 559 386 559 _c
393 558 401 557 411 555 _c
411 463 _l
_cl}_d
/s{{521 0 54 -13 472 560 _sc
443 531 _m
443 446 _l
417 458 391 468 364 475 _c
336 481 308 485 279 485 _c
234 485 200 478 178 464 _c
156 450 145 430 145 403 _c
145 382 153 366 169 354 _c
185 342 217 330 265 320 _c
296 313 _l
360 299 405 279 432 255 _c
458 230 472 195 472 151 _c
472 100 452 60 412 31 _c
372 1 316 -13 246 -13 _c
216 -13 186 -10 154 -5 _c
}_e{122 0 89 8 54 20 _c
54 113 _l
87 95 120 82 152 74 _c
184 65 216 61 248 61 _c
290 61 323 68 346 82 _c
368 96 380 117 380 144 _c
380 168 371 187 355 200 _c
339 213 303 226 247 238 _c
216 245 _l
160 257 119 275 95 299 _c
70 323 58 356 58 399 _c
58 450 76 490 112 518 _c
148 546 200 560 268 560 _c
301 560 332 557 362 552 _c
391 547 418 540 443 531 _c
}_e{_cl}_e}_d
/t{392 0 27 0 368 702 _sc
183 702 _m
183 547 _l
368 547 _l
368 477 _l
183 477 _l
183 180 _l
183 135 189 106 201 94 _c
213 81 238 75 276 75 _c
368 75 _l
368 0 _l
276 0 _l
206 0 158 13 132 39 _c
106 65 93 112 93 180 _c
93 477 _l
27 477 _l
27 547 _l
93 547 _l
93 702 _l
183 702 _l
_cl}_d
/u{634 0 85 -13 543 560 _sc
85 216 _m
85 547 _l
175 547 _l
175 219 _l
175 167 185 129 205 103 _c
225 77 255 64 296 64 _c
344 64 383 79 411 110 _c
439 141 453 183 453 237 _c
453 547 _l
543 547 _l
543 0 _l
453 0 _l
453 84 _l
431 50 405 26 377 10 _c
348 -5 315 -13 277 -13 _c
214 -13 166 6 134 45 _c
101 83 85 140 85 216 _c
311 560 _m
311 560 _l
_cl}_d
/v{592 0 30 0 562 547 _sc
30 547 _m
125 547 _l
296 88 _l
467 547 _l
562 547 _l
357 0 _l
235 0 _l
30 547 _l
_cl}_d
end readonly def

/BuildGlyph
 {exch begin
 CharStrings exch
 2 copy known not{pop /.notdef}if
 true 3 1 roll get exec
 end}_d

/BuildChar {
 1 index /Encoding get exch get
 1 index /BuildGlyph get exec
}_d

FontName currentdict end definefont pop
end
%%EndProlog
mpldict begin
90 252 translate
432 288 0 0 clipbox
gsave
0 0 m
432 0 l
432 288 l
0 288 l
cl
1.000 setgray
fill
grestore
gsave
54 36 m
388.8 36 l
388.8 253.44 l
54 253.44 l
cl
1.000 setgray
fill
grestore
0.800 setlinewidth
1 setlinejoin
2 setlinecap
[] 0 setdash
0.690 setgray
gsave
334.8 217.4 54 36 clipbox
69.218182 36 m
69.218182 253.44 l
stroke
grestore
0 setlinecap
0.000 setgray
gsave
/o {
gsave
newpath
translate
0.8 setlinewidth
1 setlinejoin
0 setlinecap
0 0 m
0 -3.5 l

gsave
0.000 setgray
fill
grestore
stroke
grestore
} bind def
69.2182 36 o
grestore
/DejaVuSans findfont
10.000 scalefont
setfont
gsave
66.038494 21.406250 translate
0.000000 rotate
0.000000 0.000000 m /zero glyphshow
grestore
2 setlinecap
0.690 setgray
gsave
334.8 217.4 54 36 clipbox
125.581818 36 m
125.581818 253.44 l
stroke
grestore
0 setlinecap
0.000 setgray
gsave
/o {
gsave
newpath
translate
0.8 setlinewidth
1 setlinejoin
0 setlinecap
0 0 m
0 -3.5 l

gsave
0.000 setgray
fill
grestore
stroke
grestore
} bind def
125.582 36 o
grestore
gsave
116.042756 21.406250 translate
0.000000 rotate
0.000000 0.000000 m /five glyphshow
6.362305 0.000000 m /zero glyphshow
12.724609 0.000000 m /zero glyphshow
grestore
2 setlinecap
0.690 setgray
gsave
334.8 217.4 54 36 clipbox
181.945455 36 m
181.945455 253.44 l
stroke
grestore
0 setlinecap
0.000 setgray
gsave
/o {
gsave
newpath
translate
0.8 setlinewidth
1 setlinejoin
0 setlinecap
0 0 m
0 -3.5 l

gsave
0.000 setgray
fill
grestore
stroke
grestore
} bind def
181.945 36 o
grestore
gsave
169.226705 21.406250 translate
0.000000 rotate
0.000000 0.000000 m /one glyphshow
6.362305 0.000000 m /zero glyphshow
12.724609 0.000000 m /zero glyphshow
19.086914 0.000000 m /zero glyphshow
grestore
2 setlinecap
0.690 setgray
gsave
334.8 217.4 54 36 clipbox
238.309091 36 m
238.309091 253.44 l
stroke
grestore
0 setlinecap
0.000 setgray
gsave
/o {
gsave
newpath
translate
0.8 setlinewidth
1 setlinejoin
0 setlinecap
0 0 m
0 -3.5 l

gsave
0.000 setgray
fill
grestore
stroke
grestore
} bind def
238.309 36 o
grestore
gsave
225.590341 21.406250 translate
0.000000 rotate
0.000000 0.000000 m /one glyphshow
6.362305 0.000000 m /five glyphshow
12.724609 0.000000 m /zero glyphshow
19.086914 0.000000 m /zero glyphshow
grestore
2 setlinecap
0.690 setgray
gsave
334.8 217.4 54 36 clipbox
294.672727 36 m
294.672727 253.44 l
stroke
grestore
0 setlinecap
0.000 setgray
gsave
/o {
gsave
newpath
translate
0.8 setlinewidth
1 setlinejoin
0 setlinecap
0 0 m
0 -3.5 l

gsave
0.000 setgray
fill
grestore
stroke
grestore
} bind def
294.673 36 o
grestore
gsave
281.953977 21.406250 translate
0.000000 rotate
0.000000 0.000000 m /two glyphshow
6.362305 0.000000 m /zero glyphshow
12.724609 0.000000 m /zero glyphshow
19.086914 0.000000 m /zero glyphshow
grestore
2 setlinecap
0.690 setgray
gsave
334.8 217.4 54 36 clipbox
351.036364 36 m
351.036364 253.44 l
stroke
grestore
0 setlinecap
0.000 setgray
gsave
/o {
gsave
newpath
translate
0.8 setlinewidth
1 setlinejoin
0 setlinecap
0 0 m
0 -3.5 l

gsave
0.000 setgray
fill
grestore
stroke
grestore
} bind def
351.036 36 o
grestore
gsave
338.317614 21.406250 translate
0.000000 rotate
0.000000 0.000000 m /two glyphshow
6.362305 0.000000 m /five glyphshow
12.724609 0.000000 m /zero glyphshow
19.086914 0.000000 m /zero glyphshow
grestore
gsave
163.282813 7.734375 translate
0.000000 rotate
0.000000 0.000000 m /B glyphshow
6.860352 0.000000 m /a glyphshow
12.988281 0.000000 m /t glyphshow
16.909180 0.000000 m /c glyphshow
22.407227 0.000000 m /h glyphshow
28.745117 0.000000 m /space glyphshow
31.923828 0.000000 m /T glyphshow
38.016602 0.000000 m /r glyphshow
42.127930 0.000000 m /a glyphshow
48.255859 0.000000 m /i glyphshow
51.034180 0.000000 m /n glyphshow
57.372070 0.000000 m /i glyphshow
60.150391 0.000000 m /n glyphshow
66.488281 0.000000 m /g glyphshow
72.835938 0.000000 m /space glyphshow
76.014648 0.000000 m /N glyphshow
83.495117 0.000000 m /u glyphshow
89.833008 0.000000 m /m glyphshow
99.574219 0.000000 m /b glyphshow
105.921875 0.000000 m /e glyphshow
112.074219 0.000000 m /r glyphshow
grestore
2 setlinecap
0.690 setgray
gsave
334.8 217.4 54 36 clipbox
54 39.246953 m
388.8 39.246953 l
stroke
grestore
0 setlinecap
0.000 setgray
gsave
/o {
gsave
newpath
translate
0.8 setlinewidth
1 setlinejoin
0 setlinecap
0 0 m
-3.5 0 l

gsave
0.000 setgray
fill
grestore
stroke
grestore
} bind def
54 39.247 o
grestore
gsave
34.281250 35.450078 translate
0.000000 rotate
0.000000 0.000000 m /five glyphshow
6.362305 0.000000 m /zero glyphshow
grestore
2 setlinecap
0.690 setgray
gsave
334.8 217.4 54 36 clipbox
54 81.49223 m
388.8 81.49223 l
stroke
grestore
0 setlinecap
0.000 setgray
gsave
/o {
gsave
newpath
translate
0.8 setlinewidth
1 setlinejoin
0 setlinecap
0 0 m
-3.5 0 l

gsave
0.000 setgray
fill
grestore
stroke
grestore
} bind def
54 81.4922 o
grestore
gsave
27.921875 77.695355 translate
0.000000 rotate
0.000000 0.000000 m /one glyphshow
6.362305 0.000000 m /zero glyphshow
12.724609 0.000000 m /zero glyphshow
grestore
2 setlinecap
0.690 setgray
gsave
334.8 217.4 54 36 clipbox
54 123.737506 m
388.8 123.737506 l
stroke
grestore
0 setlinecap
0.000 setgray
gsave
/o {
gsave
newpath
translate
0.8 setlinewidth
1 setlinejoin
0 setlinecap
0 0 m
-3.5 0 l

gsave
0.000 setgray
fill
grestore
stroke
grestore
} bind def
54 123.738 o
grestore
gsave
27.921875 119.940631 translate
0.000000 rotate
0.000000 0.000000 m /one glyphshow
6.362305 0.000000 m /five glyphshow
12.724609 0.000000 m /zero glyphshow
grestore
2 setlinecap
0.690 setgray
gsave
334.8 217.4 54 36 clipbox
54 165.982783 m
388.8 165.982783 l
stroke
grestore
0 setlinecap
0.000 setgray
gsave
/o {
gsave
newpath
translate
0.8 setlinewidth
1 setlinejoin
0 setlinecap
0 0 m
-3.5 0 l

gsave
0.000 setgray
fill
grestore
stroke
grestore
} bind def
54 165.983 o
grestore
gsave
27.921875 162.185908 translate
0.000000 rotate
0.000000 0.000000 m /two glyphshow
6.362305 0.000000 m /zero glyphshow
12.724609 0.000000 m /zero glyphshow
grestore
2 setlinecap
0.690 setgray
gsave
334.8 217.4 54 36 clipbox
54 208.228059 m
388.8 208.228059 l
stroke
grestore
0 setlinecap
0.000 setgray
gsave
/o {
gsave
newpath
translate
0.8 setlinewidth
1 setlinejoin
0 setlinecap
0 0 m
-3.5 0 l

gsave
0.000 setgray
fill
grestore
stroke
grestore
} bind def
54 208.228 o
grestore
gsave
27.921875 204.431184 translate
0.000000 rotate
0.000000 0.000000 m /two glyphshow
6.362305 0.000000 m /five glyphshow
12.724609 0.000000 m /zero glyphshow
grestore
2 setlinecap
0.690 setgray
gsave
334.8 217.4 54 36 clipbox
54 250.473335 m
388.8 250.473335 l
stroke
grestore
0 setlinecap
0.000 setgray
gsave
/o {
gsave
newpath
translate
0.8 setlinewidth
1 setlinejoin
0 setlinecap
0 0 m
-3.5 0 l

gsave
0.000 setgray
fill
grestore
stroke
grestore
} bind def
54 250.473 o
grestore
gsave
27.921875 246.676460 translate
0.000000 rotate
0.000000 0.000000 m /three glyphshow
6.362305 0.000000 m /zero glyphshow
12.724609 0.000000 m /zero glyphshow
grestore
gsave
21.843750 82.134062 translate
90.000000 rotate
0.000000 0.000000 m /O glyphshow
7.871094 0.000000 m /b glyphshow
14.218750 0.000000 m /j glyphshow
16.997070 0.000000 m /e glyphshow
23.149414 0.000000 m /c glyphshow
28.647461 0.000000 m /t glyphshow
32.568359 0.000000 m /i glyphshow
35.346680 0.000000 m /v glyphshow
41.264648 0.000000 m /e glyphshow
47.416992 0.000000 m /space glyphshow
50.595703 0.000000 m /F glyphshow
56.347656 0.000000 m /u glyphshow
62.685547 0.000000 m /n glyphshow
69.023438 0.000000 m /c glyphshow
74.521484 0.000000 m /t glyphshow
78.442383 0.000000 m /i glyphshow
81.220703 0.000000 m /o glyphshow
87.338867 0.000000 m /n glyphshow
93.676758 0.000000 m /space glyphshow
96.855469 0.000000 m /V glyphshow
103.696289 0.000000 m /a glyphshow
109.824219 0.000000 m /l glyphshow
112.602539 0.000000 m /u glyphshow
118.940430 0.000000 m /e glyphshow
grestore
1.500 setlinewidth
2 setlinecap
0.122 0.467 0.706 setrgbcolor
gsave
334.8 217.4 54 36 clipbox
69.218182 241.380042 m
69.330909 240.288771 l
69.556364 240.817036 l
69.781818 243.258186 l
69.894545 242.811012 l
70.232727 243.556364 l
70.345455 243.427315 l
71.134545 235.676259 l
71.36 231.808759 l
72.487273 214.681077 l
72.6 214.16611 l
73.389091 203.518547 l
73.84 199.539481 l
74.854545 191.317973 l
75.305455 188.447612 l
75.756364 185.621261 l
75.981818 184.787538 l
77.447273 173.505942 l
78.8 159.639493 l
80.490909 136.609381 l
81.392727 122.868312 l
82.069091 115.548221 l
82.181818 114.712861 l
82.407273 112.293522 l
82.632727 110.497186 l
83.985455 100.317038 l
85.112727 93.076026 l
85.225455 92.809402 l
86.352727 85.863895 l
86.690909 84.115432 l
87.141818 81.9128 l
87.705455 80.314848 l
88.945455 76.776748 l
89.058182 76.919933 l
89.170909 76.366546 l
89.396364 76.653688 l
89.621818 76.316346 l
89.847273 76.07221 l
90.185455 75.685836 l
90.410909 76.495368 l
90.749091 75.321527 l
90.861818 75.370893 l
90.974545 75.138958 l
91.087273 75.18117 l
91.2 74.988983 l
91.650909 75.427144 l
91.763636 75.183518 l
91.989091 74.601933 l
92.665455 73.939859 l
92.890909 73.662359 l
93.229091 73.597436 l
93.454545 73.142973 l
93.567273 73.253617 l
93.68 73.137996 l
93.905455 72.773292 l
94.018182 72.728469 l
94.469091 72.037507 l
94.581818 71.892026 l
94.694545 72.209203 l
94.92 71.845077 l
95.258182 71.73755 l
95.370909 71.818961 l
95.596364 71.23905 l
95.821818 71.472795 l
96.047273 71.132066 l
96.16 71.067809 l
96.272727 71.346742 l
96.498182 70.831849 l
96.610909 70.812566 l
96.836364 71.058577 l
97.061818 70.545391 l
97.287273 70.78692 l
97.512727 70.614994 l
97.738182 70.508408 l
98.076364 70.064849 l
98.414545 70.174852 l
98.64 69.948447 l
98.865455 70.469562 l
99.203636 69.823342 l
99.316364 69.937832 l
99.654545 70.805592 l
99.767273 70.915346 l
99.88 70.591821 l
100.105455 70.715466 l
100.218182 70.665303 l
100.330909 70.328997 l
100.443636 70.550195 l
100.556364 70.277156 l
100.894545 70.820787 l
101.232727 70.793882 l
101.345455 71.007578 l
101.458182 70.905314 l
101.796364 70.022625 l
102.36 71.353434 l
102.472727 71.531891 l
102.810909 71.10411 l
103.036364 71.573155 l
103.149091 71.696446 l
103.374545 71.336583 l
103.487273 71.432007 l
103.6 71.715657 l
103.712727 72.351771 l
103.825455 72.168668 l
104.050909 72.225559 l
104.276364 71.967707 l
104.501818 72.387401 l
104.614545 72.361208 l
104.952727 72.688919 l
105.065455 72.698373 l
105.290909 72.510917 l
105.629091 72.860974 l
105.854545 73.201952 l
105.967273 73.155771 l
106.192727 73.48541 l
106.305455 73.334328 l
106.530909 73.701156 l
106.643636 73.599878 l
107.32 75.616126 l
107.432727 75.409798 l
107.545455 74.951503 l
107.883636 75.227493 l
108.109091 74.992312 l
108.334545 75.604966 l
108.447273 75.427188 l
108.56 75.526032 l
109.010909 76.573791 l
109.349091 76.505469 l
109.574545 76.752221 l
109.8 76.557292 l
109.912727 76.560284 l
110.138182 76.885988 l
110.250909 76.932996 l
110.476364 77.236355 l
110.589091 77.324617 l
110.814545 76.599871 l
111.378182 77.745753 l
111.490909 77.761561 l
111.716364 78.066324 l
111.829091 77.965077 l
111.941818 77.673599 l
112.618182 78.317168 l
112.730909 78.486403 l
113.181818 79.775083 l
113.632727 80.051438 l
113.745455 79.840831 l
113.970909 80.086205 l
114.083636 80.475349 l
114.196364 79.981162 l
114.647273 80.880282 l
114.76 80.995263 l
114.872727 81.347519 l
114.985455 80.663726 l
115.098182 80.713415 l
115.210909 80.533873 l
115.887273 81.4208 l
116.112727 81.173181 l
116.450909 82.374426 l
116.676364 83.282381 l
116.901818 83.258542 l
117.127273 82.970493 l
117.24 82.838781 l
117.578182 83.28719 l
117.690909 83.154356 l
117.916364 83.56719 l
118.029091 83.218619 l
118.141818 83.35358 l
118.367273 82.665045 l
118.48 82.615941 l
118.592727 82.304543 l
118.818182 82.85043 l
119.043636 83.50515 l
119.269091 83.079365 l
119.381818 83.22073 l
119.494545 83.007432 l
119.832727 83.738058 l
120.058182 83.712525 l
120.283636 83.147419 l
120.734545 84.126344 l
120.847273 83.831404 l
121.072727 83.985382 l
121.185455 84.270902 l
121.523636 83.373002 l
121.749091 84.167879 l
121.974545 84.11818 l
122.087273 84.206386 l
122.538182 83.20104 l
122.763636 83.40763 l
122.989091 83.093275 l
123.101818 83.298551 l
123.214545 83.265352 l
123.327273 83.080147 l
123.665455 83.56291 l
123.890909 83.200199 l
124.003636 83.373387 l
124.116364 82.943734 l
124.229091 82.968861 l
124.567273 82.245046 l
124.68 82.264127 l
124.792727 82.473323 l
125.018182 82.441635 l
125.130909 82.487756 l
125.243636 82.331068 l
125.356364 82.382109 l
125.581818 82.982744 l
125.694545 82.822067 l
125.807273 83.539479 l
126.032727 83.469081 l
126.258182 83.04418 l
126.596364 84.044963 l
126.821818 83.653522 l
127.047273 82.934634 l
127.385455 83.894548 l
127.498182 83.536124 l
127.610909 83.713738 l
128.061818 82.056539 l
128.287273 81.991025 l
128.512727 82.460274 l
128.625455 82.456542 l
128.738182 82.043583 l
128.850909 82.173306 l
128.963636 82.107519 l
129.076364 81.479488 l
129.189091 81.564863 l
129.414545 81.922898 l
129.752727 82.177104 l
130.316364 81.103804 l
130.541818 81.744038 l
130.88 81.244522 l
131.105455 81.130924 l
131.330909 81.602942 l
131.443636 81.517684 l
131.556364 81.219725 l
131.669091 81.308488 l
131.781818 80.871825 l
131.894545 80.924089 l
132.12 80.700159 l
132.570909 80.871229 l
132.796364 81.779125 l
132.909091 81.639332 l
133.021818 81.605396 l
133.247273 81.365001 l
133.698182 82.077105 l
134.036364 81.654407 l
134.149091 81.888033 l
134.374545 81.634489 l
134.938182 80.831767 l
135.050909 81.192261 l
135.727273 80.889331 l
135.84 80.85198 l
136.178182 80.259327 l
136.403636 80.354449 l
136.629091 79.769552 l
136.854545 78.862535 l
136.967273 79.022924 l
137.08 78.126399 l
137.305455 78.28499 l
137.418182 78.211532 l
137.530909 78.580894 l
137.869091 77.532598 l
137.981818 77.512135 l
138.094545 77.653904 l
138.545455 76.45937 l
138.996364 75.819829 l
139.221818 76.422208 l
139.447273 76.113407 l
139.56 76.142292 l
139.898182 75.397865 l
140.123636 75.226659 l
140.236364 75.075363 l
140.349091 75.545021 l
140.574545 74.973226 l
140.687273 75.045447 l
140.8 74.972649 l
140.912727 74.426669 l
141.025455 74.499537 l
141.138182 74.137477 l
141.250909 74.418117 l
141.363636 74.232935 l
141.589091 74.747345 l
141.701818 74.691613 l
141.814545 74.46403 l
142.04 74.514613 l
142.490909 73.105416 l
142.716364 72.448978 l
142.829091 72.451618 l
143.167273 71.900329 l
143.505455 71.872836 l
143.730909 71.419046 l
143.843636 70.905753 l
143.956364 71.092707 l
144.294545 69.980737 l
144.52 70.227296 l
144.858182 69.356628 l
145.083636 69.660417 l
145.196364 69.295828 l
145.309091 69.544489 l
145.421818 69.276471 l
145.534545 69.542448 l
145.647273 69.513286 l
145.76 69.882867 l
145.872727 69.852477 l
146.210909 69.05125 l
146.323636 69.131653 l
146.549091 68.632523 l
146.887273 68.666197 l
147.112727 68.197486 l
147.225455 68.410844 l
147.450909 67.795744 l
147.563636 67.667148 l
147.676364 67.358759 l
147.789091 67.704132 l
147.901818 67.481083 l
148.014545 67.563499 l
148.24 66.801212 l
148.352727 66.906526 l
148.578182 66.934659 l
148.690909 66.779558 l
148.916364 66.264139 l
149.254545 66.157077 l
149.592727 66.758552 l
149.705455 66.480669 l
149.818182 66.774139 l
149.930909 66.442808 l
150.043636 66.475574 l
150.269091 66.370876 l
150.494545 65.689709 l
150.72 65.700342 l
150.832727 65.346773 l
151.283636 65.565871 l
152.298182 63.787585 l
152.410909 63.982472 l
152.861818 62.865372 l
152.974545 62.783747 l
153.087273 62.914071 l
153.312727 62.48348 l
153.425455 62.771598 l
153.538182 62.639451 l
153.650909 62.825568 l
153.989091 62.398233 l
154.101818 62.490735 l
154.214545 62.427518 l
154.44 62.811465 l
154.552727 62.626704 l
154.665455 62.687358 l
154.890909 62.164435 l
155.116364 62.35021 l
155.341818 61.717219 l
155.454545 61.800049 l
155.905455 61.530661 l
156.243636 61.443397 l
156.356364 61.041822 l
156.469091 61.379323 l
156.807273 60.942033 l
157.032727 60.394113 l
157.258182 60.66073 l
157.483636 60.554578 l
157.596364 60.038748 l
157.709091 60.247771 l
157.934545 59.788854 l
158.272727 59.298251 l
158.385455 59.46022 l
158.498182 59.249726 l
158.610909 59.448729 l
158.836364 59.232847 l
158.949091 59.197986 l
159.061818 58.961084 l
159.512727 59.375514 l
159.625455 59.308931 l
159.850909 58.627289 l
159.963636 58.609661 l
160.076364 58.928269 l
160.301818 58.737095 l
160.414545 58.927757 l
160.527273 58.736061 l
160.64 58.888153 l
160.865455 58.539935 l
161.541818 57.884744 l
161.654545 58.189537 l
161.88 57.640437 l
162.218182 58.136333 l
162.781818 57.625489 l
163.007273 57.699394 l
163.232727 58.107773 l
163.458182 57.825956 l
163.570909 58.079749 l
163.683636 58.021544 l
163.796364 57.832713 l
163.909091 58.248853 l
164.36 57.743767 l
164.585455 58.090949 l
164.698182 57.781061 l
164.810909 58.114902 l
164.923636 57.895201 l
165.149091 58.4 l
165.374545 58.313052 l
165.825455 57.640925 l
166.050909 57.913434 l
166.163636 57.878867 l
166.276364 57.706132 l
166.389091 57.817076 l
166.501818 58.153936 l
167.403636 57.02779 l
167.516364 56.83279 l
167.629091 57.210246 l
168.08 56.445187 l
168.192727 56.708581 l
168.418182 56.379497 l
168.530909 56.089443 l
168.756364 56.59972 l
169.094545 56.492968 l
169.207273 56.600977 l
169.32 56.435233 l
169.545455 56.917328 l
170.109091 56.219085 l
170.334545 56.476936 l
170.56 56.535178 l
170.672727 56.287302 l
170.785455 56.522576 l
170.898182 56.412542 l
171.236364 56.736721 l
171.349091 56.448632 l
171.574545 56.659845 l
171.8 56.445607 l
172.025455 55.747142 l
172.138182 55.725358 l
172.250909 55.935958 l
172.363636 55.814789 l
172.589091 56.167025 l
173.716364 55.411392 l
173.829091 55.561121 l
173.941818 55.511332 l
174.054545 55.802632 l
174.505455 55.745646 l
174.843636 55.897355 l
174.956364 55.778141 l
175.069091 55.971695 l
175.294545 55.556466 l
175.52 55.363163 l
175.632727 55.438326 l
175.745455 55.281551 l
175.970909 55.361682 l
176.083636 55.188746 l
176.196364 55.340425 l
176.421818 55.032536 l
176.647273 55.514471 l
176.76 55.492933 l
176.872727 55.260265 l
176.985455 55.434227 l
177.210909 54.953412 l
177.323636 54.772058 l
177.549091 54.847696 l
177.887273 54.247457 l
178 54.050366 l
178.225455 54.689754 l
178.450909 54.559466 l
178.676364 54.571373 l
178.789091 54.585807 l
178.901818 54.219956 l
179.014545 54.290148 l
179.352727 54.843496 l
180.029091 54.198047 l
180.141818 54.295793 l
180.367273 54.111112 l
180.592727 54.301625 l
180.705455 54.087772 l
180.818182 54.171975 l
180.930909 54.424993 l
181.043636 54.264682 l
181.156364 54.565495 l
181.269091 54.531097 l
181.381818 54.924854 l
181.494545 54.781122 l
181.607273 54.833011 l
181.832727 54.706531 l
181.945455 54.73358 l
182.058182 54.523882 l
182.283636 54.820517 l
182.509091 54.546929 l
182.621818 54.645468 l
182.96 54.4713 l
183.185455 54.522474 l
183.410909 54.761203 l
183.523636 54.696444 l
183.861818 54.219645 l
184.2 53.911041 l
184.425455 54.265099 l
184.538182 54.350257 l
184.763636 54.235136 l
184.989091 54.477869 l
185.101818 54.274522 l
185.214545 54.40872 l
185.44 53.900996 l
185.552727 54.029814 l
185.778182 53.649851 l
185.890909 53.851016 l
186.116364 53.800706 l
186.454545 54.094399 l
186.567273 53.885706 l
186.68 54.281426 l
186.905455 54.045717 l
187.018182 54.241999 l
187.243636 54.19024 l
187.469091 54.412019 l
187.581818 54.346481 l
187.694545 54.450451 l
187.92 54.192637 l
188.145455 54.3674 l
188.258182 54.124669 l
188.370909 54.286701 l
188.483636 54.665283 l
188.709091 54.65388 l
188.821818 54.728223 l
189.047273 55.142391 l
189.16 55.091936 l
189.272727 55.269733 l
189.498182 54.56723 l
189.610909 54.487972 l
189.836364 54.702577 l
189.949091 54.798285 l
190.061818 54.656986 l
190.174545 54.908027 l
190.287273 54.530194 l
190.4 54.571188 l
190.512727 54.293066 l
190.850909 54.56768 l
191.076364 54.989156 l
191.189091 54.76859 l
191.527273 54.828387 l
191.752727 55.292207 l
191.865455 55.320848 l
192.203636 54.611543 l
192.429091 55.027615 l
192.541818 55.29303 l
192.88 54.735061 l
193.330909 54.679247 l
193.443636 54.331439 l
193.556364 54.412001 l
193.669091 54.2678 l
193.894545 54.733669 l
194.12 54.585252 l
194.909091 55.020477 l
195.021818 55.314466 l
195.247273 55.33016 l
195.585455 54.483608 l
195.923636 54.643843 l
196.261818 54.511294 l
196.374545 54.878057 l
196.6 54.633268 l
196.712727 54.945903 l
196.825455 54.92693 l
196.938182 55.2333 l
197.163636 54.832028 l
197.276364 55.298521 l
197.501818 55.071127 l
197.727273 55.162696 l
197.84 55.27166 l
198.065455 55.144539 l
198.178182 55.256459 l
198.403636 54.979743 l
198.516364 54.919153 l
198.741818 54.340061 l
198.854545 54.369158 l
198.967273 54.730432 l
199.08 54.701933 l
199.192727 54.846709 l
199.305455 54.744234 l
199.418182 54.968209 l
199.756364 54.809011 l
200.094545 55.224874 l
200.207273 54.947297 l
200.432727 55.193921 l
200.658182 55.181411 l
200.770909 55.334317 l
200.883636 55.677905 l
200.996364 55.657069 l
201.334545 56.28678 l
201.447273 56.127184 l
201.56 56.324412 l
201.672727 56.219365 l
201.785455 56.409494 l
202.461818 56.194473 l
202.687273 56.226859 l
202.8 56.490359 l
203.025455 56.014438 l
203.476364 56.397586 l
203.589091 56.273262 l
203.701818 56.335183 l
203.814545 56.132091 l
203.927273 56.545232 l
204.265455 56.337915 l
204.490909 56.169284 l
204.829091 56.049068 l
204.941818 56.241378 l
205.28 55.641965 l
205.392727 55.899954 l
205.505455 55.798463 l
205.730909 56.103027 l
206.407273 55.362318 l
206.52 55.255231 l
206.858182 55.973051 l
207.196364 56.067766 l
207.309091 56.075595 l
207.421818 55.761893 l
207.534545 55.994234 l
207.76 55.843207 l
207.872727 56.026443 l
207.985455 55.925473 l
208.210909 55.370921 l
208.436364 55.491039 l
208.661818 55.113513 l
208.774545 55.21169 l
209 55.158425 l
209.112727 55.422353 l
209.450909 54.976861 l
209.676364 55.251963 l
209.789091 55.12423 l
209.901818 55.293288 l
210.127273 55.189036 l
210.24 54.90325 l
210.352727 55.141373 l
210.690909 54.796245 l
211.029091 55.125457 l
211.141818 55.214298 l
211.254545 54.960725 l
211.367273 55.045184 l
211.592727 54.824624 l
211.818182 54.691753 l
211.930909 54.68148 l
212.156364 54.305134 l
212.381818 53.994911 l
212.607273 53.881008 l
213.283636 53.563283 l
213.509091 53.637613 l
213.734545 54.196115 l
213.96 54.114486 l
214.410909 55.01017 l
214.523636 54.868927 l
214.636364 54.940128 l
214.749091 55.193809 l
214.974545 54.842004 l
215.087273 54.96214 l
215.2 54.538309 l
215.425455 54.933651 l
215.650909 55.062727 l
215.763636 55.005216 l
215.989091 55.231903 l
216.44 54.668125 l
216.552727 54.850473 l
216.665455 54.758442 l
217.003636 54.900541 l
217.229091 54.328609 l
217.567273 54.565036 l
217.905455 55.049702 l
218.018182 55.073688 l
218.130909 55.283307 l
218.356364 55.015494 l
218.469091 55.339888 l
218.581818 55.09083 l
218.694545 55.407618 l
218.807273 55.359277 l
219.032727 55.573052 l
219.258182 55.391681 l
219.709091 55.427974 l
219.821818 55.206836 l
219.934545 55.372615 l
220.272727 55.152995 l
220.498182 55.264675 l
221.061818 56.271006 l
221.174545 56.173221 l
221.4 56.3097 l
221.512727 56.144038 l
221.738182 55.400213 l
221.850909 55.414329 l
221.963636 55.290267 l
222.076364 55.353534 l
222.301818 55.004219 l
222.752727 54.530663 l
222.865455 54.628979 l
222.978182 54.560077 l
223.203636 54.889302 l
223.541818 55.904119 l
224.218182 56.692045 l
224.443636 56.620746 l
224.556364 56.804393 l
225.007273 56.347158 l
225.12 56.452586 l
225.232727 56.393339 l
225.458182 56.036733 l
225.570909 56.017542 l
225.683636 55.68253 l
225.796364 55.990546 l
226.021818 55.552806 l
226.134545 55.97826 l
226.36 55.789749 l
226.472727 55.63482 l
226.698182 55.229589 l
226.923636 55.321876 l
227.149091 55.000514 l
227.374545 54.844256 l
227.6 55.010644 l
228.276364 54.113628 l
228.727273 54.534171 l
228.84 54.474698 l
229.178182 54.076075 l
229.403636 53.776678 l
229.516364 53.962408 l
229.629091 53.806911 l
229.741818 53.280358 l
229.854545 53.488478 l
230.192727 53.031643 l
230.418182 52.959755 l
230.530909 53.097458 l
230.643636 53.448276 l
230.869091 53.302628 l
231.094545 53.325376 l
231.207273 53.145934 l
231.432727 53.625661 l
231.545455 53.686496 l
232.109091 52.527782 l
232.447273 53.364787 l
232.785455 53.431044 l
233.236364 54.325934 l
233.349091 54.259296 l
233.461818 54.432764 l
233.574545 54.228172 l
233.8 54.530005 l
234.250909 54.331409 l
234.363636 54.168792 l
234.589091 54.295142 l
234.701818 54.084779 l
234.814545 54.184491 l
235.152727 53.9068 l
235.265455 53.904622 l
235.378182 53.705099 l
235.490909 53.745596 l
235.603636 53.925267 l
235.829091 53.758912 l
235.941818 53.907375 l
236.054545 54.30854 l
236.505455 53.832998 l
236.618182 53.943379 l
237.069091 53.194765 l
237.181818 53.388653 l
237.294545 53.217318 l
237.52 53.328783 l
237.632727 53.160182 l
237.970909 53.73654 l
238.196364 53.561901 l
238.534545 54.139955 l
238.872727 54.163892 l
238.985455 54.540434 l
239.098182 54.445991 l
239.323636 54.670331 l
239.436364 54.470602 l
240.563636 55.325289 l
240.676364 55.367703 l
240.789091 55.283544 l
241.690909 56.850292 l
241.916364 56.716894 l
242.141818 56.82572 l
242.48 57.317475 l
242.705455 56.972793 l
242.818182 57.009634 l
242.930909 56.907373 l
243.043636 57.341889 l
243.156364 57.276966 l
243.269091 57.831668 l
243.381818 57.77684 l
243.494545 57.340373 l
243.945455 57.952969 l
244.058182 57.847627 l
244.283636 58.320482 l
244.396364 58.226183 l
244.509091 58.142981 l
244.621818 58.381588 l
244.734545 58.062111 l
244.847273 58.382928 l
244.96 58.143495 l
245.185455 58.262646 l
245.410909 58.047077 l
245.749091 57.911752 l
246.312727 56.769184 l
246.538182 56.281557 l
246.650909 56.494321 l
246.763636 56.275884 l
246.876364 56.300478 l
247.44 55.913376 l
247.778182 56.214701 l
247.890909 55.963238 l
248.116364 56.216591 l
248.567273 56.786791 l
248.68 56.56182 l
248.905455 56.725281 l
249.018182 56.715907 l
249.243636 56.532011 l
249.356364 56.731542 l
250.258182 55.633175 l
250.370909 55.858869 l
250.596364 55.62311 l
250.709091 55.736383 l
251.16 55.369249 l
251.498182 55.476926 l
251.836364 55.626816 l
251.949091 55.526877 l
252.061818 55.708781 l
252.174545 55.658776 l
252.287273 55.885242 l
252.625455 55.493791 l
252.963636 54.90065 l
253.076364 54.894712 l
253.301818 54.639705 l
253.527273 54.48562 l
253.752727 54.195966 l
254.090909 53.567673 l
254.203636 53.623311 l
254.316364 53.383244 l
254.429091 53.437114 l
256.12 50.745633 l
256.232727 51.148413 l
256.458182 50.967707 l
256.570909 51.047721 l
256.796364 51.578268 l
257.021818 51.109707 l
257.247273 51.606594 l
257.36 51.50076 l
257.698182 51.834019 l
257.810909 52.103769 l
258.149091 52.113507 l
258.261818 52.582288 l
258.6 52.301163 l
258.825455 51.763502 l
258.938182 51.672971 l
259.163636 51.832271 l
259.614545 51.361314 l
259.727273 51.534 l
260.065455 50.980133 l
260.178182 51.118875 l
260.516364 51.02563 l
260.741818 51.772919 l
261.08 51.738557 l
261.305455 52.242387 l
261.418182 52.155897 l
261.869091 52.650681 l
261.981818 52.691284 l
262.32 53.246568 l
262.545455 53.009965 l
262.658182 52.894467 l
262.770909 53.068162 l
262.883636 52.841202 l
263.109091 52.962546 l
263.221818 52.977226 l
263.447273 52.833252 l
263.56 52.823265 l
263.672727 52.54598 l
263.785455 52.705771 l
263.898182 52.461136 l
264.349091 52.662869 l
264.574545 52.68159 l
264.8 52.83898 l
265.025455 53.18031 l
265.138182 53.550222 l
265.250909 53.518689 l
265.363636 53.670447 l
265.476364 53.52519 l
265.701818 53.882611 l
265.927273 53.650721 l
266.265455 54.109748 l
266.378182 54.045275 l
266.490909 54.207948 l
266.716364 53.94729 l
266.829091 53.890036 l
267.054545 54.40112 l
267.28 54.572521 l
267.392727 54.896277 l
267.505455 54.630356 l
267.618182 54.665698 l
267.730909 54.87051 l
267.956364 54.790954 l
268.069091 54.39946 l
268.52 54.62626 l
268.745455 54.997213 l
268.970909 54.887203 l
269.083636 55.075872 l
269.309091 54.702286 l
269.421818 54.927816 l
269.534545 54.763708 l
269.647273 54.872446 l
269.76 54.760473 l
270.098182 55.368083 l
270.210909 55.330236 l
270.323636 55.498013 l
270.436364 55.32686 l
270.549091 55.958668 l
270.661818 55.902641 l
270.774545 56.34645 l
270.887273 56.337198 l
271 55.93907 l
271.112727 56.09385 l
271.225455 55.911818 l
271.338182 56.016544 l
271.676364 55.276266 l
271.789091 55.560317 l
272.014545 55.02222 l
272.352727 55.886653 l
272.578182 55.615774 l
272.690909 55.814403 l
272.916364 55.536158 l
273.029091 55.807569 l
273.141818 55.59987 l
273.367273 55.752456 l
273.592727 55.456483 l
273.818182 55.709957 l
273.930909 55.717546 l
274.381818 55.277031 l
274.494545 55.508441 l
274.607273 55.348903 l
274.945455 55.723479 l
275.058182 55.565087 l
275.170909 55.857699 l
275.396364 55.885281 l
275.509091 55.951209 l
275.734545 55.766337 l
275.847273 55.675483 l
275.96 55.919904 l
276.072727 55.854597 l
276.298182 55.854346 l
276.410909 55.623828 l
276.749091 56.068654 l
276.974545 55.804654 l
277.2 56.088732 l
277.425455 55.502836 l
277.538182 55.61485 l
277.876364 55.802082 l
278.101818 56.401052 l
278.214545 56.028416 l
278.552727 56.330774 l
278.778182 55.891281 l
278.890909 55.988185 l
279.116364 55.671602 l
279.229091 55.560846 l
279.567273 55.975592 l
279.68 55.994604 l
280.130909 55.01001 l
280.243636 55.193898 l
280.469091 54.796994 l
280.581818 55.119072 l
280.807273 54.427692 l
281.032727 54.670018 l
281.258182 54.598728 l
281.596364 54.080604 l
281.709091 53.988373 l
281.934545 53.628466 l
282.16 53.341487 l
282.272727 53.654997 l
282.385455 53.499311 l
282.610909 53.639052 l
282.949091 54.425721 l
283.174545 53.872227 l
283.287273 53.91914 l
283.4 54.121799 l
283.512727 54.008651 l
283.850909 53.333873 l
283.963636 53.36957 l
284.076364 53.674542 l
284.301818 53.39324 l
284.414545 53.596609 l
284.64 53.291811 l
284.752727 53.48227 l
285.090909 53.306402 l
285.316364 53.768122 l
285.654545 54.483612 l
285.767273 54.33324 l
285.88 54.478073 l
286.105455 53.896968 l
286.330909 54.238426 l
286.556364 53.854682 l
286.781818 53.701056 l
287.007273 54.297598 l
287.12 54.337655 l
287.345455 53.844684 l
287.458182 53.812253 l
287.570909 53.483521 l
287.796364 53.537177 l
287.909091 53.570907 l
288.36 52.945458 l
288.472727 52.940509 l
288.923636 53.41584 l
289.036364 53.257121 l
289.149091 53.593246 l
289.261818 53.488184 l
289.487273 53.785198 l
289.6 53.460287 l
290.050909 54.031533 l
290.163636 53.891226 l
290.614545 54.716333 l
290.84 54.549227 l
290.952727 54.17731 l
291.403636 54.266279 l
291.516364 54.244194 l
291.741818 54.66134 l
291.854545 54.552159 l
292.08 54.7594 l
292.192727 54.513156 l
292.418182 55.010429 l
292.530909 54.937575 l
292.756364 55.286436 l
293.32 55.736531 l
293.432727 56.131698 l
293.545455 55.93354 l
293.883636 56.124124 l
293.996364 56.177328 l
294.221818 55.975367 l
294.447273 56.571941 l
294.56 56.66795 l
294.672727 56.589674 l
294.898182 56.696515 l
295.123636 57.261224 l
295.236364 57.158182 l
295.461818 57.617481 l
295.687273 57.160577 l
295.912727 57.713404 l
296.025455 57.39209 l
296.363636 58.017351 l
296.589091 57.590604 l
296.927273 57.164667 l
297.152727 57.501302 l
297.265455 57.929324 l
297.603636 57.685496 l
298.054545 58.484026 l
298.167273 58.170507 l
298.28 58.202754 l
298.843636 59.715453 l
298.956364 59.662763 l
299.181818 59.844944 l
299.294545 59.824695 l
299.52 60.22621 l
299.745455 60.389973 l
299.858182 60.286437 l
299.970909 59.906189 l
300.083636 60.097978 l
300.196364 60.035304 l
300.309091 60.338283 l
300.421818 60.260526 l
300.534545 60.383938 l
300.76 60.074085 l
300.985455 60.320822 l
301.210909 60.141624 l
301.323636 60.306143 l
301.436364 60.772316 l
301.887273 59.874328 l
302 60.006745 l
302.225455 60.779492 l
302.338182 60.617438 l
302.789091 61.600959 l
302.901818 61.296214 l
303.014545 61.347677 l
303.24 61.664646 l
303.352727 61.572094 l
303.465455 61.798707 l
303.803636 61.518258 l
304.141818 61.492988 l
304.254545 61.604915 l
304.705455 60.9898 l
304.818182 61.101814 l
304.930909 61.000466 l
305.156364 61.245601 l
305.269091 61.250897 l
305.494545 61.577526 l
305.607273 61.688731 l
305.72 61.534056 l
305.832727 61.615029 l
306.058182 61.161752 l
306.170909 61.461995 l
306.283636 61.13424 l
306.509091 61.772557 l
306.734545 61.707969 l
307.072727 62.521334 l
307.185455 62.068532 l
307.298182 62.24862 l
307.410909 62.100503 l
307.523636 62.40094 l
307.749091 62.094579 l
307.974545 61.765776 l
308.087273 61.67553 l
308.2 61.881761 l
308.312727 61.808084 l
308.538182 61.360906 l
308.650909 61.630384 l
308.876364 61.404004 l
308.989091 61.568092 l
309.214545 61.130214 l
309.327273 61.113765 l
309.552727 61.318973 l
310.003636 60.498909 l
310.229091 60.061702 l
310.454545 59.773292 l
310.567273 59.912173 l
310.68 59.631008 l
311.018182 59.873744 l
311.130909 59.808976 l
311.243636 60.00509 l
311.356364 59.829153 l
311.469091 59.873415 l
311.581818 59.759893 l
311.807273 59.365462 l
311.92 59.861321 l
312.258182 59.047226 l
312.483636 59.365071 l
312.596364 59.270145 l
312.709091 58.928491 l
313.16 59.411611 l
313.272727 59.339784 l
313.385455 58.962051 l
313.498182 58.985135 l
313.610909 59.210767 l
313.723636 58.996365 l
313.836364 59.166232 l
313.949091 59.122931 l
314.174545 59.43691 l
314.4 59.103006 l
314.625455 59.483731 l
314.850909 59.30626 l
315.076364 59.333891 l
315.189091 59.453051 l
315.301818 59.396022 l
315.414545 59.570071 l
315.752727 59.197202 l
316.090909 59.189354 l
316.203636 59.657199 l
316.316364 59.570321 l
316.541818 59.312359 l
316.654545 59.176004 l
316.767273 59.294957 l
316.88 58.909792 l
317.105455 58.921103 l
317.556364 58.389139 l
317.781818 57.653509 l
318.345455 55.996322 l
318.570909 56.26192 l
318.683636 56.213766 l
318.909091 56.329063 l
319.021818 56.337297 l
319.247273 56.843885 l
319.36 56.771798 l
319.585455 56.379671 l
319.698182 56.49831 l
319.810909 56.867981 l
320.036364 56.645706 l
320.261818 56.405202 l
320.374545 56.301434 l
320.487273 56.54196 l
320.825455 56.116637 l
321.050909 56.520112 l
321.163636 56.525584 l
321.389091 56.876592 l
321.501818 57.219128 l
321.614545 57.17154 l
321.84 57.568955 l
322.290909 57.567205 l
322.403636 57.794165 l
322.516364 57.684534 l
322.854545 57.961975 l
322.967273 58.264959 l
323.192727 57.679758 l
323.530909 58.212 l
323.756364 57.83671 l
323.869091 57.82454 l
324.207273 58.439792 l
324.32 58.320781 l
324.545455 58.603236 l
324.883636 58.398781 l
325.221818 57.874976 l
325.447273 58.339499 l
325.56 58.425354 l
325.785455 58.019268 l
326.010909 58.368142 l
326.687273 57.820438 l
327.025455 58.033454 l
327.138182 57.882009 l
327.363636 58.080085 l
327.476364 57.981774 l
327.589091 57.680524 l
327.701818 57.814546 l
328.152727 57.258285 l
328.265455 57.530045 l
328.490909 57.344867 l
328.716364 57.853172 l
328.941818 58.0947 l
329.167273 58.089791 l
329.392727 58.470369 l
329.505455 58.699606 l
329.730909 58.500155 l
329.956364 58.58407 l
330.181818 58.336158 l
330.294545 58.242577 l
330.52 57.727246 l
330.745455 58.215972 l
330.970909 57.885907 l
331.083636 57.401565 l
331.196364 57.688773 l
331.309091 57.549168 l
331.421818 57.742381 l
331.534545 57.567633 l
331.76 57.716268 l
332.098182 57.838598 l
332.323636 57.342247 l
332.436364 57.210291 l
332.549091 57.288584 l
332.661818 57.542952 l
332.887273 57.290741 l
333 57.396309 l
333.225455 56.964765 l
333.338182 57.038137 l
334.24 55.612994 l
334.352727 56.19347 l
334.465455 56.080041 l
334.578182 56.294236 l
334.803636 56.119326 l
334.916364 56.109785 l
335.141818 56.310891 l
335.367273 55.833157 l
335.48 55.934239 l
335.592727 56.2137 l
335.705455 56.158461 l
336.043636 55.710464 l
336.269091 56.27977 l
336.381818 56.137113 l
336.607273 55.133243 l
336.72 55.219484 l
337.058182 55.6921 l
337.283636 55.576201 l
337.396364 56.027169 l
337.509091 55.80141 l
337.96 56.694873 l
338.185455 56.698884 l
338.298182 56.599971 l
338.410909 56.704784 l
338.523636 56.559638 l
338.749091 55.906216 l
338.974545 56.502975 l
339.2 56.549338 l
339.425455 57.071703 l
339.538182 56.70977 l
339.763636 57.142474 l
339.989091 56.970421 l
340.327273 57.301747 l
340.44 57.290954 l
340.552727 57.149479 l
340.665455 57.348127 l
340.778182 57.108359 l
341.116364 57.967786 l
341.229091 57.990916 l
341.341818 57.688879 l
341.68 58.155374 l
341.905455 58.470925 l
342.018182 58.221712 l
342.243636 58.569808 l
342.469091 58.475468 l
342.581818 58.470031 l
342.807273 58.818096 l
342.92 58.702858 l
343.032727 58.8814 l
343.258182 59.645787 l
343.483636 60.06438 l
343.596364 59.927985 l
343.709091 60.146032 l
343.934545 59.401281 l
344.047273 59.449438 l
344.272727 59.128085 l
344.385455 59.188943 l
344.498182 59.404108 l
344.949091 59.175628 l
345.174545 59.854876 l
345.4 60.20426 l
345.512727 60.103361 l
345.850909 59.049852 l
346.189091 59.282491 l
346.414545 59.048856 l
346.527273 58.986116 l
346.64 58.770453 l
346.752727 58.930048 l
346.978182 58.724574 l
347.090909 58.796493 l
347.316364 59.273022 l
347.541818 58.77919 l
347.767273 59.17784 l
347.88 59.256678 l
347.992727 59.160126 l
348.218182 58.577937 l
348.330909 58.649725 l
348.443636 58.862451 l
348.669091 58.484556 l
348.781818 58.674072 l
348.894545 58.531566 l
349.007273 58.168322 l
349.12 58.39948 l
349.458182 57.707784 l
350.021818 57.940452 l
350.36 57.247297 l
350.472727 57.353533 l
350.698182 57.109056 l
350.810909 57.21003 l
351.036364 56.99607 l
351.374545 57.101496 l
351.6 57.424659 l
351.712727 57.29051 l
351.938182 57.619521 l
352.050909 57.644132 l
352.163636 57.860835 l
352.501818 56.964141 l
352.614545 57.473188 l
352.84 57.189128 l
353.065455 57.161396 l
353.290909 56.740036 l
353.403636 56.408807 l
353.741818 56.430181 l
353.854545 56.67299 l
354.08 56.381071 l
354.192727 56.749622 l
354.530909 55.575472 l
354.643636 55.392173 l
354.869091 55.82592 l
354.981818 55.57623 l
355.207273 56.2944 l
355.32 56.292924 l
355.432727 56.402975 l
355.770909 56.133952 l
356.221818 56.540985 l
356.334545 56.13974 l
356.447273 56.160514 l
356.672727 55.648887 l
356.898182 55.864208 l
357.123636 56.589959 l
357.236364 56.64132 l
357.349091 56.969108 l
357.461818 56.851172 l
358.250909 57.67974 l
358.476364 58.314823 l
359.152727 59.396554 l
359.265455 59.340151 l
359.603636 60.270743 l
359.716364 60.240068 l
359.829091 60.414988 l
359.941818 60.27314 l
360.054545 59.951463 l
360.28 60.585744 l
360.392727 60.309866 l
360.505455 60.429302 l
360.730909 61.141261 l
360.956364 60.878883 l
361.069091 60.831142 l
361.407273 61.222375 l
361.632727 61.879713 l
361.745455 61.829358 l
361.970909 61.851179 l
362.196364 61.814651 l
362.309091 62.003878 l
362.534545 61.575142 l
362.872727 60.481996 l
362.985455 60.630705 l
363.210909 60.293517 l
363.323636 60.483913 l
363.436364 59.960934 l
363.549091 59.965662 l
363.774545 60.687757 l
363.887273 60.442521 l
364.225455 61.329528 l
364.450909 61.899542 l
364.563636 61.861621 l
364.789091 62.227433 l
365.014545 61.799462 l
365.127273 61.504544 l
365.352727 61.596252 l
365.578182 62.195501 l
365.690909 61.833285 l
365.803636 61.932921 l
366.029091 61.567388 l
366.254545 61.943893 l
366.367273 61.592605 l
366.48 61.778336 l
366.592727 61.680227 l
366.930909 62.071138 l
367.156364 61.752407 l
367.381818 62.10826 l
367.494545 62.158581 l
367.607273 62.480716 l
367.72 61.995804 l
368.170909 62.720124 l
368.283636 62.484393 l
368.509091 62.661801 l
368.621818 62.572322 l
368.847273 62.759983 l
369.185455 62.784975 l
369.410909 62.20861 l
369.523636 62.126903 l
369.749091 61.641692 l
370.087273 60.952339 l
370.312727 60.555743 l
370.538182 60.689591 l
370.650909 60.404028 l
370.763636 60.545315 l
370.876364 59.914288 l
370.989091 60.09219 l
371.214545 59.586255 l
371.327273 59.69155 l
371.552727 59.106505 l
371.778182 58.999332 l
371.890909 59.023214 l
372.003636 58.826722 l
372.229091 58.99512 l
372.341818 59.181405 l
372.454545 59.077187 l
372.567273 59.30561 l
372.905455 58.499935 l
373.018182 58.334881 l
373.130909 58.385745 l
373.469091 59.141251 l
373.581818 58.973257 l
stroke
grestore
1.000 0.498 0.055 setrgbcolor
gsave
334.8 217.4 54 36 clipbox
69.218182 229.834014 m
69.330909 212.008883 l
69.443636 209.975505 l
69.556364 210.096393 l
69.669091 210.953696 l
69.781818 210.754523 l
69.894545 211.579849 l
70.12 211.41943 l
70.232727 210.608867 l
70.345455 210.979709 l
70.683636 209.474666 l
71.810909 200.915172 l
72.149091 196.30646 l
72.261818 195.999969 l
72.825455 190.996565 l
73.050909 188.326161 l
73.614545 182.028249 l
74.065455 178.400332 l
74.403636 177.032377 l
74.629091 176.139291 l
75.305455 171.994297 l
75.643636 170.76066 l
76.207273 167.212782 l
76.545455 164.982786 l
76.658182 164.507041 l
76.770909 164.536294 l
77.109091 162.569665 l
77.447273 160.691949 l
77.672727 158.870932 l
78.010909 155.667092 l
78.123636 155.038555 l
78.912727 145.508019 l
79.138182 143.424799 l
82.632727 103.453758 l
84.774545 87.358529 l
86.127273 79.652571 l
86.803636 76.729298 l
87.141818 74.943473 l
87.254545 74.832621 l
87.48 73.738451 l
88.043636 72.746165 l
88.381818 71.068056 l
88.72 69.92649 l
88.945455 69.394797 l
89.058182 69.540084 l
89.734545 68.440194 l
89.847273 68.457317 l
90.185455 67.705944 l
90.410909 67.886535 l
90.861818 67.332865 l
91.2 66.59601 l
91.312727 66.350174 l
91.425455 66.579911 l
91.538182 66.556244 l
91.650909 66.245978 l
91.763636 66.627453 l
92.101818 66.062508 l
92.214545 65.654278 l
92.327273 65.681277 l
92.552727 65.517311 l
92.778182 65.495398 l
93.003636 65.47983 l
93.116364 65.608517 l
93.341818 65.092603 l
93.905455 65.141681 l
94.018182 65.261218 l
94.469091 64.8342 l
94.694545 64.432975 l
94.807273 64.722923 l
94.92 64.570939 l
95.370909 64.83502 l
95.709091 64.24942 l
95.934545 63.961215 l
96.047273 63.914045 l
96.16 64.152248 l
96.272727 63.930398 l
96.723636 64.347097 l
96.949091 63.80138 l
97.174545 63.726813 l
97.4 64.304727 l
97.625455 64.578402 l
97.850909 64.129834 l
97.963636 64.059873 l
98.076364 64.12211 l
98.189091 63.980613 l
98.301818 64.145316 l
98.527273 63.844063 l
98.64 64.208569 l
98.752727 64.029787 l
98.865455 64.094269 l
98.978182 63.999323 l
99.203636 63.491689 l
99.654545 63.479084 l
100.105455 64.364673 l
100.218182 64.285017 l
100.443636 64.399781 l
100.556364 64.334056 l
100.669091 64.109957 l
100.894545 64.525623 l
101.345455 65.501779 l
101.458182 65.653333 l
101.683636 65.218888 l
102.021818 65.612291 l
102.134545 66.006368 l
102.247273 65.875437 l
102.472727 66.548128 l
102.698182 66.988106 l
102.923636 67.020187 l
103.149091 66.621609 l
103.374545 66.659834 l
103.487273 67.165174 l
103.712727 67.132502 l
103.938182 67.503332 l
104.050909 67.498301 l
104.276364 67.939405 l
104.389091 67.850824 l
104.614545 68.289149 l
104.84 68.503063 l
105.065455 68.217568 l
105.290909 68.606281 l
105.403636 68.505472 l
105.854545 69.131609 l
106.192727 69.274449 l
106.418182 69.544849 l
106.530909 69.416077 l
106.643636 69.548066 l
107.094545 71.175791 l
107.432727 71.21878 l
107.658182 71.441609 l
107.770909 71.592664 l
107.883636 71.27962 l
108.109091 71.507436 l
108.672727 71.009708 l
108.785455 70.679513 l
109.010909 70.695115 l
109.461818 71.515233 l
109.574545 71.582921 l
109.8 72.030701 l
110.025455 71.694775 l
110.250909 71.805374 l
110.476364 72.413498 l
110.589091 72.310672 l
110.814545 72.634363 l
110.927273 72.853517 l
111.265455 72.369916 l
111.378182 72.502547 l
111.490909 72.729094 l
111.603636 72.674648 l
111.716364 72.30788 l
111.941818 72.418606 l
112.054545 71.977525 l
112.167273 72.400536 l
112.505455 71.739643 l
112.618182 71.932832 l
112.956364 71.617259 l
113.294545 71.965439 l
113.407273 71.596007 l
113.52 71.765425 l
113.858182 70.931949 l
113.970909 71.005458 l
114.421818 71.774019 l
114.534545 71.834722 l
114.647273 72.069836 l
114.872727 71.927095 l
115.098182 71.785981 l
115.323636 71.978282 l
115.549091 71.76322 l
115.774545 71.801632 l
115.887273 71.863332 l
116.112727 71.559946 l
116.338182 71.88063 l
116.450909 71.724578 l
116.563636 71.811832 l
116.676364 71.714758 l
117.127273 72.11684 l
117.352727 72.534028 l
117.465455 72.299926 l
117.916364 72.680723 l
118.48 71.509358 l
118.592727 71.677704 l
118.705455 71.521544 l
118.818182 71.556251 l
119.043636 71.214174 l
119.156364 71.728504 l
119.269091 71.718796 l
119.494545 72.391228 l
119.607273 72.353019 l
119.832727 72.467422 l
119.945455 72.537306 l
120.170909 72.436274 l
120.396364 72.893165 l
120.734545 72.783645 l
120.847273 72.486636 l
120.96 72.79522 l
121.072727 72.72944 l
121.185455 72.49196 l
121.298182 72.605318 l
121.749091 71.930604 l
121.974545 72.626775 l
122.087273 72.643482 l
122.2 72.516859 l
122.650909 73.165823 l
122.876364 72.934481 l
122.989091 73.250803 l
123.214545 72.921639 l
123.327273 73.270762 l
123.44 73.193558 l
123.552727 73.337633 l
123.665455 73.178124 l
123.890909 73.326653 l
124.116364 73.626866 l
124.567273 73.032301 l
124.792727 73.48141 l
124.905455 73.368678 l
125.018182 73.140084 l
125.130909 73.328947 l
125.469091 72.859484 l
125.694545 73.033653 l
125.807273 73.413496 l
126.032727 72.988224 l
126.145455 73.251261 l
126.258182 73.232223 l
126.370909 72.93771 l
126.596364 72.945078 l
126.709091 73.297633 l
126.934545 73.146262 l
127.16 72.91529 l
127.272727 73.086552 l
127.498182 72.594421 l
127.610909 72.041443 l
127.949091 72.591887 l
128.512727 71.901761 l
128.625455 71.712868 l
128.738182 71.962434 l
128.850909 71.912905 l
129.076364 71.40419 l
129.301818 71.47728 l
129.527273 71.314138 l
129.64 71.512537 l
129.752727 71.225526 l
130.090909 71.657653 l
130.203636 71.658446 l
130.316364 71.935661 l
130.429091 71.541332 l
130.541818 71.652438 l
130.88 71.03362 l
130.992727 71.472552 l
131.218182 70.854417 l
131.330909 71.348148 l
131.556364 70.977486 l
131.781818 70.824626 l
131.894545 70.989052 l
132.007273 70.903899 l
132.12 71.289848 l
132.232727 70.983963 l
132.458182 71.051863 l
132.570909 71.010883 l
132.683636 71.710084 l
132.796364 71.512203 l
132.909091 71.755026 l
133.021818 71.627369 l
133.247273 70.980703 l
133.36 71.03178 l
133.472727 70.941379 l
133.585455 70.674375 l
133.923636 70.816947 l
134.036364 70.739817 l
134.261818 70.816031 l
134.374545 70.582853 l
134.6 71.073667 l
134.825455 70.497492 l
134.938182 70.677049 l
135.050909 70.612153 l
135.276364 70.288629 l
135.501818 70.681035 l
135.727273 70.163252 l
135.952727 70.351168 l
136.065455 69.740795 l
136.290909 70.388792 l
136.516364 69.968872 l
136.629091 69.877986 l
136.854545 69.86864 l
137.08 69.133926 l
137.192727 69.21439 l
137.305455 69.248413 l
137.418182 69.037801 l
137.643636 69.393337 l
137.981818 68.672411 l
138.432727 68.907028 l
138.545455 68.74309 l
138.658182 68.902628 l
138.883636 69.479211 l
139.109091 68.811309 l
139.221818 69.136514 l
139.447273 68.914255 l
139.898182 69.311979 l
140.123636 68.916034 l
140.236364 69.132077 l
140.349091 69.066652 l
140.461818 68.795086 l
140.687273 69.250701 l
140.912727 69.116789 l
141.025455 69.146866 l
141.250909 68.688518 l
141.363636 68.62706 l
141.589091 68.323302 l
141.701818 68.474678 l
141.927273 68.212408 l
142.152727 68.507621 l
142.265455 68.185203 l
142.490909 68.337227 l
142.716364 67.529535 l
142.829091 67.475371 l
142.941818 67.231897 l
143.054545 67.451627 l
143.167273 67.24945 l
143.28 67.450298 l
143.618182 66.581627 l
143.843636 66.741565 l
144.069091 66.066014 l
144.181818 66.031937 l
144.407273 66.154904 l
144.632727 65.885588 l
144.858182 65.981863 l
145.196364 65.533612 l
145.309091 65.802088 l
145.647273 65.597537 l
145.872727 64.785294 l
146.098182 65.11976 l
146.210909 64.974757 l
146.436364 65.256582 l
146.661818 64.854974 l
146.887273 65.504913 l
147.112727 65.052563 l
147.225455 64.898196 l
147.450909 65.268024 l
147.676364 65.553554 l
147.789091 65.385708 l
148.916364 64.109715 l
149.029091 64.204603 l
149.254545 64.065681 l
149.367273 63.644121 l
149.48 63.740955 l
149.930909 63.503528 l
150.043636 62.980341 l
150.381818 63.271955 l
150.494545 62.771372 l
150.607273 63.039258 l
150.945455 62.451763 l
151.058182 62.691261 l
151.170909 62.28787 l
151.396364 62.506659 l
151.509091 62.33658 l
151.621818 62.621879 l
151.847273 62.360312 l
151.96 62.406881 l
152.072727 62.661994 l
152.298182 62.510671 l
152.410909 62.754617 l
152.523636 62.727424 l
152.636364 62.887386 l
152.861818 62.581454 l
152.974545 62.268981 l
153.2 62.319252 l
153.425455 62.198236 l
153.650909 61.647393 l
153.989091 61.481932 l
154.327273 60.431535 l
154.552727 59.875318 l
154.665455 59.921479 l
154.890909 59.824898 l
155.003636 59.976896 l
155.116364 59.724939 l
155.341818 59.849197 l
155.454545 59.695991 l
155.68 59.260089 l
155.792727 59.152296 l
156.130909 58.470595 l
156.243636 58.715605 l
156.694545 58.176326 l
156.807273 58.010534 l
157.032727 58.137852 l
157.145455 58.040811 l
157.258182 57.601751 l
157.483636 57.972126 l
157.709091 57.350801 l
157.821818 57.545949 l
158.16 56.839259 l
158.272727 56.713837 l
158.385455 56.792969 l
158.498182 56.629447 l
158.610909 56.676305 l
158.836364 55.925977 l
158.949091 55.840755 l
159.174545 56.062098 l
159.287273 55.751728 l
159.4 55.937676 l
159.512727 55.882832 l
159.625455 55.667554 l
159.738182 55.772354 l
159.850909 55.64807 l
159.963636 56.157925 l
160.076364 55.688711 l
160.189091 55.698141 l
160.414545 55.432628 l
160.64 55.602263 l
160.752727 55.3973 l
160.865455 55.56482 l
161.316364 55.445821 l
161.654545 54.268504 l
161.767273 54.571205 l
161.88 54.313007 l
161.992727 54.402421 l
162.105455 54.315123 l
162.218182 54.379694 l
162.330909 53.89788 l
162.443636 54.124877 l
162.556364 54.088568 l
163.007273 53.191811 l
163.12 53.14638 l
163.345455 52.488687 l
163.458182 52.578763 l
163.570909 52.919385 l
163.909091 51.982823 l
164.134545 51.986136 l
164.247273 51.997497 l
164.810909 51.423928 l
165.036364 51.647004 l
165.487273 52.724806 l
165.6 52.520009 l
165.712727 52.589634 l
165.825455 52.822532 l
166.276364 52.546947 l
166.389091 52.702875 l
166.727273 52.233399 l
166.84 52.122533 l
166.952727 52.292215 l
167.065455 52.247207 l
167.403636 52.936965 l
167.854545 51.938143 l
168.192727 51.798271 l
168.305455 51.863305 l
168.756364 51.023689 l
168.869091 51.162022 l
168.981818 51.174674 l
169.658182 49.977069 l
169.770909 50.016548 l
169.883636 49.838872 l
169.996364 49.922969 l
170.334545 49.42341 l
170.56 49.339816 l
170.672727 49.113621 l
171.010909 49.289221 l
171.123636 49.686136 l
171.236364 49.3632 l
171.349091 49.518115 l
171.687273 49.222165 l
171.912727 48.864865 l
172.025455 49.035129 l
172.363636 48.584451 l
172.476364 48.67315 l
172.589091 48.527821 l
172.814545 49.10399 l
172.927273 49.200695 l
173.265455 48.312735 l
173.378182 48.262189 l
173.490909 48.006041 l
173.603636 48.133412 l
173.829091 47.644848 l
174.167273 47.627421 l
174.28 47.869484 l
174.618182 47.780275 l
174.843636 47.225332 l
175.069091 47.513844 l
175.294545 47.40692 l
176.309091 47.229277 l
176.534545 46.635881 l
176.76 46.321775 l
176.985455 46.629663 l
177.210909 46.273657 l
177.323636 46.161357 l
177.436364 46.319303 l
177.661818 45.961089 l
177.774545 45.957568 l
178.112727 46.404333 l
178.225455 46.295896 l
178.450909 46.460102 l
178.563636 46.446453 l
178.789091 46.203979 l
179.014545 46.160414 l
179.127273 45.982482 l
179.352727 46.429856 l
179.578182 46.3704 l
180.141818 47.051363 l
180.254545 47.044844 l
180.705455 47.999558 l
180.818182 48.037388 l
181.043636 48.297583 l
181.156364 48.166303 l
181.381818 48.556526 l
181.607273 48.710599 l
181.832727 48.627519 l
182.283636 48.580098 l
182.509091 48.244018 l
182.621818 48.260679 l
182.96 48.951569 l
183.072727 49.040159 l
183.185455 49.483449 l
183.410909 49.125859 l
183.523636 49.154447 l
183.636364 49.42949 l
183.749091 49.295583 l
183.974545 49.511435 l
184.087273 49.307654 l
184.763636 49.751059 l
185.101818 49.912265 l
185.44 49.906227 l
185.665455 49.524205 l
185.778182 49.703106 l
186.003636 49.574891 l
186.341818 49.301518 l
186.68 49.4855 l
186.792727 49.522666 l
187.018182 49.830492 l
187.130909 49.538433 l
187.243636 49.814532 l
187.469091 49.482428 l
187.807273 49.569148 l
188.032727 49.289346 l
188.258182 48.889443 l
188.934545 48.70519 l
189.16 48.849386 l
189.385455 48.833746 l
189.949091 47.87721 l
190.287273 48.424706 l
190.4 48.497964 l
190.625455 48.215791 l
190.738182 48.43042 l
191.189091 48.255436 l
191.301818 48.32093 l
191.978182 47.625004 l
192.203636 47.609322 l
192.429091 47.443832 l
192.541818 47.390196 l
192.767273 47.139979 l
192.88 47.053255 l
193.105455 47.323517 l
193.330909 47.380566 l
193.443636 47.134182 l
193.556364 47.241719 l
194.007273 46.640715 l
194.345455 46.416052 l
194.570909 45.883636 l
194.796364 46.316487 l
194.909091 46.108994 l
195.021818 46.301447 l
195.134545 46.108583 l
195.247273 46.191253 l
195.472727 46.667242 l
195.698182 46.599927 l
195.810909 46.60487 l
196.036364 46.783471 l
196.149091 46.780272 l
196.374545 47.134422 l
196.6 46.935675 l
196.825455 47.253254 l
197.050909 46.918808 l
197.276364 47.066343 l
197.501818 47.23111 l
198.065455 47.077377 l
198.178182 46.677612 l
198.741818 47.645381 l
198.854545 47.570872 l
199.08 47.981703 l
199.192727 47.934853 l
199.418182 48.319935 l
199.756364 48.507874 l
200.432727 48.763598 l
200.658182 48.766782 l
200.996364 49.324145 l
201.221818 49.363894 l
201.447273 48.796478 l
201.785455 48.986916 l
202.010909 48.654261 l
202.123636 48.792909 l
202.461818 48.551986 l
202.687273 48.330188 l
202.912727 48.108149 l
203.138182 48.287281 l
203.363636 48.360073 l
203.476364 48.126543 l
203.589091 48.352717 l
203.701818 48.253301 l
203.814545 47.999106 l
203.927273 48.176809 l
204.04 48.129659 l
204.152727 48.416018 l
204.378182 48.072355 l
204.490909 48.416051 l
204.716364 48.243556 l
205.054545 48.242749 l
205.167273 48.113276 l
205.392727 48.376305 l
205.730909 48.309856 l
205.843636 48.585904 l
205.956364 48.556012 l
206.181818 48.098084 l
206.407273 48.206047 l
206.745455 47.657826 l
206.970909 48.225191 l
207.083636 48.159132 l
207.196364 47.900194 l
207.421818 47.850001 l
207.872727 47.69832 l
208.098182 47.388497 l
208.661818 47.864327 l
208.887273 47.681417 l
209.112727 47.671393 l
209.338182 47.199259 l
209.450909 47.477553 l
209.901818 46.462666 l
210.127273 46.950302 l
210.24 46.948671 l
210.352727 46.706685 l
210.465455 46.87914 l
210.578182 46.73726 l
210.690909 46.874823 l
211.141818 46.545153 l
211.367273 46.88573 l
211.592727 46.571731 l
211.705455 46.706799 l
211.930909 46.791071 l
212.156364 46.444417 l
212.381818 46.434105 l
212.72 47.406865 l
213.170909 46.960766 l
213.283636 47.122029 l
213.396364 46.923268 l
213.847273 47.288549 l
213.96 47.005917 l
214.072727 47.072438 l
214.298182 47.539041 l
214.523636 47.07641 l
214.749091 47.796855 l
214.861818 47.743421 l
214.974545 47.635398 l
215.087273 47.814564 l
215.425455 47.354692 l
215.538182 47.254496 l
215.650909 47.415311 l
215.763636 46.980826 l
216.214545 47.91349 l
216.327273 47.895114 l
216.44 48.258148 l
216.778182 47.983758 l
217.341818 47.463966 l
217.454545 47.682924 l
217.567273 47.39303 l
217.68 47.749217 l
217.905455 47.747339 l
218.018182 47.977769 l
218.243636 47.858686 l
218.469091 47.88513 l
218.92 47.52904 l
219.145455 47.897135 l
219.483636 48.503534 l
219.709091 48.428956 l
219.934545 47.998069 l
220.16 48.537101 l
220.272727 48.267319 l
220.498182 48.75421 l
220.949091 49.435389 l
221.174545 49.355142 l
221.287273 49.00815 l
221.512727 49.141802 l
221.738182 48.891121 l
221.963636 48.802331 l
222.414545 49.054493 l
222.527273 48.693934 l
222.752727 48.933462 l
222.865455 48.809351 l
223.541818 49.239589 l
223.654545 49.352754 l
223.767273 49.288531 l
224.105455 48.703172 l
224.330909 48.812215 l
224.443636 49.167447 l
224.669091 48.95301 l
224.894545 48.803282 l
225.007273 48.732655 l
225.683636 49.29277 l
225.796364 49.652088 l
226.021818 49.31342 l
226.134545 49.305901 l
226.247273 49.864122 l
226.36 49.841476 l
226.810909 50.341122 l
226.923636 50.401707 l
227.036364 50.632718 l
227.712727 49.991667 l
227.825455 50.145041 l
228.050909 50.224313 l
228.163636 50.271916 l
228.389091 50.594232 l
228.614545 50.672332 l
228.727273 50.431138 l
228.84 50.618713 l
229.178182 50.318951 l
229.403636 49.982081 l
229.629091 49.882728 l
229.741818 50.149197 l
229.967273 50.167552 l
230.08 50.434421 l
230.192727 50.378116 l
230.418182 50.563114 l
230.643636 50.137632 l
230.756364 50.089085 l
230.869091 50.379951 l
230.981818 50.279209 l
231.207273 50.894596 l
231.432727 50.497043 l
231.545455 50.741646 l
231.658182 50.551789 l
231.883636 50.754976 l
232.334545 50.376373 l
232.672727 50.646103 l
232.785455 50.593774 l
233.010909 51.218616 l
233.236364 51.316716 l
233.349091 51.181397 l
233.574545 51.46757 l
233.687273 51.42271 l
233.8 51.657395 l
234.589091 50.901675 l
234.814545 51.283708 l
235.04 51.016275 l
235.265455 51.344215 l
235.603636 51.833707 l
235.716364 51.618186 l
235.941818 51.879397 l
236.167273 52.424435 l
236.392727 52.310081 l
236.505455 52.25459 l
236.843636 51.651569 l
236.956364 51.973807 l
237.181818 51.498487 l
237.407273 51.200669 l
237.632727 50.800932 l
237.858182 50.668374 l
238.196364 50.874725 l
238.421818 50.60716 l
238.534545 50.711699 l
238.647273 50.461945 l
238.76 50.588195 l
238.872727 50.51685 l
238.985455 50.655496 l
239.098182 50.416887 l
239.210909 50.60996 l
239.323636 50.542721 l
239.436364 50.941817 l
239.549091 50.806712 l
239.661818 51.121864 l
239.774545 50.993926 l
240 51.290606 l
240.112727 51.216379 l
240.225455 50.901912 l
240.338182 50.980114 l
240.676364 50.596964 l
240.789091 50.436449 l
240.901818 50.518364 l
241.014545 50.109185 l
241.578182 50.412909 l
241.690909 50.388962 l
241.803636 50.622469 l
241.916364 50.596939 l
242.141818 50.909572 l
242.367273 50.68577 l
242.48 50.407734 l
242.705455 50.48223 l
242.818182 50.297578 l
243.043636 50.33451 l
243.269091 50.337362 l
243.381818 50.379415 l
243.607273 50.193549 l
243.945455 50.463064 l
244.058182 50.563203 l
244.283636 50.064026 l
244.396364 49.83573 l
244.621818 50.098589 l
244.847273 49.912334 l
244.96 49.930613 l
245.185455 49.32002 l
245.410909 49.541322 l
245.636364 50.08548 l
245.749091 50.050211 l
245.861818 50.317894 l
245.974545 49.85594 l
246.312727 50.043108 l
246.425455 50.080405 l
246.763636 49.598506 l
246.989091 49.646331 l
247.101818 49.621349 l
247.44 48.994974 l
248.003636 49.278792 l
248.229091 48.674783 l
248.454545 49.021788 l
248.567273 48.90052 l
249.018182 49.773881 l
249.243636 49.270909 l
249.356364 49.309057 l
249.581818 48.859042 l
249.807273 48.71712 l
250.032727 48.579154 l
250.370909 48.988734 l
250.483636 48.979277 l
250.596364 49.197159 l
250.934545 48.297773 l
251.610909 48.231394 l
251.723636 48.321228 l
251.949091 48.786875 l
252.4 49.296549 l
252.512727 49.265973 l
252.738182 48.967659 l
252.850909 48.862444 l
252.963636 49.064512 l
253.076364 48.899328 l
253.189091 49.12157 l
253.527273 48.709712 l
253.64 48.612543 l
253.752727 48.683416 l
253.978182 48.5264 l
254.090909 48.497626 l
254.203636 48.119156 l
254.316364 48.282098 l
254.429091 48.231031 l
254.541818 47.987948 l
254.767273 48.767235 l
254.88 48.832634 l
255.105455 48.205405 l
255.443636 47.585378 l
255.669091 47.994271 l
255.781818 47.971736 l
256.345455 48.445559 l
256.458182 48.798256 l
256.796364 48.295836 l
256.909091 48.361997 l
257.134545 47.862751 l
257.247273 48.207882 l
257.36 48.07834 l
257.472727 48.135866 l
257.698182 47.626578 l
258.938182 47.899515 l
259.276364 48.493965 l
259.614545 48.465786 l
259.727273 48.294841 l
259.84 48.60935 l
259.952727 48.552347 l
260.065455 48.16034 l
260.178182 48.374831 l
260.290909 48.112605 l
260.516364 48.250846 l
260.629091 48.203955 l
260.854545 48.868146 l
260.967273 48.733903 l
261.192727 48.919414 l
261.418182 49.378674 l
261.530909 49.11435 l
261.643636 49.19626 l
261.869091 48.965469 l
262.094545 49.161388 l
262.545455 49.307726 l
262.770909 49.326439 l
262.996364 49.913283 l
263.109091 49.511265 l
263.221818 49.695647 l
263.447273 49.518371 l
263.56 49.649506 l
263.785455 49.206319 l
263.898182 49.48354 l
264.123636 49.331072 l
264.236364 48.75542 l
264.349091 48.872681 l
264.574545 48.759009 l
264.8 48.749588 l
264.912727 48.889089 l
265.025455 48.791743 l
265.363636 49.55438 l
265.476364 49.645121 l
265.701818 49.400455 l
265.814545 49.758608 l
266.04 48.941724 l
266.265455 49.209479 l
266.490909 49.615535 l
266.603636 49.585205 l
266.716364 49.865911 l
266.941818 49.560543 l
267.054545 49.331466 l
267.167273 49.479241 l
267.505455 49.22372 l
267.730909 49.216029 l
267.843636 49.407928 l
268.294545 49.304308 l
268.52 49.497977 l
268.745455 49.216171 l
268.970909 49.807238 l
269.196364 50.13019 l
269.421818 50.233355 l
269.534545 49.957003 l
270.098182 50.117386 l
270.323636 49.830696 l
270.436364 49.879061 l
270.549091 49.79238 l
270.887273 50.458855 l
271.112727 50.350656 l
271.338182 50.816018 l
271.450909 50.428952 l
271.676364 50.904965 l
271.789091 50.862905 l
271.901818 50.988009 l
272.127273 50.562153 l
272.24 50.821206 l
272.352727 50.545666 l
272.465455 50.77856 l
272.690909 50.504912 l
272.803636 50.499189 l
273.029091 50.406496 l
273.141818 50.38217 l
273.254545 50.844685 l
273.48 50.712982 l
273.705455 51.179633 l
273.818182 51.579808 l
274.043636 51.546923 l
274.269091 50.876744 l
274.381818 50.922865 l
274.494545 50.836581 l
274.607273 50.975651 l
274.72 50.766795 l
275.170909 51.059313 l
275.509091 52.034617 l
275.621818 51.878019 l
275.734545 51.921155 l
275.96 51.837363 l
276.410909 51.865508 l
276.636364 51.467087 l
276.974545 51.990018 l
277.2 51.585082 l
277.312727 51.514615 l
277.538182 51.985618 l
277.763636 51.896187 l
277.876364 51.952572 l
277.989091 51.79811 l
278.214545 52.684944 l
278.327273 52.675195 l
278.44 52.416811 l
278.552727 52.577446 l
278.665455 52.939834 l
279.229091 52.544446 l
279.567273 52.911949 l
279.792727 52.813062 l
280.018182 53.172451 l
280.130909 52.935351 l
280.243636 53.032064 l
280.581818 52.790089 l
280.694545 52.860358 l
280.807273 53.230511 l
281.145455 52.901128 l
281.258182 52.701992 l
281.483636 52.743089 l
281.709091 52.624258 l
281.934545 52.099995 l
282.047273 52.398592 l
282.16 51.978365 l
282.272727 52.19136 l
282.498182 51.918847 l
282.610909 51.777864 l
282.723636 51.880445 l
282.836364 51.631827 l
283.061818 51.77208 l
283.4 51.638144 l
283.512727 51.817489 l
283.850909 51.589562 l
284.189091 51.950662 l
284.301818 51.79449 l
284.414545 51.808224 l
284.527273 51.258015 l
284.752727 51.518352 l
285.090909 50.800566 l
285.203636 51.186367 l
285.429091 51.123626 l
285.654545 51.297904 l
285.767273 51.186389 l
286.330909 51.634459 l
286.443636 51.52841 l
286.669091 51.200718 l
286.781818 51.032074 l
286.894545 51.183052 l
287.232727 50.996824 l
287.345455 51.104636 l
287.683636 50.306754 l
287.796364 50.352452 l
287.909091 50.558279 l
288.021818 51.008507 l
288.247273 50.929375 l
288.472727 51.137249 l
288.585455 51.219615 l
288.923636 50.769118 l
289.149091 51.035794 l
289.261818 51.056605 l
289.487273 50.662305 l
289.712727 51.171506 l
289.938182 50.693756 l
290.163636 51.301752 l
290.276364 51.115149 l
290.389091 51.700208 l
290.84 50.898477 l
290.952727 51.293514 l
291.178182 51.040074 l
291.516364 50.64774 l
291.629091 50.820762 l
291.967273 50.297667 l
292.192727 50.272577 l
292.418182 50.756873 l
292.530909 50.769499 l
292.756364 51.560182 l
292.981818 51.251662 l
293.207273 51.634645 l
293.32 51.313899 l
293.770909 51.354073 l
293.883636 51.319692 l
294.109091 51.510211 l
294.221818 51.358962 l
294.334545 51.4435 l
294.672727 52.024346 l
294.785455 51.83215 l
294.898182 52.149916 l
295.236364 51.681378 l
295.912727 51.024888 l
296.025455 51.058593 l
296.138182 51.23421 l
296.250909 51.041154 l
296.363636 51.194478 l
296.476364 50.978254 l
296.589091 51.238631 l
296.814545 50.850341 l
296.927273 50.923943 l
297.04 51.165319 l
297.152727 50.945026 l
297.265455 51.011347 l
297.378182 50.916489 l
297.490909 50.649336 l
297.603636 50.819985 l
297.716364 50.467081 l
297.829091 50.517941 l
298.167273 50.362903 l
298.28 50.448215 l
298.505455 50.807701 l
298.618182 50.695196 l
298.843636 51.28108 l
299.181818 51.54259 l
299.407273 50.985163 l
299.745455 51.937751 l
300.309091 51.700925 l
300.421818 51.603588 l
300.534545 51.810209 l
300.76 51.527941 l
300.985455 50.877434 l
301.210909 51.101441 l
301.436364 50.615637 l
301.549091 50.690426 l
301.661818 50.098649 l
301.774545 50.338499 l
301.887273 50.175639 l
302.112727 50.54728 l
302.225455 50.299373 l
302.338182 50.418395 l
302.450909 50.246234 l
302.676364 50.466651 l
302.789091 50.420294 l
302.901818 50.174397 l
303.127273 50.592789 l
303.24 50.565826 l
303.465455 50.790344 l
303.578182 50.507223 l
303.690909 50.713473 l
303.803636 50.619913 l
304.029091 49.919519 l
304.141818 49.900395 l
304.48 50.298993 l
304.705455 50.301371 l
305.043636 49.948527 l
305.156364 49.988776 l
305.494545 49.558466 l
305.607273 49.9168 l
305.945455 49.52661 l
306.058182 49.607932 l
306.170909 49.457713 l
306.283636 49.686466 l
306.509091 50.228694 l
306.621818 50.437275 l
306.734545 50.210245 l
306.96 50.640297 l
307.072727 50.694872 l
307.298182 51.431877 l
307.410909 51.232369 l
307.523636 51.476061 l
307.636364 51.383942 l
307.749091 51.5693 l
307.861818 51.397491 l
308.087273 51.556207 l
308.2 51.382356 l
308.312727 51.533839 l
308.538182 51.285069 l
308.650909 51.407583 l
308.763636 51.99969 l
308.876364 51.902118 l
309.101818 52.263708 l
309.327273 52.020438 l
309.552727 51.801952 l
309.665455 51.291998 l
309.890909 51.418191 l
310.003636 51.027115 l
310.229091 51.148361 l
310.792727 50.264318 l
310.905455 49.959345 l
311.018182 50.107676 l
311.243636 49.932806 l
311.356364 50.038863 l
311.581818 49.690772 l
311.807273 50.292809 l
311.92 49.951363 l
312.032727 50.096622 l
312.258182 50.825986 l
312.483636 50.975271 l
312.596364 50.851886 l
312.934545 51.421329 l
313.047273 51.341044 l
313.272727 51.446893 l
313.498182 51.343275 l
313.723636 51.297376 l
313.836364 51.225785 l
313.949091 51.470259 l
314.174545 51.435202 l
314.512727 51.572925 l
314.963636 51.009451 l
315.189091 51.369542 l
315.301818 51.465374 l
315.527273 51.904448 l
315.64 51.897436 l
316.767273 53.72125 l
317.105455 53.538877 l
317.218182 53.717007 l
317.556364 53.365579 l
317.781818 52.937577 l
317.894545 52.743915 l
318.007273 52.951862 l
318.345455 52.788617 l
318.458182 52.652961 l
318.570909 52.328052 l
318.796364 52.907725 l
319.134545 52.373922 l
319.36 52.599961 l
319.472727 52.677182 l
319.585455 52.533843 l
319.698182 53.053638 l
319.923636 52.587474 l
320.149091 52.198425 l
320.374545 51.976784 l
320.487273 52.18765 l
320.6 52.002739 l
320.938182 52.481326 l
321.050909 52.807521 l
321.163636 52.738668 l
321.389091 52.957998 l
321.501818 53.119719 l
321.614545 53.048451 l
321.952727 54.157777 l
322.065455 54.157728 l
322.629091 54.982521 l
322.854545 55.286345 l
323.08 54.689869 l
323.305455 54.928426 l
323.418182 54.89235 l
323.756364 55.249413 l
323.869091 55.324198 l
323.981818 54.984323 l
324.207273 55.043716 l
324.432727 54.942528 l
324.545455 55.113304 l
324.658182 54.896709 l
324.770909 55.25211 l
325.221818 55.147276 l
325.447273 55.546104 l
325.56 55.426125 l
325.898182 54.795104 l
326.236364 55.350824 l
326.461818 55.411271 l
326.687273 54.808941 l
326.8 54.939919 l
326.912727 54.888856 l
327.250909 54.035058 l
327.363636 54.045717 l
327.701818 53.406649 l
327.814545 53.522687 l
327.927273 53.486173 l
328.378182 52.920869 l
328.490909 53.039067 l
328.716364 52.723397 l
328.829091 52.886239 l
328.941818 52.793176 l
329.167273 53.381538 l
329.505455 53.291467 l
330.069091 52.5423 l
330.294545 52.532302 l
330.407273 52.852868 l
330.52 52.779068 l
330.632727 52.875063 l
330.858182 53.57351 l
330.970909 53.294163 l
331.083636 53.381391 l
331.421818 54.013953 l
331.534545 53.912917 l
331.647273 53.982925 l
331.76 53.709261 l
331.985455 53.826184 l
332.210909 53.80718 l
332.436364 53.603476 l
332.661818 53.667606 l
332.774545 53.361948 l
332.887273 53.493169 l
333.450909 51.860025 l
333.676364 50.943435 l
333.789091 50.711191 l
334.014545 51.287077 l
334.127273 51.025758 l
334.24 51.056172 l
334.690909 50.513276 l
334.803636 50.640606 l
335.254545 50.211415 l
335.367273 50.317987 l
335.48 50.086668 l
335.705455 50.340008 l
335.818182 50.171949 l
335.930909 50.554645 l
336.156364 50.067584 l
336.269091 50.069196 l
336.381818 50.460705 l
336.72 49.633178 l
336.832727 49.563801 l
336.945455 49.680857 l
337.170909 50.118274 l
337.621818 49.427895 l
337.734545 49.544382 l
338.072727 49.952374 l
338.185455 49.680562 l
338.410909 49.977331 l
338.523636 50.115837 l
338.636364 50.019614 l
338.749091 50.096822 l
338.861818 49.963979 l
338.974545 50.658259 l
339.2 50.348173 l
339.312727 50.461447 l
339.538182 50.276152 l
339.650909 50.337783 l
339.763636 49.993667 l
339.989091 50.726998 l
340.101818 50.647017 l
340.327273 50.838022 l
340.44 51.425709 l
340.552727 51.379257 l
340.778182 51.702223 l
340.890909 51.9845 l
341.003636 51.807223 l
341.341818 52.004647 l
341.68 52.771759 l
342.018182 52.574343 l
342.130909 52.112257 l
342.356364 52.502956 l
342.581818 52.069216 l
342.694545 51.933864 l
342.92 51.940759 l
343.258182 52.705367 l
343.370909 52.670083 l
343.596364 52.315741 l
343.709091 52.311609 l
343.934545 51.972355 l
344.16 52.392394 l
344.272727 52.309944 l
344.498182 52.556523 l
344.723636 53.192766 l
345.061818 53.571835 l
345.287273 52.732434 l
345.625455 53.36046 l
345.738182 53.246985 l
345.963636 53.345705 l
346.189091 52.797536 l
346.301818 53.013546 l
346.64 52.986177 l
346.752727 53.327476 l
347.090909 53.040729 l
347.203636 52.921644 l
347.429091 53.031451 l
347.541818 53.042188 l
347.654545 52.569824 l
347.767273 52.615405 l
347.88 52.856079 l
347.992727 53.434422 l
348.105455 53.329617 l
348.218182 53.604402 l
348.330909 53.426214 l
348.556364 53.522796 l
348.894545 53.49274 l
349.12 53.355184 l
349.232727 53.52831 l
349.345455 53.463873 l
349.570909 53.882954 l
349.796364 53.608419 l
349.909091 53.675476 l
350.021818 53.4209 l
350.134545 53.621498 l
350.247273 53.437476 l
350.810909 54.533124 l
351.036364 54.779267 l
351.149091 54.327456 l
351.374545 54.591987 l
351.487273 54.695089 l
351.6 54.546071 l
351.712727 53.696587 l
351.825455 53.755076 l
352.050909 53.407341 l
352.163636 53.303379 l
352.389091 53.601059 l
352.501818 53.340004 l
352.614545 53.475714 l
353.065455 52.537374 l
353.178182 52.642424 l
353.290909 52.387254 l
353.403636 52.409339 l
353.516364 52.060087 l
353.629091 52.076273 l
353.741818 52.250048 l
353.854545 52.004676 l
354.08 52.177673 l
354.192727 52.314605 l
354.305455 52.133354 l
354.418182 52.163209 l
354.756364 52.602087 l
354.981818 52.504627 l
355.32 52.906118 l
355.432727 52.710034 l
355.545455 53.061605 l
355.770909 52.900549 l
355.996364 52.210452 l
356.334545 52.08423 l
356.447273 52.176933 l
356.56 52.551294 l
356.785455 52.47532 l
356.898182 52.156827 l
357.010909 52.325493 l
357.349091 52.013291 l
357.461818 52.266212 l
357.8 52.019559 l
357.912727 52.39468 l
358.138182 51.961528 l
358.250909 51.83936 l
358.363636 51.973152 l
358.701818 51.811381 l
358.927273 52.661403 l
359.04 52.684992 l
359.152727 53.007233 l
359.490909 52.521231 l
359.603636 52.673336 l
359.716364 52.365196 l
359.829091 52.383838 l
359.941818 52.65032 l
360.054545 52.592902 l
360.167273 52.889135 l
360.28 52.803802 l
360.505455 53.234561 l
360.618182 53.082389 l
360.730909 52.606007 l
361.069091 53.217466 l
361.294545 53.660829 l
361.970909 52.558421 l
362.421818 52.688264 l
362.534545 52.417232 l
362.647273 52.495239 l
362.76 52.412829 l
362.872727 52.095619 l
363.323636 52.186384 l
363.436364 52.161715 l
363.549091 52.401283 l
363.887273 51.827527 l
364.112727 52.39442 l
364.225455 52.303993 l
364.338182 52.621432 l
364.450909 52.572123 l
364.676364 52.883003 l
364.901818 52.761931 l
365.014545 52.925288 l
365.690909 52.500458 l
365.803636 51.975251 l
365.916364 52.138122 l
366.029091 52.026373 l
366.367273 52.355985 l
366.48 52.216197 l
366.592727 52.322066 l
366.705455 52.616535 l
366.930909 52.407147 l
367.043636 52.272714 l
367.494545 53.07514 l
367.72 53.6218 l
368.058182 53.198445 l
368.283636 53.613072 l
368.396364 53.497018 l
368.621818 53.744716 l
368.734545 53.7508 l
369.072727 54.362621 l
369.298182 54.033375 l
369.410909 54.182312 l
369.636364 54.686471 l
369.749091 54.558094 l
369.974545 54.798914 l
370.312727 55.033395 l
370.538182 54.193345 l
370.763636 54.433361 l
370.876364 54.244072 l
371.214545 54.734391 l
371.327273 54.957332 l
371.44 54.911406 l
371.552727 55.014717 l
371.890909 54.276522 l
372.003636 54.33309 l
372.229091 53.932547 l
372.341818 53.979865 l
372.567273 53.585289 l
372.792727 53.704395 l
373.130909 53.769247 l
373.243636 53.643082 l
373.469091 53.704468 l
373.581818 54.003039 l
373.581818 54.003039 l
stroke
grestore
0.800 setlinewidth
0 setlinejoin
[] 0 setdash
0.000 setgray
gsave
54 36 m
54 253.44 l
stroke
grestore
gsave
388.8 36 m
388.8 253.44 l
stroke
grestore
gsave
54 36 m
388.8 36 l
stroke
grestore
gsave
54 253.44 m
388.8 253.44 l
stroke
grestore
1.000 setlinewidth
0 setlinecap
0.800 setgray
gsave
308.878125 216.09625 m
381.8 216.09625 l
383.133333 216.09625 383.8 216.762917 383.8 218.09625 c
383.8 246.44 l
383.8 247.773333 383.133333 248.44 381.8 248.44 c
308.878125 248.44 l
307.544792 248.44 306.878125 247.773333 306.878125 246.44 c
306.878125 218.09625 l
306.878125 216.762917 307.544792 216.09625 308.878125 216.09625 c
cl
gsave
1.000 setgray
fill
grestore
stroke
grestore
1.500 setlinewidth
1 setlinejoin
2 setlinecap
[] 0 setdash
0.122 0.467 0.706 setrgbcolor
gsave
310.878125 240.34625 m
330.878125 240.34625 l
stroke
grestore
0.000 setgray
gsave
338.878125 236.846250 translate
0.000000 rotate
0.000000 0.000000 m /T glyphshow
6.092773 0.000000 m /r glyphshow
10.204102 0.000000 m /a glyphshow
16.332031 0.000000 m /i glyphshow
19.110352 0.000000 m /n glyphshow
25.448242 0.000000 m /i glyphshow
28.226562 0.000000 m /n glyphshow
34.564453 0.000000 m /g glyphshow
grestore
1.000 0.498 0.055 setrgbcolor
gsave
310.878125 225.674375 m
330.878125 225.674375 l
stroke
grestore
0.000 setgray
gsave
338.878125 222.174375 translate
0.000000 rotate
0.000000 0.000000 m /T glyphshow
6.092773 0.000000 m /e glyphshow
12.245117 0.000000 m /s glyphshow
17.455078 0.000000 m /t glyphshow
21.375977 0.000000 m /i glyphshow
24.154297 0.000000 m /n glyphshow
30.492188 0.000000 m /g glyphshow
grestore

end
showpage
