%!PS-Adobe-3.0 EPSF-3.0
%%Title: act__Ultracapacitor SOC [100%].eps
%%Creator: matplotlib version 2.0.0, http://matplotlib.org/
%%CreationDate: Sun May 14 14:55:02 2017
%%Orientation: portrait
%%BoundingBox: 90 252 522 540
%%EndComments
%%BeginProlog
/mpldict 8 dict def
mpldict begin
/m { moveto } bind def
/l { lineto } bind def
/r { rlineto } bind def
/c { curveto } bind def
/cl { closepath } bind def
/box {
m
1 index 0 r
0 exch r
neg 0 r
cl
} bind def
/clipbox {
box
clip
newpath
} bind def
%!PS-Adobe-3.0 Resource-Font
%%Title: DejaVu Sans
%%Copyright: Copyright (c) 2003 by Bitstream, Inc. All Rights Reserved. Copyright (c) 2006 by Tavmjong Bah. All Rights Reserved. DejaVu changes are in public domain 
%%Creator: Converted from TrueType to type 3 by PPR
25 dict begin
/_d{bind def}bind def
/_m{moveto}_d
/_l{lineto}_d
/_cl{closepath eofill}_d
/_c{curveto}_d
/_sc{7 -1 roll{setcachedevice}{pop pop pop pop pop pop}ifelse}_d
/_e{exec}_d
/FontName /DejaVuSans def
/PaintType 0 def
/FontMatrix[.001 0 0 .001 0 0]def
/FontBBox[-1021 -463 1793 1232]def
/FontType 3 def
/Encoding [ /space /percent /period /zero /one /two /four /five /six /seven /eight /nine /C /O /S /T /U /bracketleft /bracketright /a /c /e /i /l /m /o /p /r /s /t ] def
/FontInfo 10 dict dup begin
/FamilyName (DejaVu Sans) def
/FullName (DejaVu Sans) def
/Notice (Copyright (c) 2003 by Bitstream, Inc. All Rights Reserved. Copyright (c) 2006 by Tavmjong Bah. All Rights Reserved. DejaVu changes are in public domain ) def
/Weight (Book) def
/Version (Version 2.35) def
/ItalicAngle 0.0 def
/isFixedPitch false def
/UnderlinePosition -130 def
/UnderlineThickness 90 def
end readonly def
/CharStrings 30 dict dup begin
/space{318 0 0 0 0 0 _sc
}_d
/percent{{950 0 55 -13 895 742 _sc
727 321 _m
699 321 676 309 660 285 _c
644 261 636 227 636 184 _c
636 142 644 108 660 84 _c
676 60 699 48 727 48 _c
755 48 777 60 793 84 _c
809 108 817 142 817 184 _c
817 226 809 260 793 284 _c
777 308 755 321 727 321 _c
727 383 _m
778 383 819 365 849 329 _c
879 293 895 244 895 184 _c
895 123 879 75 849 40 _c
819 4 778 -13 727 -13 _c
}_e{675 -13 633 4 603 40 _c
573 75 558 123 558 184 _c
558 245 573 293 603 329 _c
633 365 675 383 727 383 _c
223 680 _m
195 680 173 667 157 643 _c
141 619 133 586 133 544 _c
133 500 141 467 157 443 _c
173 419 195 407 223 407 _c
251 407 274 419 290 443 _c
306 467 314 500 314 544 _c
314 586 305 619 289 643 _c
273 667 251 680 223 680 _c
664 742 _m
742 742 _l
286 -13 _l
}_e{208 -13 _l
664 742 _l
223 742 _m
274 742 315 724 346 688 _c
376 652 392 604 392 544 _c
392 482 376 434 346 398 _c
316 362 275 345 223 345 _c
171 345 130 362 100 398 _c
70 434 55 482 55 544 _c
55 604 70 652 100 688 _c
130 724 171 742 223 742 _c
_cl}_e}_d
/period{318 0 107 0 210 124 _sc
107 124 _m
210 124 _l
210 0 _l
107 0 _l
107 124 _l
_cl}_d
/zero{636 0 66 -13 570 742 _sc
318 664 _m
267 664 229 639 203 589 _c
177 539 165 464 165 364 _c
165 264 177 189 203 139 _c
229 89 267 64 318 64 _c
369 64 407 89 433 139 _c
458 189 471 264 471 364 _c
471 464 458 539 433 589 _c
407 639 369 664 318 664 _c
318 742 _m
399 742 461 709 505 645 _c
548 580 570 486 570 364 _c
570 241 548 147 505 83 _c
461 19 399 -13 318 -13 _c
236 -13 173 19 130 83 _c
87 147 66 241 66 364 _c
66 486 87 580 130 645 _c
173 709 236 742 318 742 _c
_cl}_d
/one{636 0 110 0 544 729 _sc
124 83 _m
285 83 _l
285 639 _l
110 604 _l
110 694 _l
284 729 _l
383 729 _l
383 83 _l
544 83 _l
544 0 _l
124 0 _l
124 83 _l
_cl}_d
/two{{636 0 73 0 536 742 _sc
192 83 _m
536 83 _l
536 0 _l
73 0 _l
73 83 _l
110 121 161 173 226 239 _c
290 304 331 346 348 365 _c
380 400 402 430 414 455 _c
426 479 433 504 433 528 _c
433 566 419 598 392 622 _c
365 646 330 659 286 659 _c
255 659 222 653 188 643 _c
154 632 117 616 78 594 _c
78 694 _l
118 710 155 722 189 730 _c
223 738 255 742 284 742 _c
}_e{359 742 419 723 464 685 _c
509 647 532 597 532 534 _c
532 504 526 475 515 449 _c
504 422 484 390 454 354 _c
446 344 420 317 376 272 _c
332 227 271 164 192 83 _c
_cl}_e}_d
/four{636 0 49 0 580 729 _sc
378 643 _m
129 254 _l
378 254 _l
378 643 _l
352 729 _m
476 729 _l
476 254 _l
580 254 _l
580 172 _l
476 172 _l
476 0 _l
378 0 _l
378 172 _l
49 172 _l
49 267 _l
352 729 _l
_cl}_d
/five{{636 0 77 -13 549 729 _sc
108 729 _m
495 729 _l
495 646 _l
198 646 _l
198 467 _l
212 472 227 476 241 478 _c
255 480 270 482 284 482 _c
365 482 429 459 477 415 _c
525 370 549 310 549 234 _c
549 155 524 94 475 51 _c
426 8 357 -13 269 -13 _c
238 -13 207 -10 175 -6 _c
143 -1 111 6 77 17 _c
77 116 _l
106 100 136 88 168 80 _c
199 72 232 69 267 69 _c
}_e{323 69 368 83 401 113 _c
433 143 450 183 450 234 _c
450 284 433 324 401 354 _c
368 384 323 399 267 399 _c
241 399 214 396 188 390 _c
162 384 135 375 108 363 _c
108 729 _l
_cl}_e}_d
/six{{636 0 70 -13 573 742 _sc
330 404 _m
286 404 251 388 225 358 _c
199 328 186 286 186 234 _c
186 181 199 139 225 109 _c
251 79 286 64 330 64 _c
374 64 409 79 435 109 _c
461 139 474 181 474 234 _c
474 286 461 328 435 358 _c
409 388 374 404 330 404 _c
526 713 _m
526 623 _l
501 635 476 644 451 650 _c
425 656 400 659 376 659 _c
310 659 260 637 226 593 _c
}_e{192 549 172 482 168 394 _c
187 422 211 444 240 459 _c
269 474 301 482 336 482 _c
409 482 467 459 509 415 _c
551 371 573 310 573 234 _c
573 159 550 99 506 54 _c
462 9 403 -13 330 -13 _c
246 -13 181 19 137 83 _c
92 147 70 241 70 364 _c
70 479 97 571 152 639 _c
206 707 280 742 372 742 _c
396 742 421 739 447 735 _c
472 730 498 723 526 713 _c
_cl}_e}_d
/seven{636 0 82 0 551 729 _sc
82 729 _m
551 729 _l
551 687 _l
286 0 _l
183 0 _l
432 646 _l
82 646 _l
82 729 _l
_cl}_d
/eight{{636 0 68 -13 568 742 _sc
318 346 _m
271 346 234 333 207 308 _c
180 283 167 249 167 205 _c
167 161 180 126 207 101 _c
234 76 271 64 318 64 _c
364 64 401 76 428 102 _c
455 127 469 161 469 205 _c
469 249 455 283 429 308 _c
402 333 365 346 318 346 _c
219 388 _m
177 398 144 418 120 447 _c
96 476 85 511 85 553 _c
85 611 105 657 147 691 _c
188 725 245 742 318 742 _c
}_e{390 742 447 725 489 691 _c
530 657 551 611 551 553 _c
551 511 539 476 515 447 _c
491 418 459 398 417 388 _c
464 377 501 355 528 323 _c
554 291 568 251 568 205 _c
568 134 546 80 503 43 _c
459 5 398 -13 318 -13 _c
237 -13 175 5 132 43 _c
89 80 68 134 68 205 _c
68 251 81 291 108 323 _c
134 355 171 377 219 388 _c
183 544 _m
183 506 194 476 218 455 _c
}_e{242 434 275 424 318 424 _c
360 424 393 434 417 455 _c
441 476 453 506 453 544 _c
453 582 441 611 417 632 _c
393 653 360 664 318 664 _c
275 664 242 653 218 632 _c
194 611 183 582 183 544 _c
_cl}_e}_d
/nine{{636 0 63 -13 566 742 _sc
110 15 _m
110 105 _l
134 93 159 84 185 78 _c
210 72 235 69 260 69 _c
324 69 374 90 408 134 _c
442 178 462 244 468 334 _c
448 306 424 284 396 269 _c
367 254 335 247 300 247 _c
226 247 168 269 126 313 _c
84 357 63 417 63 494 _c
63 568 85 628 129 674 _c
173 719 232 742 306 742 _c
390 742 455 709 499 645 _c
543 580 566 486 566 364 _c
}_e{566 248 538 157 484 89 _c
429 21 356 -13 264 -13 _c
239 -13 214 -10 189 -6 _c
163 -2 137 5 110 15 _c
306 324 _m
350 324 385 339 411 369 _c
437 399 450 441 450 494 _c
450 546 437 588 411 618 _c
385 648 350 664 306 664 _c
262 664 227 648 201 618 _c
175 588 162 546 162 494 _c
162 441 175 399 201 369 _c
227 339 262 324 306 324 _c
_cl}_e}_d
/C{{698 0 56 -13 644 742 _sc
644 673 _m
644 569 _l
610 599 575 622 537 638 _c
499 653 460 661 418 661 _c
334 661 270 635 226 584 _c
182 533 160 460 160 364 _c
160 268 182 194 226 143 _c
270 92 334 67 418 67 _c
460 67 499 74 537 90 _c
575 105 610 128 644 159 _c
644 56 _l
609 32 572 15 534 4 _c
496 -7 455 -13 412 -13 _c
302 -13 215 20 151 87 _c
}_e{87 154 56 246 56 364 _c
56 481 87 573 151 641 _c
215 708 302 742 412 742 _c
456 742 497 736 535 725 _c
573 713 610 696 644 673 _c
_cl}_e}_d
/O{787 0 56 -13 731 742 _sc
394 662 _m
322 662 265 635 223 582 _c
181 528 160 456 160 364 _c
160 272 181 199 223 146 _c
265 92 322 66 394 66 _c
465 66 522 92 564 146 _c
606 199 627 272 627 364 _c
627 456 606 528 564 582 _c
522 635 465 662 394 662 _c
394 742 _m
496 742 577 707 639 639 _c
700 571 731 479 731 364 _c
731 248 700 157 639 89 _c
577 21 496 -13 394 -13 _c
291 -13 209 21 148 89 _c
86 157 56 248 56 364 _c
56 479 86 571 148 639 _c
209 707 291 742 394 742 _c
_cl}_d
/S{{635 0 66 -13 579 742 _sc
535 705 _m
535 609 _l
497 627 462 640 429 649 _c
395 657 363 662 333 662 _c
279 662 237 651 208 631 _c
179 610 165 580 165 542 _c
165 510 174 485 194 469 _c
213 452 250 439 304 429 _c
364 417 _l
437 403 491 378 526 343 _c
561 307 579 260 579 201 _c
579 130 555 77 508 41 _c
460 5 391 -13 300 -13 _c
265 -13 228 -9 189 -2 _c
}_e{150 5 110 16 69 32 _c
69 134 _l
109 111 148 94 186 83 _c
224 71 262 66 300 66 _c
356 66 399 77 430 99 _c
460 121 476 152 476 194 _c
476 230 465 258 443 278 _c
421 298 385 313 335 323 _c
275 335 _l
201 349 148 372 115 404 _c
82 435 66 478 66 534 _c
66 598 88 649 134 686 _c
179 723 242 742 322 742 _c
356 742 390 739 426 733 _c
461 727 497 717 535 705 _c
}_e{_cl}_e}_d
/T{611 0 -2 0 614 729 _sc
-2 729 _m
614 729 _l
614 646 _l
355 646 _l
355 0 _l
256 0 _l
256 646 _l
-2 646 _l
-2 729 _l
_cl}_d
/U{732 0 87 -13 645 729 _sc
87 729 _m
186 729 _l
186 286 _l
186 208 200 151 228 117 _c
256 83 302 66 366 66 _c
429 66 475 83 503 117 _c
531 151 546 208 546 286 _c
546 729 _l
645 729 _l
645 274 _l
645 178 621 107 574 59 _c
527 11 458 -13 366 -13 _c
274 -13 204 11 157 59 _c
110 107 87 178 87 274 _c
87 729 _l
_cl}_d
/bracketleft{390 0 86 -131 293 760 _sc
86 760 _m
293 760 _l
293 690 _l
176 690 _l
176 -61 _l
293 -61 _l
293 -131 _l
86 -131 _l
86 760 _l
_cl}_d
/bracketright{390 0 97 -131 304 760 _sc
304 760 _m
304 -131 _l
97 -131 _l
97 -61 _l
214 -61 _l
214 690 _l
97 690 _l
97 760 _l
304 760 _l
_cl}_d
/a{{613 0 60 -13 522 560 _sc
343 275 _m
270 275 220 266 192 250 _c
164 233 150 205 150 165 _c
150 133 160 107 181 89 _c
202 70 231 61 267 61 _c
317 61 357 78 387 114 _c
417 149 432 196 432 255 _c
432 275 _l
343 275 _l
522 312 _m
522 0 _l
432 0 _l
432 83 _l
411 49 385 25 355 10 _c
325 -5 287 -13 243 -13 _c
187 -13 142 2 109 33 _c
76 64 60 106 60 159 _c
}_e{60 220 80 266 122 298 _c
163 329 224 345 306 345 _c
432 345 _l
432 354 _l
432 395 418 427 391 450 _c
364 472 326 484 277 484 _c
245 484 215 480 185 472 _c
155 464 127 453 100 439 _c
100 522 _l
132 534 164 544 195 550 _c
226 556 256 560 286 560 _c
365 560 424 539 463 498 _c
502 457 522 395 522 312 _c
_cl}_e}_d
/c{{550 0 55 -13 488 560 _sc
488 526 _m
488 442 _l
462 456 437 466 411 473 _c
385 480 360 484 334 484 _c
276 484 230 465 198 428 _c
166 391 150 339 150 273 _c
150 206 166 154 198 117 _c
230 80 276 62 334 62 _c
360 62 385 65 411 72 _c
437 79 462 90 488 104 _c
488 21 _l
462 9 436 0 410 -5 _c
383 -10 354 -13 324 -13 _c
242 -13 176 12 128 64 _c
}_e{79 115 55 185 55 273 _c
55 362 79 432 128 483 _c
177 534 244 560 330 560 _c
358 560 385 557 411 551 _c
437 545 463 537 488 526 _c
_cl}_e}_d
/e{{615 0 55 -13 562 560 _sc
562 296 _m
562 252 _l
149 252 _l
153 190 171 142 205 110 _c
238 78 284 62 344 62 _c
378 62 412 66 444 74 _c
476 82 509 95 541 113 _c
541 28 _l
509 14 476 3 442 -3 _c
408 -9 373 -13 339 -13 _c
251 -13 182 12 131 62 _c
80 112 55 181 55 268 _c
55 357 79 428 127 481 _c
175 533 241 560 323 560 _c
397 560 455 536 498 489 _c
}_e{540 441 562 377 562 296 _c
472 322 _m
471 371 457 410 431 440 _c
404 469 368 484 324 484 _c
274 484 234 469 204 441 _c
174 413 156 373 152 322 _c
472 322 _l
_cl}_e}_d
/i{278 0 94 0 184 760 _sc
94 547 _m
184 547 _l
184 0 _l
94 0 _l
94 547 _l
94 760 _m
184 760 _l
184 646 _l
94 646 _l
94 760 _l
_cl}_d
/l{278 0 94 0 184 760 _sc
94 760 _m
184 760 _l
184 0 _l
94 0 _l
94 760 _l
_cl}_d
/m{{974 0 91 0 889 560 _sc
520 442 _m
542 482 569 511 600 531 _c
631 550 668 560 711 560 _c
767 560 811 540 842 500 _c
873 460 889 403 889 330 _c
889 0 _l
799 0 _l
799 327 _l
799 379 789 418 771 444 _c
752 469 724 482 686 482 _c
639 482 602 466 575 435 _c
548 404 535 362 535 309 _c
535 0 _l
445 0 _l
445 327 _l
445 379 435 418 417 444 _c
398 469 369 482 331 482 _c
}_e{285 482 248 466 221 435 _c
194 404 181 362 181 309 _c
181 0 _l
91 0 _l
91 547 _l
181 547 _l
181 462 _l
201 495 226 520 255 536 _c
283 552 317 560 357 560 _c
397 560 430 550 458 530 _c
486 510 506 480 520 442 _c
_cl}_e}_d
/o{612 0 55 -13 557 560 _sc
306 484 _m
258 484 220 465 192 427 _c
164 389 150 338 150 273 _c
150 207 163 156 191 118 _c
219 80 257 62 306 62 _c
354 62 392 80 420 118 _c
448 156 462 207 462 273 _c
462 337 448 389 420 427 _c
392 465 354 484 306 484 _c
306 560 _m
384 560 445 534 490 484 _c
534 433 557 363 557 273 _c
557 183 534 113 490 63 _c
445 12 384 -13 306 -13 _c
227 -13 165 12 121 63 _c
77 113 55 183 55 273 _c
55 363 77 433 121 484 _c
165 534 227 560 306 560 _c
_cl}_d
/p{{635 0 91 -207 580 560 _sc
181 82 _m
181 -207 _l
91 -207 _l
91 547 _l
181 547 _l
181 464 _l
199 496 223 520 252 536 _c
281 552 316 560 356 560 _c
422 560 476 533 518 481 _c
559 428 580 359 580 273 _c
580 187 559 117 518 65 _c
476 13 422 -13 356 -13 _c
316 -13 281 -5 252 10 _c
223 25 199 49 181 82 _c
487 273 _m
487 339 473 390 446 428 _c
418 466 381 485 334 485 _c
}_e{286 485 249 466 222 428 _c
194 390 181 339 181 273 _c
181 207 194 155 222 117 _c
249 79 286 61 334 61 _c
381 61 418 79 446 117 _c
473 155 487 207 487 273 _c
_cl}_e}_d
/r{411 0 91 0 411 560 _sc
411 463 _m
401 469 390 473 378 476 _c
366 478 353 480 339 480 _c
288 480 249 463 222 430 _c
194 397 181 350 181 288 _c
181 0 _l
91 0 _l
91 547 _l
181 547 _l
181 462 _l
199 495 224 520 254 536 _c
284 552 321 560 365 560 _c
371 560 378 559 386 559 _c
393 558 401 557 411 555 _c
411 463 _l
_cl}_d
/s{{521 0 54 -13 472 560 _sc
443 531 _m
443 446 _l
417 458 391 468 364 475 _c
336 481 308 485 279 485 _c
234 485 200 478 178 464 _c
156 450 145 430 145 403 _c
145 382 153 366 169 354 _c
185 342 217 330 265 320 _c
296 313 _l
360 299 405 279 432 255 _c
458 230 472 195 472 151 _c
472 100 452 60 412 31 _c
372 1 316 -13 246 -13 _c
216 -13 186 -10 154 -5 _c
}_e{122 0 89 8 54 20 _c
54 113 _l
87 95 120 82 152 74 _c
184 65 216 61 248 61 _c
290 61 323 68 346 82 _c
368 96 380 117 380 144 _c
380 168 371 187 355 200 _c
339 213 303 226 247 238 _c
216 245 _l
160 257 119 275 95 299 _c
70 323 58 356 58 399 _c
58 450 76 490 112 518 _c
148 546 200 560 268 560 _c
301 560 332 557 362 552 _c
391 547 418 540 443 531 _c
}_e{_cl}_e}_d
/t{392 0 27 0 368 702 _sc
183 702 _m
183 547 _l
368 547 _l
368 477 _l
183 477 _l
183 180 _l
183 135 189 106 201 94 _c
213 81 238 75 276 75 _c
368 75 _l
368 0 _l
276 0 _l
206 0 158 13 132 39 _c
106 65 93 112 93 180 _c
93 477 _l
27 477 _l
27 547 _l
93 547 _l
93 702 _l
183 702 _l
_cl}_d
end readonly def

/BuildGlyph
 {exch begin
 CharStrings exch
 2 copy known not{pop /.notdef}if
 true 3 1 roll get exec
 end}_d

/BuildChar {
 1 index /Encoding get exch get
 1 index /BuildGlyph get exec
}_d

FontName currentdict end definefont pop
end
%%EndProlog
mpldict begin
90 252 translate
432 288 0 0 clipbox
gsave
0 0 m
432 0 l
432 288 l
0 288 l
cl
1.000 setgray
fill
grestore
gsave
54 36 m
388.8 36 l
388.8 253.44 l
54 253.44 l
cl
1.000 setgray
fill
grestore
0.800 setlinewidth
1 setlinejoin
2 setlinecap
[] 0 setdash
0.690 setgray
gsave
334.8 217.4 54 36 clipbox
69.218182 36 m
69.218182 253.44 l
stroke
grestore
0 setlinecap
0.000 setgray
gsave
/o {
gsave
newpath
translate
0.8 setlinewidth
1 setlinejoin
0 setlinecap
0 0 m
0 -3.5 l

gsave
0.000 setgray
fill
grestore
stroke
grestore
} bind def
69.2182 36 o
grestore
/DejaVuSans findfont
10.000 scalefont
setfont
gsave
66.038494 21.406250 translate
0.000000 rotate
0.000000 0.000000 m /zero glyphshow
grestore
2 setlinecap
0.690 setgray
gsave
334.8 217.4 54 36 clipbox
112.729781 36 m
112.729781 253.44 l
stroke
grestore
0 setlinecap
0.000 setgray
gsave
/o {
gsave
newpath
translate
0.8 setlinewidth
1 setlinejoin
0 setlinecap
0 0 m
0 -3.5 l

gsave
0.000 setgray
fill
grestore
stroke
grestore
} bind def
112.73 36 o
grestore
gsave
103.190719 21.406250 translate
0.000000 rotate
0.000000 0.000000 m /two glyphshow
6.362305 0.000000 m /zero glyphshow
12.724609 0.000000 m /zero glyphshow
grestore
2 setlinecap
0.690 setgray
gsave
334.8 217.4 54 36 clipbox
156.24138 36 m
156.24138 253.44 l
stroke
grestore
0 setlinecap
0.000 setgray
gsave
/o {
gsave
newpath
translate
0.8 setlinewidth
1 setlinejoin
0 setlinecap
0 0 m
0 -3.5 l

gsave
0.000 setgray
fill
grestore
stroke
grestore
} bind def
156.241 36 o
grestore
gsave
146.702318 21.406250 translate
0.000000 rotate
0.000000 0.000000 m /four glyphshow
6.362305 0.000000 m /zero glyphshow
12.724609 0.000000 m /zero glyphshow
grestore
2 setlinecap
0.690 setgray
gsave
334.8 217.4 54 36 clipbox
199.752979 36 m
199.752979 253.44 l
stroke
grestore
0 setlinecap
0.000 setgray
gsave
/o {
gsave
newpath
translate
0.8 setlinewidth
1 setlinejoin
0 setlinecap
0 0 m
0 -3.5 l

gsave
0.000 setgray
fill
grestore
stroke
grestore
} bind def
199.753 36 o
grestore
gsave
190.213917 21.406250 translate
0.000000 rotate
0.000000 0.000000 m /six glyphshow
6.362305 0.000000 m /zero glyphshow
12.724609 0.000000 m /zero glyphshow
grestore
2 setlinecap
0.690 setgray
gsave
334.8 217.4 54 36 clipbox
243.264579 36 m
243.264579 253.44 l
stroke
grestore
0 setlinecap
0.000 setgray
gsave
/o {
gsave
newpath
translate
0.8 setlinewidth
1 setlinejoin
0 setlinecap
0 0 m
0 -3.5 l

gsave
0.000 setgray
fill
grestore
stroke
grestore
} bind def
243.265 36 o
grestore
gsave
233.725516 21.406250 translate
0.000000 rotate
0.000000 0.000000 m /eight glyphshow
6.362305 0.000000 m /zero glyphshow
12.724609 0.000000 m /zero glyphshow
grestore
2 setlinecap
0.690 setgray
gsave
334.8 217.4 54 36 clipbox
286.776178 36 m
286.776178 253.44 l
stroke
grestore
0 setlinecap
0.000 setgray
gsave
/o {
gsave
newpath
translate
0.8 setlinewidth
1 setlinejoin
0 setlinecap
0 0 m
0 -3.5 l

gsave
0.000 setgray
fill
grestore
stroke
grestore
} bind def
286.776 36 o
grestore
gsave
274.057428 21.406250 translate
0.000000 rotate
0.000000 0.000000 m /one glyphshow
6.362305 0.000000 m /zero glyphshow
12.724609 0.000000 m /zero glyphshow
19.086914 0.000000 m /zero glyphshow
grestore
2 setlinecap
0.690 setgray
gsave
334.8 217.4 54 36 clipbox
330.287777 36 m
330.287777 253.44 l
stroke
grestore
0 setlinecap
0.000 setgray
gsave
/o {
gsave
newpath
translate
0.8 setlinewidth
1 setlinejoin
0 setlinecap
0 0 m
0 -3.5 l

gsave
0.000 setgray
fill
grestore
stroke
grestore
} bind def
330.288 36 o
grestore
gsave
317.569027 21.406250 translate
0.000000 rotate
0.000000 0.000000 m /one glyphshow
6.362305 0.000000 m /two glyphshow
12.724609 0.000000 m /zero glyphshow
19.086914 0.000000 m /zero glyphshow
grestore
2 setlinecap
0.690 setgray
gsave
334.8 217.4 54 36 clipbox
373.799376 36 m
373.799376 253.44 l
stroke
grestore
0 setlinecap
0.000 setgray
gsave
/o {
gsave
newpath
translate
0.8 setlinewidth
1 setlinejoin
0 setlinecap
0 0 m
0 -3.5 l

gsave
0.000 setgray
fill
grestore
stroke
grestore
} bind def
373.799 36 o
grestore
gsave
361.080626 21.406250 translate
0.000000 rotate
0.000000 0.000000 m /one glyphshow
6.362305 0.000000 m /four glyphshow
12.724609 0.000000 m /zero glyphshow
19.086914 0.000000 m /zero glyphshow
grestore
gsave
200.892188 7.734375 translate
0.000000 rotate
0.000000 0.000000 m /T glyphshow
6.108398 0.000000 m /i glyphshow
8.886719 0.000000 m /m glyphshow
18.627930 0.000000 m /e glyphshow
24.780273 0.000000 m /space glyphshow
27.958984 0.000000 m /bracketleft glyphshow
31.860352 0.000000 m /s glyphshow
37.070312 0.000000 m /bracketright glyphshow
grestore
2 setlinecap
0.690 setgray
gsave
334.8 217.4 54 36 clipbox
54 51.58055 m
388.8 51.58055 l
stroke
grestore
0 setlinecap
0.000 setgray
gsave
/o {
gsave
newpath
translate
0.8 setlinewidth
1 setlinejoin
0 setlinecap
0 0 m
-3.5 0 l

gsave
0.000 setgray
fill
grestore
stroke
grestore
} bind def
54 51.5806 o
grestore
gsave
24.734375 47.783675 translate
0.000000 rotate
0.000000 0.000000 m /zero glyphshow
6.362305 0.000000 m /period glyphshow
9.541016 0.000000 m /six glyphshow
15.903320 0.000000 m /five glyphshow
grestore
2 setlinecap
0.690 setgray
gsave
334.8 217.4 54 36 clipbox
54 78.11202 m
388.8 78.11202 l
stroke
grestore
0 setlinecap
0.000 setgray
gsave
/o {
gsave
newpath
translate
0.8 setlinewidth
1 setlinejoin
0 setlinecap
0 0 m
-3.5 0 l

gsave
0.000 setgray
fill
grestore
stroke
grestore
} bind def
54 78.112 o
grestore
gsave
24.734375 74.315145 translate
0.000000 rotate
0.000000 0.000000 m /zero glyphshow
6.362305 0.000000 m /period glyphshow
9.541016 0.000000 m /six glyphshow
15.903320 0.000000 m /six glyphshow
grestore
2 setlinecap
0.690 setgray
gsave
334.8 217.4 54 36 clipbox
54 104.64349 m
388.8 104.64349 l
stroke
grestore
0 setlinecap
0.000 setgray
gsave
/o {
gsave
newpath
translate
0.8 setlinewidth
1 setlinejoin
0 setlinecap
0 0 m
-3.5 0 l

gsave
0.000 setgray
fill
grestore
stroke
grestore
} bind def
54 104.643 o
grestore
gsave
24.734375 100.846615 translate
0.000000 rotate
0.000000 0.000000 m /zero glyphshow
6.362305 0.000000 m /period glyphshow
9.541016 0.000000 m /six glyphshow
15.903320 0.000000 m /seven glyphshow
grestore
2 setlinecap
0.690 setgray
gsave
334.8 217.4 54 36 clipbox
54 131.17496 m
388.8 131.17496 l
stroke
grestore
0 setlinecap
0.000 setgray
gsave
/o {
gsave
newpath
translate
0.8 setlinewidth
1 setlinejoin
0 setlinecap
0 0 m
-3.5 0 l

gsave
0.000 setgray
fill
grestore
stroke
grestore
} bind def
54 131.175 o
grestore
gsave
24.734375 127.378085 translate
0.000000 rotate
0.000000 0.000000 m /zero glyphshow
6.362305 0.000000 m /period glyphshow
9.541016 0.000000 m /six glyphshow
15.903320 0.000000 m /eight glyphshow
grestore
2 setlinecap
0.690 setgray
gsave
334.8 217.4 54 36 clipbox
54 157.70643 m
388.8 157.70643 l
stroke
grestore
0 setlinecap
0.000 setgray
gsave
/o {
gsave
newpath
translate
0.8 setlinewidth
1 setlinejoin
0 setlinecap
0 0 m
-3.5 0 l

gsave
0.000 setgray
fill
grestore
stroke
grestore
} bind def
54 157.706 o
grestore
gsave
24.734375 153.909555 translate
0.000000 rotate
0.000000 0.000000 m /zero glyphshow
6.362305 0.000000 m /period glyphshow
9.541016 0.000000 m /six glyphshow
15.903320 0.000000 m /nine glyphshow
grestore
2 setlinecap
0.690 setgray
gsave
334.8 217.4 54 36 clipbox
54 184.2379 m
388.8 184.2379 l
stroke
grestore
0 setlinecap
0.000 setgray
gsave
/o {
gsave
newpath
translate
0.8 setlinewidth
1 setlinejoin
0 setlinecap
0 0 m
-3.5 0 l

gsave
0.000 setgray
fill
grestore
stroke
grestore
} bind def
54 184.238 o
grestore
gsave
24.734375 180.441025 translate
0.000000 rotate
0.000000 0.000000 m /zero glyphshow
6.362305 0.000000 m /period glyphshow
9.541016 0.000000 m /seven glyphshow
15.903320 0.000000 m /zero glyphshow
grestore
2 setlinecap
0.690 setgray
gsave
334.8 217.4 54 36 clipbox
54 210.769369 m
388.8 210.769369 l
stroke
grestore
0 setlinecap
0.000 setgray
gsave
/o {
gsave
newpath
translate
0.8 setlinewidth
1 setlinejoin
0 setlinecap
0 0 m
-3.5 0 l

gsave
0.000 setgray
fill
grestore
stroke
grestore
} bind def
54 210.769 o
grestore
gsave
24.734375 206.972494 translate
0.000000 rotate
0.000000 0.000000 m /zero glyphshow
6.362305 0.000000 m /period glyphshow
9.541016 0.000000 m /seven glyphshow
15.903320 0.000000 m /one glyphshow
grestore
2 setlinecap
0.690 setgray
gsave
334.8 217.4 54 36 clipbox
54 237.300839 m
388.8 237.300839 l
stroke
grestore
0 setlinecap
0.000 setgray
gsave
/o {
gsave
newpath
translate
0.8 setlinewidth
1 setlinejoin
0 setlinecap
0 0 m
-3.5 0 l

gsave
0.000 setgray
fill
grestore
stroke
grestore
} bind def
54 237.301 o
grestore
gsave
24.734375 233.503964 translate
0.000000 rotate
0.000000 0.000000 m /zero glyphshow
6.362305 0.000000 m /period glyphshow
9.541016 0.000000 m /seven glyphshow
15.903320 0.000000 m /two glyphshow
grestore
gsave
18.656250 77.337187 translate
90.000000 rotate
0.000000 0.000000 m /U glyphshow
7.319336 0.000000 m /l glyphshow
10.097656 0.000000 m /t glyphshow
14.018555 0.000000 m /r glyphshow
18.129883 0.000000 m /a glyphshow
24.257812 0.000000 m /c glyphshow
29.755859 0.000000 m /a glyphshow
35.883789 0.000000 m /p glyphshow
42.231445 0.000000 m /a glyphshow
48.359375 0.000000 m /c glyphshow
53.857422 0.000000 m /i glyphshow
56.635742 0.000000 m /t glyphshow
60.556641 0.000000 m /o glyphshow
66.674805 0.000000 m /r glyphshow
70.786133 0.000000 m /space glyphshow
73.964844 0.000000 m /S glyphshow
80.312500 0.000000 m /O glyphshow
88.183594 0.000000 m /C glyphshow
95.166016 0.000000 m /space glyphshow
98.344727 0.000000 m /bracketleft glyphshow
102.246094 0.000000 m /one glyphshow
108.608398 0.000000 m /zero glyphshow
114.970703 0.000000 m /zero glyphshow
121.333008 0.000000 m /percent glyphshow
130.834961 0.000000 m /bracketright glyphshow
grestore
1.500 setlinewidth
2 setlinecap
0.122 0.467 0.706 setrgbcolor
gsave
334.8 217.4 54 36 clipbox
69.218182 184.2379 m
69.43574 173.684094 l
69.653298 173.427498 l
69.870856 176.722047 l
71.176204 181.516656 l
71.393762 181.41496 l
71.61132 180.271748 l
71.828878 177.553001 l
72.916668 157.982766 l
73.569342 162.419367 l
73.7869 161.383601 l
74.004458 158.897018 l
74.439574 142.639811 l
74.87469 132.960225 l
75.092248 134.564431 l
75.309806 133.667812 l
75.744922 130.423819 l
75.96248 130.774231 l
76.180038 133.355903 l
76.397596 138.000099 l
77.05027 144.238924 l
77.267828 144.013121 l
77.485386 145.597626 l
77.702944 145.134459 l
77.920502 146.06516 l
78.13806 148.147611 l
79.22585 166.853249 l
79.443408 167.683525 l
79.660966 170.279766 l
80.531198 185.436177 l
80.748756 186.266402 l
80.966314 187.851572 l
81.618988 189.478828 l
81.836546 189.306987 l
82.271662 185.976682 l
83.57701 175.629847 l
84.012126 169.25133 l
84.229684 169.699076 l
84.447242 173.445334 l
84.6648 181.421565 l
85.317474 214.491882 l
85.75259 226.545768 l
86.405263 234.710892 l
86.840379 239.358977 l
87.057937 239.761397 l
87.710611 232.661685 l
87.928169 232.256728 l
88.145727 232.877696 l
88.363285 231.300108 l
88.580843 226.969379 l
89.015959 206.850018 l
89.668633 174.171047 l
90.103749 162.313379 l
90.538865 156.037393 l
90.756423 156.339244 l
90.973981 156.339244 l
91.191539 155.99691 l
91.409097 156.769786 l
91.626655 156.862209 l
92.061771 155.852121 l
92.279329 153.978801 l
92.496887 153.35788 l
92.714445 153.316829 l
92.932003 153.020932 l
93.149561 153.198007 l
93.367119 151.915317 l
94.237351 136.491349 l
94.454909 135.945275 l
94.672467 133.957301 l
94.890025 134.645043 l
95.325141 130.844677 l
95.542699 130.39163 l
95.760257 129.113134 l
95.977815 129.204466 l
97.283163 137.170105 l
97.500721 137.944746 l
97.935837 142.037244 l
98.588511 150.728937 l
98.806069 150.004236 l
99.458743 142.438492 l
99.676301 141.715577 l
100.328975 145.598759 l
100.764091 157.29328 l
101.416765 183.248607 l
101.634323 188.335661 l
101.851881 190.040409 l
102.286997 191.102707 l
102.504555 190.956225 l
102.722113 192.067146 l
103.157229 192.64221 l
103.592345 185.198813 l
104.027461 180.73489 l
104.245019 180.944759 l
104.462577 177.256508 l
104.680135 170.014073 l
105.767925 108.163042 l
106.203041 100.372148 l
106.420599 100.268309 l
106.638157 100.377976 l
106.855715 100.191742 l
107.073273 101.58739 l
107.290831 104.092735 l
108.161063 121.43446 l
108.378621 121.63842 l
108.596179 120.819129 l
108.813737 117.226819 l
109.248853 119.250122 l
109.466411 119.445544 l
109.683969 126.993299 l
109.901527 130.59634 l
110.771759 151.857241 l
110.989317 152.979389 l
111.206875 153.502514 l
111.424433 152.368679 l
111.641991 152.14867 l
112.077107 145.736167 l
112.294665 145.667526 l
112.512223 150.787829 l
112.729781 150.787829 l
113.164897 147.07003 l
113.382455 145.63605 l
114.252687 137.438532 l
114.687803 137.280159 l
115.340477 130.339937 l
115.558035 130.553658 l
115.993151 132.180984 l
116.210709 131.937515 l
116.428267 131.391414 l
116.863383 129.388206 l
117.080941 131.395386 l
117.298499 131.257513 l
117.733615 130.453025 l
117.951173 128.014912 l
118.168731 128.028314 l
118.386289 128.460987 l
118.603847 127.965944 l
118.821405 128.000173 l
119.256521 127.274192 l
119.474079 127.341216 l
119.691637 128.323295 l
119.909195 130.028237 l
120.126753 126.173958 l
120.344311 116.942507 l
120.779427 87.74587 l
120.996985 83.889046 l
121.214543 85.72035 l
121.649659 97.282016 l
122.084775 99.121264 l
122.955007 104.625965 l
123.172565 104.45554 l
123.825239 99.578523 l
124.042797 99.794673 l
124.260355 102.996236 l
124.477913 109.988317 l
125.130587 139.072117 l
125.348145 142.02154 l
125.565703 140.768231 l
126.218377 132.16641 l
126.435935 130.874913 l
126.653493 131.017113 l
127.306167 134.33907 l
127.523725 134.538809 l
127.741283 134.301535 l
127.958841 134.608891 l
128.393957 136.092402 l
128.611515 135.843063 l
129.264189 133.710813 l
129.699305 133.783412 l
129.916863 134.000285 l
130.351979 133.929676 l
131.004653 132.071363 l
131.222211 132.40098 l
131.439769 133.020595 l
131.657327 134.884338 l
131.874885 138.558017 l
132.310001 153.455185 l
132.745117 167.693365 l
132.962675 171.120968 l
133.397791 166.526147 l
133.615349 166.354149 l
133.832907 163.765265 l
134.050465 164.912153 l
134.268023 168.200004 l
134.485581 168.200004 l
134.703139 169.413316 l
134.920697 169.835961 l
135.355813 169.107737 l
135.573371 169.052121 l
136.008487 166.052099 l
136.661161 163.063826 l
137.096277 157.685901 l
137.531393 153.894151 l
137.748951 153.372711 l
137.966509 151.660873 l
138.401625 144.826736 l
138.836741 139.949487 l
139.054299 141.471615 l
139.271857 141.428003 l
139.489415 141.967429 l
139.706973 141.862824 l
139.924531 140.592641 l
140.142089 140.90578 l
140.577204 149.615184 l
141.447436 171.895988 l
141.882552 175.858308 l
142.535226 181.543792 l
142.752784 184.129898 l
142.970342 183.828564 l
143.405458 180.396375 l
143.623016 177.537124 l
144.058132 176.191636 l
144.27569 175.645601 l
144.710806 168.906783 l
145.798596 145.830703 l
146.016154 144.164177 l
146.233712 143.915891 l
146.45127 144.568107 l
147.756618 152.407583 l
147.974176 153.136997 l
148.191734 152.76409 l
148.62685 153.169485 l
148.844408 152.882839 l
149.061966 154.098526 l
149.279524 154.126885 l
149.497082 157.233801 l
150.367314 177.009763 l
150.584872 177.360231 l
151.237546 173.018992 l
151.455104 172.136401 l
151.89022 174.115252 l
152.325336 176.354544 l
152.542894 176.764112 l
152.760452 176.778396 l
152.97801 178.359125 l
153.195568 176.764509 l
153.630684 166.782035 l
154.0658 154.010435 l
154.500916 147.775889 l
154.718474 146.193061 l
154.936032 146.0176 l
155.371148 147.484114 l
155.588706 147.611349 l
155.806264 146.94995 l
156.023822 145.404616 l
156.24138 145.404616 l
157.111612 138.775371 l
157.32917 137.617337 l
157.546728 135.546359 l
158.199402 132.69592 l
159.287192 139.863207 l
159.50475 139.938595 l
159.722308 140.288201 l
160.157424 137.152372 l
160.374982 135.266828 l
160.59254 134.887052 l
160.810098 135.519418 l
161.462772 139.424205 l
161.68033 141.117587 l
161.897888 141.870313 l
162.115446 143.090771 l
162.333004 142.693306 l
162.985678 133.353386 l
163.420794 126.802515 l
163.638352 124.411784 l
164.073468 122.758948 l
164.291026 122.897795 l
164.508584 125.129815 l
164.726142 125.593272 l
164.9437 125.743959 l
165.161258 125.608264 l
165.378816 123.65912 l
165.596374 123.06283 l
166.466606 109.099653 l
166.684164 108.722394 l
166.901722 109.292214 l
167.11928 102.652314 l
167.771954 71.312098 l
167.989512 69.566785 l
168.424628 74.190297 l
168.642186 74.820945 l
168.859744 74.348471 l
169.077302 74.294806 l
169.29486 74.604608 l
169.512418 76.947887 l
169.947534 89.754993 l
170.38265 104.176835 l
171.035324 117.321756 l
172.340672 155.391232 l
172.775788 159.603432 l
172.993346 159.964741 l
173.210904 158.21668 l
173.428462 157.613766 l
173.863578 154.02499 l
175.168926 138.40696 l
175.386484 138.207519 l
175.604042 139.9585 l
175.8216 140.54954 l
176.039158 141.895785 l
176.90939 130.65013 l
177.344506 133.633699 l
177.562064 133.69645 l
177.779622 133.518414 l
177.99718 133.518414 l
178.649854 136.538656 l
178.867412 135.797289 l
179.08497 135.459551 l
179.302528 137.210291 l
179.520086 141.328302 l
180.17276 161.509736 l
180.390318 164.767232 l
180.607876 165.717183 l
180.825434 165.888015 l
181.26055 164.552927 l
181.478108 164.110571 l
181.695666 164.037401 l
182.34834 162.678651 l
182.565898 161.245195 l
183.218572 147.538885 l
183.653688 132.586519 l
184.959036 102.397763 l
185.394152 100.247649 l
185.61171 100.178552 l
185.829268 99.955089 l
186.6995 85.650659 l
187.134616 83.053054 l
187.352174 83.84298 l
187.569732 85.168473 l
187.78729 85.44965 l
188.439964 80.643316 l
188.657522 84.192344 l
189.092638 95.84913 l
189.527754 100.017308 l
189.745312 99.328397 l
190.180428 101.161222 l
190.397986 103.720427 l
190.833102 120.769679 l
191.268218 142.579787 l
191.485776 145.164708 l
191.703334 145.09163 l
191.920892 144.741578 l
192.13845 139.929091 l
192.573566 141.054371 l
192.791124 139.973714 l
193.008682 142.419768 l
193.878914 131.280514 l
194.749145 104.337385 l
194.966703 104.445562 l
195.836935 77.876136 l
196.054493 78.940276 l
196.707167 85.415369 l
196.924725 84.998622 l
197.577399 78.973401 l
197.794957 78.883608 l
198.230073 81.816161 l
198.882747 91.491769 l
199.100305 94.771163 l
199.317863 93.682713 l
199.535421 86.075675 l
199.752979 86.075675 l
199.970537 85.72769 l
200.188095 83.155162 l
200.623211 75.266313 l
200.840769 72.369479 l
201.058327 71.706705 l
201.275885 73.821649 l
201.493443 73.163633 l
201.711001 73.259824 l
202.146117 71.510756 l
202.363675 70.985869 l
202.798791 69.109557 l
203.233907 68.332623 l
203.451465 70.17188 l
204.539255 88.723483 l
204.974371 92.1546 l
205.191929 96.051634 l
205.627045 113.871019 l
206.062161 133.317866 l
206.279719 139.126119 l
206.497277 141.005147 l
206.714835 141.757244 l
206.932393 143.373674 l
207.149951 144.114428 l
207.367509 146.488997 l
207.585067 147.048065 l
208.020183 140.283383 l
208.455299 130.389701 l
208.672857 129.109822 l
209.760647 116.791191 l
210.195763 108.713893 l
210.413321 108.298595 l
210.630879 110.857312 l
211.283553 137.175366 l
212.153785 178.372861 l
213.024017 224.296981 l
213.459133 234.600551 l
213.676691 236.094201 l
213.894249 235.094791 l
214.329365 228.733419 l
214.764481 217.626494 l
215.634713 180.291314 l
217.810293 89.115929 l
218.245409 81.810147 l
219.115641 69.641131 l
219.333199 69.513847 l
219.768315 72.646468 l
219.985873 73.616064 l
220.420989 72.54115 l
220.638547 72.834966 l
221.073663 74.991362 l
221.291221 73.237038 l
221.508779 73.237038 l
221.726337 68.340199 l
221.943895 66.725339 l
222.596569 66.712206 l
222.814127 67.252626 l
223.249243 69.188512 l
223.466801 68.500804 l
223.684359 68.561171 l
223.901917 65.171238 l
224.119475 63.790144 l
224.337033 63.347647 l
224.554591 62.200329 l
224.772149 62.131443 l
225.207265 59.625236 l
225.424823 59.57989 l
226.077497 65.438908 l
226.512613 67.015898 l
226.730171 66.764202 l
227.817961 72.054304 l
228.470635 71.538854 l
228.688193 71.790301 l
229.123309 71.595077 l
229.340867 72.686938 l
229.558425 72.443274 l
229.993541 74.052434 l
230.211099 73.750495 l
230.428657 74.323398 l
230.863773 70.405454 l
231.298889 68.273796 l
231.516447 72.035545 l
231.951563 85.6128 l
232.386679 102.418274 l
232.821795 111.352658 l
233.039353 114.389093 l
233.474469 125.56379 l
233.909585 139.263445 l
234.127143 142.98736 l
234.344701 143.595206 l
235.650049 122.450427 l
236.085165 121.177543 l
236.302723 119.612603 l
236.955397 112.532407 l
237.608071 121.055094 l
237.825629 121.205026 l
239.783651 98.779514 l
240.871441 89.594222 l
242.176789 80.676358 l
243.047021 76.107933 l
243.264579 76.107933 l
243.699695 75.852969 l
244.134811 74.487351 l
244.352369 73.070629 l
244.787485 67.552969 l
245.222601 61.787215 l
245.440159 60.054185 l
245.657717 59.839532 l
246.092833 57.32899 l
246.527949 55.627276 l
246.745507 57.120545 l
246.963065 57.441805 l
247.398181 51.354707 l
247.833297 45.883636 l
248.050855 48.459219 l
248.48597 49.706484 l
248.703528 51.199994 l
248.921086 54.447211 l
249.138644 60.374034 l
250.443992 113.944049 l
250.66155 115.672985 l
250.879108 115.99732 l
251.314224 115.525012 l
251.74934 114.899049 l
252.619572 113.766732 l
252.83713 111.762717 l
253.707362 96.295104 l
253.92492 96.176265 l
254.142478 97.22248 l
254.360036 97.567218 l
254.795152 99.726137 l
255.01271 99.377637 l
255.230268 100.659881 l
255.447826 100.468967 l
255.665384 100.560182 l
256.535616 93.742719 l
256.753174 94.152712 l
256.970732 93.758067 l
257.18829 92.198973 l
257.840964 83.646961 l
258.27608 78.677675 l
258.928754 72.791423 l
259.36387 70.713728 l
259.798986 74.317832 l
260.886776 89.736225 l
261.321892 95.167948 l
261.53945 95.949864 l
261.757008 97.80149 l
262.409682 108.430855 l
262.62724 110.594735 l
263.497472 110.137277 l
265.237936 109.146641 l
265.455494 108.604955 l
265.673052 106.568334 l
266.325726 93.62659 l
266.760842 86.086862 l
266.9784 83.078288 l
267.195958 82.966965 l
267.413516 83.55543 l
267.848632 80.72225 l
268.06619 80.776219 l
268.283748 80.624763 l
268.501306 80.974964 l
268.936422 81.170971 l
269.15398 81.051681 l
269.589096 83.254317 l
270.024212 83.617181 l
270.24177 84.91043 l
270.459328 85.104528 l
271.112002 88.713053 l
271.547118 92.105632 l
271.982234 93.495051 l
272.199792 93.456274 l
272.41735 93.122777 l
272.634908 92.081696 l
273.287582 84.76032 l
273.50514 83.128448 l
273.940256 82.14375 l
274.157814 82.805841 l
274.375372 81.575873 l
274.59293 81.478716 l
275.028046 80.333013 l
275.245604 79.553305 l
275.68072 76.048894 l
275.898278 74.406447 l
276.333394 74.013 l
276.550952 73.800308 l
276.986068 72.593695 l
277.203626 72.51574 l
277.638742 70.553317 l
278.073858 69.340605 l
278.291416 69.238399 l
278.726532 70.18352 l
278.94409 70.591164 l
279.161648 70.241432 l
279.379206 68.317886 l
279.814322 62.979649 l
280.03188 61.194008 l
280.249438 60.759378 l
280.466996 62.013465 l
280.684554 61.653553 l
281.554786 50.452411 l
282.425018 48.921031 l
282.642576 47.924435 l
282.860134 47.449951 l
283.077692 48.301308 l
283.29525 48.659542 l
283.730366 50.025848 l
283.947924 48.408127 l
284.600598 48.690217 l
284.818156 49.599262 l
285.253272 54.1208 l
285.688388 59.781727 l
285.905946 60.358503 l
286.341062 55.684233 l
286.55862 56.844329 l
286.776178 56.844329 l
286.993736 54.793881 l
287.428852 60.485299 l
288.299084 84.028777 l
288.7342 88.654904 l
288.951758 89.017876 l
289.604432 88.679215 l
290.039548 88.300127 l
290.90978 87.422797 l
297.654078 83.464072 l
298.741868 82.338615 l
301.135006 80.936308 l
301.352564 80.459376 l
302.005238 77.334484 l
302.222796 76.920295 l
302.657911 77.426244 l
303.093027 77.245999 l
306.791513 75.078569 l
307.009071 74.7514 l
307.661745 66.092748 l
307.879303 63.130845 l
308.096861 63.307649 l
308.314419 65.667472 l
308.531977 65.667472 l
309.184651 70.539778 l
309.402209 70.303822 l
309.837325 65.809889 l
310.272441 61.724736 l
310.489999 61.536252 l
310.707557 62.154368 l
311.142673 64.663589 l
311.360231 64.725644 l
311.795347 62.792458 l
312.012905 60.759746 l
312.665579 62.034855 l
312.883137 63.385037 l
313.100695 63.794337 l
313.318253 64.646432 l
313.535811 67.642374 l
314.841159 100.71017 l
315.058717 102.688858 l
315.276275 103.22977 l
315.493833 103.296897 l
315.711391 103.512554 l
316.146507 104.226673 l
316.364065 103.344158 l
317.016739 93.599013 l
317.234297 90.604571 l
317.451855 91.618524 l
317.886971 89.777237 l
318.104529 90.32752 l
318.322087 88.742699 l
318.539645 89.950228 l
318.757203 89.457619 l
318.974761 89.473006 l
319.192319 89.350774 l
319.409877 87.658762 l
319.627435 87.971629 l
320.062551 87.502558 l
320.280109 87.87425 l
320.497667 87.734949 l
320.715225 86.960357 l
320.932783 86.745969 l
321.803015 83.048414 l
322.020573 82.850297 l
322.455689 80.347789 l
322.890805 79.267197 l
323.108363 78.404556 l
323.325921 79.174258 l
323.543479 79.298262 l
323.761037 78.976802 l
323.978595 79.624126 l
324.413711 77.36586 l
324.631269 77.31801 l
324.848827 80.733988 l
325.283943 98.39415 l
325.936617 132.115093 l
326.371733 144.901231 l
327.241965 161.210887 l
327.677081 164.314939 l
327.894639 163.463428 l
328.764871 146.345734 l
328.982429 146.473911 l
329.852661 140.538154 l
330.070219 140.74303 l
330.287777 140.74303 l
330.505335 144.834765 l
330.722893 144.884428 l
330.940451 144.014533 l
331.158009 145.281396 l
331.375567 143.27042 l
332.028241 140.569014 l
332.463357 141.687403 l
332.680915 141.398198 l
332.898473 140.559005 l
333.116031 139.235194 l
333.551147 135.173271 l
333.768705 133.521317 l
333.986263 133.909577 l
334.203821 135.489942 l
334.638937 144.374182 l
336.379401 198.371954 l
336.596959 199.440166 l
336.814517 199.547076 l
337.032075 199.421399 l
337.249633 199.045716 l
337.684749 190.65909 l
338.119865 180.72898 l
338.990097 176.986986 l
339.207655 174.765 l
339.642771 175.522863 l
339.860329 170.747896 l
340.077887 169.803158 l
340.513003 165.951711 l
340.730561 168.938625 l
340.948119 168.860504 l
341.600793 166.979693 l
341.818351 168.069879 l
342.035909 171.04321 l
342.471025 187.341951 l
343.341257 231.056666 l
343.776373 241.379701 l
343.993931 243.0911 l
344.211489 243.556364 l
344.646605 243.36948 l
352.043577 239.173303 l
373.581818 239.173303 l
373.581818 239.173303 l
stroke
grestore
0.800 setlinewidth
0 setlinejoin
[] 0 setdash
0.000 setgray
gsave
54 36 m
54 253.44 l
stroke
grestore
gsave
388.8 36 m
388.8 253.44 l
stroke
grestore
gsave
54 36 m
388.8 36 l
stroke
grestore
gsave
54 253.44 m
388.8 253.44 l
stroke
grestore

end
showpage
