%!PS-Adobe-3.0 EPSF-3.0
%%Title: act__Battery Current [A].eps
%%Creator: matplotlib version 2.0.0, http://matplotlib.org/
%%CreationDate: Sun May 14 14:55:03 2017
%%Orientation: portrait
%%BoundingBox: 90 252 522 540
%%EndComments
%%BeginProlog
/mpldict 8 dict def
mpldict begin
/m { moveto } bind def
/l { lineto } bind def
/r { rlineto } bind def
/c { curveto } bind def
/cl { closepath } bind def
/box {
m
1 index 0 r
0 exch r
neg 0 r
cl
} bind def
/clipbox {
box
clip
newpath
} bind def
%!PS-Adobe-3.0 Resource-Font
%%Title: DejaVu Sans
%%Copyright: Copyright (c) 2003 by Bitstream, Inc. All Rights Reserved. Copyright (c) 2006 by Tavmjong Bah. All Rights Reserved. DejaVu changes are in public domain 
%%Creator: Converted from TrueType to type 3 by PPR
25 dict begin
/_d{bind def}bind def
/_m{moveto}_d
/_l{lineto}_d
/_cl{closepath eofill}_d
/_c{curveto}_d
/_sc{7 -1 roll{setcachedevice}{pop pop pop pop pop pop}ifelse}_d
/_e{exec}_d
/FontName /DejaVuSans def
/PaintType 0 def
/FontMatrix[.001 0 0 .001 0 0]def
/FontBBox[-1021 -463 1793 1232]def
/FontType 3 def
/Encoding [ /space /zero /one /two /four /five /six /seven /eight /A /B /C /T /bracketleft /bracketright /a /e /i /m /n /r /s /t /u /y /minus ] def
/FontInfo 10 dict dup begin
/FamilyName (DejaVu Sans) def
/FullName (DejaVu Sans) def
/Notice (Copyright (c) 2003 by Bitstream, Inc. All Rights Reserved. Copyright (c) 2006 by Tavmjong Bah. All Rights Reserved. DejaVu changes are in public domain ) def
/Weight (Book) def
/Version (Version 2.35) def
/ItalicAngle 0.0 def
/isFixedPitch false def
/UnderlinePosition -130 def
/UnderlineThickness 90 def
end readonly def
/CharStrings 26 dict dup begin
/space{318 0 0 0 0 0 _sc
}_d
/zero{636 0 66 -13 570 742 _sc
318 664 _m
267 664 229 639 203 589 _c
177 539 165 464 165 364 _c
165 264 177 189 203 139 _c
229 89 267 64 318 64 _c
369 64 407 89 433 139 _c
458 189 471 264 471 364 _c
471 464 458 539 433 589 _c
407 639 369 664 318 664 _c
318 742 _m
399 742 461 709 505 645 _c
548 580 570 486 570 364 _c
570 241 548 147 505 83 _c
461 19 399 -13 318 -13 _c
236 -13 173 19 130 83 _c
87 147 66 241 66 364 _c
66 486 87 580 130 645 _c
173 709 236 742 318 742 _c
_cl}_d
/one{636 0 110 0 544 729 _sc
124 83 _m
285 83 _l
285 639 _l
110 604 _l
110 694 _l
284 729 _l
383 729 _l
383 83 _l
544 83 _l
544 0 _l
124 0 _l
124 83 _l
_cl}_d
/two{{636 0 73 0 536 742 _sc
192 83 _m
536 83 _l
536 0 _l
73 0 _l
73 83 _l
110 121 161 173 226 239 _c
290 304 331 346 348 365 _c
380 400 402 430 414 455 _c
426 479 433 504 433 528 _c
433 566 419 598 392 622 _c
365 646 330 659 286 659 _c
255 659 222 653 188 643 _c
154 632 117 616 78 594 _c
78 694 _l
118 710 155 722 189 730 _c
223 738 255 742 284 742 _c
}_e{359 742 419 723 464 685 _c
509 647 532 597 532 534 _c
532 504 526 475 515 449 _c
504 422 484 390 454 354 _c
446 344 420 317 376 272 _c
332 227 271 164 192 83 _c
_cl}_e}_d
/four{636 0 49 0 580 729 _sc
378 643 _m
129 254 _l
378 254 _l
378 643 _l
352 729 _m
476 729 _l
476 254 _l
580 254 _l
580 172 _l
476 172 _l
476 0 _l
378 0 _l
378 172 _l
49 172 _l
49 267 _l
352 729 _l
_cl}_d
/five{{636 0 77 -13 549 729 _sc
108 729 _m
495 729 _l
495 646 _l
198 646 _l
198 467 _l
212 472 227 476 241 478 _c
255 480 270 482 284 482 _c
365 482 429 459 477 415 _c
525 370 549 310 549 234 _c
549 155 524 94 475 51 _c
426 8 357 -13 269 -13 _c
238 -13 207 -10 175 -6 _c
143 -1 111 6 77 17 _c
77 116 _l
106 100 136 88 168 80 _c
199 72 232 69 267 69 _c
}_e{323 69 368 83 401 113 _c
433 143 450 183 450 234 _c
450 284 433 324 401 354 _c
368 384 323 399 267 399 _c
241 399 214 396 188 390 _c
162 384 135 375 108 363 _c
108 729 _l
_cl}_e}_d
/six{{636 0 70 -13 573 742 _sc
330 404 _m
286 404 251 388 225 358 _c
199 328 186 286 186 234 _c
186 181 199 139 225 109 _c
251 79 286 64 330 64 _c
374 64 409 79 435 109 _c
461 139 474 181 474 234 _c
474 286 461 328 435 358 _c
409 388 374 404 330 404 _c
526 713 _m
526 623 _l
501 635 476 644 451 650 _c
425 656 400 659 376 659 _c
310 659 260 637 226 593 _c
}_e{192 549 172 482 168 394 _c
187 422 211 444 240 459 _c
269 474 301 482 336 482 _c
409 482 467 459 509 415 _c
551 371 573 310 573 234 _c
573 159 550 99 506 54 _c
462 9 403 -13 330 -13 _c
246 -13 181 19 137 83 _c
92 147 70 241 70 364 _c
70 479 97 571 152 639 _c
206 707 280 742 372 742 _c
396 742 421 739 447 735 _c
472 730 498 723 526 713 _c
_cl}_e}_d
/seven{636 0 82 0 551 729 _sc
82 729 _m
551 729 _l
551 687 _l
286 0 _l
183 0 _l
432 646 _l
82 646 _l
82 729 _l
_cl}_d
/eight{{636 0 68 -13 568 742 _sc
318 346 _m
271 346 234 333 207 308 _c
180 283 167 249 167 205 _c
167 161 180 126 207 101 _c
234 76 271 64 318 64 _c
364 64 401 76 428 102 _c
455 127 469 161 469 205 _c
469 249 455 283 429 308 _c
402 333 365 346 318 346 _c
219 388 _m
177 398 144 418 120 447 _c
96 476 85 511 85 553 _c
85 611 105 657 147 691 _c
188 725 245 742 318 742 _c
}_e{390 742 447 725 489 691 _c
530 657 551 611 551 553 _c
551 511 539 476 515 447 _c
491 418 459 398 417 388 _c
464 377 501 355 528 323 _c
554 291 568 251 568 205 _c
568 134 546 80 503 43 _c
459 5 398 -13 318 -13 _c
237 -13 175 5 132 43 _c
89 80 68 134 68 205 _c
68 251 81 291 108 323 _c
134 355 171 377 219 388 _c
183 544 _m
183 506 194 476 218 455 _c
}_e{242 434 275 424 318 424 _c
360 424 393 434 417 455 _c
441 476 453 506 453 544 _c
453 582 441 611 417 632 _c
393 653 360 664 318 664 _c
275 664 242 653 218 632 _c
194 611 183 582 183 544 _c
_cl}_e}_d
/A{684 0 8 0 676 729 _sc
342 632 _m
208 269 _l
476 269 _l
342 632 _l
286 729 _m
398 729 _l
676 0 _l
573 0 _l
507 187 _l
178 187 _l
112 0 _l
8 0 _l
286 729 _l
_cl}_d
/B{{686 0 98 0 615 729 _sc
197 348 _m
197 81 _l
355 81 _l
408 81 447 92 473 114 _c
498 136 511 169 511 215 _c
511 260 498 293 473 315 _c
447 337 408 348 355 348 _c
197 348 _l
197 648 _m
197 428 _l
343 428 _l
391 428 426 437 450 455 _c
474 473 486 500 486 538 _c
486 574 474 602 450 620 _c
426 638 391 648 343 648 _c
197 648 _l
98 729 _m
350 729 _l
}_e{425 729 483 713 524 682 _c
564 650 585 606 585 549 _c
585 504 574 468 553 442 _c
532 416 502 399 462 393 _c
510 382 548 360 575 327 _c
601 294 615 253 615 204 _c
615 138 592 88 548 53 _c
504 17 441 0 360 0 _c
98 0 _l
98 729 _l
_cl}_e}_d
/C{{698 0 56 -13 644 742 _sc
644 673 _m
644 569 _l
610 599 575 622 537 638 _c
499 653 460 661 418 661 _c
334 661 270 635 226 584 _c
182 533 160 460 160 364 _c
160 268 182 194 226 143 _c
270 92 334 67 418 67 _c
460 67 499 74 537 90 _c
575 105 610 128 644 159 _c
644 56 _l
609 32 572 15 534 4 _c
496 -7 455 -13 412 -13 _c
302 -13 215 20 151 87 _c
}_e{87 154 56 246 56 364 _c
56 481 87 573 151 641 _c
215 708 302 742 412 742 _c
456 742 497 736 535 725 _c
573 713 610 696 644 673 _c
_cl}_e}_d
/T{611 0 -2 0 614 729 _sc
-2 729 _m
614 729 _l
614 646 _l
355 646 _l
355 0 _l
256 0 _l
256 646 _l
-2 646 _l
-2 729 _l
_cl}_d
/bracketleft{390 0 86 -131 293 760 _sc
86 760 _m
293 760 _l
293 690 _l
176 690 _l
176 -61 _l
293 -61 _l
293 -131 _l
86 -131 _l
86 760 _l
_cl}_d
/bracketright{390 0 97 -131 304 760 _sc
304 760 _m
304 -131 _l
97 -131 _l
97 -61 _l
214 -61 _l
214 690 _l
97 690 _l
97 760 _l
304 760 _l
_cl}_d
/a{{613 0 60 -13 522 560 _sc
343 275 _m
270 275 220 266 192 250 _c
164 233 150 205 150 165 _c
150 133 160 107 181 89 _c
202 70 231 61 267 61 _c
317 61 357 78 387 114 _c
417 149 432 196 432 255 _c
432 275 _l
343 275 _l
522 312 _m
522 0 _l
432 0 _l
432 83 _l
411 49 385 25 355 10 _c
325 -5 287 -13 243 -13 _c
187 -13 142 2 109 33 _c
76 64 60 106 60 159 _c
}_e{60 220 80 266 122 298 _c
163 329 224 345 306 345 _c
432 345 _l
432 354 _l
432 395 418 427 391 450 _c
364 472 326 484 277 484 _c
245 484 215 480 185 472 _c
155 464 127 453 100 439 _c
100 522 _l
132 534 164 544 195 550 _c
226 556 256 560 286 560 _c
365 560 424 539 463 498 _c
502 457 522 395 522 312 _c
_cl}_e}_d
/e{{615 0 55 -13 562 560 _sc
562 296 _m
562 252 _l
149 252 _l
153 190 171 142 205 110 _c
238 78 284 62 344 62 _c
378 62 412 66 444 74 _c
476 82 509 95 541 113 _c
541 28 _l
509 14 476 3 442 -3 _c
408 -9 373 -13 339 -13 _c
251 -13 182 12 131 62 _c
80 112 55 181 55 268 _c
55 357 79 428 127 481 _c
175 533 241 560 323 560 _c
397 560 455 536 498 489 _c
}_e{540 441 562 377 562 296 _c
472 322 _m
471 371 457 410 431 440 _c
404 469 368 484 324 484 _c
274 484 234 469 204 441 _c
174 413 156 373 152 322 _c
472 322 _l
_cl}_e}_d
/i{278 0 94 0 184 760 _sc
94 547 _m
184 547 _l
184 0 _l
94 0 _l
94 547 _l
94 760 _m
184 760 _l
184 646 _l
94 646 _l
94 760 _l
_cl}_d
/m{{974 0 91 0 889 560 _sc
520 442 _m
542 482 569 511 600 531 _c
631 550 668 560 711 560 _c
767 560 811 540 842 500 _c
873 460 889 403 889 330 _c
889 0 _l
799 0 _l
799 327 _l
799 379 789 418 771 444 _c
752 469 724 482 686 482 _c
639 482 602 466 575 435 _c
548 404 535 362 535 309 _c
535 0 _l
445 0 _l
445 327 _l
445 379 435 418 417 444 _c
398 469 369 482 331 482 _c
}_e{285 482 248 466 221 435 _c
194 404 181 362 181 309 _c
181 0 _l
91 0 _l
91 547 _l
181 547 _l
181 462 _l
201 495 226 520 255 536 _c
283 552 317 560 357 560 _c
397 560 430 550 458 530 _c
486 510 506 480 520 442 _c
_cl}_e}_d
/n{634 0 91 0 549 560 _sc
549 330 _m
549 0 _l
459 0 _l
459 327 _l
459 379 448 417 428 443 _c
408 469 378 482 338 482 _c
289 482 251 466 223 435 _c
195 404 181 362 181 309 _c
181 0 _l
91 0 _l
91 547 _l
181 547 _l
181 462 _l
202 494 227 519 257 535 _c
286 551 320 560 358 560 _c
420 560 468 540 500 501 _c
532 462 549 405 549 330 _c
_cl}_d
/r{411 0 91 0 411 560 _sc
411 463 _m
401 469 390 473 378 476 _c
366 478 353 480 339 480 _c
288 480 249 463 222 430 _c
194 397 181 350 181 288 _c
181 0 _l
91 0 _l
91 547 _l
181 547 _l
181 462 _l
199 495 224 520 254 536 _c
284 552 321 560 365 560 _c
371 560 378 559 386 559 _c
393 558 401 557 411 555 _c
411 463 _l
_cl}_d
/s{{521 0 54 -13 472 560 _sc
443 531 _m
443 446 _l
417 458 391 468 364 475 _c
336 481 308 485 279 485 _c
234 485 200 478 178 464 _c
156 450 145 430 145 403 _c
145 382 153 366 169 354 _c
185 342 217 330 265 320 _c
296 313 _l
360 299 405 279 432 255 _c
458 230 472 195 472 151 _c
472 100 452 60 412 31 _c
372 1 316 -13 246 -13 _c
216 -13 186 -10 154 -5 _c
}_e{122 0 89 8 54 20 _c
54 113 _l
87 95 120 82 152 74 _c
184 65 216 61 248 61 _c
290 61 323 68 346 82 _c
368 96 380 117 380 144 _c
380 168 371 187 355 200 _c
339 213 303 226 247 238 _c
216 245 _l
160 257 119 275 95 299 _c
70 323 58 356 58 399 _c
58 450 76 490 112 518 _c
148 546 200 560 268 560 _c
301 560 332 557 362 552 _c
391 547 418 540 443 531 _c
}_e{_cl}_e}_d
/t{392 0 27 0 368 702 _sc
183 702 _m
183 547 _l
368 547 _l
368 477 _l
183 477 _l
183 180 _l
183 135 189 106 201 94 _c
213 81 238 75 276 75 _c
368 75 _l
368 0 _l
276 0 _l
206 0 158 13 132 39 _c
106 65 93 112 93 180 _c
93 477 _l
27 477 _l
27 547 _l
93 547 _l
93 702 _l
183 702 _l
_cl}_d
/u{634 0 85 -13 543 560 _sc
85 216 _m
85 547 _l
175 547 _l
175 219 _l
175 167 185 129 205 103 _c
225 77 255 64 296 64 _c
344 64 383 79 411 110 _c
439 141 453 183 453 237 _c
453 547 _l
543 547 _l
543 0 _l
453 0 _l
453 84 _l
431 50 405 26 377 10 _c
348 -5 315 -13 277 -13 _c
214 -13 166 6 134 45 _c
101 83 85 140 85 216 _c
311 560 _m
311 560 _l
_cl}_d
/y{592 0 30 -207 562 547 _sc
322 -50 _m
296 -114 271 -157 247 -177 _c
223 -197 191 -207 151 -207 _c
79 -207 _l
79 -132 _l
132 -132 _l
156 -132 175 -126 189 -114 _c
203 -102 218 -75 235 -31 _c
251 9 _l
30 547 _l
125 547 _l
296 119 _l
467 547 _l
562 547 _l
322 -50 _l
_cl}_d
/minus{838 0 106 272 732 355 _sc
106 355 _m
732 355 _l
732 272 _l
106 272 _l
106 355 _l
_cl}_d
end readonly def

/BuildGlyph
 {exch begin
 CharStrings exch
 2 copy known not{pop /.notdef}if
 true 3 1 roll get exec
 end}_d

/BuildChar {
 1 index /Encoding get exch get
 1 index /BuildGlyph get exec
}_d

FontName currentdict end definefont pop
end
%%EndProlog
mpldict begin
90 252 translate
432 288 0 0 clipbox
gsave
0 0 m
432 0 l
432 288 l
0 288 l
cl
1.000 setgray
fill
grestore
gsave
54 36 m
388.8 36 l
388.8 253.44 l
54 253.44 l
cl
1.000 setgray
fill
grestore
0.800 setlinewidth
1 setlinejoin
2 setlinecap
[] 0 setdash
0.690 setgray
gsave
334.8 217.4 54 36 clipbox
69.218182 36 m
69.218182 253.44 l
stroke
grestore
0 setlinecap
0.000 setgray
gsave
/o {
gsave
newpath
translate
0.8 setlinewidth
1 setlinejoin
0 setlinecap
0 0 m
0 -3.5 l

gsave
0.000 setgray
fill
grestore
stroke
grestore
} bind def
69.2182 36 o
grestore
/DejaVuSans findfont
10.000 scalefont
setfont
gsave
66.038494 21.406250 translate
0.000000 rotate
0.000000 0.000000 m /zero glyphshow
grestore
2 setlinecap
0.690 setgray
gsave
334.8 217.4 54 36 clipbox
112.729781 36 m
112.729781 253.44 l
stroke
grestore
0 setlinecap
0.000 setgray
gsave
/o {
gsave
newpath
translate
0.8 setlinewidth
1 setlinejoin
0 setlinecap
0 0 m
0 -3.5 l

gsave
0.000 setgray
fill
grestore
stroke
grestore
} bind def
112.73 36 o
grestore
gsave
103.190719 21.406250 translate
0.000000 rotate
0.000000 0.000000 m /two glyphshow
6.362305 0.000000 m /zero glyphshow
12.724609 0.000000 m /zero glyphshow
grestore
2 setlinecap
0.690 setgray
gsave
334.8 217.4 54 36 clipbox
156.24138 36 m
156.24138 253.44 l
stroke
grestore
0 setlinecap
0.000 setgray
gsave
/o {
gsave
newpath
translate
0.8 setlinewidth
1 setlinejoin
0 setlinecap
0 0 m
0 -3.5 l

gsave
0.000 setgray
fill
grestore
stroke
grestore
} bind def
156.241 36 o
grestore
gsave
146.702318 21.406250 translate
0.000000 rotate
0.000000 0.000000 m /four glyphshow
6.362305 0.000000 m /zero glyphshow
12.724609 0.000000 m /zero glyphshow
grestore
2 setlinecap
0.690 setgray
gsave
334.8 217.4 54 36 clipbox
199.752979 36 m
199.752979 253.44 l
stroke
grestore
0 setlinecap
0.000 setgray
gsave
/o {
gsave
newpath
translate
0.8 setlinewidth
1 setlinejoin
0 setlinecap
0 0 m
0 -3.5 l

gsave
0.000 setgray
fill
grestore
stroke
grestore
} bind def
199.753 36 o
grestore
gsave
190.213917 21.406250 translate
0.000000 rotate
0.000000 0.000000 m /six glyphshow
6.362305 0.000000 m /zero glyphshow
12.724609 0.000000 m /zero glyphshow
grestore
2 setlinecap
0.690 setgray
gsave
334.8 217.4 54 36 clipbox
243.264579 36 m
243.264579 253.44 l
stroke
grestore
0 setlinecap
0.000 setgray
gsave
/o {
gsave
newpath
translate
0.8 setlinewidth
1 setlinejoin
0 setlinecap
0 0 m
0 -3.5 l

gsave
0.000 setgray
fill
grestore
stroke
grestore
} bind def
243.265 36 o
grestore
gsave
233.725516 21.406250 translate
0.000000 rotate
0.000000 0.000000 m /eight glyphshow
6.362305 0.000000 m /zero glyphshow
12.724609 0.000000 m /zero glyphshow
grestore
2 setlinecap
0.690 setgray
gsave
334.8 217.4 54 36 clipbox
286.776178 36 m
286.776178 253.44 l
stroke
grestore
0 setlinecap
0.000 setgray
gsave
/o {
gsave
newpath
translate
0.8 setlinewidth
1 setlinejoin
0 setlinecap
0 0 m
0 -3.5 l

gsave
0.000 setgray
fill
grestore
stroke
grestore
} bind def
286.776 36 o
grestore
gsave
274.057428 21.406250 translate
0.000000 rotate
0.000000 0.000000 m /one glyphshow
6.362305 0.000000 m /zero glyphshow
12.724609 0.000000 m /zero glyphshow
19.086914 0.000000 m /zero glyphshow
grestore
2 setlinecap
0.690 setgray
gsave
334.8 217.4 54 36 clipbox
330.287777 36 m
330.287777 253.44 l
stroke
grestore
0 setlinecap
0.000 setgray
gsave
/o {
gsave
newpath
translate
0.8 setlinewidth
1 setlinejoin
0 setlinecap
0 0 m
0 -3.5 l

gsave
0.000 setgray
fill
grestore
stroke
grestore
} bind def
330.288 36 o
grestore
gsave
317.569027 21.406250 translate
0.000000 rotate
0.000000 0.000000 m /one glyphshow
6.362305 0.000000 m /two glyphshow
12.724609 0.000000 m /zero glyphshow
19.086914 0.000000 m /zero glyphshow
grestore
2 setlinecap
0.690 setgray
gsave
334.8 217.4 54 36 clipbox
373.799376 36 m
373.799376 253.44 l
stroke
grestore
0 setlinecap
0.000 setgray
gsave
/o {
gsave
newpath
translate
0.8 setlinewidth
1 setlinejoin
0 setlinecap
0 0 m
0 -3.5 l

gsave
0.000 setgray
fill
grestore
stroke
grestore
} bind def
373.799 36 o
grestore
gsave
361.080626 21.406250 translate
0.000000 rotate
0.000000 0.000000 m /one glyphshow
6.362305 0.000000 m /four glyphshow
12.724609 0.000000 m /zero glyphshow
19.086914 0.000000 m /zero glyphshow
grestore
gsave
200.892188 7.734375 translate
0.000000 rotate
0.000000 0.000000 m /T glyphshow
6.108398 0.000000 m /i glyphshow
8.886719 0.000000 m /m glyphshow
18.627930 0.000000 m /e glyphshow
24.780273 0.000000 m /space glyphshow
27.958984 0.000000 m /bracketleft glyphshow
31.860352 0.000000 m /s glyphshow
37.070312 0.000000 m /bracketright glyphshow
grestore
2 setlinecap
0.690 setgray
gsave
334.8 217.4 54 36 clipbox
54 37.224696 m
388.8 37.224696 l
stroke
grestore
0 setlinecap
0.000 setgray
gsave
/o {
gsave
newpath
translate
0.8 setlinewidth
1 setlinejoin
0 setlinecap
0 0 m
-3.5 0 l

gsave
0.000 setgray
fill
grestore
stroke
grestore
} bind def
54 37.2247 o
grestore
gsave
19.546875 33.427821 translate
0.000000 rotate
0.000000 0.000000 m /minus glyphshow
8.378906 0.000000 m /one glyphshow
14.741211 0.000000 m /zero glyphshow
21.103516 0.000000 m /zero glyphshow
grestore
2 setlinecap
0.690 setgray
gsave
334.8 217.4 54 36 clipbox
54 64.667422 m
388.8 64.667422 l
stroke
grestore
0 setlinecap
0.000 setgray
gsave
/o {
gsave
newpath
translate
0.8 setlinewidth
1 setlinejoin
0 setlinecap
0 0 m
-3.5 0 l

gsave
0.000 setgray
fill
grestore
stroke
grestore
} bind def
54 64.6674 o
grestore
gsave
25.906250 60.870547 translate
0.000000 rotate
0.000000 0.000000 m /minus glyphshow
8.378906 0.000000 m /seven glyphshow
14.741211 0.000000 m /five glyphshow
grestore
2 setlinecap
0.690 setgray
gsave
334.8 217.4 54 36 clipbox
54 92.110149 m
388.8 92.110149 l
stroke
grestore
0 setlinecap
0.000 setgray
gsave
/o {
gsave
newpath
translate
0.8 setlinewidth
1 setlinejoin
0 setlinecap
0 0 m
-3.5 0 l

gsave
0.000 setgray
fill
grestore
stroke
grestore
} bind def
54 92.1101 o
grestore
gsave
25.906250 88.313274 translate
0.000000 rotate
0.000000 0.000000 m /minus glyphshow
8.378906 0.000000 m /five glyphshow
14.741211 0.000000 m /zero glyphshow
grestore
2 setlinecap
0.690 setgray
gsave
334.8 217.4 54 36 clipbox
54 119.552875 m
388.8 119.552875 l
stroke
grestore
0 setlinecap
0.000 setgray
gsave
/o {
gsave
newpath
translate
0.8 setlinewidth
1 setlinejoin
0 setlinecap
0 0 m
-3.5 0 l

gsave
0.000 setgray
fill
grestore
stroke
grestore
} bind def
54 119.553 o
grestore
gsave
25.906250 115.756000 translate
0.000000 rotate
0.000000 0.000000 m /minus glyphshow
8.378906 0.000000 m /two glyphshow
14.741211 0.000000 m /five glyphshow
grestore
2 setlinecap
0.690 setgray
gsave
334.8 217.4 54 36 clipbox
54 146.995601 m
388.8 146.995601 l
stroke
grestore
0 setlinecap
0.000 setgray
gsave
/o {
gsave
newpath
translate
0.8 setlinewidth
1 setlinejoin
0 setlinecap
0 0 m
-3.5 0 l

gsave
0.000 setgray
fill
grestore
stroke
grestore
} bind def
54 146.996 o
grestore
gsave
40.640625 143.198726 translate
0.000000 rotate
0.000000 0.000000 m /zero glyphshow
grestore
2 setlinecap
0.690 setgray
gsave
334.8 217.4 54 36 clipbox
54 174.438328 m
388.8 174.438328 l
stroke
grestore
0 setlinecap
0.000 setgray
gsave
/o {
gsave
newpath
translate
0.8 setlinewidth
1 setlinejoin
0 setlinecap
0 0 m
-3.5 0 l

gsave
0.000 setgray
fill
grestore
stroke
grestore
} bind def
54 174.438 o
grestore
gsave
34.281250 170.641453 translate
0.000000 rotate
0.000000 0.000000 m /two glyphshow
6.362305 0.000000 m /five glyphshow
grestore
2 setlinecap
0.690 setgray
gsave
334.8 217.4 54 36 clipbox
54 201.881054 m
388.8 201.881054 l
stroke
grestore
0 setlinecap
0.000 setgray
gsave
/o {
gsave
newpath
translate
0.8 setlinewidth
1 setlinejoin
0 setlinecap
0 0 m
-3.5 0 l

gsave
0.000 setgray
fill
grestore
stroke
grestore
} bind def
54 201.881 o
grestore
gsave
34.281250 198.084179 translate
0.000000 rotate
0.000000 0.000000 m /five glyphshow
6.362305 0.000000 m /zero glyphshow
grestore
2 setlinecap
0.690 setgray
gsave
334.8 217.4 54 36 clipbox
54 229.32378 m
388.8 229.32378 l
stroke
grestore
0 setlinecap
0.000 setgray
gsave
/o {
gsave
newpath
translate
0.8 setlinewidth
1 setlinejoin
0 setlinecap
0 0 m
-3.5 0 l

gsave
0.000 setgray
fill
grestore
stroke
grestore
} bind def
54 229.324 o
grestore
gsave
34.281250 225.526905 translate
0.000000 rotate
0.000000 0.000000 m /seven glyphshow
6.362305 0.000000 m /five glyphshow
grestore
gsave
13.468750 96.712187 translate
90.000000 rotate
0.000000 0.000000 m /B glyphshow
6.860352 0.000000 m /a glyphshow
12.988281 0.000000 m /t glyphshow
16.909180 0.000000 m /t glyphshow
20.830078 0.000000 m /e glyphshow
26.982422 0.000000 m /r glyphshow
31.093750 0.000000 m /y glyphshow
37.011719 0.000000 m /space glyphshow
40.190430 0.000000 m /C glyphshow
47.172852 0.000000 m /u glyphshow
53.510742 0.000000 m /r glyphshow
57.622070 0.000000 m /r glyphshow
61.733398 0.000000 m /e glyphshow
67.885742 0.000000 m /n glyphshow
74.223633 0.000000 m /t glyphshow
78.144531 0.000000 m /space glyphshow
81.323242 0.000000 m /bracketleft glyphshow
85.224609 0.000000 m /A glyphshow
92.065430 0.000000 m /bracketright glyphshow
grestore
1.500 setlinewidth
2 setlinecap
0.122 0.467 0.706 setrgbcolor
gsave
334.8 217.4 54 36 clipbox
69.218182 146.843353 m
69.870856 147.194007 l
70.088414 147.137874 l
70.741088 146.488323 l
70.958646 146.946327 l
71.393762 148.281483 l
71.61132 147.765589 l
72.046436 144.316592 l
72.263994 144.147023 l
72.481552 146.997012 l
73.134226 161.251681 l
73.351784 159.046484 l
74.222016 133.788045 l
74.439574 134.988838 l
74.87469 139.522298 l
75.092248 140.389541 l
75.309806 142.075186 l
75.527364 147.384045 l
75.96248 172.085873 l
76.397596 194.15882 l
76.615154 192.487214 l
76.832712 180.678855 l
77.267828 146.230935 l
77.485386 138.846938 l
77.702944 144.566246 l
78.355618 194.446489 l
78.573176 195.917419 l
78.790734 185.486461 l
79.22585 154.587455 l
79.443408 147.359035 l
79.660966 148.18238 l
80.31364 164.585946 l
80.531198 165.596099 l
80.748756 163.933033 l
81.183872 155.324087 l
81.618988 144.984528 l
81.836546 142.325932 l
82.054104 142.716676 l
82.48922 150.488942 l
82.706778 154.246377 l
82.924336 155.229548 l
83.141894 151.809737 l
83.57701 134.057776 l
84.012126 119.401675 l
84.229684 121.001533 l
84.6648 139.729032 l
84.882358 148.896168 l
85.099916 152.989899 l
85.317474 151.788178 l
85.75259 145.700241 l
85.970148 147.332548 l
86.622821 163.900373 l
86.840379 165.755341 l
87.057937 165.751261 l
87.275495 165.87148 l
87.493053 166.69203 l
87.710611 165.973219 l
87.928169 159.601907 l
88.145727 143.767442 l
89.015959 45.883636 l
89.233517 46.715008 l
89.668633 83.925357 l
90.103749 119.60675 l
90.538865 131.927171 l
90.756423 134.908953 l
90.973981 146.994059 l
92.496887 147.074671 l
92.932003 147.077303 l
93.584677 146.63455 l
93.802235 146.891629 l
94.237351 147.936751 l
94.454909 147.942913 l
94.672467 147.161803 l
95.107583 144.139559 l
95.325141 143.868964 l
95.542699 145.517744 l
96.195373 154.469032 l
96.412931 153.728695 l
96.848047 148.226691 l
97.065605 148.658751 l
97.283163 153.825285 l
97.935837 179.680878 l
98.153395 180.49782 l
98.370953 175.27505 l
99.023627 153.009144 l
99.241185 152.082831 l
99.676301 155.771276 l
99.893859 155.304584 l
100.111417 151.585763 l
100.764091 136.337197 l
100.981649 136.389847 l
101.416765 144.102867 l
101.851881 150.746953 l
102.286997 152.924555 l
102.504555 155.016078 l
102.939671 164.091924 l
103.374787 172.939751 l
103.592345 173.621914 l
103.809903 169.581248 l
104.027461 159.54628 l
104.462577 119.591486 l
104.897693 72.512887 l
105.115251 60.902623 l
105.332809 63.236753 l
105.767925 101.615697 l
106.203041 140.30513 l
106.420599 148.786234 l
106.855715 157.767822 l
107.725947 192.731618 l
107.943505 188.570391 l
108.378621 170.484546 l
108.596179 167.495916 l
108.813737 171.763813 l
109.248853 187.693609 l
109.466411 189.014773 l
109.683969 182.889277 l
110.336643 152.951674 l
110.554201 150.106979 l
110.771759 150.265923 l
110.989317 150.659271 l
111.206875 149.246775 l
111.641991 143.698402 l
111.859549 144.286344 l
112.077107 149.93387 l
112.512223 172.791708 l
112.729781 146.989735 l
113.817571 146.972254 l
114.252687 146.804882 l
114.687803 147.071591 l
115.122919 147.40693 l
115.340477 147.260463 l
115.993151 146.014705 l
116.210709 146.590283 l
116.428267 148.499977 l
116.863383 156.752522 l
117.298499 165.779027 l
117.516057 167.429106 l
117.733615 166.246986 l
118.386289 157.685623 l
118.603847 157.821618 l
119.038963 160.643563 l
119.256521 159.946065 l
119.691637 151.937978 l
120.126753 144.679365 l
120.344311 144.840321 l
120.561869 147.549725 l
121.432101 165.172203 l
121.649659 166.94913 l
122.519891 169.704787 l
122.737449 168.57265 l
122.955007 163.39518 l
123.607681 139.70532 l
123.825239 148.315515 l
124.260355 202.983455 l
124.477913 231.264105 l
124.695471 243.556364 l
124.913029 233.271491 l
125.783261 123.621602 l
126.000819 127.481255 l
126.653493 165.06762 l
126.871051 165.831401 l
127.306167 158.05556 l
127.523725 156.701705 l
127.958841 158.883657 l
128.176399 158.30121 l
129.046631 148.546285 l
129.264189 150.605114 l
129.916863 159.212219 l
130.134421 159.462829 l
130.569537 156.716356 l
130.787095 155.342195 l
131.004653 154.721751 l
131.222211 154.772322 l
131.657327 155.271767 l
131.874885 155.130525 l
132.527559 154.322757 l
132.745117 154.361541 l
133.832907 155.400171 l
134.268023 156.42161 l
134.485581 146.967219 l
135.355813 147.017475 l
136.661161 147.01029 l
137.096277 147.223744 l
137.313835 147.252634 l
137.531393 147.048113 l
138.401625 145.434921 l
138.619183 145.642432 l
138.836741 146.215725 l
139.271857 148.729292 l
139.924531 154.753436 l
140.577204 160.806197 l
141.01232 162.24133 l
141.229878 162.742462 l
141.447436 163.642168 l
142.10011 168.243719 l
142.317668 167.783836 l
142.535226 165.352385 l
143.1879 154.481842 l
143.405458 153.252569 l
143.623016 152.958982 l
143.840574 151.764234 l
144.058132 147.844897 l
144.493248 130.010231 l
144.928364 112.765841 l
145.145922 111.407588 l
145.36348 116.048539 l
146.233712 149.822878 l
146.668828 155.009229 l
147.103944 159.964322 l
147.53906 165.205202 l
147.756618 165.534226 l
147.974176 163.917544 l
148.409292 158.530269 l
148.62685 157.199032 l
148.844408 157.557268 l
149.279524 160.629346 l
149.497082 160.99182 l
149.71464 159.645672 l
150.149756 152.318798 l
150.584872 145.022149 l
150.80243 143.474857 l
151.019988 143.725603 l
151.237546 145.48845 l
151.672662 151.695402 l
152.325336 162.559679 l
152.542894 164.494655 l
152.760452 163.83517 l
152.97801 159.402541 l
153.413126 139.577322 l
153.848242 118.082273 l
154.0658 113.953498 l
154.283358 116.458912 l
154.718474 136.274024 l
155.15359 155.027438 l
155.371148 157.777987 l
155.588706 155.981986 l
156.023822 145.640273 l
156.24138 146.992588 l
157.32917 146.938961 l
158.199402 147.297291 l
158.41696 147.205299 l
158.852076 146.590652 l
159.069634 146.255047 l
159.287192 146.156717 l
159.50475 146.491753 l
159.722308 147.443627 l
160.157424 151.361131 l
161.027656 162.26629 l
161.245214 163.573722 l
161.462772 163.442241 l
161.68033 161.563408 l
162.115446 152.539598 l
162.76812 135.570369 l
162.985678 133.233087 l
163.203236 133.889104 l
163.420794 137.522474 l
164.291026 160.959815 l
164.508584 162.770959 l
164.726142 161.843475 l
165.161258 154.569357 l
165.596374 147.846377 l
165.813932 147.135264 l
166.03149 148.579778 l
166.466606 156.079085 l
166.901722 163.900748 l
167.11928 165.87026 l
167.336838 165.949221 l
167.554396 164.2333 l
168.424628 153.162434 l
168.642186 153.517835 l
169.077302 158.794267 l
169.512418 163.851161 l
169.947534 165.250155 l
170.165092 167.201985 l
170.38265 172.320603 l
170.817766 194.123844 l
171.252882 219.014779 l
171.47044 224.520458 l
171.687998 222.306445 l
171.905556 212.536286 l
172.993346 143.965304 l
173.863578 121.879085 l
174.081136 117.980719 l
174.298694 117.221839 l
174.516252 120.724939 l
174.951368 138.569331 l
175.386484 157.216582 l
175.604042 161.807221 l
175.8216 162.45157 l
176.039158 160.013346 l
176.90939 145.760906 l
177.126948 144.441747 l
177.344506 143.944482 l
177.562064 144.001516 l
177.779622 144.32009 l
177.99718 146.994261 l
178.649854 146.977903 l
179.302528 146.874115 l
180.17276 147.151589 l
180.607876 146.917204 l
181.042992 146.449801 l
181.26055 146.382446 l
181.478108 146.542352 l
181.913224 147.180845 l
182.130782 147.015639 l
182.34834 145.853391 l
182.565898 143.212638 l
183.001014 132.88594 l
183.653688 113.021288 l
183.871246 109.33005 l
184.088804 108.67461 l
184.306362 111.134528 l
184.741478 123.383853 l
185.394152 144.802209 l
185.829268 153.394513 l
187.352174 173.981799 l
187.569732 174.205886 l
187.78729 172.493224 l
188.222406 164.841411 l
188.657522 156.296954 l
188.87508 153.760855 l
189.092638 153.141423 l
189.310196 154.60964 l
189.745312 162.700745 l
190.615544 182.719448 l
190.833102 185.287815 l
191.05066 186.154634 l
191.268218 185.09598 l
191.485776 181.999361 l
191.920892 170.487362 l
192.791124 143.456201 l
193.22624 138.46528 l
193.878914 137.288076 l
194.31403 133.134005 l
194.749145 128.562172 l
194.966703 128.48307 l
195.184261 130.875706 l
195.619377 142.272044 l
196.272051 159.81011 l
196.489609 161.820121 l
196.707167 161.742622 l
197.142283 159.536926 l
197.359841 159.626109 l
197.577399 161.516058 l
198.012515 170.568469 l
198.665189 184.840955 l
198.882747 186.356398 l
199.100305 185.475517 l
199.535421 178.464126 l
199.752979 146.995852 l
200.405653 146.900025 l
201.058327 146.645143 l
201.493443 146.450933 l
201.711001 146.442504 l
201.928559 146.54643 l
202.146117 146.840767 l
202.581233 148.113837 l
203.016349 150.363081 l
204.321697 158.212483 l
204.539255 158.78124 l
204.756813 159.007603 l
204.974371 158.858114 l
205.191929 158.388121 l
205.627045 156.564247 l
206.279719 152.225276 l
206.932393 146.559833 l
207.585067 138.921155 l
208.237741 128.269638 l
209.107973 113.150227 l
209.543089 108.744417 l
209.760647 108.063321 l
209.978205 108.580152 l
210.195763 110.335543 l
210.630879 117.136139 l
212.153785 148.163296 l
212.371343 149.713249 l
212.588901 149.981871 l
212.806459 148.922352 l
213.024017 146.529028 l
213.459133 137.859404 l
214.111807 116.336625 l
215.417155 64.615725 l
215.852271 55.514968 l
216.069829 54.050892 l
216.287387 54.877397 l
216.504945 57.9514 l
216.940061 70.106674 l
217.810293 107.354369 l
218.462967 132.256077 l
218.898083 142.897908 l
219.333199 148.62329 l
219.768315 150.862677 l
220.203431 151.545224 l
220.638547 152.206315 l
221.073663 153.45718 l
221.291221 154.240921 l
221.508779 147.215279 l
221.943895 147.284456 l
222.379011 147.466597 l
223.249243 148.032421 l
226.512613 151.301552 l
226.947729 151.434987 l
227.165287 151.470839 l
227.817961 151.128471 l
228.253077 150.718461 l
228.905751 149.853952 l
230.428657 147.455692 l
230.646215 147.345899 l
230.863773 147.0802 l
231.081331 147.035156 l
232.386679 145.674728 l
232.604237 145.051436 l
232.821795 144.834313 l
233.474469 141.967969 l
234.127143 137.480363 l
236.302723 119.983713 l
236.737839 118.612326 l
236.955397 118.246388 l
237.172955 118.17816 l
237.608071 118.84553 l
238.260745 121.768586 l
239.566093 128.997694 l
240.871441 133.581857 l
242.176789 136.485429 l
243.047021 139.563083 l
243.264579 146.995601 l
351.826019 146.995601 l
352.043577 148.124127 l
359.875664 148.124238 l
360.093222 153.526019 l
360.31078 182.820599 l
360.528338 162.556355 l
360.745896 183.199216 l
361.181012 143.807436 l
361.39857 151.939598 l
361.616128 164.303968 l
361.833686 153.535544 l
362.051244 168.877512 l
362.48636 137.621542 l
362.703918 145.346443 l
362.921476 114.859276 l
363.139034 147.776629 l
363.356592 125.635626 l
363.57415 118.84617 l
363.791708 140.039248 l
364.009266 111.177081 l
364.226824 139.046913 l
364.444382 140.359346 l
364.66194 151.795659 l
364.879498 145.230134 l
365.314614 187.880082 l
365.532172 155.452868 l
365.74973 171.213071 l
366.184846 124.830822 l
366.402404 136.468112 l
366.619962 136.522834 l
366.83752 141.17311 l
367.055078 143.055647 l
367.272636 148.657423 l
367.490194 147.847585 l
367.707752 146.11777 l
367.92531 148.111356 l
369.230658 148.12428 l
369.448216 149.879408 l
369.665774 149.45555 l
369.883332 149.583054 l
370.10089 149.452784 l
370.318448 147.825461 l
370.536006 148.121533 l
373.581818 148.124386 l
373.581818 148.124386 l
stroke
grestore
0.800 setlinewidth
0 setlinejoin
[] 0 setdash
0.000 setgray
gsave
54 36 m
54 253.44 l
stroke
grestore
gsave
388.8 36 m
388.8 253.44 l
stroke
grestore
gsave
54 36 m
388.8 36 l
stroke
grestore
gsave
54 253.44 m
388.8 253.44 l
stroke
grestore

end
showpage
