%!PS-Adobe-3.0 EPSF-3.0
%%Title: act_HESS voltage [V].eps
%%Creator: matplotlib version 2.0.0, http://matplotlib.org/
%%CreationDate: Mon May 15 21:52:09 2017
%%Orientation: portrait
%%BoundingBox: 90 252 522 540
%%EndComments
%%BeginProlog
/mpldict 8 dict def
mpldict begin
/m { moveto } bind def
/l { lineto } bind def
/r { rlineto } bind def
/c { curveto } bind def
/cl { closepath } bind def
/box {
m
1 index 0 r
0 exch r
neg 0 r
cl
} bind def
/clipbox {
box
clip
newpath
} bind def
%!PS-Adobe-3.0 Resource-Font
%%Title: DejaVu Sans
%%Copyright: Copyright (c) 2003 by Bitstream, Inc. All Rights Reserved. Copyright (c) 2006 by Tavmjong Bah. All Rights Reserved. DejaVu changes are in public domain 
%%Creator: Converted from TrueType to type 3 by PPR
25 dict begin
/_d{bind def}bind def
/_m{moveto}_d
/_l{lineto}_d
/_cl{closepath eofill}_d
/_c{curveto}_d
/_sc{7 -1 roll{setcachedevice}{pop pop pop pop pop pop}ifelse}_d
/_e{exec}_d
/FontName /DejaVuSans def
/PaintType 0 def
/FontMatrix[.001 0 0 .001 0 0]def
/FontBBox[-1021 -463 1793 1232]def
/FontType 3 def
/Encoding [ /space /zero /one /two /three /four /five /six /eight /nine /E /H /S /T /V /bracketleft /bracketright /a /e /g /i /l /m /o /s /t /v ] def
/FontInfo 10 dict dup begin
/FamilyName (DejaVu Sans) def
/FullName (DejaVu Sans) def
/Notice (Copyright (c) 2003 by Bitstream, Inc. All Rights Reserved. Copyright (c) 2006 by Tavmjong Bah. All Rights Reserved. DejaVu changes are in public domain ) def
/Weight (Book) def
/Version (Version 2.35) def
/ItalicAngle 0.0 def
/isFixedPitch false def
/UnderlinePosition -130 def
/UnderlineThickness 90 def
end readonly def
/CharStrings 27 dict dup begin
/space{318 0 0 0 0 0 _sc
}_d
/zero{636 0 66 -13 570 742 _sc
318 664 _m
267 664 229 639 203 589 _c
177 539 165 464 165 364 _c
165 264 177 189 203 139 _c
229 89 267 64 318 64 _c
369 64 407 89 433 139 _c
458 189 471 264 471 364 _c
471 464 458 539 433 589 _c
407 639 369 664 318 664 _c
318 742 _m
399 742 461 709 505 645 _c
548 580 570 486 570 364 _c
570 241 548 147 505 83 _c
461 19 399 -13 318 -13 _c
236 -13 173 19 130 83 _c
87 147 66 241 66 364 _c
66 486 87 580 130 645 _c
173 709 236 742 318 742 _c
_cl}_d
/one{636 0 110 0 544 729 _sc
124 83 _m
285 83 _l
285 639 _l
110 604 _l
110 694 _l
284 729 _l
383 729 _l
383 83 _l
544 83 _l
544 0 _l
124 0 _l
124 83 _l
_cl}_d
/two{{636 0 73 0 536 742 _sc
192 83 _m
536 83 _l
536 0 _l
73 0 _l
73 83 _l
110 121 161 173 226 239 _c
290 304 331 346 348 365 _c
380 400 402 430 414 455 _c
426 479 433 504 433 528 _c
433 566 419 598 392 622 _c
365 646 330 659 286 659 _c
255 659 222 653 188 643 _c
154 632 117 616 78 594 _c
78 694 _l
118 710 155 722 189 730 _c
223 738 255 742 284 742 _c
}_e{359 742 419 723 464 685 _c
509 647 532 597 532 534 _c
532 504 526 475 515 449 _c
504 422 484 390 454 354 _c
446 344 420 317 376 272 _c
332 227 271 164 192 83 _c
_cl}_e}_d
/three{{636 0 76 -13 556 742 _sc
406 393 _m
453 383 490 362 516 330 _c
542 298 556 258 556 212 _c
556 140 531 84 482 45 _c
432 6 362 -13 271 -13 _c
240 -13 208 -10 176 -4 _c
144 1 110 10 76 22 _c
76 117 _l
103 101 133 89 166 81 _c
198 73 232 69 268 69 _c
330 69 377 81 409 105 _c
441 129 458 165 458 212 _c
458 254 443 288 413 312 _c
383 336 341 349 287 349 _c
}_e{202 349 _l
202 430 _l
291 430 _l
339 430 376 439 402 459 _c
428 478 441 506 441 543 _c
441 580 427 609 401 629 _c
374 649 336 659 287 659 _c
260 659 231 656 200 650 _c
169 644 135 635 98 623 _c
98 711 _l
135 721 170 729 203 734 _c
235 739 266 742 296 742 _c
370 742 429 725 473 691 _c
517 657 539 611 539 553 _c
539 513 527 479 504 451 _c
481 423 448 403 406 393 _c
_cl}_e}_d
/four{636 0 49 0 580 729 _sc
378 643 _m
129 254 _l
378 254 _l
378 643 _l
352 729 _m
476 729 _l
476 254 _l
580 254 _l
580 172 _l
476 172 _l
476 0 _l
378 0 _l
378 172 _l
49 172 _l
49 267 _l
352 729 _l
_cl}_d
/five{{636 0 77 -13 549 729 _sc
108 729 _m
495 729 _l
495 646 _l
198 646 _l
198 467 _l
212 472 227 476 241 478 _c
255 480 270 482 284 482 _c
365 482 429 459 477 415 _c
525 370 549 310 549 234 _c
549 155 524 94 475 51 _c
426 8 357 -13 269 -13 _c
238 -13 207 -10 175 -6 _c
143 -1 111 6 77 17 _c
77 116 _l
106 100 136 88 168 80 _c
199 72 232 69 267 69 _c
}_e{323 69 368 83 401 113 _c
433 143 450 183 450 234 _c
450 284 433 324 401 354 _c
368 384 323 399 267 399 _c
241 399 214 396 188 390 _c
162 384 135 375 108 363 _c
108 729 _l
_cl}_e}_d
/six{{636 0 70 -13 573 742 _sc
330 404 _m
286 404 251 388 225 358 _c
199 328 186 286 186 234 _c
186 181 199 139 225 109 _c
251 79 286 64 330 64 _c
374 64 409 79 435 109 _c
461 139 474 181 474 234 _c
474 286 461 328 435 358 _c
409 388 374 404 330 404 _c
526 713 _m
526 623 _l
501 635 476 644 451 650 _c
425 656 400 659 376 659 _c
310 659 260 637 226 593 _c
}_e{192 549 172 482 168 394 _c
187 422 211 444 240 459 _c
269 474 301 482 336 482 _c
409 482 467 459 509 415 _c
551 371 573 310 573 234 _c
573 159 550 99 506 54 _c
462 9 403 -13 330 -13 _c
246 -13 181 19 137 83 _c
92 147 70 241 70 364 _c
70 479 97 571 152 639 _c
206 707 280 742 372 742 _c
396 742 421 739 447 735 _c
472 730 498 723 526 713 _c
_cl}_e}_d
/eight{{636 0 68 -13 568 742 _sc
318 346 _m
271 346 234 333 207 308 _c
180 283 167 249 167 205 _c
167 161 180 126 207 101 _c
234 76 271 64 318 64 _c
364 64 401 76 428 102 _c
455 127 469 161 469 205 _c
469 249 455 283 429 308 _c
402 333 365 346 318 346 _c
219 388 _m
177 398 144 418 120 447 _c
96 476 85 511 85 553 _c
85 611 105 657 147 691 _c
188 725 245 742 318 742 _c
}_e{390 742 447 725 489 691 _c
530 657 551 611 551 553 _c
551 511 539 476 515 447 _c
491 418 459 398 417 388 _c
464 377 501 355 528 323 _c
554 291 568 251 568 205 _c
568 134 546 80 503 43 _c
459 5 398 -13 318 -13 _c
237 -13 175 5 132 43 _c
89 80 68 134 68 205 _c
68 251 81 291 108 323 _c
134 355 171 377 219 388 _c
183 544 _m
183 506 194 476 218 455 _c
}_e{242 434 275 424 318 424 _c
360 424 393 434 417 455 _c
441 476 453 506 453 544 _c
453 582 441 611 417 632 _c
393 653 360 664 318 664 _c
275 664 242 653 218 632 _c
194 611 183 582 183 544 _c
_cl}_e}_d
/nine{{636 0 63 -13 566 742 _sc
110 15 _m
110 105 _l
134 93 159 84 185 78 _c
210 72 235 69 260 69 _c
324 69 374 90 408 134 _c
442 178 462 244 468 334 _c
448 306 424 284 396 269 _c
367 254 335 247 300 247 _c
226 247 168 269 126 313 _c
84 357 63 417 63 494 _c
63 568 85 628 129 674 _c
173 719 232 742 306 742 _c
390 742 455 709 499 645 _c
543 580 566 486 566 364 _c
}_e{566 248 538 157 484 89 _c
429 21 356 -13 264 -13 _c
239 -13 214 -10 189 -6 _c
163 -2 137 5 110 15 _c
306 324 _m
350 324 385 339 411 369 _c
437 399 450 441 450 494 _c
450 546 437 588 411 618 _c
385 648 350 664 306 664 _c
262 664 227 648 201 618 _c
175 588 162 546 162 494 _c
162 441 175 399 201 369 _c
227 339 262 324 306 324 _c
_cl}_e}_d
/E{632 0 98 0 568 729 _sc
98 729 _m
559 729 _l
559 646 _l
197 646 _l
197 430 _l
544 430 _l
544 347 _l
197 347 _l
197 83 _l
568 83 _l
568 0 _l
98 0 _l
98 729 _l
_cl}_d
/H{752 0 98 0 654 729 _sc
98 729 _m
197 729 _l
197 430 _l
555 430 _l
555 729 _l
654 729 _l
654 0 _l
555 0 _l
555 347 _l
197 347 _l
197 0 _l
98 0 _l
98 729 _l
_cl}_d
/S{{635 0 66 -13 579 742 _sc
535 705 _m
535 609 _l
497 627 462 640 429 649 _c
395 657 363 662 333 662 _c
279 662 237 651 208 631 _c
179 610 165 580 165 542 _c
165 510 174 485 194 469 _c
213 452 250 439 304 429 _c
364 417 _l
437 403 491 378 526 343 _c
561 307 579 260 579 201 _c
579 130 555 77 508 41 _c
460 5 391 -13 300 -13 _c
265 -13 228 -9 189 -2 _c
}_e{150 5 110 16 69 32 _c
69 134 _l
109 111 148 94 186 83 _c
224 71 262 66 300 66 _c
356 66 399 77 430 99 _c
460 121 476 152 476 194 _c
476 230 465 258 443 278 _c
421 298 385 313 335 323 _c
275 335 _l
201 349 148 372 115 404 _c
82 435 66 478 66 534 _c
66 598 88 649 134 686 _c
179 723 242 742 322 742 _c
356 742 390 739 426 733 _c
461 727 497 717 535 705 _c
}_e{_cl}_e}_d
/T{611 0 -2 0 614 729 _sc
-2 729 _m
614 729 _l
614 646 _l
355 646 _l
355 0 _l
256 0 _l
256 646 _l
-2 646 _l
-2 729 _l
_cl}_d
/V{684 0 8 0 676 729 _sc
286 0 _m
8 729 _l
111 729 _l
342 115 _l
573 729 _l
676 729 _l
398 0 _l
286 0 _l
_cl}_d
/bracketleft{390 0 86 -131 293 760 _sc
86 760 _m
293 760 _l
293 690 _l
176 690 _l
176 -61 _l
293 -61 _l
293 -131 _l
86 -131 _l
86 760 _l
_cl}_d
/bracketright{390 0 97 -131 304 760 _sc
304 760 _m
304 -131 _l
97 -131 _l
97 -61 _l
214 -61 _l
214 690 _l
97 690 _l
97 760 _l
304 760 _l
_cl}_d
/a{{613 0 60 -13 522 560 _sc
343 275 _m
270 275 220 266 192 250 _c
164 233 150 205 150 165 _c
150 133 160 107 181 89 _c
202 70 231 61 267 61 _c
317 61 357 78 387 114 _c
417 149 432 196 432 255 _c
432 275 _l
343 275 _l
522 312 _m
522 0 _l
432 0 _l
432 83 _l
411 49 385 25 355 10 _c
325 -5 287 -13 243 -13 _c
187 -13 142 2 109 33 _c
76 64 60 106 60 159 _c
}_e{60 220 80 266 122 298 _c
163 329 224 345 306 345 _c
432 345 _l
432 354 _l
432 395 418 427 391 450 _c
364 472 326 484 277 484 _c
245 484 215 480 185 472 _c
155 464 127 453 100 439 _c
100 522 _l
132 534 164 544 195 550 _c
226 556 256 560 286 560 _c
365 560 424 539 463 498 _c
502 457 522 395 522 312 _c
_cl}_e}_d
/e{{615 0 55 -13 562 560 _sc
562 296 _m
562 252 _l
149 252 _l
153 190 171 142 205 110 _c
238 78 284 62 344 62 _c
378 62 412 66 444 74 _c
476 82 509 95 541 113 _c
541 28 _l
509 14 476 3 442 -3 _c
408 -9 373 -13 339 -13 _c
251 -13 182 12 131 62 _c
80 112 55 181 55 268 _c
55 357 79 428 127 481 _c
175 533 241 560 323 560 _c
397 560 455 536 498 489 _c
}_e{540 441 562 377 562 296 _c
472 322 _m
471 371 457 410 431 440 _c
404 469 368 484 324 484 _c
274 484 234 469 204 441 _c
174 413 156 373 152 322 _c
472 322 _l
_cl}_e}_d
/g{{635 0 55 -207 544 560 _sc
454 280 _m
454 344 440 395 414 431 _c
387 467 349 485 301 485 _c
253 485 215 467 188 431 _c
161 395 148 344 148 280 _c
148 215 161 165 188 129 _c
215 93 253 75 301 75 _c
349 75 387 93 414 129 _c
440 165 454 215 454 280 _c
544 68 _m
544 -24 523 -93 482 -139 _c
440 -184 377 -207 292 -207 _c
260 -207 231 -204 203 -200 _c
175 -195 147 -188 121 -178 _c
}_e{121 -91 _l
147 -105 173 -115 199 -122 _c
225 -129 251 -133 278 -133 _c
336 -133 380 -117 410 -87 _c
439 -56 454 -10 454 52 _c
454 96 _l
435 64 411 40 382 24 _c
353 8 319 0 279 0 _c
211 0 157 25 116 76 _c
75 127 55 195 55 280 _c
55 364 75 432 116 483 _c
157 534 211 560 279 560 _c
319 560 353 552 382 536 _c
411 520 435 496 454 464 _c
454 547 _l
544 547 _l
}_e{544 68 _l
_cl}_e}_d
/i{278 0 94 0 184 760 _sc
94 547 _m
184 547 _l
184 0 _l
94 0 _l
94 547 _l
94 760 _m
184 760 _l
184 646 _l
94 646 _l
94 760 _l
_cl}_d
/l{278 0 94 0 184 760 _sc
94 760 _m
184 760 _l
184 0 _l
94 0 _l
94 760 _l
_cl}_d
/m{{974 0 91 0 889 560 _sc
520 442 _m
542 482 569 511 600 531 _c
631 550 668 560 711 560 _c
767 560 811 540 842 500 _c
873 460 889 403 889 330 _c
889 0 _l
799 0 _l
799 327 _l
799 379 789 418 771 444 _c
752 469 724 482 686 482 _c
639 482 602 466 575 435 _c
548 404 535 362 535 309 _c
535 0 _l
445 0 _l
445 327 _l
445 379 435 418 417 444 _c
398 469 369 482 331 482 _c
}_e{285 482 248 466 221 435 _c
194 404 181 362 181 309 _c
181 0 _l
91 0 _l
91 547 _l
181 547 _l
181 462 _l
201 495 226 520 255 536 _c
283 552 317 560 357 560 _c
397 560 430 550 458 530 _c
486 510 506 480 520 442 _c
_cl}_e}_d
/o{612 0 55 -13 557 560 _sc
306 484 _m
258 484 220 465 192 427 _c
164 389 150 338 150 273 _c
150 207 163 156 191 118 _c
219 80 257 62 306 62 _c
354 62 392 80 420 118 _c
448 156 462 207 462 273 _c
462 337 448 389 420 427 _c
392 465 354 484 306 484 _c
306 560 _m
384 560 445 534 490 484 _c
534 433 557 363 557 273 _c
557 183 534 113 490 63 _c
445 12 384 -13 306 -13 _c
227 -13 165 12 121 63 _c
77 113 55 183 55 273 _c
55 363 77 433 121 484 _c
165 534 227 560 306 560 _c
_cl}_d
/s{{521 0 54 -13 472 560 _sc
443 531 _m
443 446 _l
417 458 391 468 364 475 _c
336 481 308 485 279 485 _c
234 485 200 478 178 464 _c
156 450 145 430 145 403 _c
145 382 153 366 169 354 _c
185 342 217 330 265 320 _c
296 313 _l
360 299 405 279 432 255 _c
458 230 472 195 472 151 _c
472 100 452 60 412 31 _c
372 1 316 -13 246 -13 _c
216 -13 186 -10 154 -5 _c
}_e{122 0 89 8 54 20 _c
54 113 _l
87 95 120 82 152 74 _c
184 65 216 61 248 61 _c
290 61 323 68 346 82 _c
368 96 380 117 380 144 _c
380 168 371 187 355 200 _c
339 213 303 226 247 238 _c
216 245 _l
160 257 119 275 95 299 _c
70 323 58 356 58 399 _c
58 450 76 490 112 518 _c
148 546 200 560 268 560 _c
301 560 332 557 362 552 _c
391 547 418 540 443 531 _c
}_e{_cl}_e}_d
/t{392 0 27 0 368 702 _sc
183 702 _m
183 547 _l
368 547 _l
368 477 _l
183 477 _l
183 180 _l
183 135 189 106 201 94 _c
213 81 238 75 276 75 _c
368 75 _l
368 0 _l
276 0 _l
206 0 158 13 132 39 _c
106 65 93 112 93 180 _c
93 477 _l
27 477 _l
27 547 _l
93 547 _l
93 702 _l
183 702 _l
_cl}_d
/v{592 0 30 0 562 547 _sc
30 547 _m
125 547 _l
296 88 _l
467 547 _l
562 547 _l
357 0 _l
235 0 _l
30 547 _l
_cl}_d
end readonly def

/BuildGlyph
 {exch begin
 CharStrings exch
 2 copy known not{pop /.notdef}if
 true 3 1 roll get exec
 end}_d

/BuildChar {
 1 index /Encoding get exch get
 1 index /BuildGlyph get exec
}_d

FontName currentdict end definefont pop
end
%%EndProlog
mpldict begin
90 252 translate
432 288 0 0 clipbox
gsave
0 0 m
432 0 l
432 288 l
0 288 l
cl
1.000 setgray
fill
grestore
gsave
54 36 m
388.8 36 l
388.8 253.44 l
54 253.44 l
cl
1.000 setgray
fill
grestore
0.800 setlinewidth
1 setlinejoin
2 setlinecap
[] 0 setdash
0.690 setgray
gsave
334.8 217.4 54 36 clipbox
69.218182 36 m
69.218182 253.44 l
stroke
grestore
0 setlinecap
0.000 setgray
gsave
/o {
gsave
newpath
translate
0.8 setlinewidth
1 setlinejoin
0 setlinecap
0 0 m
0 -3.5 l

gsave
0.000 setgray
fill
grestore
stroke
grestore
} bind def
69.2182 36 o
grestore
/DejaVuSans findfont
10.000 scalefont
setfont
gsave
66.038494 21.406250 translate
0.000000 rotate
0.000000 0.000000 m /zero glyphshow
grestore
2 setlinecap
0.690 setgray
gsave
334.8 217.4 54 36 clipbox
112.729781 36 m
112.729781 253.44 l
stroke
grestore
0 setlinecap
0.000 setgray
gsave
/o {
gsave
newpath
translate
0.8 setlinewidth
1 setlinejoin
0 setlinecap
0 0 m
0 -3.5 l

gsave
0.000 setgray
fill
grestore
stroke
grestore
} bind def
112.73 36 o
grestore
gsave
103.190719 21.406250 translate
0.000000 rotate
0.000000 0.000000 m /two glyphshow
6.362305 0.000000 m /zero glyphshow
12.724609 0.000000 m /zero glyphshow
grestore
2 setlinecap
0.690 setgray
gsave
334.8 217.4 54 36 clipbox
156.24138 36 m
156.24138 253.44 l
stroke
grestore
0 setlinecap
0.000 setgray
gsave
/o {
gsave
newpath
translate
0.8 setlinewidth
1 setlinejoin
0 setlinecap
0 0 m
0 -3.5 l

gsave
0.000 setgray
fill
grestore
stroke
grestore
} bind def
156.241 36 o
grestore
gsave
146.702318 21.406250 translate
0.000000 rotate
0.000000 0.000000 m /four glyphshow
6.362305 0.000000 m /zero glyphshow
12.724609 0.000000 m /zero glyphshow
grestore
2 setlinecap
0.690 setgray
gsave
334.8 217.4 54 36 clipbox
199.752979 36 m
199.752979 253.44 l
stroke
grestore
0 setlinecap
0.000 setgray
gsave
/o {
gsave
newpath
translate
0.8 setlinewidth
1 setlinejoin
0 setlinecap
0 0 m
0 -3.5 l

gsave
0.000 setgray
fill
grestore
stroke
grestore
} bind def
199.753 36 o
grestore
gsave
190.213917 21.406250 translate
0.000000 rotate
0.000000 0.000000 m /six glyphshow
6.362305 0.000000 m /zero glyphshow
12.724609 0.000000 m /zero glyphshow
grestore
2 setlinecap
0.690 setgray
gsave
334.8 217.4 54 36 clipbox
243.264579 36 m
243.264579 253.44 l
stroke
grestore
0 setlinecap
0.000 setgray
gsave
/o {
gsave
newpath
translate
0.8 setlinewidth
1 setlinejoin
0 setlinecap
0 0 m
0 -3.5 l

gsave
0.000 setgray
fill
grestore
stroke
grestore
} bind def
243.265 36 o
grestore
gsave
233.725516 21.406250 translate
0.000000 rotate
0.000000 0.000000 m /eight glyphshow
6.362305 0.000000 m /zero glyphshow
12.724609 0.000000 m /zero glyphshow
grestore
2 setlinecap
0.690 setgray
gsave
334.8 217.4 54 36 clipbox
286.776178 36 m
286.776178 253.44 l
stroke
grestore
0 setlinecap
0.000 setgray
gsave
/o {
gsave
newpath
translate
0.8 setlinewidth
1 setlinejoin
0 setlinecap
0 0 m
0 -3.5 l

gsave
0.000 setgray
fill
grestore
stroke
grestore
} bind def
286.776 36 o
grestore
gsave
274.057428 21.406250 translate
0.000000 rotate
0.000000 0.000000 m /one glyphshow
6.362305 0.000000 m /zero glyphshow
12.724609 0.000000 m /zero glyphshow
19.086914 0.000000 m /zero glyphshow
grestore
2 setlinecap
0.690 setgray
gsave
334.8 217.4 54 36 clipbox
330.287777 36 m
330.287777 253.44 l
stroke
grestore
0 setlinecap
0.000 setgray
gsave
/o {
gsave
newpath
translate
0.8 setlinewidth
1 setlinejoin
0 setlinecap
0 0 m
0 -3.5 l

gsave
0.000 setgray
fill
grestore
stroke
grestore
} bind def
330.288 36 o
grestore
gsave
317.569027 21.406250 translate
0.000000 rotate
0.000000 0.000000 m /one glyphshow
6.362305 0.000000 m /two glyphshow
12.724609 0.000000 m /zero glyphshow
19.086914 0.000000 m /zero glyphshow
grestore
2 setlinecap
0.690 setgray
gsave
334.8 217.4 54 36 clipbox
373.799376 36 m
373.799376 253.44 l
stroke
grestore
0 setlinecap
0.000 setgray
gsave
/o {
gsave
newpath
translate
0.8 setlinewidth
1 setlinejoin
0 setlinecap
0 0 m
0 -3.5 l

gsave
0.000 setgray
fill
grestore
stroke
grestore
} bind def
373.799 36 o
grestore
gsave
361.080626 21.406250 translate
0.000000 rotate
0.000000 0.000000 m /one glyphshow
6.362305 0.000000 m /four glyphshow
12.724609 0.000000 m /zero glyphshow
19.086914 0.000000 m /zero glyphshow
grestore
gsave
200.892188 7.734375 translate
0.000000 rotate
0.000000 0.000000 m /T glyphshow
6.108398 0.000000 m /i glyphshow
8.886719 0.000000 m /m glyphshow
18.627930 0.000000 m /e glyphshow
24.780273 0.000000 m /space glyphshow
27.958984 0.000000 m /bracketleft glyphshow
31.860352 0.000000 m /s glyphshow
37.070312 0.000000 m /bracketright glyphshow
grestore
2 setlinecap
0.690 setgray
gsave
334.8 217.4 54 36 clipbox
54 41.089251 m
388.8 41.089251 l
stroke
grestore
0 setlinecap
0.000 setgray
gsave
/o {
gsave
newpath
translate
0.8 setlinewidth
1 setlinejoin
0 setlinecap
0 0 m
-3.5 0 l

gsave
0.000 setgray
fill
grestore
stroke
grestore
} bind def
54 41.0893 o
grestore
gsave
27.921875 37.292376 translate
0.000000 rotate
0.000000 0.000000 m /one glyphshow
6.362305 0.000000 m /nine glyphshow
12.724609 0.000000 m /zero glyphshow
grestore
2 setlinecap
0.690 setgray
gsave
334.8 217.4 54 36 clipbox
54 70.151646 m
388.8 70.151646 l
stroke
grestore
0 setlinecap
0.000 setgray
gsave
/o {
gsave
newpath
translate
0.8 setlinewidth
1 setlinejoin
0 setlinecap
0 0 m
-3.5 0 l

gsave
0.000 setgray
fill
grestore
stroke
grestore
} bind def
54 70.1516 o
grestore
gsave
27.921875 66.354771 translate
0.000000 rotate
0.000000 0.000000 m /two glyphshow
6.362305 0.000000 m /zero glyphshow
12.724609 0.000000 m /zero glyphshow
grestore
2 setlinecap
0.690 setgray
gsave
334.8 217.4 54 36 clipbox
54 99.214041 m
388.8 99.214041 l
stroke
grestore
0 setlinecap
0.000 setgray
gsave
/o {
gsave
newpath
translate
0.8 setlinewidth
1 setlinejoin
0 setlinecap
0 0 m
-3.5 0 l

gsave
0.000 setgray
fill
grestore
stroke
grestore
} bind def
54 99.214 o
grestore
gsave
27.921875 95.417166 translate
0.000000 rotate
0.000000 0.000000 m /two glyphshow
6.362305 0.000000 m /one glyphshow
12.724609 0.000000 m /zero glyphshow
grestore
2 setlinecap
0.690 setgray
gsave
334.8 217.4 54 36 clipbox
54 128.276435 m
388.8 128.276435 l
stroke
grestore
0 setlinecap
0.000 setgray
gsave
/o {
gsave
newpath
translate
0.8 setlinewidth
1 setlinejoin
0 setlinecap
0 0 m
-3.5 0 l

gsave
0.000 setgray
fill
grestore
stroke
grestore
} bind def
54 128.276 o
grestore
gsave
27.921875 124.479560 translate
0.000000 rotate
0.000000 0.000000 m /two glyphshow
6.362305 0.000000 m /two glyphshow
12.724609 0.000000 m /zero glyphshow
grestore
2 setlinecap
0.690 setgray
gsave
334.8 217.4 54 36 clipbox
54 157.33883 m
388.8 157.33883 l
stroke
grestore
0 setlinecap
0.000 setgray
gsave
/o {
gsave
newpath
translate
0.8 setlinewidth
1 setlinejoin
0 setlinecap
0 0 m
-3.5 0 l

gsave
0.000 setgray
fill
grestore
stroke
grestore
} bind def
54 157.339 o
grestore
gsave
27.921875 153.541955 translate
0.000000 rotate
0.000000 0.000000 m /two glyphshow
6.362305 0.000000 m /three glyphshow
12.724609 0.000000 m /zero glyphshow
grestore
2 setlinecap
0.690 setgray
gsave
334.8 217.4 54 36 clipbox
54 186.401225 m
388.8 186.401225 l
stroke
grestore
0 setlinecap
0.000 setgray
gsave
/o {
gsave
newpath
translate
0.8 setlinewidth
1 setlinejoin
0 setlinecap
0 0 m
-3.5 0 l

gsave
0.000 setgray
fill
grestore
stroke
grestore
} bind def
54 186.401 o
grestore
gsave
27.921875 182.604350 translate
0.000000 rotate
0.000000 0.000000 m /two glyphshow
6.362305 0.000000 m /four glyphshow
12.724609 0.000000 m /zero glyphshow
grestore
2 setlinecap
0.690 setgray
gsave
334.8 217.4 54 36 clipbox
54 215.46362 m
388.8 215.46362 l
stroke
grestore
0 setlinecap
0.000 setgray
gsave
/o {
gsave
newpath
translate
0.8 setlinewidth
1 setlinejoin
0 setlinecap
0 0 m
-3.5 0 l

gsave
0.000 setgray
fill
grestore
stroke
grestore
} bind def
54 215.464 o
grestore
gsave
27.921875 211.666745 translate
0.000000 rotate
0.000000 0.000000 m /two glyphshow
6.362305 0.000000 m /five glyphshow
12.724609 0.000000 m /zero glyphshow
grestore
2 setlinecap
0.690 setgray
gsave
334.8 217.4 54 36 clipbox
54 244.526014 m
388.8 244.526014 l
stroke
grestore
0 setlinecap
0.000 setgray
gsave
/o {
gsave
newpath
translate
0.8 setlinewidth
1 setlinejoin
0 setlinecap
0 0 m
-3.5 0 l

gsave
0.000 setgray
fill
grestore
stroke
grestore
} bind def
54 244.526 o
grestore
gsave
27.921875 240.729139 translate
0.000000 rotate
0.000000 0.000000 m /two glyphshow
6.362305 0.000000 m /six glyphshow
12.724609 0.000000 m /zero glyphshow
grestore
gsave
21.843750 102.259062 translate
90.000000 rotate
0.000000 0.000000 m /H glyphshow
7.519531 0.000000 m /E glyphshow
13.837891 0.000000 m /S glyphshow
20.185547 0.000000 m /S glyphshow
26.533203 0.000000 m /space glyphshow
29.711914 0.000000 m /v glyphshow
35.629883 0.000000 m /o glyphshow
41.748047 0.000000 m /l glyphshow
44.526367 0.000000 m /t glyphshow
48.447266 0.000000 m /a glyphshow
54.575195 0.000000 m /g glyphshow
60.922852 0.000000 m /e glyphshow
67.075195 0.000000 m /space glyphshow
70.253906 0.000000 m /bracketleft glyphshow
74.155273 0.000000 m /V glyphshow
80.996094 0.000000 m /bracketright glyphshow
grestore
1.500 setlinewidth
2 setlinecap
0.122 0.467 0.706 setrgbcolor
gsave
334.8 217.4 54 36 clipbox
69.218182 135.119484 m
69.43574 135.185897 l
69.653298 135.176018 l
70.088414 134.892779 l
70.305972 134.964969 l
70.741088 135.679277 l
70.958646 135.646248 l
71.61132 133.854611 l
71.828878 135.061309 l
72.263994 138.226297 l
72.481552 136.318492 l
73.134226 120.637455 l
73.351784 122.437158 l
74.222016 148.460691 l
74.439574 146.270043 l
74.87469 140.911194 l
75.092248 140.841929 l
75.309806 140.108994 l
75.527364 135.538459 l
75.96248 112.089422 l
76.397596 91.020877 l
76.615154 91.978798 l
76.832712 102.510453 l
77.267828 135.651528 l
77.485386 143.895694 l
77.702944 139.230316 l
78.355618 88.125062 l
78.573176 87.05709 l
79.008292 116.152759 l
79.22585 130.054608 l
79.443408 135.191271 l
79.660966 132.301228 l
80.096082 121.070239 l
80.31364 118.936964 l
80.531198 118.850095 l
80.748756 119.834108 l
80.966314 121.979825 l
81.40143 131.471888 l
81.836546 139.549495 l
82.054104 138.834522 l
82.706778 128.202463 l
82.924336 127.664922 l
83.141894 130.27755 l
83.57701 145.935009 l
84.012126 161.396576 l
84.229684 160.541178 l
84.6648 141.316732 l
84.882358 131.716095 l
85.099916 127.84195 l
85.317474 130.019577 l
85.75259 137.556316 l
85.970148 135.544136 l
86.622821 117.297987 l
86.840379 116.225655 l
87.275495 118.36019 l
87.493053 117.769757 l
87.710611 117.515525 l
87.928169 122.213125 l
88.145727 136.152023 l
89.015959 231.559533 l
89.233517 230.543712 l
89.668633 193.155961 l
90.103749 159.347274 l
90.538865 150.511044 l
90.756423 149.320095 l
90.973981 135.337411 l
92.714445 135.255851 l
92.932003 135.193182 l
93.149561 135.25271 l
93.584677 135.734273 l
93.802235 135.727732 l
94.019793 135.428487 l
94.454909 134.276548 l
94.672467 134.58964 l
95.325141 138.810602 l
95.542699 137.813375 l
96.195373 127.310523 l
96.412931 127.488416 l
96.848047 134.427589 l
97.065605 135.194974 l
97.283163 130.577717 l
97.935837 102.929755 l
98.153395 102.256155 l
98.370953 108.201023 l
98.806069 126.105164 l
99.023627 130.573444 l
99.241185 130.529468 l
99.676301 125.833343 l
99.893859 126.412162 l
100.111417 130.33455 l
100.764091 145.713947 l
100.981649 145.525045 l
101.416765 137.16978 l
101.851881 130.901086 l
102.286997 130.318422 l
102.504555 128.339931 l
103.374787 110.532885 l
103.592345 111.081124 l
103.809903 115.352759 l
104.027461 123.938188 l
104.462577 158.47747 l
104.897693 205.04415 l
105.115251 218.185276 l
105.332809 216.780298 l
105.550367 200.945396 l
106.203041 138.446884 l
106.420599 132.834094 l
106.638157 132.166079 l
106.855715 129.358847 l
107.073273 120.182931 l
107.508389 93.471242 l
107.725947 88.66711 l
107.943505 93.978439 l
108.378621 116.125716 l
108.596179 119.209834 l
108.813737 113.385332 l
109.248853 93.983594 l
109.466411 92.859433 l
109.683969 100.287619 l
110.119085 124.352366 l
110.336643 131.142624 l
110.554201 132.312387 l
110.989317 129.640976 l
111.206875 131.524485 l
111.641991 138.968427 l
111.859549 138.620905 l
112.077107 132.78874 l
112.512223 109.639978 l
112.729781 134.862308 l
113.600013 134.827913 l
114.252687 135.017356 l
114.687803 134.726598 l
115.122919 134.457169 l
115.340477 134.649944 l
115.993151 135.867982 l
116.210709 135.251745 l
116.428267 133.338493 l
116.863383 125.48134 l
117.298499 117.37305 l
117.516057 116.000793 l
117.733615 117.041701 l
118.386289 124.218345 l
118.603847 124.197692 l
119.038963 122.269796 l
119.256521 123.028521 l
119.691637 129.945335 l
120.126753 136.506971 l
120.344311 136.569598 l
120.561869 134.191041 l
121.432101 117.859389 l
121.867217 115.076965 l
122.519891 112.518206 l
122.737449 114.608044 l
122.955007 120.618035 l
123.390123 138.466886 l
123.607681 140.480636 l
123.825239 130.872809 l
124.695471 45.883636 l
124.913029 54.999504 l
125.783261 154.298319 l
126.000819 152.658015 l
126.653493 118.497447 l
126.871051 116.174286 l
127.523725 124.10109 l
127.741283 124.153084 l
127.958841 123.651814 l
128.176399 124.208169 l
129.046631 132.172059 l
129.264189 130.516337 l
129.916863 122.69138 l
130.134421 122.291105 l
130.351979 123.165824 l
130.787095 125.908897 l
131.004653 126.602582 l
131.222211 126.688788 l
131.657327 126.28386 l
131.874885 126.328785 l
132.527559 126.932288 l
132.745117 126.902299 l
133.832907 126.14666 l
134.268023 125.28097 l
134.485581 133.972854 l
135.355813 133.966649 l
136.443603 133.989434 l
137.096277 133.742643 l
137.313835 133.776933 l
137.748951 134.374943 l
138.184067 135.178551 l
138.401625 135.402148 l
138.619183 135.212102 l
138.836741 134.706396 l
139.271857 132.345676 l
139.924531 126.354936 l
140.577204 121.01477 l
142.10011 114.209009 l
142.317668 115.072893 l
142.752784 119.867974 l
143.1879 124.65333 l
143.623016 127.659286 l
143.840574 130.426249 l
144.27569 142.51813 l
144.928364 164.499429 l
145.145922 165.686776 l
145.36348 162.37643 l
146.668828 124.810523 l
147.321502 118.566167 l
147.53906 117.401875 l
147.756618 117.347315 l
147.974176 118.397975 l
148.62685 122.826552 l
148.844408 122.774823 l
149.279524 121.061547 l
149.497082 120.996543 l
149.71464 122.190692 l
150.149756 128.418211 l
150.584872 135.156769 l
150.80243 136.88283 l
151.019988 137.004345 l
151.237546 135.583958 l
151.672662 129.268144 l
152.325336 117.770417 l
152.542894 116.452796 l
152.760452 118.053947 l
152.97801 123.214932 l
154.0658 163.312074 l
154.283358 161.094207 l
154.718474 144.703954 l
155.15359 128.250805 l
155.371148 125.088569 l
155.588706 125.75398 l
156.24138 133.758776 l
157.111612 133.774546 l
158.199402 133.52813 l
158.634518 133.983931 l
159.069634 134.571936 l
159.287192 134.591083 l
159.50475 134.156526 l
159.722308 133.163771 l
160.157424 129.313484 l
161.027656 118.874934 l
161.245214 117.827938 l
161.462772 118.197928 l
161.68033 120.289762 l
162.115446 129.034161 l
162.76812 143.935081 l
162.985678 145.797488 l
163.203236 145.045927 l
163.420794 141.837974 l
164.291026 121.549027 l
164.508584 119.735243 l
164.726142 120.271639 l
165.161258 126.017611 l
165.596374 131.700767 l
165.813932 132.445067 l
166.03149 131.321405 l
166.466606 124.976985 l
166.901722 117.987147 l
167.11928 116.232675 l
167.336838 116.074591 l
167.554396 117.455256 l
168.424628 126.262224 l
168.642186 126.141261 l
169.077302 122.889779 l
169.947534 116.060246 l
170.165092 112.278792 l
170.600208 96.605417 l
171.252882 65.58534 l
171.47044 61.517971 l
171.687998 63.380082 l
171.905556 71.060495 l
173.210904 143.330157 l
173.64602 154.906844 l
174.081136 160.701446 l
174.298694 160.042166 l
174.516252 156.258622 l
174.951368 141.155527 l
175.386484 125.180711 l
175.604042 120.550681 l
175.8216 118.997769 l
176.039158 120.190538 l
177.126948 135.414179 l
177.344506 136.210132 l
177.562064 136.220227 l
177.779622 135.865474 l
177.99718 133.040666 l
178.649854 133.096443 l
179.302528 132.976963 l
180.17276 132.922481 l
181.478108 132.482788 l
181.695666 132.899066 l
181.913224 133.830548 l
182.34834 138.01555 l
182.783456 145.455489 l
183.653688 161.907289 l
183.871246 163.729432 l
184.088804 164.05461 l
184.306362 162.667377 l
184.741478 155.531113 l
186.481942 116.681423 l
186.917058 111.828483 l
187.134616 110.587619 l
187.352174 110.110563 l
187.569732 110.691206 l
187.78729 111.955209 l
188.87508 121.878572 l
189.092638 121.999648 l
189.310196 120.912417 l
189.745312 115.454182 l
190.615544 100.899556 l
190.833102 99.068443 l
191.05066 98.670567 l
191.268218 99.803165 l
191.485776 102.366244 l
191.920892 111.107814 l
193.008682 135.694537 l
193.661356 143.958139 l
194.096472 147.043046 l
194.31403 147.901572 l
194.531587 147.922865 l
194.749145 147.417932 l
194.966703 145.900637 l
195.401819 140.443174 l
196.489609 123.4631 l
197.142283 117.364573 l
197.794957 110.458903 l
198.665189 100.15739 l
198.882747 99.44178 l
199.100305 99.752644 l
199.535421 103.211223 l
199.752979 132.370869 l
200.623211 132.350795 l
201.058327 132.411649 l
201.493443 132.244198 l
201.928559 132.621094 l
202.363675 131.935047 l
202.581233 132.268139 l
202.798791 132.971811 l
203.016349 132.755215 l
203.233907 131.592264 l
203.451465 131.53696 l
203.669023 133.342764 l
203.886581 132.90059 l
204.104139 124.270867 l
204.539255 94.762671 l
204.756813 96.15015 l
205.409487 141.623592 l
205.627045 137.641294 l
206.062161 124.338142 l
206.279719 125.468048 l
206.497277 127.229821 l
206.714835 125.41475 l
206.932393 121.614374 l
207.149951 121.540501 l
207.367509 129.209822 l
207.802625 155.521025 l
208.020183 162.445135 l
208.237741 161.831684 l
208.455299 154.585861 l
208.890415 132.283491 l
209.107973 133.00648 l
209.325531 152.805798 l
209.760647 215.419018 l
209.978205 221.648809 l
210.195763 202.390132 l
210.630879 145.63826 l
210.848437 135.406994 l
211.065995 139.780834 l
211.283553 150.192679 l
211.501111 154.482376 l
211.718669 143.969066 l
212.153785 103.28099 l
212.371343 102.688026 l
213.024017 148.72742 l
213.241575 148.784581 l
213.676691 144.539617 l
214.111807 134.387523 l
214.329365 137.042993 l
214.546923 157.607864 l
214.982039 224.7323 l
215.199597 238.780782 l
215.417155 233.705336 l
215.634713 222.659355 l
215.852271 219.328189 l
216.504945 243.556364 l
216.722503 239.501242 l
217.157619 211.037681 l
218.027851 143.363622 l
218.245409 137.136523 l
218.898083 131.252764 l
219.333199 123.971887 l
219.550757 124.873603 l
219.985873 137.01383 l
220.203431 142.839847 l
220.420989 144.362345 l
220.638547 140.652087 l
221.291221 116.857788 l
221.508779 133.996951 l
330.070219 133.996951 l
330.287777 165.44475 l
330.505335 172.090851 l
330.722893 96.829446 l
330.940451 156.483562 l
331.375567 100.835222 l
331.593125 152.738143 l
331.810683 99.779604 l
332.028241 152.424421 l
332.245799 125.810991 l
332.463357 151.000459 l
332.680915 112.119862 l
332.898473 141.658241 l
333.116031 103.873565 l
333.333589 123.867706 l
333.551147 115.351827 l
333.768705 124.512453 l
333.986263 150.020273 l
334.203821 144.777202 l
334.421379 184.399426 l
334.638937 173.375675 l
334.856495 216.155583 l
335.074053 175.100461 l
335.291611 225.952627 l
335.509169 193.491345 l
335.726727 204.533071 l
336.596959 137.286156 l
336.814517 133.403473 l
337.032075 133.380019 l
337.249633 129.195756 l
337.467191 77.944232 l
337.684749 111.50676 l
337.902307 75.814782 l
338.337423 145.416298 l
338.554981 111.655643 l
338.772539 128.298255 l
338.990097 133.519333 l
339.207655 97.514467 l
339.425213 178.493767 l
339.642771 95.398464 l
339.860329 92.46427 l
340.077887 160.099301 l
340.295445 70.522063 l
340.513003 170.636077 l
340.948119 118.799056 l
341.165677 138.396634 l
341.383235 116.062266 l
341.600793 145.774923 l
341.818351 141.084692 l
342.253467 208.096808 l
342.471025 218.645342 l
342.688583 239.375099 l
342.906141 235.40842 l
343.341257 203.068513 l
343.776373 155.624213 l
344.211489 134.822428 l
344.429047 133.724073 l
347.692417 133.701795 l
351.826019 133.683296 l
352.043577 134.745495 l
373.581818 134.745495 l
373.581818 134.745495 l
stroke
grestore
0.800 setlinewidth
0 setlinejoin
[] 0 setdash
0.000 setgray
gsave
54 36 m
54 253.44 l
stroke
grestore
gsave
388.8 36 m
388.8 253.44 l
stroke
grestore
gsave
54 36 m
388.8 36 l
stroke
grestore
gsave
54 253.44 m
388.8 253.44 l
stroke
grestore

end
showpage
