%!PS-Adobe-3.0 EPSF-3.0
%%Title: ./plots/multimode/results__Ultracapacitor SOC [100%].eps
%%Creator: matplotlib version 2.0.0, http://matplotlib.org/
%%CreationDate: Sun May 14 22:45:23 2017
%%Orientation: portrait
%%BoundingBox: 90 252 522 540
%%EndComments
%%BeginProlog
/mpldict 8 dict def
mpldict begin
/m { moveto } bind def
/l { lineto } bind def
/r { rlineto } bind def
/c { curveto } bind def
/cl { closepath } bind def
/box {
m
1 index 0 r
0 exch r
neg 0 r
cl
} bind def
/clipbox {
box
clip
newpath
} bind def
%!PS-Adobe-3.0 Resource-Font
%%Title: DejaVu Sans
%%Copyright: Copyright (c) 2003 by Bitstream, Inc. All Rights Reserved. Copyright (c) 2006 by Tavmjong Bah. All Rights Reserved. DejaVu changes are in public domain 
%%Creator: Converted from TrueType to type 3 by PPR
25 dict begin
/_d{bind def}bind def
/_m{moveto}_d
/_l{lineto}_d
/_cl{closepath eofill}_d
/_c{curveto}_d
/_sc{7 -1 roll{setcachedevice}{pop pop pop pop pop pop}ifelse}_d
/_e{exec}_d
/FontName /DejaVuSans def
/PaintType 0 def
/FontMatrix[.001 0 0 .001 0 0]def
/FontBBox[-1021 -463 1793 1232]def
/FontType 3 def
/Encoding [ /space /percent /period /zero /one /two /four /five /six /seven /eight /nine /C /O /S /T /U /bracketleft /bracketright /a /c /e /i /l /m /o /p /r /s /t ] def
/FontInfo 10 dict dup begin
/FamilyName (DejaVu Sans) def
/FullName (DejaVu Sans) def
/Notice (Copyright (c) 2003 by Bitstream, Inc. All Rights Reserved. Copyright (c) 2006 by Tavmjong Bah. All Rights Reserved. DejaVu changes are in public domain ) def
/Weight (Book) def
/Version (Version 2.35) def
/ItalicAngle 0.0 def
/isFixedPitch false def
/UnderlinePosition -130 def
/UnderlineThickness 90 def
end readonly def
/CharStrings 30 dict dup begin
/space{318 0 0 0 0 0 _sc
}_d
/percent{{950 0 55 -13 895 742 _sc
727 321 _m
699 321 676 309 660 285 _c
644 261 636 227 636 184 _c
636 142 644 108 660 84 _c
676 60 699 48 727 48 _c
755 48 777 60 793 84 _c
809 108 817 142 817 184 _c
817 226 809 260 793 284 _c
777 308 755 321 727 321 _c
727 383 _m
778 383 819 365 849 329 _c
879 293 895 244 895 184 _c
895 123 879 75 849 40 _c
819 4 778 -13 727 -13 _c
}_e{675 -13 633 4 603 40 _c
573 75 558 123 558 184 _c
558 245 573 293 603 329 _c
633 365 675 383 727 383 _c
223 680 _m
195 680 173 667 157 643 _c
141 619 133 586 133 544 _c
133 500 141 467 157 443 _c
173 419 195 407 223 407 _c
251 407 274 419 290 443 _c
306 467 314 500 314 544 _c
314 586 305 619 289 643 _c
273 667 251 680 223 680 _c
664 742 _m
742 742 _l
286 -13 _l
}_e{208 -13 _l
664 742 _l
223 742 _m
274 742 315 724 346 688 _c
376 652 392 604 392 544 _c
392 482 376 434 346 398 _c
316 362 275 345 223 345 _c
171 345 130 362 100 398 _c
70 434 55 482 55 544 _c
55 604 70 652 100 688 _c
130 724 171 742 223 742 _c
_cl}_e}_d
/period{318 0 107 0 210 124 _sc
107 124 _m
210 124 _l
210 0 _l
107 0 _l
107 124 _l
_cl}_d
/zero{636 0 66 -13 570 742 _sc
318 664 _m
267 664 229 639 203 589 _c
177 539 165 464 165 364 _c
165 264 177 189 203 139 _c
229 89 267 64 318 64 _c
369 64 407 89 433 139 _c
458 189 471 264 471 364 _c
471 464 458 539 433 589 _c
407 639 369 664 318 664 _c
318 742 _m
399 742 461 709 505 645 _c
548 580 570 486 570 364 _c
570 241 548 147 505 83 _c
461 19 399 -13 318 -13 _c
236 -13 173 19 130 83 _c
87 147 66 241 66 364 _c
66 486 87 580 130 645 _c
173 709 236 742 318 742 _c
_cl}_d
/one{636 0 110 0 544 729 _sc
124 83 _m
285 83 _l
285 639 _l
110 604 _l
110 694 _l
284 729 _l
383 729 _l
383 83 _l
544 83 _l
544 0 _l
124 0 _l
124 83 _l
_cl}_d
/two{{636 0 73 0 536 742 _sc
192 83 _m
536 83 _l
536 0 _l
73 0 _l
73 83 _l
110 121 161 173 226 239 _c
290 304 331 346 348 365 _c
380 400 402 430 414 455 _c
426 479 433 504 433 528 _c
433 566 419 598 392 622 _c
365 646 330 659 286 659 _c
255 659 222 653 188 643 _c
154 632 117 616 78 594 _c
78 694 _l
118 710 155 722 189 730 _c
223 738 255 742 284 742 _c
}_e{359 742 419 723 464 685 _c
509 647 532 597 532 534 _c
532 504 526 475 515 449 _c
504 422 484 390 454 354 _c
446 344 420 317 376 272 _c
332 227 271 164 192 83 _c
_cl}_e}_d
/four{636 0 49 0 580 729 _sc
378 643 _m
129 254 _l
378 254 _l
378 643 _l
352 729 _m
476 729 _l
476 254 _l
580 254 _l
580 172 _l
476 172 _l
476 0 _l
378 0 _l
378 172 _l
49 172 _l
49 267 _l
352 729 _l
_cl}_d
/five{{636 0 77 -13 549 729 _sc
108 729 _m
495 729 _l
495 646 _l
198 646 _l
198 467 _l
212 472 227 476 241 478 _c
255 480 270 482 284 482 _c
365 482 429 459 477 415 _c
525 370 549 310 549 234 _c
549 155 524 94 475 51 _c
426 8 357 -13 269 -13 _c
238 -13 207 -10 175 -6 _c
143 -1 111 6 77 17 _c
77 116 _l
106 100 136 88 168 80 _c
199 72 232 69 267 69 _c
}_e{323 69 368 83 401 113 _c
433 143 450 183 450 234 _c
450 284 433 324 401 354 _c
368 384 323 399 267 399 _c
241 399 214 396 188 390 _c
162 384 135 375 108 363 _c
108 729 _l
_cl}_e}_d
/six{{636 0 70 -13 573 742 _sc
330 404 _m
286 404 251 388 225 358 _c
199 328 186 286 186 234 _c
186 181 199 139 225 109 _c
251 79 286 64 330 64 _c
374 64 409 79 435 109 _c
461 139 474 181 474 234 _c
474 286 461 328 435 358 _c
409 388 374 404 330 404 _c
526 713 _m
526 623 _l
501 635 476 644 451 650 _c
425 656 400 659 376 659 _c
310 659 260 637 226 593 _c
}_e{192 549 172 482 168 394 _c
187 422 211 444 240 459 _c
269 474 301 482 336 482 _c
409 482 467 459 509 415 _c
551 371 573 310 573 234 _c
573 159 550 99 506 54 _c
462 9 403 -13 330 -13 _c
246 -13 181 19 137 83 _c
92 147 70 241 70 364 _c
70 479 97 571 152 639 _c
206 707 280 742 372 742 _c
396 742 421 739 447 735 _c
472 730 498 723 526 713 _c
_cl}_e}_d
/seven{636 0 82 0 551 729 _sc
82 729 _m
551 729 _l
551 687 _l
286 0 _l
183 0 _l
432 646 _l
82 646 _l
82 729 _l
_cl}_d
/eight{{636 0 68 -13 568 742 _sc
318 346 _m
271 346 234 333 207 308 _c
180 283 167 249 167 205 _c
167 161 180 126 207 101 _c
234 76 271 64 318 64 _c
364 64 401 76 428 102 _c
455 127 469 161 469 205 _c
469 249 455 283 429 308 _c
402 333 365 346 318 346 _c
219 388 _m
177 398 144 418 120 447 _c
96 476 85 511 85 553 _c
85 611 105 657 147 691 _c
188 725 245 742 318 742 _c
}_e{390 742 447 725 489 691 _c
530 657 551 611 551 553 _c
551 511 539 476 515 447 _c
491 418 459 398 417 388 _c
464 377 501 355 528 323 _c
554 291 568 251 568 205 _c
568 134 546 80 503 43 _c
459 5 398 -13 318 -13 _c
237 -13 175 5 132 43 _c
89 80 68 134 68 205 _c
68 251 81 291 108 323 _c
134 355 171 377 219 388 _c
183 544 _m
183 506 194 476 218 455 _c
}_e{242 434 275 424 318 424 _c
360 424 393 434 417 455 _c
441 476 453 506 453 544 _c
453 582 441 611 417 632 _c
393 653 360 664 318 664 _c
275 664 242 653 218 632 _c
194 611 183 582 183 544 _c
_cl}_e}_d
/nine{{636 0 63 -13 566 742 _sc
110 15 _m
110 105 _l
134 93 159 84 185 78 _c
210 72 235 69 260 69 _c
324 69 374 90 408 134 _c
442 178 462 244 468 334 _c
448 306 424 284 396 269 _c
367 254 335 247 300 247 _c
226 247 168 269 126 313 _c
84 357 63 417 63 494 _c
63 568 85 628 129 674 _c
173 719 232 742 306 742 _c
390 742 455 709 499 645 _c
543 580 566 486 566 364 _c
}_e{566 248 538 157 484 89 _c
429 21 356 -13 264 -13 _c
239 -13 214 -10 189 -6 _c
163 -2 137 5 110 15 _c
306 324 _m
350 324 385 339 411 369 _c
437 399 450 441 450 494 _c
450 546 437 588 411 618 _c
385 648 350 664 306 664 _c
262 664 227 648 201 618 _c
175 588 162 546 162 494 _c
162 441 175 399 201 369 _c
227 339 262 324 306 324 _c
_cl}_e}_d
/C{{698 0 56 -13 644 742 _sc
644 673 _m
644 569 _l
610 599 575 622 537 638 _c
499 653 460 661 418 661 _c
334 661 270 635 226 584 _c
182 533 160 460 160 364 _c
160 268 182 194 226 143 _c
270 92 334 67 418 67 _c
460 67 499 74 537 90 _c
575 105 610 128 644 159 _c
644 56 _l
609 32 572 15 534 4 _c
496 -7 455 -13 412 -13 _c
302 -13 215 20 151 87 _c
}_e{87 154 56 246 56 364 _c
56 481 87 573 151 641 _c
215 708 302 742 412 742 _c
456 742 497 736 535 725 _c
573 713 610 696 644 673 _c
_cl}_e}_d
/O{787 0 56 -13 731 742 _sc
394 662 _m
322 662 265 635 223 582 _c
181 528 160 456 160 364 _c
160 272 181 199 223 146 _c
265 92 322 66 394 66 _c
465 66 522 92 564 146 _c
606 199 627 272 627 364 _c
627 456 606 528 564 582 _c
522 635 465 662 394 662 _c
394 742 _m
496 742 577 707 639 639 _c
700 571 731 479 731 364 _c
731 248 700 157 639 89 _c
577 21 496 -13 394 -13 _c
291 -13 209 21 148 89 _c
86 157 56 248 56 364 _c
56 479 86 571 148 639 _c
209 707 291 742 394 742 _c
_cl}_d
/S{{635 0 66 -13 579 742 _sc
535 705 _m
535 609 _l
497 627 462 640 429 649 _c
395 657 363 662 333 662 _c
279 662 237 651 208 631 _c
179 610 165 580 165 542 _c
165 510 174 485 194 469 _c
213 452 250 439 304 429 _c
364 417 _l
437 403 491 378 526 343 _c
561 307 579 260 579 201 _c
579 130 555 77 508 41 _c
460 5 391 -13 300 -13 _c
265 -13 228 -9 189 -2 _c
}_e{150 5 110 16 69 32 _c
69 134 _l
109 111 148 94 186 83 _c
224 71 262 66 300 66 _c
356 66 399 77 430 99 _c
460 121 476 152 476 194 _c
476 230 465 258 443 278 _c
421 298 385 313 335 323 _c
275 335 _l
201 349 148 372 115 404 _c
82 435 66 478 66 534 _c
66 598 88 649 134 686 _c
179 723 242 742 322 742 _c
356 742 390 739 426 733 _c
461 727 497 717 535 705 _c
}_e{_cl}_e}_d
/T{611 0 -2 0 614 729 _sc
-2 729 _m
614 729 _l
614 646 _l
355 646 _l
355 0 _l
256 0 _l
256 646 _l
-2 646 _l
-2 729 _l
_cl}_d
/U{732 0 87 -13 645 729 _sc
87 729 _m
186 729 _l
186 286 _l
186 208 200 151 228 117 _c
256 83 302 66 366 66 _c
429 66 475 83 503 117 _c
531 151 546 208 546 286 _c
546 729 _l
645 729 _l
645 274 _l
645 178 621 107 574 59 _c
527 11 458 -13 366 -13 _c
274 -13 204 11 157 59 _c
110 107 87 178 87 274 _c
87 729 _l
_cl}_d
/bracketleft{390 0 86 -131 293 760 _sc
86 760 _m
293 760 _l
293 690 _l
176 690 _l
176 -61 _l
293 -61 _l
293 -131 _l
86 -131 _l
86 760 _l
_cl}_d
/bracketright{390 0 97 -131 304 760 _sc
304 760 _m
304 -131 _l
97 -131 _l
97 -61 _l
214 -61 _l
214 690 _l
97 690 _l
97 760 _l
304 760 _l
_cl}_d
/a{{613 0 60 -13 522 560 _sc
343 275 _m
270 275 220 266 192 250 _c
164 233 150 205 150 165 _c
150 133 160 107 181 89 _c
202 70 231 61 267 61 _c
317 61 357 78 387 114 _c
417 149 432 196 432 255 _c
432 275 _l
343 275 _l
522 312 _m
522 0 _l
432 0 _l
432 83 _l
411 49 385 25 355 10 _c
325 -5 287 -13 243 -13 _c
187 -13 142 2 109 33 _c
76 64 60 106 60 159 _c
}_e{60 220 80 266 122 298 _c
163 329 224 345 306 345 _c
432 345 _l
432 354 _l
432 395 418 427 391 450 _c
364 472 326 484 277 484 _c
245 484 215 480 185 472 _c
155 464 127 453 100 439 _c
100 522 _l
132 534 164 544 195 550 _c
226 556 256 560 286 560 _c
365 560 424 539 463 498 _c
502 457 522 395 522 312 _c
_cl}_e}_d
/c{{550 0 55 -13 488 560 _sc
488 526 _m
488 442 _l
462 456 437 466 411 473 _c
385 480 360 484 334 484 _c
276 484 230 465 198 428 _c
166 391 150 339 150 273 _c
150 206 166 154 198 117 _c
230 80 276 62 334 62 _c
360 62 385 65 411 72 _c
437 79 462 90 488 104 _c
488 21 _l
462 9 436 0 410 -5 _c
383 -10 354 -13 324 -13 _c
242 -13 176 12 128 64 _c
}_e{79 115 55 185 55 273 _c
55 362 79 432 128 483 _c
177 534 244 560 330 560 _c
358 560 385 557 411 551 _c
437 545 463 537 488 526 _c
_cl}_e}_d
/e{{615 0 55 -13 562 560 _sc
562 296 _m
562 252 _l
149 252 _l
153 190 171 142 205 110 _c
238 78 284 62 344 62 _c
378 62 412 66 444 74 _c
476 82 509 95 541 113 _c
541 28 _l
509 14 476 3 442 -3 _c
408 -9 373 -13 339 -13 _c
251 -13 182 12 131 62 _c
80 112 55 181 55 268 _c
55 357 79 428 127 481 _c
175 533 241 560 323 560 _c
397 560 455 536 498 489 _c
}_e{540 441 562 377 562 296 _c
472 322 _m
471 371 457 410 431 440 _c
404 469 368 484 324 484 _c
274 484 234 469 204 441 _c
174 413 156 373 152 322 _c
472 322 _l
_cl}_e}_d
/i{278 0 94 0 184 760 _sc
94 547 _m
184 547 _l
184 0 _l
94 0 _l
94 547 _l
94 760 _m
184 760 _l
184 646 _l
94 646 _l
94 760 _l
_cl}_d
/l{278 0 94 0 184 760 _sc
94 760 _m
184 760 _l
184 0 _l
94 0 _l
94 760 _l
_cl}_d
/m{{974 0 91 0 889 560 _sc
520 442 _m
542 482 569 511 600 531 _c
631 550 668 560 711 560 _c
767 560 811 540 842 500 _c
873 460 889 403 889 330 _c
889 0 _l
799 0 _l
799 327 _l
799 379 789 418 771 444 _c
752 469 724 482 686 482 _c
639 482 602 466 575 435 _c
548 404 535 362 535 309 _c
535 0 _l
445 0 _l
445 327 _l
445 379 435 418 417 444 _c
398 469 369 482 331 482 _c
}_e{285 482 248 466 221 435 _c
194 404 181 362 181 309 _c
181 0 _l
91 0 _l
91 547 _l
181 547 _l
181 462 _l
201 495 226 520 255 536 _c
283 552 317 560 357 560 _c
397 560 430 550 458 530 _c
486 510 506 480 520 442 _c
_cl}_e}_d
/o{612 0 55 -13 557 560 _sc
306 484 _m
258 484 220 465 192 427 _c
164 389 150 338 150 273 _c
150 207 163 156 191 118 _c
219 80 257 62 306 62 _c
354 62 392 80 420 118 _c
448 156 462 207 462 273 _c
462 337 448 389 420 427 _c
392 465 354 484 306 484 _c
306 560 _m
384 560 445 534 490 484 _c
534 433 557 363 557 273 _c
557 183 534 113 490 63 _c
445 12 384 -13 306 -13 _c
227 -13 165 12 121 63 _c
77 113 55 183 55 273 _c
55 363 77 433 121 484 _c
165 534 227 560 306 560 _c
_cl}_d
/p{{635 0 91 -207 580 560 _sc
181 82 _m
181 -207 _l
91 -207 _l
91 547 _l
181 547 _l
181 464 _l
199 496 223 520 252 536 _c
281 552 316 560 356 560 _c
422 560 476 533 518 481 _c
559 428 580 359 580 273 _c
580 187 559 117 518 65 _c
476 13 422 -13 356 -13 _c
316 -13 281 -5 252 10 _c
223 25 199 49 181 82 _c
487 273 _m
487 339 473 390 446 428 _c
418 466 381 485 334 485 _c
}_e{286 485 249 466 222 428 _c
194 390 181 339 181 273 _c
181 207 194 155 222 117 _c
249 79 286 61 334 61 _c
381 61 418 79 446 117 _c
473 155 487 207 487 273 _c
_cl}_e}_d
/r{411 0 91 0 411 560 _sc
411 463 _m
401 469 390 473 378 476 _c
366 478 353 480 339 480 _c
288 480 249 463 222 430 _c
194 397 181 350 181 288 _c
181 0 _l
91 0 _l
91 547 _l
181 547 _l
181 462 _l
199 495 224 520 254 536 _c
284 552 321 560 365 560 _c
371 560 378 559 386 559 _c
393 558 401 557 411 555 _c
411 463 _l
_cl}_d
/s{{521 0 54 -13 472 560 _sc
443 531 _m
443 446 _l
417 458 391 468 364 475 _c
336 481 308 485 279 485 _c
234 485 200 478 178 464 _c
156 450 145 430 145 403 _c
145 382 153 366 169 354 _c
185 342 217 330 265 320 _c
296 313 _l
360 299 405 279 432 255 _c
458 230 472 195 472 151 _c
472 100 452 60 412 31 _c
372 1 316 -13 246 -13 _c
216 -13 186 -10 154 -5 _c
}_e{122 0 89 8 54 20 _c
54 113 _l
87 95 120 82 152 74 _c
184 65 216 61 248 61 _c
290 61 323 68 346 82 _c
368 96 380 117 380 144 _c
380 168 371 187 355 200 _c
339 213 303 226 247 238 _c
216 245 _l
160 257 119 275 95 299 _c
70 323 58 356 58 399 _c
58 450 76 490 112 518 _c
148 546 200 560 268 560 _c
301 560 332 557 362 552 _c
391 547 418 540 443 531 _c
}_e{_cl}_e}_d
/t{392 0 27 0 368 702 _sc
183 702 _m
183 547 _l
368 547 _l
368 477 _l
183 477 _l
183 180 _l
183 135 189 106 201 94 _c
213 81 238 75 276 75 _c
368 75 _l
368 0 _l
276 0 _l
206 0 158 13 132 39 _c
106 65 93 112 93 180 _c
93 477 _l
27 477 _l
27 547 _l
93 547 _l
93 702 _l
183 702 _l
_cl}_d
end readonly def

/BuildGlyph
 {exch begin
 CharStrings exch
 2 copy known not{pop /.notdef}if
 true 3 1 roll get exec
 end}_d

/BuildChar {
 1 index /Encoding get exch get
 1 index /BuildGlyph get exec
}_d

FontName currentdict end definefont pop
end
%%EndProlog
mpldict begin
90 252 translate
432 288 0 0 clipbox
gsave
0 0 m
432 0 l
432 288 l
0 288 l
cl
1.000 setgray
fill
grestore
gsave
54 36 m
388.8 36 l
388.8 253.44 l
54 253.44 l
cl
1.000 setgray
fill
grestore
0.800 setlinewidth
1 setlinejoin
2 setlinecap
[] 0 setdash
0.690 setgray
gsave
334.8 217.4 54 36 clipbox
69.218182 36 m
69.218182 253.44 l
stroke
grestore
0 setlinecap
0.000 setgray
gsave
/o {
gsave
newpath
translate
0.8 setlinewidth
1 setlinejoin
0 setlinecap
0 0 m
0 -3.5 l

gsave
0.000 setgray
fill
grestore
stroke
grestore
} bind def
69.2182 36 o
grestore
/DejaVuSans findfont
10.000 scalefont
setfont
gsave
66.038494 21.406250 translate
0.000000 rotate
0.000000 0.000000 m /zero glyphshow
grestore
2 setlinecap
0.690 setgray
gsave
334.8 217.4 54 36 clipbox
112.729781 36 m
112.729781 253.44 l
stroke
grestore
0 setlinecap
0.000 setgray
gsave
/o {
gsave
newpath
translate
0.8 setlinewidth
1 setlinejoin
0 setlinecap
0 0 m
0 -3.5 l

gsave
0.000 setgray
fill
grestore
stroke
grestore
} bind def
112.73 36 o
grestore
gsave
103.190719 21.406250 translate
0.000000 rotate
0.000000 0.000000 m /two glyphshow
6.362305 0.000000 m /zero glyphshow
12.724609 0.000000 m /zero glyphshow
grestore
2 setlinecap
0.690 setgray
gsave
334.8 217.4 54 36 clipbox
156.24138 36 m
156.24138 253.44 l
stroke
grestore
0 setlinecap
0.000 setgray
gsave
/o {
gsave
newpath
translate
0.8 setlinewidth
1 setlinejoin
0 setlinecap
0 0 m
0 -3.5 l

gsave
0.000 setgray
fill
grestore
stroke
grestore
} bind def
156.241 36 o
grestore
gsave
146.702318 21.406250 translate
0.000000 rotate
0.000000 0.000000 m /four glyphshow
6.362305 0.000000 m /zero glyphshow
12.724609 0.000000 m /zero glyphshow
grestore
2 setlinecap
0.690 setgray
gsave
334.8 217.4 54 36 clipbox
199.752979 36 m
199.752979 253.44 l
stroke
grestore
0 setlinecap
0.000 setgray
gsave
/o {
gsave
newpath
translate
0.8 setlinewidth
1 setlinejoin
0 setlinecap
0 0 m
0 -3.5 l

gsave
0.000 setgray
fill
grestore
stroke
grestore
} bind def
199.753 36 o
grestore
gsave
190.213917 21.406250 translate
0.000000 rotate
0.000000 0.000000 m /six glyphshow
6.362305 0.000000 m /zero glyphshow
12.724609 0.000000 m /zero glyphshow
grestore
2 setlinecap
0.690 setgray
gsave
334.8 217.4 54 36 clipbox
243.264579 36 m
243.264579 253.44 l
stroke
grestore
0 setlinecap
0.000 setgray
gsave
/o {
gsave
newpath
translate
0.8 setlinewidth
1 setlinejoin
0 setlinecap
0 0 m
0 -3.5 l

gsave
0.000 setgray
fill
grestore
stroke
grestore
} bind def
243.265 36 o
grestore
gsave
233.725516 21.406250 translate
0.000000 rotate
0.000000 0.000000 m /eight glyphshow
6.362305 0.000000 m /zero glyphshow
12.724609 0.000000 m /zero glyphshow
grestore
2 setlinecap
0.690 setgray
gsave
334.8 217.4 54 36 clipbox
286.776178 36 m
286.776178 253.44 l
stroke
grestore
0 setlinecap
0.000 setgray
gsave
/o {
gsave
newpath
translate
0.8 setlinewidth
1 setlinejoin
0 setlinecap
0 0 m
0 -3.5 l

gsave
0.000 setgray
fill
grestore
stroke
grestore
} bind def
286.776 36 o
grestore
gsave
274.057428 21.406250 translate
0.000000 rotate
0.000000 0.000000 m /one glyphshow
6.362305 0.000000 m /zero glyphshow
12.724609 0.000000 m /zero glyphshow
19.086914 0.000000 m /zero glyphshow
grestore
2 setlinecap
0.690 setgray
gsave
334.8 217.4 54 36 clipbox
330.287777 36 m
330.287777 253.44 l
stroke
grestore
0 setlinecap
0.000 setgray
gsave
/o {
gsave
newpath
translate
0.8 setlinewidth
1 setlinejoin
0 setlinecap
0 0 m
0 -3.5 l

gsave
0.000 setgray
fill
grestore
stroke
grestore
} bind def
330.288 36 o
grestore
gsave
317.569027 21.406250 translate
0.000000 rotate
0.000000 0.000000 m /one glyphshow
6.362305 0.000000 m /two glyphshow
12.724609 0.000000 m /zero glyphshow
19.086914 0.000000 m /zero glyphshow
grestore
2 setlinecap
0.690 setgray
gsave
334.8 217.4 54 36 clipbox
373.799376 36 m
373.799376 253.44 l
stroke
grestore
0 setlinecap
0.000 setgray
gsave
/o {
gsave
newpath
translate
0.8 setlinewidth
1 setlinejoin
0 setlinecap
0 0 m
0 -3.5 l

gsave
0.000 setgray
fill
grestore
stroke
grestore
} bind def
373.799 36 o
grestore
gsave
361.080626 21.406250 translate
0.000000 rotate
0.000000 0.000000 m /one glyphshow
6.362305 0.000000 m /four glyphshow
12.724609 0.000000 m /zero glyphshow
19.086914 0.000000 m /zero glyphshow
grestore
gsave
200.892188 7.734375 translate
0.000000 rotate
0.000000 0.000000 m /T glyphshow
6.108398 0.000000 m /i glyphshow
8.886719 0.000000 m /m glyphshow
18.627930 0.000000 m /e glyphshow
24.780273 0.000000 m /space glyphshow
27.958984 0.000000 m /bracketleft glyphshow
31.860352 0.000000 m /s glyphshow
37.070312 0.000000 m /bracketright glyphshow
grestore
2 setlinecap
0.690 setgray
gsave
334.8 217.4 54 36 clipbox
54 40.953995 m
388.8 40.953995 l
stroke
grestore
0 setlinecap
0.000 setgray
gsave
/o {
gsave
newpath
translate
0.8 setlinewidth
1 setlinejoin
0 setlinecap
0 0 m
-3.5 0 l

gsave
0.000 setgray
fill
grestore
stroke
grestore
} bind def
54 40.954 o
grestore
gsave
24.734375 37.157120 translate
0.000000 rotate
0.000000 0.000000 m /zero glyphshow
6.362305 0.000000 m /period glyphshow
9.541016 0.000000 m /six glyphshow
15.903320 0.000000 m /five glyphshow
grestore
2 setlinecap
0.690 setgray
gsave
334.8 217.4 54 36 clipbox
54 68.953331 m
388.8 68.953331 l
stroke
grestore
0 setlinecap
0.000 setgray
gsave
/o {
gsave
newpath
translate
0.8 setlinewidth
1 setlinejoin
0 setlinecap
0 0 m
-3.5 0 l

gsave
0.000 setgray
fill
grestore
stroke
grestore
} bind def
54 68.9533 o
grestore
gsave
24.734375 65.156456 translate
0.000000 rotate
0.000000 0.000000 m /zero glyphshow
6.362305 0.000000 m /period glyphshow
9.541016 0.000000 m /six glyphshow
15.903320 0.000000 m /six glyphshow
grestore
2 setlinecap
0.690 setgray
gsave
334.8 217.4 54 36 clipbox
54 96.952668 m
388.8 96.952668 l
stroke
grestore
0 setlinecap
0.000 setgray
gsave
/o {
gsave
newpath
translate
0.8 setlinewidth
1 setlinejoin
0 setlinecap
0 0 m
-3.5 0 l

gsave
0.000 setgray
fill
grestore
stroke
grestore
} bind def
54 96.9527 o
grestore
gsave
24.734375 93.155793 translate
0.000000 rotate
0.000000 0.000000 m /zero glyphshow
6.362305 0.000000 m /period glyphshow
9.541016 0.000000 m /six glyphshow
15.903320 0.000000 m /seven glyphshow
grestore
2 setlinecap
0.690 setgray
gsave
334.8 217.4 54 36 clipbox
54 124.952005 m
388.8 124.952005 l
stroke
grestore
0 setlinecap
0.000 setgray
gsave
/o {
gsave
newpath
translate
0.8 setlinewidth
1 setlinejoin
0 setlinecap
0 0 m
-3.5 0 l

gsave
0.000 setgray
fill
grestore
stroke
grestore
} bind def
54 124.952 o
grestore
gsave
24.734375 121.155130 translate
0.000000 rotate
0.000000 0.000000 m /zero glyphshow
6.362305 0.000000 m /period glyphshow
9.541016 0.000000 m /six glyphshow
15.903320 0.000000 m /eight glyphshow
grestore
2 setlinecap
0.690 setgray
gsave
334.8 217.4 54 36 clipbox
54 152.951342 m
388.8 152.951342 l
stroke
grestore
0 setlinecap
0.000 setgray
gsave
/o {
gsave
newpath
translate
0.8 setlinewidth
1 setlinejoin
0 setlinecap
0 0 m
-3.5 0 l

gsave
0.000 setgray
fill
grestore
stroke
grestore
} bind def
54 152.951 o
grestore
gsave
24.734375 149.154467 translate
0.000000 rotate
0.000000 0.000000 m /zero glyphshow
6.362305 0.000000 m /period glyphshow
9.541016 0.000000 m /six glyphshow
15.903320 0.000000 m /nine glyphshow
grestore
2 setlinecap
0.690 setgray
gsave
334.8 217.4 54 36 clipbox
54 180.950679 m
388.8 180.950679 l
stroke
grestore
0 setlinecap
0.000 setgray
gsave
/o {
gsave
newpath
translate
0.8 setlinewidth
1 setlinejoin
0 setlinecap
0 0 m
-3.5 0 l

gsave
0.000 setgray
fill
grestore
stroke
grestore
} bind def
54 180.951 o
grestore
gsave
24.734375 177.153804 translate
0.000000 rotate
0.000000 0.000000 m /zero glyphshow
6.362305 0.000000 m /period glyphshow
9.541016 0.000000 m /seven glyphshow
15.903320 0.000000 m /zero glyphshow
grestore
2 setlinecap
0.690 setgray
gsave
334.8 217.4 54 36 clipbox
54 208.950016 m
388.8 208.950016 l
stroke
grestore
0 setlinecap
0.000 setgray
gsave
/o {
gsave
newpath
translate
0.8 setlinewidth
1 setlinejoin
0 setlinecap
0 0 m
-3.5 0 l

gsave
0.000 setgray
fill
grestore
stroke
grestore
} bind def
54 208.95 o
grestore
gsave
24.734375 205.153141 translate
0.000000 rotate
0.000000 0.000000 m /zero glyphshow
6.362305 0.000000 m /period glyphshow
9.541016 0.000000 m /seven glyphshow
15.903320 0.000000 m /one glyphshow
grestore
2 setlinecap
0.690 setgray
gsave
334.8 217.4 54 36 clipbox
54 236.949352 m
388.8 236.949352 l
stroke
grestore
0 setlinecap
0.000 setgray
gsave
/o {
gsave
newpath
translate
0.8 setlinewidth
1 setlinejoin
0 setlinecap
0 0 m
-3.5 0 l

gsave
0.000 setgray
fill
grestore
stroke
grestore
} bind def
54 236.949 o
grestore
gsave
24.734375 233.152477 translate
0.000000 rotate
0.000000 0.000000 m /zero glyphshow
6.362305 0.000000 m /period glyphshow
9.541016 0.000000 m /seven glyphshow
15.903320 0.000000 m /two glyphshow
grestore
gsave
18.656250 77.337187 translate
90.000000 rotate
0.000000 0.000000 m /U glyphshow
7.319336 0.000000 m /l glyphshow
10.097656 0.000000 m /t glyphshow
14.018555 0.000000 m /r glyphshow
18.129883 0.000000 m /a glyphshow
24.257812 0.000000 m /c glyphshow
29.755859 0.000000 m /a glyphshow
35.883789 0.000000 m /p glyphshow
42.231445 0.000000 m /a glyphshow
48.359375 0.000000 m /c glyphshow
53.857422 0.000000 m /i glyphshow
56.635742 0.000000 m /t glyphshow
60.556641 0.000000 m /o glyphshow
66.674805 0.000000 m /r glyphshow
70.786133 0.000000 m /space glyphshow
73.964844 0.000000 m /S glyphshow
80.312500 0.000000 m /O glyphshow
88.183594 0.000000 m /C glyphshow
95.166016 0.000000 m /space glyphshow
98.344727 0.000000 m /bracketleft glyphshow
102.246094 0.000000 m /one glyphshow
108.608398 0.000000 m /zero glyphshow
114.970703 0.000000 m /zero glyphshow
121.333008 0.000000 m /percent glyphshow
130.834961 0.000000 m /bracketright glyphshow
grestore
1.500 setlinewidth
2 setlinecap
0.122 0.467 0.706 setrgbcolor
gsave
334.8 217.4 54 36 clipbox
69.218182 180.950679 m
69.43574 169.815625 l
69.653298 169.539657 l
69.870856 173.011875 l
71.176204 178.05525 l
71.393762 177.932834 l
71.61132 176.745416 l
71.828878 173.921856 l
72.916668 153.158407 l
73.569342 158.023794 l
73.7869 156.919901 l
74.004458 154.219379 l
74.439574 136.943785 l
74.87469 126.841283 l
75.092248 128.595014 l
75.309806 127.661249 l
75.744922 124.152864 l
75.96248 124.477389 l
76.180038 127.176539 l
76.397596 132.078768 l
76.615154 134.157065 l
76.832712 137.313264 l
77.05027 138.831677 l
77.267828 138.615496 l
77.485386 140.23271 l
77.702944 139.634094 l
77.920502 140.527859 l
78.13806 142.731876 l
79.008292 160.772845 l
79.22585 162.578833 l
79.443408 163.358892 l
79.660966 166.110777 l
80.531198 182.277832 l
80.748756 183.078188 l
80.966314 184.716508 l
81.618988 186.518571 l
81.836546 186.331809 l
82.48922 181.118259 l
82.924336 177.871995 l
83.141894 176.829571 l
84.012126 165.187718 l
84.229684 165.598679 l
84.447242 169.489848 l
84.6648 177.896453 l
85.317474 212.988908 l
85.75259 225.611743 l
86.405263 234.159798 l
86.840379 239.242997 l
87.057937 239.684485 l
87.710611 231.954691 l
87.928169 231.526669 l
88.145727 232.25713 l
88.363285 230.696685 l
88.580843 226.192937 l
89.015959 204.855059 l
89.668633 170.206266 l
90.103749 157.888635 l
90.538865 151.284944 l
90.756423 151.468073 l
90.973981 151.468073 l
91.191539 151.106748 l
91.409097 151.922868 l
91.626655 152.021235 l
92.061771 150.954621 l
92.279329 148.974431 l
92.496887 148.314775 l
92.714445 148.269125 l
92.932003 147.959621 l
93.149561 148.154692 l
93.367119 146.809511 l
94.237351 130.467969 l
94.454909 129.893424 l
94.672467 127.826376 l
94.890025 128.597246 l
95.325141 124.595132 l
95.542699 124.054434 l
95.760257 122.63393 l
95.977815 122.700766 l
97.283163 131.175559 l
97.500721 131.906199 l
97.935837 136.315724 l
98.588511 145.683207 l
98.806069 144.837957 l
99.458743 136.70381 l
99.676301 136.000112 l
100.328975 140.241126 l
100.764091 152.503317 l
101.416765 179.841637 l
101.634323 185.266324 l
101.851881 187.120817 l
102.286997 188.228228 l
102.504555 188.021459 l
102.722113 189.167983 l
103.157229 189.854625 l
103.592345 181.989265 l
104.027461 177.119751 l
104.245019 177.359569 l
104.462577 173.58089 l
104.680135 166.070184 l
105.767925 100.299854 l
106.203041 92.475083 l
106.638157 92.597286 l
106.855715 92.183323 l
107.073273 93.40469 l
107.290831 95.931163 l
108.161063 114.877554 l
108.378621 114.97181 l
108.596179 113.882256 l
108.813737 109.914287 l
109.466411 112.599566 l
109.683969 120.712859 l
109.901527 124.521551 l
110.771759 146.625443 l
111.206875 148.583908 l
111.424433 147.442167 l
111.641991 147.183881 l
112.077107 140.269949 l
112.294665 140.169017 l
112.512223 145.601805 l
112.729781 145.601805 l
113.164897 141.684039 l
113.382455 140.170959 l
114.252687 131.508835 l
114.687803 131.358218 l
115.340477 124.048611 l
115.558035 124.262103 l
115.993151 125.942859 l
116.210709 125.67885 l
116.428267 125.115036 l
116.863383 123.075424 l
117.080941 125.21527 l
117.298499 125.052866 l
117.733615 124.080516 l
117.951173 121.472649 l
118.168731 121.511131 l
118.386289 122.042125 l
118.603847 121.599876 l
118.821405 121.668624 l
119.256521 120.782815 l
119.474079 120.781266 l
119.691637 121.800417 l
119.909195 123.640845 l
120.126753 119.641338 l
120.344311 109.951302 l
120.779427 79.143866 l
120.996985 75.04108 l
121.214543 76.9294 l
121.649659 89.02664 l
122.084775 91.063551 l
122.737449 96.186502 l
122.955007 96.981126 l
123.172565 96.482242 l
123.825239 91.446855 l
124.042797 92.128298 l
124.260355 95.798386 l
124.695471 113.833663 l
125.130587 132.544929 l
125.348145 135.773201 l
125.565703 134.88821 l
126.435935 124.648335 l
126.653493 124.43706 l
127.523725 128.613335 l
127.741283 128.434245 l
127.958841 128.674436 l
128.393957 129.970722 l
128.611515 129.684263 l
129.264189 127.640675 l
129.699305 127.690985 l
129.916863 127.870466 l
130.351979 127.759766 l
131.004653 125.881613 l
131.222211 126.231512 l
131.439769 126.865873 l
131.657327 128.804635 l
131.874885 132.660799 l
132.310001 148.386532 l
132.745117 163.441908 l
132.962675 167.067838 l
133.397791 162.22541 l
133.615349 162.028895 l
133.832907 159.263477 l
134.050465 160.424633 l
134.268023 163.838698 l
134.485581 163.838698 l
134.703139 165.120069 l
134.920697 165.566661 l
135.355813 164.795841 l
135.573371 164.733926 l
136.008487 161.560493 l
136.661161 158.409957 l
137.096277 152.740133 l
137.531393 148.727546 l
137.748951 148.166219 l
137.966509 146.350316 l
138.401625 139.136112 l
138.836741 133.997104 l
139.054299 135.600823 l
139.271857 135.54934 l
139.489415 136.117289 l
139.706973 136.01579 l
139.924531 134.692163 l
140.142089 135.035896 l
140.577204 144.200489 l
141.447436 167.76919 l
141.882552 172.063078 l
142.752784 180.491104 l
142.970342 180.22862 l
143.405458 176.938302 l
143.623016 174.024059 l
144.27569 171.575319 l
144.710806 164.292651 l
145.798596 140.38979 l
146.016154 138.416886 l
146.233712 137.973682 l
146.45127 138.604174 l
147.756618 147.139824 l
147.974176 147.80113 l
148.191734 147.370344 l
148.62685 147.947432 l
148.844408 147.743248 l
149.061966 149.076479 l
149.279524 149.094327 l
149.497082 152.316764 l
150.367314 173.115634 l
150.584872 173.531545 l
151.237546 168.955798 l
151.455104 167.979242 l
151.89022 170.052554 l
152.325336 172.57581 l
152.542894 173.078808 l
152.760452 173.089847 l
152.97801 174.658958 l
153.195568 172.81203 l
153.630684 162.051045 l
154.0658 148.808264 l
154.500916 142.576743 l
154.718474 140.917975 l
154.936032 140.611624 l
155.371148 141.778183 l
155.588706 141.805923 l
155.806264 141.104502 l
156.023822 139.568815 l
156.24138 139.568815 l
157.111612 132.590138 l
157.32917 131.385972 l
157.546728 129.219312 l
158.199402 126.20939 l
159.287192 133.593119 l
159.50475 133.684804 l
159.722308 134.091925 l
160.157424 130.908256 l
160.374982 128.991366 l
160.59254 128.66058 l
160.810098 129.382738 l
161.462772 133.404573 l
161.68033 135.038626 l
161.897888 135.643052 l
162.115446 136.75208 l
162.333004 136.220162 l
162.985678 126.752479 l
163.420794 120.418727 l
163.85591 116.901858 l
164.073468 116.152138 l
164.291026 116.01197 l
164.508584 118.039938 l
164.726142 118.246098 l
164.9437 118.239314 l
165.161258 118.084947 l
165.378816 116.163737 l
165.596374 115.776874 l
166.466606 101.783777 l
166.684164 101.32541 l
166.901722 101.780747 l
167.11928 94.570488 l
167.771954 61.039618 l
167.989512 59.250718 l
168.424628 64.565405 l
168.642186 65.468713 l
168.859744 65.082036 l
169.077302 64.930675 l
169.29486 64.946254 l
169.512418 66.98326 l
169.947534 79.966171 l
170.38265 95.923383 l
171.252882 118.014164 l
171.905556 137.38591 l
172.340672 149.140815 l
172.775788 154.784372 l
172.993346 155.536875 l
173.863578 148.103373 l
174.951368 133.803925 l
175.386484 132.239604 l
175.604042 133.653701 l
175.8216 133.931102 l
176.039158 135.210741 l
176.474274 129.189308 l
176.691832 128.375763 l
176.90939 124.129811 l
177.344506 127.443868 l
177.562064 127.486506 l
177.779622 127.241281 l
177.99718 127.241281 l
178.649854 130.422633 l
178.867412 129.64735 l
179.08497 129.307331 l
179.302528 131.17763 l
179.520086 135.547571 l
180.17276 156.88408 l
180.390318 160.34065 l
180.607876 161.387821 l
180.825434 161.650318 l
181.042992 160.845123 l
181.478108 160.155255 l
181.695666 160.108575 l
181.913224 159.525577 l
182.34834 157.734327 l
182.565898 155.581763 l
183.218572 139.686343 l
183.653688 124.533817 l
184.959036 96.412718 l
185.394152 93.361223 l
185.829268 92.215574 l
186.481942 79.433454 l
186.917058 75.410101 l
187.134616 74.196596 l
187.352174 74.615741 l
187.569732 75.470462 l
187.78729 75.208275 l
188.439964 69.583442 l
188.657522 73.718111 l
189.092638 87.402266 l
189.527754 93.238822 l
189.745312 92.991329 l
190.397986 97.664717 l
190.833102 114.71981 l
191.268218 136.417636 l
191.485776 138.498852 l
191.920892 137.189279 l
192.13845 132.042339 l
192.573566 133.898362 l
192.791124 133.352319 l
193.008682 136.513341 l
193.661356 129.048177 l
193.878914 124.82156 l
194.531587 101.466003 l
194.749145 96.077191 l
194.966703 96.783788 l
195.836935 70.131475 l
196.054493 70.729885 l
196.707167 75.508337 l
196.924725 74.891253 l
197.577399 70.035377 l
197.794957 70.617081 l
198.447631 77.016582 l
198.665189 79.360271 l
199.100305 85.677398 l
199.317863 83.916009 l
199.535421 75.513064 l
199.752979 75.513064 l
199.970537 75.14723 l
200.188095 72.439784 l
200.623211 64.168862 l
200.840769 61.167754 l
201.058327 60.551049 l
201.275885 62.89594 l
201.493443 62.354113 l
201.711001 62.648751 l
202.146117 61.293237 l
202.363675 61.008588 l
202.798791 59.508064 l
203.233907 58.923019 l
203.451465 60.837053 l
204.539255 78.705846 l
204.974371 81.199799 l
205.191929 84.739357 l
205.627045 102.443668 l
206.062161 121.959434 l
206.279719 127.622443 l
206.497277 129.158532 l
206.714835 129.518014 l
206.932393 130.7964 l
207.149951 131.161708 l
207.367509 133.273067 l
207.585067 133.516837 l
208.020183 125.99331 l
208.455299 115.87732 l
208.672857 115.045328 l
209.107973 112.541302 l
209.325531 111.886264 l
210.195763 102.709236 l
210.413321 103.608789 l
210.630879 107.375753 l
211.936227 163.697815 l
213.024017 214.986787 l
213.241575 219.889151 l
213.459133 221.823541 l
213.676691 221.696375 l
214.111807 215.576099 l
214.764481 199.919617 l
218.027851 89.083797 l
218.462967 81.065611 l
219.115641 66.654663 l
219.333199 65.039061 l
219.768315 65.932936 l
219.985873 66.076848 l
220.420989 63.7798 l
220.638547 63.727897 l
221.073663 65.482345 l
221.291221 63.394214 l
221.508779 63.394214 l
221.726337 58.20032 l
221.943895 56.465869 l
222.379011 56.459549 l
222.596569 56.302414 l
222.814127 56.79431 l
223.249243 58.631006 l
223.466801 57.768572 l
223.684359 57.673855 l
223.901917 53.903948 l
224.119475 52.226941 l
224.337033 51.515671 l
224.554591 50.032086 l
224.772149 49.6608 l
225.207265 46.322944 l
225.424823 45.883636 l
226.077497 50.755825 l
226.512613 51.435628 l
226.730171 50.650536 l
227.382845 52.337545 l
227.600403 53.503614 l
227.817961 53.634435 l
228.470635 51.723818 l
228.688193 51.596367 l
229.123309 50.715595 l
229.340867 51.592374 l
229.558425 51.097278 l
229.993541 52.443691 l
230.211099 52.010365 l
230.428657 52.53888 l
230.863773 48.330133 l
231.298889 46.08133 l
231.516447 50.082056 l
231.951563 64.540522 l
232.386679 82.534661 l
232.821795 92.401572 l
233.039353 95.91442 l
233.474469 108.631749 l
233.909585 124.612553 l
234.127143 129.581352 l
234.344701 131.460505 l
235.214933 121.789312 l
235.432491 122.030955 l
235.650049 121.29885 l
236.302723 127.27136 l
236.737839 127.983488 l
236.955397 129.810566 l
237.825629 152.466209 l
238.260745 153.222427 l
238.478303 153.293286 l
243.699695 150.200191 l
244.134811 148.759019 l
244.352369 147.263916 l
244.787485 141.440989 l
245.222601 135.356241 l
245.440159 133.527331 l
245.657717 133.300802 l
246.092833 130.651363 l
246.527949 128.855501 l
246.745507 130.431386 l
246.963065 130.770419 l
247.398181 124.34655 l
247.833297 118.572789 l
248.050855 121.290868 l
248.48597 122.607138 l
248.703528 124.183277 l
248.921086 127.610148 l
249.138644 133.864875 l
250.443992 190.398679 l
250.66155 192.223269 l
250.879108 192.565548 l
251.314224 192.067109 l
251.74934 191.406514 l
252.619572 190.211551 l
252.83713 188.096663 l
253.707362 171.773296 l
253.92492 171.647883 l
254.142478 172.75198 l
254.360036 173.115791 l
254.795152 175.394154 l
255.01271 175.026372 l
255.230268 176.379557 l
255.447826 176.17808 l
255.665384 176.274342 l
256.535616 169.0797 l
256.753174 169.512376 l
256.970732 169.095897 l
257.18829 167.450546 l
257.840964 158.425389 l
258.27608 153.181175 l
258.928754 146.969263 l
259.36387 144.776618 l
259.798986 148.580121 l
260.886776 164.851545 l
261.321892 170.58378 l
261.53945 171.408956 l
261.757008 173.363024 l
262.409682 184.580465 l
262.62724 186.864062 l
263.279914 186.509378 l
265.237936 185.335851 l
265.455494 184.764196 l
265.673052 182.614898 l
266.325726 168.957146 l
266.760842 161.000278 l
266.9784 157.825254 l
267.195958 157.707771 l
267.413516 158.328794 l
267.848632 155.338867 l
268.06619 155.395822 l
268.283748 155.235987 l
268.501306 155.605562 l
268.936422 155.812414 l
269.15398 155.686523 l
269.589096 158.011022 l
270.024212 158.393961 l
270.24177 159.758759 l
270.459328 159.963596 l
271.112002 163.771765 l
271.547118 167.35204 l
271.982234 168.818329 l
272.199792 168.777407 l
272.41735 168.425459 l
272.634908 167.32678 l
273.287582 159.600345 l
273.50514 157.878188 l
273.940256 156.839012 l
274.157814 157.537733 l
274.375372 156.239717 l
274.59293 156.137185 l
275.028046 154.928095 l
275.245604 154.105249 l
275.68072 150.406956 l
275.898278 148.673639 l
276.333394 148.258424 l
276.550952 148.033965 l
276.986068 146.760595 l
277.203626 146.678327 l
277.638742 144.607332 l
278.073858 143.327527 l
278.291416 143.219666 l
278.726532 144.217077 l
278.94409 144.647274 l
279.161648 144.278193 l
279.379206 142.248225 l
279.814322 136.614648 l
280.03188 134.730215 l
280.249438 134.271539 l
280.466996 135.595009 l
280.684554 135.215185 l
281.554786 123.394334 l
282.425018 121.77823 l
282.642576 120.726496 l
282.860134 120.225761 l
283.077692 121.12422 l
283.29525 121.502274 l
283.730366 122.944171 l
283.947924 121.236949 l
284.600598 121.534645 l
284.818156 122.493984 l
285.253272 127.265678 l
285.688388 133.239798 l
285.905946 133.848486 l
286.341062 128.915609 l
286.55862 130.139888 l
286.776178 130.139888 l
286.993736 127.975997 l
287.428852 133.982296 l
288.299084 158.828329 l
288.7342 163.710399 l
288.951758 164.093452 l
289.604432 163.736055 l
290.039548 163.335994 l
290.90978 162.410124 l
297.654078 158.232382 l
298.741868 157.044658 l
301.135006 155.564768 l
301.352564 155.061449 l
302.005238 151.763671 l
302.222796 151.326567 l
302.657911 151.860508 l
303.093027 151.670291 l
306.791513 149.382946 l
307.009071 149.037676 l
307.661745 139.89998 l
307.879303 136.774208 l
308.096861 136.960795 l
308.314419 139.451175 l
308.531977 139.451175 l
309.184651 144.593044 l
309.402209 144.344034 l
309.837325 139.601472 l
310.272441 135.290306 l
310.489999 135.091394 l
310.707557 135.743707 l
311.142673 138.391752 l
311.360231 138.45724 l
311.795347 136.4171 l
312.012905 134.271927 l
312.665579 135.617582 l
312.883137 137.042464 l
313.100695 137.474408 l
313.318253 138.373647 l
313.535811 141.53534 l
314.841159 176.432629 l
315.058717 178.520788 l
315.276275 179.091627 l
315.493833 179.162468 l
315.711391 179.390056 l
316.146507 180.143684 l
316.364065 179.212344 l
317.016739 168.928043 l
317.234297 165.767933 l
317.451855 166.837983 l
317.886971 164.894825 l
318.104529 165.475553 l
318.322087 163.803052 l
318.539645 165.077387 l
318.757203 164.557524 l
318.974761 164.573763 l
319.192319 164.444769 l
319.409877 162.659144 l
319.627435 162.989321 l
320.062551 162.494299 l
320.280109 162.886555 l
320.497667 162.739547 l
320.715225 161.922101 l
320.932783 161.695851 l
321.803015 157.793727 l
322.020573 157.584649 l
322.455689 154.943688 l
322.890805 153.803313 l
323.108363 152.892945 l
323.325921 153.705231 l
323.543479 153.836096 l
323.761037 153.496851 l
323.978595 154.179988 l
324.413711 151.796782 l
324.631269 151.746286 l
324.848827 155.351254 l
325.283943 173.988474 l
325.936617 209.575044 l
326.371733 223.068583 l
327.241965 240.280579 l
327.677081 243.556364 l
327.894639 242.657742 l
328.764871 224.593003 l
328.982429 224.728272 l
329.852661 218.464115 l
330.070219 218.680327 l
352.043577 218.680327 l
359.875664 213.848984 l
360.093222 213.393599 l
360.745896 204.742272 l
360.963454 201.784927 l
361.181012 201.169701 l
361.39857 201.065305 l
362.051244 196.634417 l
362.268802 194.938619 l
362.48636 195.101208 l
362.703918 195.756616 l
364.009266 208.427491 l
364.226824 211.029759 l
364.444382 211.896937 l
364.66194 212.006112 l
364.879498 211.825684 l
365.097056 210.833899 l
365.532172 204.372561 l
365.967288 201.39189 l
366.619962 206.30411 l
367.055078 207.853423 l
367.272636 207.988874 l
367.490194 207.839411 l
367.92531 207.826802 l
369.448216 206.784105 l
370.318448 205.670901 l
372.058912 204.615514 l
373.581818 203.675927 l
373.581818 203.675927 l
stroke
grestore
0.800 setlinewidth
0 setlinejoin
[] 0 setdash
0.000 setgray
gsave
54 36 m
54 253.44 l
stroke
grestore
gsave
388.8 36 m
388.8 253.44 l
stroke
grestore
gsave
54 36 m
388.8 36 l
stroke
grestore
gsave
54 253.44 m
388.8 253.44 l
stroke
grestore

end
showpage
