%!PS-Adobe-3.0 EPSF-3.0
%%Title: act_Battery Current [A].eps
%%Creator: matplotlib version 2.0.0, http://matplotlib.org/
%%CreationDate: Mon May 15 21:52:10 2017
%%Orientation: portrait
%%BoundingBox: 90 252 522 540
%%EndComments
%%BeginProlog
/mpldict 8 dict def
mpldict begin
/m { moveto } bind def
/l { lineto } bind def
/r { rlineto } bind def
/c { curveto } bind def
/cl { closepath } bind def
/box {
m
1 index 0 r
0 exch r
neg 0 r
cl
} bind def
/clipbox {
box
clip
newpath
} bind def
%!PS-Adobe-3.0 Resource-Font
%%Title: DejaVu Sans
%%Copyright: Copyright (c) 2003 by Bitstream, Inc. All Rights Reserved. Copyright (c) 2006 by Tavmjong Bah. All Rights Reserved. DejaVu changes are in public domain 
%%Creator: Converted from TrueType to type 3 by PPR
25 dict begin
/_d{bind def}bind def
/_m{moveto}_d
/_l{lineto}_d
/_cl{closepath eofill}_d
/_c{curveto}_d
/_sc{7 -1 roll{setcachedevice}{pop pop pop pop pop pop}ifelse}_d
/_e{exec}_d
/FontName /DejaVuSans def
/PaintType 0 def
/FontMatrix[.001 0 0 .001 0 0]def
/FontBBox[-1021 -463 1793 1232]def
/FontType 3 def
/Encoding [ /space /zero /one /two /four /five /six /seven /eight /A /B /C /T /bracketleft /bracketright /a /e /i /m /n /r /s /t /u /y /minus ] def
/FontInfo 10 dict dup begin
/FamilyName (DejaVu Sans) def
/FullName (DejaVu Sans) def
/Notice (Copyright (c) 2003 by Bitstream, Inc. All Rights Reserved. Copyright (c) 2006 by Tavmjong Bah. All Rights Reserved. DejaVu changes are in public domain ) def
/Weight (Book) def
/Version (Version 2.35) def
/ItalicAngle 0.0 def
/isFixedPitch false def
/UnderlinePosition -130 def
/UnderlineThickness 90 def
end readonly def
/CharStrings 26 dict dup begin
/space{318 0 0 0 0 0 _sc
}_d
/zero{636 0 66 -13 570 742 _sc
318 664 _m
267 664 229 639 203 589 _c
177 539 165 464 165 364 _c
165 264 177 189 203 139 _c
229 89 267 64 318 64 _c
369 64 407 89 433 139 _c
458 189 471 264 471 364 _c
471 464 458 539 433 589 _c
407 639 369 664 318 664 _c
318 742 _m
399 742 461 709 505 645 _c
548 580 570 486 570 364 _c
570 241 548 147 505 83 _c
461 19 399 -13 318 -13 _c
236 -13 173 19 130 83 _c
87 147 66 241 66 364 _c
66 486 87 580 130 645 _c
173 709 236 742 318 742 _c
_cl}_d
/one{636 0 110 0 544 729 _sc
124 83 _m
285 83 _l
285 639 _l
110 604 _l
110 694 _l
284 729 _l
383 729 _l
383 83 _l
544 83 _l
544 0 _l
124 0 _l
124 83 _l
_cl}_d
/two{{636 0 73 0 536 742 _sc
192 83 _m
536 83 _l
536 0 _l
73 0 _l
73 83 _l
110 121 161 173 226 239 _c
290 304 331 346 348 365 _c
380 400 402 430 414 455 _c
426 479 433 504 433 528 _c
433 566 419 598 392 622 _c
365 646 330 659 286 659 _c
255 659 222 653 188 643 _c
154 632 117 616 78 594 _c
78 694 _l
118 710 155 722 189 730 _c
223 738 255 742 284 742 _c
}_e{359 742 419 723 464 685 _c
509 647 532 597 532 534 _c
532 504 526 475 515 449 _c
504 422 484 390 454 354 _c
446 344 420 317 376 272 _c
332 227 271 164 192 83 _c
_cl}_e}_d
/four{636 0 49 0 580 729 _sc
378 643 _m
129 254 _l
378 254 _l
378 643 _l
352 729 _m
476 729 _l
476 254 _l
580 254 _l
580 172 _l
476 172 _l
476 0 _l
378 0 _l
378 172 _l
49 172 _l
49 267 _l
352 729 _l
_cl}_d
/five{{636 0 77 -13 549 729 _sc
108 729 _m
495 729 _l
495 646 _l
198 646 _l
198 467 _l
212 472 227 476 241 478 _c
255 480 270 482 284 482 _c
365 482 429 459 477 415 _c
525 370 549 310 549 234 _c
549 155 524 94 475 51 _c
426 8 357 -13 269 -13 _c
238 -13 207 -10 175 -6 _c
143 -1 111 6 77 17 _c
77 116 _l
106 100 136 88 168 80 _c
199 72 232 69 267 69 _c
}_e{323 69 368 83 401 113 _c
433 143 450 183 450 234 _c
450 284 433 324 401 354 _c
368 384 323 399 267 399 _c
241 399 214 396 188 390 _c
162 384 135 375 108 363 _c
108 729 _l
_cl}_e}_d
/six{{636 0 70 -13 573 742 _sc
330 404 _m
286 404 251 388 225 358 _c
199 328 186 286 186 234 _c
186 181 199 139 225 109 _c
251 79 286 64 330 64 _c
374 64 409 79 435 109 _c
461 139 474 181 474 234 _c
474 286 461 328 435 358 _c
409 388 374 404 330 404 _c
526 713 _m
526 623 _l
501 635 476 644 451 650 _c
425 656 400 659 376 659 _c
310 659 260 637 226 593 _c
}_e{192 549 172 482 168 394 _c
187 422 211 444 240 459 _c
269 474 301 482 336 482 _c
409 482 467 459 509 415 _c
551 371 573 310 573 234 _c
573 159 550 99 506 54 _c
462 9 403 -13 330 -13 _c
246 -13 181 19 137 83 _c
92 147 70 241 70 364 _c
70 479 97 571 152 639 _c
206 707 280 742 372 742 _c
396 742 421 739 447 735 _c
472 730 498 723 526 713 _c
_cl}_e}_d
/seven{636 0 82 0 551 729 _sc
82 729 _m
551 729 _l
551 687 _l
286 0 _l
183 0 _l
432 646 _l
82 646 _l
82 729 _l
_cl}_d
/eight{{636 0 68 -13 568 742 _sc
318 346 _m
271 346 234 333 207 308 _c
180 283 167 249 167 205 _c
167 161 180 126 207 101 _c
234 76 271 64 318 64 _c
364 64 401 76 428 102 _c
455 127 469 161 469 205 _c
469 249 455 283 429 308 _c
402 333 365 346 318 346 _c
219 388 _m
177 398 144 418 120 447 _c
96 476 85 511 85 553 _c
85 611 105 657 147 691 _c
188 725 245 742 318 742 _c
}_e{390 742 447 725 489 691 _c
530 657 551 611 551 553 _c
551 511 539 476 515 447 _c
491 418 459 398 417 388 _c
464 377 501 355 528 323 _c
554 291 568 251 568 205 _c
568 134 546 80 503 43 _c
459 5 398 -13 318 -13 _c
237 -13 175 5 132 43 _c
89 80 68 134 68 205 _c
68 251 81 291 108 323 _c
134 355 171 377 219 388 _c
183 544 _m
183 506 194 476 218 455 _c
}_e{242 434 275 424 318 424 _c
360 424 393 434 417 455 _c
441 476 453 506 453 544 _c
453 582 441 611 417 632 _c
393 653 360 664 318 664 _c
275 664 242 653 218 632 _c
194 611 183 582 183 544 _c
_cl}_e}_d
/A{684 0 8 0 676 729 _sc
342 632 _m
208 269 _l
476 269 _l
342 632 _l
286 729 _m
398 729 _l
676 0 _l
573 0 _l
507 187 _l
178 187 _l
112 0 _l
8 0 _l
286 729 _l
_cl}_d
/B{{686 0 98 0 615 729 _sc
197 348 _m
197 81 _l
355 81 _l
408 81 447 92 473 114 _c
498 136 511 169 511 215 _c
511 260 498 293 473 315 _c
447 337 408 348 355 348 _c
197 348 _l
197 648 _m
197 428 _l
343 428 _l
391 428 426 437 450 455 _c
474 473 486 500 486 538 _c
486 574 474 602 450 620 _c
426 638 391 648 343 648 _c
197 648 _l
98 729 _m
350 729 _l
}_e{425 729 483 713 524 682 _c
564 650 585 606 585 549 _c
585 504 574 468 553 442 _c
532 416 502 399 462 393 _c
510 382 548 360 575 327 _c
601 294 615 253 615 204 _c
615 138 592 88 548 53 _c
504 17 441 0 360 0 _c
98 0 _l
98 729 _l
_cl}_e}_d
/C{{698 0 56 -13 644 742 _sc
644 673 _m
644 569 _l
610 599 575 622 537 638 _c
499 653 460 661 418 661 _c
334 661 270 635 226 584 _c
182 533 160 460 160 364 _c
160 268 182 194 226 143 _c
270 92 334 67 418 67 _c
460 67 499 74 537 90 _c
575 105 610 128 644 159 _c
644 56 _l
609 32 572 15 534 4 _c
496 -7 455 -13 412 -13 _c
302 -13 215 20 151 87 _c
}_e{87 154 56 246 56 364 _c
56 481 87 573 151 641 _c
215 708 302 742 412 742 _c
456 742 497 736 535 725 _c
573 713 610 696 644 673 _c
_cl}_e}_d
/T{611 0 -2 0 614 729 _sc
-2 729 _m
614 729 _l
614 646 _l
355 646 _l
355 0 _l
256 0 _l
256 646 _l
-2 646 _l
-2 729 _l
_cl}_d
/bracketleft{390 0 86 -131 293 760 _sc
86 760 _m
293 760 _l
293 690 _l
176 690 _l
176 -61 _l
293 -61 _l
293 -131 _l
86 -131 _l
86 760 _l
_cl}_d
/bracketright{390 0 97 -131 304 760 _sc
304 760 _m
304 -131 _l
97 -131 _l
97 -61 _l
214 -61 _l
214 690 _l
97 690 _l
97 760 _l
304 760 _l
_cl}_d
/a{{613 0 60 -13 522 560 _sc
343 275 _m
270 275 220 266 192 250 _c
164 233 150 205 150 165 _c
150 133 160 107 181 89 _c
202 70 231 61 267 61 _c
317 61 357 78 387 114 _c
417 149 432 196 432 255 _c
432 275 _l
343 275 _l
522 312 _m
522 0 _l
432 0 _l
432 83 _l
411 49 385 25 355 10 _c
325 -5 287 -13 243 -13 _c
187 -13 142 2 109 33 _c
76 64 60 106 60 159 _c
}_e{60 220 80 266 122 298 _c
163 329 224 345 306 345 _c
432 345 _l
432 354 _l
432 395 418 427 391 450 _c
364 472 326 484 277 484 _c
245 484 215 480 185 472 _c
155 464 127 453 100 439 _c
100 522 _l
132 534 164 544 195 550 _c
226 556 256 560 286 560 _c
365 560 424 539 463 498 _c
502 457 522 395 522 312 _c
_cl}_e}_d
/e{{615 0 55 -13 562 560 _sc
562 296 _m
562 252 _l
149 252 _l
153 190 171 142 205 110 _c
238 78 284 62 344 62 _c
378 62 412 66 444 74 _c
476 82 509 95 541 113 _c
541 28 _l
509 14 476 3 442 -3 _c
408 -9 373 -13 339 -13 _c
251 -13 182 12 131 62 _c
80 112 55 181 55 268 _c
55 357 79 428 127 481 _c
175 533 241 560 323 560 _c
397 560 455 536 498 489 _c
}_e{540 441 562 377 562 296 _c
472 322 _m
471 371 457 410 431 440 _c
404 469 368 484 324 484 _c
274 484 234 469 204 441 _c
174 413 156 373 152 322 _c
472 322 _l
_cl}_e}_d
/i{278 0 94 0 184 760 _sc
94 547 _m
184 547 _l
184 0 _l
94 0 _l
94 547 _l
94 760 _m
184 760 _l
184 646 _l
94 646 _l
94 760 _l
_cl}_d
/m{{974 0 91 0 889 560 _sc
520 442 _m
542 482 569 511 600 531 _c
631 550 668 560 711 560 _c
767 560 811 540 842 500 _c
873 460 889 403 889 330 _c
889 0 _l
799 0 _l
799 327 _l
799 379 789 418 771 444 _c
752 469 724 482 686 482 _c
639 482 602 466 575 435 _c
548 404 535 362 535 309 _c
535 0 _l
445 0 _l
445 327 _l
445 379 435 418 417 444 _c
398 469 369 482 331 482 _c
}_e{285 482 248 466 221 435 _c
194 404 181 362 181 309 _c
181 0 _l
91 0 _l
91 547 _l
181 547 _l
181 462 _l
201 495 226 520 255 536 _c
283 552 317 560 357 560 _c
397 560 430 550 458 530 _c
486 510 506 480 520 442 _c
_cl}_e}_d
/n{634 0 91 0 549 560 _sc
549 330 _m
549 0 _l
459 0 _l
459 327 _l
459 379 448 417 428 443 _c
408 469 378 482 338 482 _c
289 482 251 466 223 435 _c
195 404 181 362 181 309 _c
181 0 _l
91 0 _l
91 547 _l
181 547 _l
181 462 _l
202 494 227 519 257 535 _c
286 551 320 560 358 560 _c
420 560 468 540 500 501 _c
532 462 549 405 549 330 _c
_cl}_d
/r{411 0 91 0 411 560 _sc
411 463 _m
401 469 390 473 378 476 _c
366 478 353 480 339 480 _c
288 480 249 463 222 430 _c
194 397 181 350 181 288 _c
181 0 _l
91 0 _l
91 547 _l
181 547 _l
181 462 _l
199 495 224 520 254 536 _c
284 552 321 560 365 560 _c
371 560 378 559 386 559 _c
393 558 401 557 411 555 _c
411 463 _l
_cl}_d
/s{{521 0 54 -13 472 560 _sc
443 531 _m
443 446 _l
417 458 391 468 364 475 _c
336 481 308 485 279 485 _c
234 485 200 478 178 464 _c
156 450 145 430 145 403 _c
145 382 153 366 169 354 _c
185 342 217 330 265 320 _c
296 313 _l
360 299 405 279 432 255 _c
458 230 472 195 472 151 _c
472 100 452 60 412 31 _c
372 1 316 -13 246 -13 _c
216 -13 186 -10 154 -5 _c
}_e{122 0 89 8 54 20 _c
54 113 _l
87 95 120 82 152 74 _c
184 65 216 61 248 61 _c
290 61 323 68 346 82 _c
368 96 380 117 380 144 _c
380 168 371 187 355 200 _c
339 213 303 226 247 238 _c
216 245 _l
160 257 119 275 95 299 _c
70 323 58 356 58 399 _c
58 450 76 490 112 518 _c
148 546 200 560 268 560 _c
301 560 332 557 362 552 _c
391 547 418 540 443 531 _c
}_e{_cl}_e}_d
/t{392 0 27 0 368 702 _sc
183 702 _m
183 547 _l
368 547 _l
368 477 _l
183 477 _l
183 180 _l
183 135 189 106 201 94 _c
213 81 238 75 276 75 _c
368 75 _l
368 0 _l
276 0 _l
206 0 158 13 132 39 _c
106 65 93 112 93 180 _c
93 477 _l
27 477 _l
27 547 _l
93 547 _l
93 702 _l
183 702 _l
_cl}_d
/u{634 0 85 -13 543 560 _sc
85 216 _m
85 547 _l
175 547 _l
175 219 _l
175 167 185 129 205 103 _c
225 77 255 64 296 64 _c
344 64 383 79 411 110 _c
439 141 453 183 453 237 _c
453 547 _l
543 547 _l
543 0 _l
453 0 _l
453 84 _l
431 50 405 26 377 10 _c
348 -5 315 -13 277 -13 _c
214 -13 166 6 134 45 _c
101 83 85 140 85 216 _c
311 560 _m
311 560 _l
_cl}_d
/y{592 0 30 -207 562 547 _sc
322 -50 _m
296 -114 271 -157 247 -177 _c
223 -197 191 -207 151 -207 _c
79 -207 _l
79 -132 _l
132 -132 _l
156 -132 175 -126 189 -114 _c
203 -102 218 -75 235 -31 _c
251 9 _l
30 547 _l
125 547 _l
296 119 _l
467 547 _l
562 547 _l
322 -50 _l
_cl}_d
/minus{838 0 106 272 732 355 _sc
106 355 _m
732 355 _l
732 272 _l
106 272 _l
106 355 _l
_cl}_d
end readonly def

/BuildGlyph
 {exch begin
 CharStrings exch
 2 copy known not{pop /.notdef}if
 true 3 1 roll get exec
 end}_d

/BuildChar {
 1 index /Encoding get exch get
 1 index /BuildGlyph get exec
}_d

FontName currentdict end definefont pop
end
%%EndProlog
mpldict begin
90 252 translate
432 288 0 0 clipbox
gsave
0 0 m
432 0 l
432 288 l
0 288 l
cl
1.000 setgray
fill
grestore
gsave
54 36 m
388.8 36 l
388.8 253.44 l
54 253.44 l
cl
1.000 setgray
fill
grestore
0.800 setlinewidth
1 setlinejoin
2 setlinecap
[] 0 setdash
0.690 setgray
gsave
334.8 217.4 54 36 clipbox
69.218182 36 m
69.218182 253.44 l
stroke
grestore
0 setlinecap
0.000 setgray
gsave
/o {
gsave
newpath
translate
0.8 setlinewidth
1 setlinejoin
0 setlinecap
0 0 m
0 -3.5 l

gsave
0.000 setgray
fill
grestore
stroke
grestore
} bind def
69.2182 36 o
grestore
/DejaVuSans findfont
10.000 scalefont
setfont
gsave
66.038494 21.406250 translate
0.000000 rotate
0.000000 0.000000 m /zero glyphshow
grestore
2 setlinecap
0.690 setgray
gsave
334.8 217.4 54 36 clipbox
112.729781 36 m
112.729781 253.44 l
stroke
grestore
0 setlinecap
0.000 setgray
gsave
/o {
gsave
newpath
translate
0.8 setlinewidth
1 setlinejoin
0 setlinecap
0 0 m
0 -3.5 l

gsave
0.000 setgray
fill
grestore
stroke
grestore
} bind def
112.73 36 o
grestore
gsave
103.190719 21.406250 translate
0.000000 rotate
0.000000 0.000000 m /two glyphshow
6.362305 0.000000 m /zero glyphshow
12.724609 0.000000 m /zero glyphshow
grestore
2 setlinecap
0.690 setgray
gsave
334.8 217.4 54 36 clipbox
156.24138 36 m
156.24138 253.44 l
stroke
grestore
0 setlinecap
0.000 setgray
gsave
/o {
gsave
newpath
translate
0.8 setlinewidth
1 setlinejoin
0 setlinecap
0 0 m
0 -3.5 l

gsave
0.000 setgray
fill
grestore
stroke
grestore
} bind def
156.241 36 o
grestore
gsave
146.702318 21.406250 translate
0.000000 rotate
0.000000 0.000000 m /four glyphshow
6.362305 0.000000 m /zero glyphshow
12.724609 0.000000 m /zero glyphshow
grestore
2 setlinecap
0.690 setgray
gsave
334.8 217.4 54 36 clipbox
199.752979 36 m
199.752979 253.44 l
stroke
grestore
0 setlinecap
0.000 setgray
gsave
/o {
gsave
newpath
translate
0.8 setlinewidth
1 setlinejoin
0 setlinecap
0 0 m
0 -3.5 l

gsave
0.000 setgray
fill
grestore
stroke
grestore
} bind def
199.753 36 o
grestore
gsave
190.213917 21.406250 translate
0.000000 rotate
0.000000 0.000000 m /six glyphshow
6.362305 0.000000 m /zero glyphshow
12.724609 0.000000 m /zero glyphshow
grestore
2 setlinecap
0.690 setgray
gsave
334.8 217.4 54 36 clipbox
243.264579 36 m
243.264579 253.44 l
stroke
grestore
0 setlinecap
0.000 setgray
gsave
/o {
gsave
newpath
translate
0.8 setlinewidth
1 setlinejoin
0 setlinecap
0 0 m
0 -3.5 l

gsave
0.000 setgray
fill
grestore
stroke
grestore
} bind def
243.265 36 o
grestore
gsave
233.725516 21.406250 translate
0.000000 rotate
0.000000 0.000000 m /eight glyphshow
6.362305 0.000000 m /zero glyphshow
12.724609 0.000000 m /zero glyphshow
grestore
2 setlinecap
0.690 setgray
gsave
334.8 217.4 54 36 clipbox
286.776178 36 m
286.776178 253.44 l
stroke
grestore
0 setlinecap
0.000 setgray
gsave
/o {
gsave
newpath
translate
0.8 setlinewidth
1 setlinejoin
0 setlinecap
0 0 m
0 -3.5 l

gsave
0.000 setgray
fill
grestore
stroke
grestore
} bind def
286.776 36 o
grestore
gsave
274.057428 21.406250 translate
0.000000 rotate
0.000000 0.000000 m /one glyphshow
6.362305 0.000000 m /zero glyphshow
12.724609 0.000000 m /zero glyphshow
19.086914 0.000000 m /zero glyphshow
grestore
2 setlinecap
0.690 setgray
gsave
334.8 217.4 54 36 clipbox
330.287777 36 m
330.287777 253.44 l
stroke
grestore
0 setlinecap
0.000 setgray
gsave
/o {
gsave
newpath
translate
0.8 setlinewidth
1 setlinejoin
0 setlinecap
0 0 m
0 -3.5 l

gsave
0.000 setgray
fill
grestore
stroke
grestore
} bind def
330.288 36 o
grestore
gsave
317.569027 21.406250 translate
0.000000 rotate
0.000000 0.000000 m /one glyphshow
6.362305 0.000000 m /two glyphshow
12.724609 0.000000 m /zero glyphshow
19.086914 0.000000 m /zero glyphshow
grestore
2 setlinecap
0.690 setgray
gsave
334.8 217.4 54 36 clipbox
373.799376 36 m
373.799376 253.44 l
stroke
grestore
0 setlinecap
0.000 setgray
gsave
/o {
gsave
newpath
translate
0.8 setlinewidth
1 setlinejoin
0 setlinecap
0 0 m
0 -3.5 l

gsave
0.000 setgray
fill
grestore
stroke
grestore
} bind def
373.799 36 o
grestore
gsave
361.080626 21.406250 translate
0.000000 rotate
0.000000 0.000000 m /one glyphshow
6.362305 0.000000 m /four glyphshow
12.724609 0.000000 m /zero glyphshow
19.086914 0.000000 m /zero glyphshow
grestore
gsave
200.892188 7.734375 translate
0.000000 rotate
0.000000 0.000000 m /T glyphshow
6.108398 0.000000 m /i glyphshow
8.886719 0.000000 m /m glyphshow
18.627930 0.000000 m /e glyphshow
24.780273 0.000000 m /space glyphshow
27.958984 0.000000 m /bracketleft glyphshow
31.860352 0.000000 m /s glyphshow
37.070312 0.000000 m /bracketright glyphshow
grestore
2 setlinecap
0.690 setgray
gsave
334.8 217.4 54 36 clipbox
54 49.680448 m
388.8 49.680448 l
stroke
grestore
0 setlinecap
0.000 setgray
gsave
/o {
gsave
newpath
translate
0.8 setlinewidth
1 setlinejoin
0 setlinecap
0 0 m
-3.5 0 l

gsave
0.000 setgray
fill
grestore
stroke
grestore
} bind def
54 49.6804 o
grestore
gsave
19.546875 45.883573 translate
0.000000 rotate
0.000000 0.000000 m /minus glyphshow
8.378906 0.000000 m /one glyphshow
14.741211 0.000000 m /zero glyphshow
21.103516 0.000000 m /zero glyphshow
grestore
2 setlinecap
0.690 setgray
gsave
334.8 217.4 54 36 clipbox
54 75.870722 m
388.8 75.870722 l
stroke
grestore
0 setlinecap
0.000 setgray
gsave
/o {
gsave
newpath
translate
0.8 setlinewidth
1 setlinejoin
0 setlinecap
0 0 m
-3.5 0 l

gsave
0.000 setgray
fill
grestore
stroke
grestore
} bind def
54 75.8707 o
grestore
gsave
25.906250 72.073847 translate
0.000000 rotate
0.000000 0.000000 m /minus glyphshow
8.378906 0.000000 m /seven glyphshow
14.741211 0.000000 m /five glyphshow
grestore
2 setlinecap
0.690 setgray
gsave
334.8 217.4 54 36 clipbox
54 102.060997 m
388.8 102.060997 l
stroke
grestore
0 setlinecap
0.000 setgray
gsave
/o {
gsave
newpath
translate
0.8 setlinewidth
1 setlinejoin
0 setlinecap
0 0 m
-3.5 0 l

gsave
0.000 setgray
fill
grestore
stroke
grestore
} bind def
54 102.061 o
grestore
gsave
25.906250 98.264122 translate
0.000000 rotate
0.000000 0.000000 m /minus glyphshow
8.378906 0.000000 m /five glyphshow
14.741211 0.000000 m /zero glyphshow
grestore
2 setlinecap
0.690 setgray
gsave
334.8 217.4 54 36 clipbox
54 128.251271 m
388.8 128.251271 l
stroke
grestore
0 setlinecap
0.000 setgray
gsave
/o {
gsave
newpath
translate
0.8 setlinewidth
1 setlinejoin
0 setlinecap
0 0 m
-3.5 0 l

gsave
0.000 setgray
fill
grestore
stroke
grestore
} bind def
54 128.251 o
grestore
gsave
25.906250 124.454396 translate
0.000000 rotate
0.000000 0.000000 m /minus glyphshow
8.378906 0.000000 m /two glyphshow
14.741211 0.000000 m /five glyphshow
grestore
2 setlinecap
0.690 setgray
gsave
334.8 217.4 54 36 clipbox
54 154.441545 m
388.8 154.441545 l
stroke
grestore
0 setlinecap
0.000 setgray
gsave
/o {
gsave
newpath
translate
0.8 setlinewidth
1 setlinejoin
0 setlinecap
0 0 m
-3.5 0 l

gsave
0.000 setgray
fill
grestore
stroke
grestore
} bind def
54 154.442 o
grestore
gsave
40.640625 150.644670 translate
0.000000 rotate
0.000000 0.000000 m /zero glyphshow
grestore
2 setlinecap
0.690 setgray
gsave
334.8 217.4 54 36 clipbox
54 180.63182 m
388.8 180.63182 l
stroke
grestore
0 setlinecap
0.000 setgray
gsave
/o {
gsave
newpath
translate
0.8 setlinewidth
1 setlinejoin
0 setlinecap
0 0 m
-3.5 0 l

gsave
0.000 setgray
fill
grestore
stroke
grestore
} bind def
54 180.632 o
grestore
gsave
34.281250 176.834945 translate
0.000000 rotate
0.000000 0.000000 m /two glyphshow
6.362305 0.000000 m /five glyphshow
grestore
2 setlinecap
0.690 setgray
gsave
334.8 217.4 54 36 clipbox
54 206.822094 m
388.8 206.822094 l
stroke
grestore
0 setlinecap
0.000 setgray
gsave
/o {
gsave
newpath
translate
0.8 setlinewidth
1 setlinejoin
0 setlinecap
0 0 m
-3.5 0 l

gsave
0.000 setgray
fill
grestore
stroke
grestore
} bind def
54 206.822 o
grestore
gsave
34.281250 203.025219 translate
0.000000 rotate
0.000000 0.000000 m /five glyphshow
6.362305 0.000000 m /zero glyphshow
grestore
2 setlinecap
0.690 setgray
gsave
334.8 217.4 54 36 clipbox
54 233.012368 m
388.8 233.012368 l
stroke
grestore
0 setlinecap
0.000 setgray
gsave
/o {
gsave
newpath
translate
0.8 setlinewidth
1 setlinejoin
0 setlinecap
0 0 m
-3.5 0 l

gsave
0.000 setgray
fill
grestore
stroke
grestore
} bind def
54 233.012 o
grestore
gsave
34.281250 229.215493 translate
0.000000 rotate
0.000000 0.000000 m /seven glyphshow
6.362305 0.000000 m /five glyphshow
grestore
gsave
13.468750 96.712187 translate
90.000000 rotate
0.000000 0.000000 m /B glyphshow
6.860352 0.000000 m /a glyphshow
12.988281 0.000000 m /t glyphshow
16.909180 0.000000 m /t glyphshow
20.830078 0.000000 m /e glyphshow
26.982422 0.000000 m /r glyphshow
31.093750 0.000000 m /y glyphshow
37.011719 0.000000 m /space glyphshow
40.190430 0.000000 m /C glyphshow
47.172852 0.000000 m /u glyphshow
53.510742 0.000000 m /r glyphshow
57.622070 0.000000 m /r glyphshow
61.733398 0.000000 m /e glyphshow
67.885742 0.000000 m /n glyphshow
74.223633 0.000000 m /t glyphshow
78.144531 0.000000 m /space glyphshow
81.323242 0.000000 m /bracketleft glyphshow
85.224609 0.000000 m /A glyphshow
92.065430 0.000000 m /bracketright glyphshow
grestore
1.500 setlinewidth
2 setlinecap
0.122 0.467 0.706 setrgbcolor
gsave
334.8 217.4 54 36 clipbox
69.218182 154.458154 m
69.43574 154.390289 l
69.653298 154.400411 l
70.088414 154.689823 l
70.305972 154.615876 l
70.741088 153.885853 l
70.958646 153.919927 l
71.61132 155.750649 l
71.828878 154.516553 l
72.263994 151.28308 l
72.481552 153.237114 l
73.134226 169.248884 l
73.351784 167.395445 l
74.222016 140.805486 l
74.439574 143.050847 l
74.87469 148.542904 l
75.092248 148.630118 l
75.309806 149.392856 l
75.527364 154.073982 l
75.96248 178.020294 l
76.397596 199.462555 l
76.615154 198.412457 l
76.832712 187.597998 l
77.267828 153.75622 l
77.485386 145.356391 l
77.702944 150.109991 l
78.355618 202.106382 l
78.573176 203.118978 l
79.008292 173.415039 l
79.22585 159.274688 l
79.443408 154.052298 l
79.660966 156.981867 l
80.096082 168.366242 l
80.31364 170.51616 l
80.531198 170.586172 l
80.748756 169.569579 l
80.966314 167.377258 l
81.40143 157.737073 l
81.836546 149.55229 l
82.054104 150.279001 l
82.706778 161.050069 l
82.924336 161.589205 l
83.141894 158.937056 l
83.57701 143.08043 l
84.012126 127.437538 l
84.229684 128.313168 l
84.6648 147.828504 l
84.882358 157.576734 l
85.099916 161.508402 l
85.317474 159.294338 l
85.75259 151.642609 l
85.970148 153.684478 l
86.622821 172.177247 l
86.840379 173.245363 l
87.275495 171.037382 l
87.493053 171.614585 l
87.710611 171.851303 l
87.928169 167.076211 l
88.145727 152.957352 l
89.015959 56.317084 l
89.233517 57.258473 l
89.668633 95.188993 l
90.103749 129.713586 l
90.538865 138.879235 l
90.756423 140.138672 l
90.973981 154.438999 l
92.714445 154.522405 l
92.932003 154.586225 l
93.149561 154.525251 l
93.584677 154.033861 l
93.802235 154.041152 l
94.019793 154.3473 l
94.454909 155.522189 l
94.672467 155.200898 l
95.325141 150.896902 l
95.542699 151.921112 l
96.195373 162.635021 l
96.412931 162.439345 l
96.848047 155.328363 l
97.065605 154.538963 l
97.283163 159.2492 l
97.935837 187.407764 l
98.153395 188.047685 l
98.370953 181.924373 l
98.806069 163.582939 l
99.023627 159.01121 l
99.241185 159.049286 l
99.676301 163.826888 l
99.893859 163.227882 l
100.111417 159.22042 l
100.764091 143.542672 l
100.981649 143.741492 l
101.416765 152.275038 l
101.851881 158.671874 l
102.286997 159.258568 l
102.504555 161.271096 l
103.374787 179.358695 l
103.592345 178.767908 l
103.809903 174.387267 l
104.027461 165.625781 l
104.462577 130.483958 l
104.897693 83.110069 l
105.115251 69.690509 l
105.332809 71.066187 l
105.550367 87.283026 l
106.203041 151.488493 l
106.420599 157.226824 l
106.638157 157.906986 l
106.855715 160.757729 l
107.073273 170.088814 l
107.508389 197.233883 l
107.725947 202.078511 l
107.943505 196.597515 l
108.378621 173.851462 l
108.596179 170.67076 l
108.813737 176.594108 l
109.248853 196.316985 l
109.466411 197.398395 l
109.683969 189.761823 l
110.119085 165.184283 l
110.336643 158.263501 l
110.554201 157.067529 l
110.989317 159.775974 l
111.206875 157.857229 l
111.641991 150.288459 l
111.859549 150.643566 l
112.077107 156.573234 l
112.512223 180.087072 l
112.729781 154.443354 l
113.600013 154.478164 l
114.252687 154.285787 l
114.687803 154.581314 l
115.122919 154.854699 l
115.340477 154.658562 l
115.993151 153.421664 l
116.210709 154.048352 l
116.428267 155.992238 l
116.863383 163.968472 l
117.298499 172.179652 l
117.516057 173.552627 l
117.733615 172.473298 l
118.386289 165.138114 l
118.603847 165.146341 l
119.038963 167.075061 l
119.256521 166.29281 l
119.691637 159.26576 l
120.126753 152.615344 l
120.344311 152.552436 l
120.561869 154.961419 l
121.432101 171.465659 l
121.867217 174.238209 l
122.519891 176.744919 l
122.737449 174.606202 l
122.955007 168.514742 l
123.390123 150.482845 l
123.607681 148.451614 l
123.825239 158.146136 l
124.695471 243.556364 l
124.913029 234.180402 l
125.783261 134.317602 l
126.000819 135.966533 l
126.653493 170.20613 l
126.871051 172.519703 l
127.523725 164.528999 l
127.741283 164.465075 l
127.958841 164.95571 l
128.176399 164.388197 l
129.046631 156.396967 l
129.264189 158.049852 l
129.916863 165.853521 l
130.134421 166.241926 l
130.351979 165.355453 l
130.787095 162.593416 l
131.004653 161.891865 l
131.222211 161.797861 l
131.657327 162.186743 l
131.874885 162.134067 l
132.527559 161.509062 l
132.745117 161.531738 l
133.832907 162.247525 l
134.268023 163.093674 l
134.485581 154.428439 l
135.355813 154.434601 l
136.443603 154.412083 l
137.096277 154.657788 l
137.313835 154.62346 l
137.748951 154.027662 l
138.184067 153.228081 l
138.401625 153.006274 l
138.619183 153.196683 l
138.836741 153.701512 l
139.271857 156.053926 l
139.924531 162.012921 l
140.577204 167.302307 l
142.10011 173.94336 l
142.317668 173.06147 l
142.752784 168.258209 l
143.1879 163.480607 l
143.623016 160.481065 l
143.840574 157.731324 l
144.27569 145.740161 l
144.928364 123.963106 l
145.145922 122.793003 l
145.36348 126.089062 l
146.668828 163.478527 l
147.321502 169.653992 l
147.53906 170.79431 l
147.756618 170.82982 l
147.974176 169.766972 l
148.62685 165.322257 l
148.844408 165.361299 l
149.279524 167.036371 l
149.497082 167.087314 l
149.71464 165.889591 l
150.149756 159.695067 l
150.584872 153.009512 l
150.80243 151.299576 l
151.019988 151.181056 l
151.237546 152.590884 l
151.672662 158.851118 l
152.325336 170.219968 l
152.542894 171.508038 l
152.760452 169.903528 l
152.97801 164.777543 l
154.0658 125.10567 l
154.283358 127.311243 l
154.718474 143.579566 l
155.15359 159.912665 l
155.371148 163.046959 l
155.588706 162.379811 l
156.24138 154.426914 l
157.111612 154.411401 l
158.199402 154.655308 l
158.634518 154.203154 l
159.069634 153.620696 l
159.287192 153.602319 l
159.50475 154.033833 l
159.722308 155.018558 l
160.157424 158.834209 l
161.027656 169.149276 l
161.245214 170.170671 l
161.462772 169.786495 l
161.68033 167.697587 l
162.115446 159.016203 l
162.76812 144.268232 l
162.985678 142.430876 l
163.203236 143.181908 l
163.420794 146.365391 l
164.291026 166.461922 l
164.508584 168.24646 l
164.726142 167.700953 l
165.161258 161.987982 l
165.596374 156.352154 l
165.813932 155.613317 l
166.03149 156.723117 l
166.466606 162.991533 l
166.901722 169.883034 l
167.11928 171.600692 l
167.336838 171.73742 l
167.554396 170.353299 l
168.424628 161.602445 l
168.642186 161.713966 l
169.077302 164.905318 l
169.947534 171.58281 l
170.165092 175.28831 l
170.600208 190.660008 l
171.252882 220.924145 l
171.47044 224.782229 l
171.687998 222.809626 l
171.905556 215.1484 l
173.210904 144.277467 l
173.64602 133.010909 l
174.081136 127.406832 l
174.298694 128.059707 l
174.516252 131.764557 l
174.951368 146.54538 l
175.386484 162.174619 l
175.604042 166.696683 l
175.8216 168.203627 l
176.039158 167.023557 l
177.126948 152.117536 l
177.344506 151.341469 l
177.562064 151.33379 l
177.779622 151.682748 l
177.99718 154.444097 l
178.649854 154.389657 l
179.302528 154.5064 l
180.17276 154.559392 l
181.478108 154.987202 l
181.695666 154.580139 l
181.913224 153.67012 l
182.34834 149.584344 l
182.783456 142.324382 l
183.653688 126.27568 l
183.871246 124.501623 l
184.088804 124.192127 l
184.306362 125.560122 l
184.741478 132.576983 l
186.481942 170.733237 l
186.917058 175.456213 l
187.134616 176.647928 l
187.352174 177.087935 l
187.569732 176.49019 l
187.78729 175.223758 l
188.87508 165.411683 l
189.092638 165.280992 l
189.310196 166.332068 l
189.745312 171.638236 l
190.615544 185.736245 l
190.833102 187.495487 l
191.05066 187.861534 l
191.268218 186.732206 l
191.485776 184.203503 l
191.920892 175.604813 l
193.008682 151.454669 l
193.661356 143.378361 l
194.096472 140.391242 l
194.31403 139.572044 l
194.531587 139.574185 l
194.749145 140.091801 l
194.966703 141.598886 l
195.401819 146.973336 l
196.489609 163.585313 l
197.142283 169.514753 l
197.794957 176.224492 l
198.665189 186.237131 l
198.882747 186.91698 l
199.100305 186.588937 l
199.535421 183.143514 l
199.752979 154.441207 l
200.623211 154.460841 l
201.058327 154.400958 l
201.493443 154.565689 l
201.928559 154.194855 l
202.363675 154.869944 l
202.581233 154.542014 l
202.798791 153.849586 l
203.016349 154.06294 l
203.233907 155.207361 l
203.451465 155.261501 l
203.669023 153.484402 l
203.886581 153.919385 l
204.104139 162.407848 l
204.539255 191.417328 l
204.756813 190.032315 l
205.409487 145.15728 l
205.627045 149.089773 l
206.062161 162.2125 l
206.279719 161.092301 l
206.497277 159.346945 l
206.714835 161.129291 l
206.932393 164.869503 l
207.149951 164.932707 l
207.367509 157.356323 l
207.802625 131.399128 l
208.020183 124.600609 l
208.237741 125.254968 l
208.455299 132.447657 l
208.890415 154.472003 l
209.107973 153.767287 l
209.325531 134.281475 l
209.760647 72.792507 l
209.978205 66.865994 l
210.195763 85.999175 l
210.630879 141.849448 l
210.848437 151.89129 l
211.065995 147.625938 l
211.283553 137.45548 l
211.501111 133.282743 l
211.718669 143.585683 l
212.153785 183.346283 l
212.371343 183.910237 l
213.024017 138.844665 l
213.241575 138.806078 l
213.676691 143.002478 l
214.111807 152.952198 l
214.329365 150.364281 l
214.546923 130.282715 l
214.982039 64.887476 l
215.199597 51.194553 l
215.417155 56.056338 l
215.634713 66.781819 l
215.852271 69.979767 l
216.504945 45.883636 l
216.722503 49.768454 l
217.157619 77.787597 l
218.027851 145.103903 l
218.245409 151.323069 l
218.898083 157.197655 l
219.333199 164.451162 l
219.550757 163.543138 l
219.985873 151.427667 l
220.203431 145.621291 l
220.420989 144.10808 l
220.638547 147.813172 l
221.291221 171.540257 l
221.508779 154.441545 l
330.070219 154.441545 l
330.287777 123.096847 l
330.505335 116.475027 l
330.722893 191.566813 l
330.940451 132.051704 l
331.375567 187.576062 l
331.593125 135.781255 l
331.810683 188.592237 l
332.028241 136.086214 l
332.245799 162.61534 l
332.463357 137.504537 l
332.680915 176.277498 l
332.898473 146.820949 l
333.116031 184.486606 l
333.333589 164.540686 l
333.551147 173.004419 l
333.768705 163.861654 l
333.986263 138.444583 l
334.203821 143.668179 l
334.421379 104.206432 l
334.638937 115.192151 l
334.856495 72.520981 l
335.074053 113.48374 l
335.291611 62.642287 l
335.509169 95.08435 l
335.726727 83.994976 l
336.596959 151.578318 l
336.814517 155.493777 l
337.032075 155.518206 l
337.249633 159.728698 l
337.467191 211.307035 l
337.684749 177.487163 l
337.902307 213.307182 l
338.337423 143.296063 l
338.554981 177.162775 l
338.772539 160.459402 l
338.990097 155.20874 l
339.207655 191.313279 l
339.425213 110.102224 l
339.642771 193.410776 l
339.860329 196.357013 l
340.077887 128.529295 l
340.295445 218.254887 l
340.513003 117.96802 l
340.948119 169.887642 l
341.165677 150.259132 l
341.383235 172.620944 l
341.600793 142.861126 l
341.818351 147.554966 l
342.253467 80.441984 l
342.471025 69.830697 l
342.688583 48.949039 l
342.906141 52.833399 l
343.341257 85.292852 l
343.776373 133.28454 l
344.211489 154.393205 l
344.429047 155.510179 l
347.474859 155.518516 l
351.826019 155.518564 l
352.043577 154.441545 l
373.581818 154.441545 l
373.581818 154.441545 l
stroke
grestore
0.800 setlinewidth
0 setlinejoin
[] 0 setdash
0.000 setgray
gsave
54 36 m
54 253.44 l
stroke
grestore
gsave
388.8 36 m
388.8 253.44 l
stroke
grestore
gsave
54 36 m
388.8 36 l
stroke
grestore
gsave
54 253.44 m
388.8 253.44 l
stroke
grestore

end
showpage
