%!PS-Adobe-3.0 EPSF-3.0
%%Title: act_Ultracapacitor Voltage [V].eps
%%Creator: matplotlib version 2.0.0, http://matplotlib.org/
%%CreationDate: Mon May 15 16:20:10 2017
%%Orientation: portrait
%%BoundingBox: 90 252 522 540
%%EndComments
%%BeginProlog
/mpldict 8 dict def
mpldict begin
/m { moveto } bind def
/l { lineto } bind def
/r { rlineto } bind def
/c { curveto } bind def
/cl { closepath } bind def
/box {
m
1 index 0 r
0 exch r
neg 0 r
cl
} bind def
/clipbox {
box
clip
newpath
} bind def
%!PS-Adobe-3.0 Resource-Font
%%Title: DejaVu Sans
%%Copyright: Copyright (c) 2003 by Bitstream, Inc. All Rights Reserved. Copyright (c) 2006 by Tavmjong Bah. All Rights Reserved. DejaVu changes are in public domain 
%%Creator: Converted from TrueType to type 3 by PPR
25 dict begin
/_d{bind def}bind def
/_m{moveto}_d
/_l{lineto}_d
/_cl{closepath eofill}_d
/_c{curveto}_d
/_sc{7 -1 roll{setcachedevice}{pop pop pop pop pop pop}ifelse}_d
/_e{exec}_d
/FontName /DejaVuSans def
/PaintType 0 def
/FontMatrix[.001 0 0 .001 0 0]def
/FontBBox[-1021 -463 1793 1232]def
/FontType 3 def
/Encoding [ /space /zero /one /two /three /four /six /eight /T /U /V /bracketleft /bracketright /a /c /e /g /i /l /m /o /p /r /s /t ] def
/FontInfo 10 dict dup begin
/FamilyName (DejaVu Sans) def
/FullName (DejaVu Sans) def
/Notice (Copyright (c) 2003 by Bitstream, Inc. All Rights Reserved. Copyright (c) 2006 by Tavmjong Bah. All Rights Reserved. DejaVu changes are in public domain ) def
/Weight (Book) def
/Version (Version 2.35) def
/ItalicAngle 0.0 def
/isFixedPitch false def
/UnderlinePosition -130 def
/UnderlineThickness 90 def
end readonly def
/CharStrings 25 dict dup begin
/space{318 0 0 0 0 0 _sc
}_d
/zero{636 0 66 -13 570 742 _sc
318 664 _m
267 664 229 639 203 589 _c
177 539 165 464 165 364 _c
165 264 177 189 203 139 _c
229 89 267 64 318 64 _c
369 64 407 89 433 139 _c
458 189 471 264 471 364 _c
471 464 458 539 433 589 _c
407 639 369 664 318 664 _c
318 742 _m
399 742 461 709 505 645 _c
548 580 570 486 570 364 _c
570 241 548 147 505 83 _c
461 19 399 -13 318 -13 _c
236 -13 173 19 130 83 _c
87 147 66 241 66 364 _c
66 486 87 580 130 645 _c
173 709 236 742 318 742 _c
_cl}_d
/one{636 0 110 0 544 729 _sc
124 83 _m
285 83 _l
285 639 _l
110 604 _l
110 694 _l
284 729 _l
383 729 _l
383 83 _l
544 83 _l
544 0 _l
124 0 _l
124 83 _l
_cl}_d
/two{{636 0 73 0 536 742 _sc
192 83 _m
536 83 _l
536 0 _l
73 0 _l
73 83 _l
110 121 161 173 226 239 _c
290 304 331 346 348 365 _c
380 400 402 430 414 455 _c
426 479 433 504 433 528 _c
433 566 419 598 392 622 _c
365 646 330 659 286 659 _c
255 659 222 653 188 643 _c
154 632 117 616 78 594 _c
78 694 _l
118 710 155 722 189 730 _c
223 738 255 742 284 742 _c
}_e{359 742 419 723 464 685 _c
509 647 532 597 532 534 _c
532 504 526 475 515 449 _c
504 422 484 390 454 354 _c
446 344 420 317 376 272 _c
332 227 271 164 192 83 _c
_cl}_e}_d
/three{{636 0 76 -13 556 742 _sc
406 393 _m
453 383 490 362 516 330 _c
542 298 556 258 556 212 _c
556 140 531 84 482 45 _c
432 6 362 -13 271 -13 _c
240 -13 208 -10 176 -4 _c
144 1 110 10 76 22 _c
76 117 _l
103 101 133 89 166 81 _c
198 73 232 69 268 69 _c
330 69 377 81 409 105 _c
441 129 458 165 458 212 _c
458 254 443 288 413 312 _c
383 336 341 349 287 349 _c
}_e{202 349 _l
202 430 _l
291 430 _l
339 430 376 439 402 459 _c
428 478 441 506 441 543 _c
441 580 427 609 401 629 _c
374 649 336 659 287 659 _c
260 659 231 656 200 650 _c
169 644 135 635 98 623 _c
98 711 _l
135 721 170 729 203 734 _c
235 739 266 742 296 742 _c
370 742 429 725 473 691 _c
517 657 539 611 539 553 _c
539 513 527 479 504 451 _c
481 423 448 403 406 393 _c
_cl}_e}_d
/four{636 0 49 0 580 729 _sc
378 643 _m
129 254 _l
378 254 _l
378 643 _l
352 729 _m
476 729 _l
476 254 _l
580 254 _l
580 172 _l
476 172 _l
476 0 _l
378 0 _l
378 172 _l
49 172 _l
49 267 _l
352 729 _l
_cl}_d
/six{{636 0 70 -13 573 742 _sc
330 404 _m
286 404 251 388 225 358 _c
199 328 186 286 186 234 _c
186 181 199 139 225 109 _c
251 79 286 64 330 64 _c
374 64 409 79 435 109 _c
461 139 474 181 474 234 _c
474 286 461 328 435 358 _c
409 388 374 404 330 404 _c
526 713 _m
526 623 _l
501 635 476 644 451 650 _c
425 656 400 659 376 659 _c
310 659 260 637 226 593 _c
}_e{192 549 172 482 168 394 _c
187 422 211 444 240 459 _c
269 474 301 482 336 482 _c
409 482 467 459 509 415 _c
551 371 573 310 573 234 _c
573 159 550 99 506 54 _c
462 9 403 -13 330 -13 _c
246 -13 181 19 137 83 _c
92 147 70 241 70 364 _c
70 479 97 571 152 639 _c
206 707 280 742 372 742 _c
396 742 421 739 447 735 _c
472 730 498 723 526 713 _c
_cl}_e}_d
/eight{{636 0 68 -13 568 742 _sc
318 346 _m
271 346 234 333 207 308 _c
180 283 167 249 167 205 _c
167 161 180 126 207 101 _c
234 76 271 64 318 64 _c
364 64 401 76 428 102 _c
455 127 469 161 469 205 _c
469 249 455 283 429 308 _c
402 333 365 346 318 346 _c
219 388 _m
177 398 144 418 120 447 _c
96 476 85 511 85 553 _c
85 611 105 657 147 691 _c
188 725 245 742 318 742 _c
}_e{390 742 447 725 489 691 _c
530 657 551 611 551 553 _c
551 511 539 476 515 447 _c
491 418 459 398 417 388 _c
464 377 501 355 528 323 _c
554 291 568 251 568 205 _c
568 134 546 80 503 43 _c
459 5 398 -13 318 -13 _c
237 -13 175 5 132 43 _c
89 80 68 134 68 205 _c
68 251 81 291 108 323 _c
134 355 171 377 219 388 _c
183 544 _m
183 506 194 476 218 455 _c
}_e{242 434 275 424 318 424 _c
360 424 393 434 417 455 _c
441 476 453 506 453 544 _c
453 582 441 611 417 632 _c
393 653 360 664 318 664 _c
275 664 242 653 218 632 _c
194 611 183 582 183 544 _c
_cl}_e}_d
/T{611 0 -2 0 614 729 _sc
-2 729 _m
614 729 _l
614 646 _l
355 646 _l
355 0 _l
256 0 _l
256 646 _l
-2 646 _l
-2 729 _l
_cl}_d
/U{732 0 87 -13 645 729 _sc
87 729 _m
186 729 _l
186 286 _l
186 208 200 151 228 117 _c
256 83 302 66 366 66 _c
429 66 475 83 503 117 _c
531 151 546 208 546 286 _c
546 729 _l
645 729 _l
645 274 _l
645 178 621 107 574 59 _c
527 11 458 -13 366 -13 _c
274 -13 204 11 157 59 _c
110 107 87 178 87 274 _c
87 729 _l
_cl}_d
/V{684 0 8 0 676 729 _sc
286 0 _m
8 729 _l
111 729 _l
342 115 _l
573 729 _l
676 729 _l
398 0 _l
286 0 _l
_cl}_d
/bracketleft{390 0 86 -131 293 760 _sc
86 760 _m
293 760 _l
293 690 _l
176 690 _l
176 -61 _l
293 -61 _l
293 -131 _l
86 -131 _l
86 760 _l
_cl}_d
/bracketright{390 0 97 -131 304 760 _sc
304 760 _m
304 -131 _l
97 -131 _l
97 -61 _l
214 -61 _l
214 690 _l
97 690 _l
97 760 _l
304 760 _l
_cl}_d
/a{{613 0 60 -13 522 560 _sc
343 275 _m
270 275 220 266 192 250 _c
164 233 150 205 150 165 _c
150 133 160 107 181 89 _c
202 70 231 61 267 61 _c
317 61 357 78 387 114 _c
417 149 432 196 432 255 _c
432 275 _l
343 275 _l
522 312 _m
522 0 _l
432 0 _l
432 83 _l
411 49 385 25 355 10 _c
325 -5 287 -13 243 -13 _c
187 -13 142 2 109 33 _c
76 64 60 106 60 159 _c
}_e{60 220 80 266 122 298 _c
163 329 224 345 306 345 _c
432 345 _l
432 354 _l
432 395 418 427 391 450 _c
364 472 326 484 277 484 _c
245 484 215 480 185 472 _c
155 464 127 453 100 439 _c
100 522 _l
132 534 164 544 195 550 _c
226 556 256 560 286 560 _c
365 560 424 539 463 498 _c
502 457 522 395 522 312 _c
_cl}_e}_d
/c{{550 0 55 -13 488 560 _sc
488 526 _m
488 442 _l
462 456 437 466 411 473 _c
385 480 360 484 334 484 _c
276 484 230 465 198 428 _c
166 391 150 339 150 273 _c
150 206 166 154 198 117 _c
230 80 276 62 334 62 _c
360 62 385 65 411 72 _c
437 79 462 90 488 104 _c
488 21 _l
462 9 436 0 410 -5 _c
383 -10 354 -13 324 -13 _c
242 -13 176 12 128 64 _c
}_e{79 115 55 185 55 273 _c
55 362 79 432 128 483 _c
177 534 244 560 330 560 _c
358 560 385 557 411 551 _c
437 545 463 537 488 526 _c
_cl}_e}_d
/e{{615 0 55 -13 562 560 _sc
562 296 _m
562 252 _l
149 252 _l
153 190 171 142 205 110 _c
238 78 284 62 344 62 _c
378 62 412 66 444 74 _c
476 82 509 95 541 113 _c
541 28 _l
509 14 476 3 442 -3 _c
408 -9 373 -13 339 -13 _c
251 -13 182 12 131 62 _c
80 112 55 181 55 268 _c
55 357 79 428 127 481 _c
175 533 241 560 323 560 _c
397 560 455 536 498 489 _c
}_e{540 441 562 377 562 296 _c
472 322 _m
471 371 457 410 431 440 _c
404 469 368 484 324 484 _c
274 484 234 469 204 441 _c
174 413 156 373 152 322 _c
472 322 _l
_cl}_e}_d
/g{{635 0 55 -207 544 560 _sc
454 280 _m
454 344 440 395 414 431 _c
387 467 349 485 301 485 _c
253 485 215 467 188 431 _c
161 395 148 344 148 280 _c
148 215 161 165 188 129 _c
215 93 253 75 301 75 _c
349 75 387 93 414 129 _c
440 165 454 215 454 280 _c
544 68 _m
544 -24 523 -93 482 -139 _c
440 -184 377 -207 292 -207 _c
260 -207 231 -204 203 -200 _c
175 -195 147 -188 121 -178 _c
}_e{121 -91 _l
147 -105 173 -115 199 -122 _c
225 -129 251 -133 278 -133 _c
336 -133 380 -117 410 -87 _c
439 -56 454 -10 454 52 _c
454 96 _l
435 64 411 40 382 24 _c
353 8 319 0 279 0 _c
211 0 157 25 116 76 _c
75 127 55 195 55 280 _c
55 364 75 432 116 483 _c
157 534 211 560 279 560 _c
319 560 353 552 382 536 _c
411 520 435 496 454 464 _c
454 547 _l
544 547 _l
}_e{544 68 _l
_cl}_e}_d
/i{278 0 94 0 184 760 _sc
94 547 _m
184 547 _l
184 0 _l
94 0 _l
94 547 _l
94 760 _m
184 760 _l
184 646 _l
94 646 _l
94 760 _l
_cl}_d
/l{278 0 94 0 184 760 _sc
94 760 _m
184 760 _l
184 0 _l
94 0 _l
94 760 _l
_cl}_d
/m{{974 0 91 0 889 560 _sc
520 442 _m
542 482 569 511 600 531 _c
631 550 668 560 711 560 _c
767 560 811 540 842 500 _c
873 460 889 403 889 330 _c
889 0 _l
799 0 _l
799 327 _l
799 379 789 418 771 444 _c
752 469 724 482 686 482 _c
639 482 602 466 575 435 _c
548 404 535 362 535 309 _c
535 0 _l
445 0 _l
445 327 _l
445 379 435 418 417 444 _c
398 469 369 482 331 482 _c
}_e{285 482 248 466 221 435 _c
194 404 181 362 181 309 _c
181 0 _l
91 0 _l
91 547 _l
181 547 _l
181 462 _l
201 495 226 520 255 536 _c
283 552 317 560 357 560 _c
397 560 430 550 458 530 _c
486 510 506 480 520 442 _c
_cl}_e}_d
/o{612 0 55 -13 557 560 _sc
306 484 _m
258 484 220 465 192 427 _c
164 389 150 338 150 273 _c
150 207 163 156 191 118 _c
219 80 257 62 306 62 _c
354 62 392 80 420 118 _c
448 156 462 207 462 273 _c
462 337 448 389 420 427 _c
392 465 354 484 306 484 _c
306 560 _m
384 560 445 534 490 484 _c
534 433 557 363 557 273 _c
557 183 534 113 490 63 _c
445 12 384 -13 306 -13 _c
227 -13 165 12 121 63 _c
77 113 55 183 55 273 _c
55 363 77 433 121 484 _c
165 534 227 560 306 560 _c
_cl}_d
/p{{635 0 91 -207 580 560 _sc
181 82 _m
181 -207 _l
91 -207 _l
91 547 _l
181 547 _l
181 464 _l
199 496 223 520 252 536 _c
281 552 316 560 356 560 _c
422 560 476 533 518 481 _c
559 428 580 359 580 273 _c
580 187 559 117 518 65 _c
476 13 422 -13 356 -13 _c
316 -13 281 -5 252 10 _c
223 25 199 49 181 82 _c
487 273 _m
487 339 473 390 446 428 _c
418 466 381 485 334 485 _c
}_e{286 485 249 466 222 428 _c
194 390 181 339 181 273 _c
181 207 194 155 222 117 _c
249 79 286 61 334 61 _c
381 61 418 79 446 117 _c
473 155 487 207 487 273 _c
_cl}_e}_d
/r{411 0 91 0 411 560 _sc
411 463 _m
401 469 390 473 378 476 _c
366 478 353 480 339 480 _c
288 480 249 463 222 430 _c
194 397 181 350 181 288 _c
181 0 _l
91 0 _l
91 547 _l
181 547 _l
181 462 _l
199 495 224 520 254 536 _c
284 552 321 560 365 560 _c
371 560 378 559 386 559 _c
393 558 401 557 411 555 _c
411 463 _l
_cl}_d
/s{{521 0 54 -13 472 560 _sc
443 531 _m
443 446 _l
417 458 391 468 364 475 _c
336 481 308 485 279 485 _c
234 485 200 478 178 464 _c
156 450 145 430 145 403 _c
145 382 153 366 169 354 _c
185 342 217 330 265 320 _c
296 313 _l
360 299 405 279 432 255 _c
458 230 472 195 472 151 _c
472 100 452 60 412 31 _c
372 1 316 -13 246 -13 _c
216 -13 186 -10 154 -5 _c
}_e{122 0 89 8 54 20 _c
54 113 _l
87 95 120 82 152 74 _c
184 65 216 61 248 61 _c
290 61 323 68 346 82 _c
368 96 380 117 380 144 _c
380 168 371 187 355 200 _c
339 213 303 226 247 238 _c
216 245 _l
160 257 119 275 95 299 _c
70 323 58 356 58 399 _c
58 450 76 490 112 518 _c
148 546 200 560 268 560 _c
301 560 332 557 362 552 _c
391 547 418 540 443 531 _c
}_e{_cl}_e}_d
/t{392 0 27 0 368 702 _sc
183 702 _m
183 547 _l
368 547 _l
368 477 _l
183 477 _l
183 180 _l
183 135 189 106 201 94 _c
213 81 238 75 276 75 _c
368 75 _l
368 0 _l
276 0 _l
206 0 158 13 132 39 _c
106 65 93 112 93 180 _c
93 477 _l
27 477 _l
27 547 _l
93 547 _l
93 702 _l
183 702 _l
_cl}_d
end readonly def

/BuildGlyph
 {exch begin
 CharStrings exch
 2 copy known not{pop /.notdef}if
 true 3 1 roll get exec
 end}_d

/BuildChar {
 1 index /Encoding get exch get
 1 index /BuildGlyph get exec
}_d

FontName currentdict end definefont pop
end
%%EndProlog
mpldict begin
90 252 translate
432 288 0 0 clipbox
gsave
0 0 m
432 0 l
432 288 l
0 288 l
cl
1.000 setgray
fill
grestore
gsave
54 36 m
388.8 36 l
388.8 253.44 l
54 253.44 l
cl
1.000 setgray
fill
grestore
0.800 setlinewidth
1 setlinejoin
2 setlinecap
[] 0 setdash
0.690 setgray
gsave
334.8 217.4 54 36 clipbox
69.218182 36 m
69.218182 253.44 l
stroke
grestore
0 setlinecap
0.000 setgray
gsave
/o {
gsave
newpath
translate
0.8 setlinewidth
1 setlinejoin
0 setlinecap
0 0 m
0 -3.5 l

gsave
0.000 setgray
fill
grestore
stroke
grestore
} bind def
69.2182 36 o
grestore
/DejaVuSans findfont
10.000 scalefont
setfont
gsave
66.038494 21.406250 translate
0.000000 rotate
0.000000 0.000000 m /zero glyphshow
grestore
2 setlinecap
0.690 setgray
gsave
334.8 217.4 54 36 clipbox
112.729781 36 m
112.729781 253.44 l
stroke
grestore
0 setlinecap
0.000 setgray
gsave
/o {
gsave
newpath
translate
0.8 setlinewidth
1 setlinejoin
0 setlinecap
0 0 m
0 -3.5 l

gsave
0.000 setgray
fill
grestore
stroke
grestore
} bind def
112.73 36 o
grestore
gsave
103.190719 21.406250 translate
0.000000 rotate
0.000000 0.000000 m /two glyphshow
6.362305 0.000000 m /zero glyphshow
12.724609 0.000000 m /zero glyphshow
grestore
2 setlinecap
0.690 setgray
gsave
334.8 217.4 54 36 clipbox
156.24138 36 m
156.24138 253.44 l
stroke
grestore
0 setlinecap
0.000 setgray
gsave
/o {
gsave
newpath
translate
0.8 setlinewidth
1 setlinejoin
0 setlinecap
0 0 m
0 -3.5 l

gsave
0.000 setgray
fill
grestore
stroke
grestore
} bind def
156.241 36 o
grestore
gsave
146.702318 21.406250 translate
0.000000 rotate
0.000000 0.000000 m /four glyphshow
6.362305 0.000000 m /zero glyphshow
12.724609 0.000000 m /zero glyphshow
grestore
2 setlinecap
0.690 setgray
gsave
334.8 217.4 54 36 clipbox
199.752979 36 m
199.752979 253.44 l
stroke
grestore
0 setlinecap
0.000 setgray
gsave
/o {
gsave
newpath
translate
0.8 setlinewidth
1 setlinejoin
0 setlinecap
0 0 m
0 -3.5 l

gsave
0.000 setgray
fill
grestore
stroke
grestore
} bind def
199.753 36 o
grestore
gsave
190.213917 21.406250 translate
0.000000 rotate
0.000000 0.000000 m /six glyphshow
6.362305 0.000000 m /zero glyphshow
12.724609 0.000000 m /zero glyphshow
grestore
2 setlinecap
0.690 setgray
gsave
334.8 217.4 54 36 clipbox
243.264579 36 m
243.264579 253.44 l
stroke
grestore
0 setlinecap
0.000 setgray
gsave
/o {
gsave
newpath
translate
0.8 setlinewidth
1 setlinejoin
0 setlinecap
0 0 m
0 -3.5 l

gsave
0.000 setgray
fill
grestore
stroke
grestore
} bind def
243.265 36 o
grestore
gsave
233.725516 21.406250 translate
0.000000 rotate
0.000000 0.000000 m /eight glyphshow
6.362305 0.000000 m /zero glyphshow
12.724609 0.000000 m /zero glyphshow
grestore
2 setlinecap
0.690 setgray
gsave
334.8 217.4 54 36 clipbox
286.776178 36 m
286.776178 253.44 l
stroke
grestore
0 setlinecap
0.000 setgray
gsave
/o {
gsave
newpath
translate
0.8 setlinewidth
1 setlinejoin
0 setlinecap
0 0 m
0 -3.5 l

gsave
0.000 setgray
fill
grestore
stroke
grestore
} bind def
286.776 36 o
grestore
gsave
274.057428 21.406250 translate
0.000000 rotate
0.000000 0.000000 m /one glyphshow
6.362305 0.000000 m /zero glyphshow
12.724609 0.000000 m /zero glyphshow
19.086914 0.000000 m /zero glyphshow
grestore
2 setlinecap
0.690 setgray
gsave
334.8 217.4 54 36 clipbox
330.287777 36 m
330.287777 253.44 l
stroke
grestore
0 setlinecap
0.000 setgray
gsave
/o {
gsave
newpath
translate
0.8 setlinewidth
1 setlinejoin
0 setlinecap
0 0 m
0 -3.5 l

gsave
0.000 setgray
fill
grestore
stroke
grestore
} bind def
330.288 36 o
grestore
gsave
317.569027 21.406250 translate
0.000000 rotate
0.000000 0.000000 m /one glyphshow
6.362305 0.000000 m /two glyphshow
12.724609 0.000000 m /zero glyphshow
19.086914 0.000000 m /zero glyphshow
grestore
2 setlinecap
0.690 setgray
gsave
334.8 217.4 54 36 clipbox
373.799376 36 m
373.799376 253.44 l
stroke
grestore
0 setlinecap
0.000 setgray
gsave
/o {
gsave
newpath
translate
0.8 setlinewidth
1 setlinejoin
0 setlinecap
0 0 m
0 -3.5 l

gsave
0.000 setgray
fill
grestore
stroke
grestore
} bind def
373.799 36 o
grestore
gsave
361.080626 21.406250 translate
0.000000 rotate
0.000000 0.000000 m /one glyphshow
6.362305 0.000000 m /four glyphshow
12.724609 0.000000 m /zero glyphshow
19.086914 0.000000 m /zero glyphshow
grestore
gsave
200.892188 7.734375 translate
0.000000 rotate
0.000000 0.000000 m /T glyphshow
6.108398 0.000000 m /i glyphshow
8.886719 0.000000 m /m glyphshow
18.627930 0.000000 m /e glyphshow
24.780273 0.000000 m /space glyphshow
27.958984 0.000000 m /bracketleft glyphshow
31.860352 0.000000 m /s glyphshow
37.070312 0.000000 m /bracketright glyphshow
grestore
2 setlinecap
0.690 setgray
gsave
334.8 217.4 54 36 clipbox
54 63.427758 m
388.8 63.427758 l
stroke
grestore
0 setlinecap
0.000 setgray
gsave
/o {
gsave
newpath
translate
0.8 setlinewidth
1 setlinejoin
0 setlinecap
0 0 m
-3.5 0 l

gsave
0.000 setgray
fill
grestore
stroke
grestore
} bind def
54 63.4278 o
grestore
gsave
27.921875 59.630883 translate
0.000000 rotate
0.000000 0.000000 m /two glyphshow
6.362305 0.000000 m /two glyphshow
12.724609 0.000000 m /zero glyphshow
grestore
2 setlinecap
0.690 setgray
gsave
334.8 217.4 54 36 clipbox
54 108.486392 m
388.8 108.486392 l
stroke
grestore
0 setlinecap
0.000 setgray
gsave
/o {
gsave
newpath
translate
0.8 setlinewidth
1 setlinejoin
0 setlinecap
0 0 m
-3.5 0 l

gsave
0.000 setgray
fill
grestore
stroke
grestore
} bind def
54 108.486 o
grestore
gsave
27.921875 104.689517 translate
0.000000 rotate
0.000000 0.000000 m /two glyphshow
6.362305 0.000000 m /four glyphshow
12.724609 0.000000 m /zero glyphshow
grestore
2 setlinecap
0.690 setgray
gsave
334.8 217.4 54 36 clipbox
54 153.545026 m
388.8 153.545026 l
stroke
grestore
0 setlinecap
0.000 setgray
gsave
/o {
gsave
newpath
translate
0.8 setlinewidth
1 setlinejoin
0 setlinecap
0 0 m
-3.5 0 l

gsave
0.000 setgray
fill
grestore
stroke
grestore
} bind def
54 153.545 o
grestore
gsave
27.921875 149.748151 translate
0.000000 rotate
0.000000 0.000000 m /two glyphshow
6.362305 0.000000 m /six glyphshow
12.724609 0.000000 m /zero glyphshow
grestore
2 setlinecap
0.690 setgray
gsave
334.8 217.4 54 36 clipbox
54 198.60366 m
388.8 198.60366 l
stroke
grestore
0 setlinecap
0.000 setgray
gsave
/o {
gsave
newpath
translate
0.8 setlinewidth
1 setlinejoin
0 setlinecap
0 0 m
-3.5 0 l

gsave
0.000 setgray
fill
grestore
stroke
grestore
} bind def
54 198.604 o
grestore
gsave
27.921875 194.806785 translate
0.000000 rotate
0.000000 0.000000 m /two glyphshow
6.362305 0.000000 m /eight glyphshow
12.724609 0.000000 m /zero glyphshow
grestore
2 setlinecap
0.690 setgray
gsave
334.8 217.4 54 36 clipbox
54 243.662294 m
388.8 243.662294 l
stroke
grestore
0 setlinecap
0.000 setgray
gsave
/o {
gsave
newpath
translate
0.8 setlinewidth
1 setlinejoin
0 setlinecap
0 0 m
-3.5 0 l

gsave
0.000 setgray
fill
grestore
stroke
grestore
} bind def
54 243.662 o
grestore
gsave
27.921875 239.865419 translate
0.000000 rotate
0.000000 0.000000 m /three glyphshow
6.362305 0.000000 m /zero glyphshow
12.724609 0.000000 m /zero glyphshow
grestore
gsave
21.843750 79.657500 translate
90.000000 rotate
0.000000 0.000000 m /U glyphshow
7.319336 0.000000 m /l glyphshow
10.097656 0.000000 m /t glyphshow
14.018555 0.000000 m /r glyphshow
18.129883 0.000000 m /a glyphshow
24.257812 0.000000 m /c glyphshow
29.755859 0.000000 m /a glyphshow
35.883789 0.000000 m /p glyphshow
42.231445 0.000000 m /a glyphshow
48.359375 0.000000 m /c glyphshow
53.857422 0.000000 m /i glyphshow
56.635742 0.000000 m /t glyphshow
60.556641 0.000000 m /o glyphshow
66.674805 0.000000 m /r glyphshow
70.786133 0.000000 m /space glyphshow
73.964844 0.000000 m /V glyphshow
80.805664 0.000000 m /o glyphshow
86.923828 0.000000 m /l glyphshow
89.702148 0.000000 m /t glyphshow
93.623047 0.000000 m /a glyphshow
99.750977 0.000000 m /g glyphshow
106.098633 0.000000 m /e glyphshow
112.250977 0.000000 m /space glyphshow
115.429688 0.000000 m /bracketleft glyphshow
119.331055 0.000000 m /V glyphshow
126.171875 0.000000 m /bracketright glyphshow
grestore
1.500 setlinewidth
2 setlinecap
0.122 0.467 0.706 setrgbcolor
gsave
334.8 217.4 54 36 clipbox
69.218182 165.960432 m
69.43574 163.944415 l
69.653298 179.235492 l
69.870856 175.431572 l
70.088414 177.547549 l
70.305972 177.465613 l
70.52353 179.033081 l
70.741088 178.906829 l
70.958646 180.991283 l
71.176204 179.873933 l
71.393762 179.664204 l
71.828878 172.244489 l
72.263994 157.625328 l
72.481552 157.14771 l
72.69911 152.35924 l
72.916668 157.581437 l
73.351784 161.54733 l
73.569342 161.70543 l
73.7869 156.130627 l
74.004458 154.202705 l
74.222016 128.20054 l
74.439574 142.293685 l
74.657132 120.763425 l
74.87469 134.100542 l
75.092248 132.487026 l
75.527364 126.249101 l
75.96248 128.847253 l
76.397596 141.130948 l
76.615154 136.373618 l
76.832712 148.728698 l
77.05027 137.386828 l
77.267828 146.169111 l
77.485386 142.724077 l
77.702944 141.903327 l
77.920502 146.159784 l
78.13806 147.925446 l
78.355618 158.096052 l
78.573176 160.678294 l
78.790734 164.776786 l
79.008292 166.411527 l
79.22585 165.61603 l
79.443408 166.486814 l
79.878524 178.060808 l
80.096082 181.050199 l
80.31364 187.897824 l
80.531198 183.859858 l
80.966314 188.165749 l
81.183872 186.956453 l
81.40143 188.963133 l
81.618988 188.385525 l
81.836546 187.429622 l
82.054104 183.827119 l
82.271662 182.831026 l
82.48922 181.077844 l
82.706778 178.092493 l
82.924336 180.098832 l
83.359452 173.039371 l
83.57701 172.247062 l
83.794568 166.077946 l
84.012126 164.552637 l
84.447242 176.381477 l
84.882358 207.031322 l
85.317474 224.898193 l
85.535032 228.480487 l
85.75259 229.670923 l
85.970148 233.139639 l
86.187706 233.832428 l
86.405263 238.17727 l
86.622821 239.697908 l
86.840379 242.19545 l
87.275495 232.421655 l
87.493053 234.100822 l
87.710611 226.8335 l
87.928169 236.13121 l
88.145727 229.932071 l
88.363285 230.399426 l
89.451075 164.446151 l
89.668633 168.368866 l
89.886191 153.759034 l
90.103749 160.816495 l
90.321307 149.705807 l
90.538865 154.477674 l
90.756423 154.117396 l
90.973981 153.97305 l
91.191539 153.36874 l
91.409097 157.056143 l
91.626655 152.646654 l
91.844213 154.711008 l
92.279329 148.821302 l
92.496887 152.714446 l
92.714445 149.508568 l
92.932003 151.782289 l
93.149561 150.546027 l
93.367119 147.230754 l
93.584677 138.69855 l
93.802235 142.292431 l
94.019793 124.92713 l
94.237351 138.446946 l
94.454909 127.390321 l
94.672467 132.602234 l
94.890025 132.590487 l
95.107583 125.189927 l
95.325141 128.733199 l
95.542699 125.85245 l
95.760257 124.726469 l
96.195373 129.569903 l
96.412931 129.864056 l
96.630489 133.485291 l
96.848047 133.899324 l
97.065605 135.69041 l
97.283163 134.257275 l
97.935837 142.909493 l
98.370953 149.827767 l
98.588511 150.935468 l
98.806069 143.605598 l
99.458743 136.530337 l
99.676301 141.116152 l
99.893859 141.938843 l
100.111417 142.23088 l
100.328975 147.13569 l
100.764091 164.47723 l
100.981649 178.093548 l
101.634323 191.09109 l
101.851881 189.10156 l
102.069439 191.084075 l
102.286997 189.242176 l
102.504555 189.818909 l
102.722113 193.162233 l
102.939671 189.713644 l
103.157229 193.799314 l
103.374787 173.944227 l
103.592345 189.987494 l
103.809903 170.618638 l
104.027461 183.945341 l
104.245019 174.893899 l
104.462577 171.771755 l
105.550367 99.10695 l
105.767925 98.588308 l
105.985483 95.416613 l
106.203041 95.037732 l
106.420599 99.699763 l
106.638157 94.979919 l
106.855715 97.784007 l
107.073273 99.030138 l
107.508389 112.238051 l
107.725947 121.160535 l
107.943505 120.055106 l
108.161063 120.113255 l
108.596179 116.072709 l
108.813737 106.226813 l
109.031295 124.623201 l
109.248853 109.229962 l
109.683969 134.879978 l
109.901527 126.500094 l
110.119085 149.608314 l
110.336643 142.195122 l
110.554201 153.791131 l
110.771759 150.66564 l
110.989317 152.729671 l
111.206875 151.310055 l
111.424433 148.193619 l
111.641991 151.789546 l
111.859549 138.952207 l
112.077107 142.649763 l
112.294665 143.747151 l
112.512223 160.380859 l
112.729781 146.96375 l
112.947339 143.098642 l
113.164897 144.269247 l
113.382455 140.420509 l
113.600013 138.612869 l
113.817571 133.13792 l
114.035129 137.603092 l
114.252687 130.296249 l
114.470245 139.267548 l
114.687803 130.15988 l
114.905361 130.609715 l
115.122919 124.906504 l
115.340477 128.045123 l
115.558035 127.996427 l
115.775593 130.868641 l
115.993151 129.107391 l
116.210709 129.096841 l
116.645825 125.510973 l
116.863383 126.994487 l
117.080941 133.29103 l
117.298499 123.778046 l
117.516057 131.667701 l
117.733615 123.330315 l
117.951173 123.783251 l
118.168731 126.732916 l
118.603847 124.583364 l
118.821405 126.156214 l
119.038963 123.162435 l
119.256521 125.313128 l
119.474079 123.779108 l
119.691637 128.58211 l
119.909195 128.349201 l
120.344311 102.277048 l
120.561869 71.440676 l
120.779427 79.042471 l
120.996985 76.041229 l
121.432101 97.734941 l
121.649659 95.675372 l
121.867217 94.838035 l
122.084775 97.888681 l
122.302333 99.065812 l
122.737449 102.369931 l
122.955007 101.571887 l
123.172565 99.996839 l
123.390123 96.375711 l
123.607681 96.025675 l
123.825239 94.390999 l
124.260355 105.213081 l
124.913029 138.508163 l
125.130587 144.516134 l
125.348145 138.016607 l
125.565703 137.146985 l
125.783261 129.714849 l
126.000819 129.634683 l
126.218377 127.143853 l
126.435935 127.243266 l
127.088609 132.536029 l
127.306167 131.924097 l
127.523725 132.649115 l
127.741283 130.792069 l
127.958841 133.756441 l
128.176399 132.577999 l
128.393957 135.249485 l
128.611515 130.771242 l
128.829073 133.259263 l
129.046631 128.952187 l
129.264189 132.661531 l
129.481747 129.726831 l
129.699305 132.698141 l
129.916863 130.325627 l
130.134421 132.433148 l
130.351979 130.033806 l
130.569537 130.706901 l
130.787095 128.48604 l
131.222211 130.399512 l
131.439769 131.222824 l
131.874885 141.154229 l
132.527559 169.845926 l
132.745117 169.584187 l
132.962675 173.797271 l
133.180233 158.218615 l
133.397791 167.662021 l
133.615349 161.105723 l
133.832907 159.059299 l
134.050465 168.396573 l
134.268023 168.577792 l
134.485581 169.20427 l
134.703139 167.519626 l
134.920697 169.006454 l
135.138255 165.639722 l
135.355813 168.357103 l
135.573371 165.901764 l
135.790929 162.163643 l
136.008487 164.459739 l
136.226045 160.308279 l
136.443603 161.79855 l
136.661161 159.210651 l
136.878719 152.018855 l
137.096277 156.141808 l
137.313835 147.939441 l
137.531393 153.01376 l
137.748951 148.467763 l
137.966509 147.890481 l
138.184067 136.689038 l
138.401625 144.390006 l
138.619183 130.495343 l
138.836741 141.563151 l
139.054299 138.310184 l
139.489415 140.204562 l
139.924531 136.08582 l
140.577204 153.499814 l
141.01232 169.262049 l
141.229878 167.598433 l
141.447436 178.900732 l
141.664994 170.63686 l
141.882552 179.787851 l
142.10011 174.830056 l
142.317668 180.681811 l
142.535226 182.544294 l
142.752784 185.691251 l
142.970342 178.360002 l
143.1879 181.136003 l
143.405458 174.832316 l
143.623016 173.994624 l
143.840574 175.519876 l
144.058132 172.716764 l
144.27569 173.723357 l
144.493248 163.997683 l
144.710806 163.912966 l
144.928364 152.795655 l
145.36348 146.015917 l
145.581038 142.251818 l
146.016154 139.976377 l
146.233712 141.754424 l
146.45127 142.562497 l
146.668828 145.833989 l
147.103944 148.13871 l
147.321502 150.116374 l
147.53906 149.857579 l
147.756618 151.472549 l
147.974176 150.785386 l
148.191734 149.244453 l
148.409292 152.172982 l
148.62685 150.05193 l
148.844408 151.147894 l
149.061966 154.612423 l
149.279524 149.484542 l
149.497082 164.900937 l
149.71464 162.51523 l
149.932198 178.194619 l
150.149756 175.87184 l
150.367314 177.956759 l
150.80243 171.826513 l
151.019988 171.449772 l
151.237546 169.364326 l
151.455104 170.013803 l
151.672662 173.56932 l
151.89022 172.57823 l
152.107778 177.001466 l
152.325336 173.950413 l
152.542894 177.3323 l
152.760452 173.297055 l
152.97801 182.269704 l
153.195568 165.263858 l
153.413126 168.895941 l
153.630684 152.572982 l
153.848242 150.400151 l
154.0658 146.573463 l
154.500916 143.541137 l
154.718474 142.684331 l
154.936032 144.562536 l
155.15359 145.098477 l
155.371148 145.184804 l
155.588706 144.506378 l
156.023822 140.550182 l
156.24138 140.952227 l
156.458938 138.370103 l
156.676496 137.819257 l
156.894054 135.185448 l
157.111612 134.60303 l
157.32917 133.460772 l
157.546728 129.17507 l
157.764286 133.218842 l
157.981844 125.896165 l
158.199402 132.633228 l
158.41696 131.202468 l
158.634518 135.866263 l
158.852076 133.322952 l
159.069634 139.968603 l
159.287192 135.335355 l
159.50475 138.682361 l
160.374982 130.366804 l
160.59254 134.02742 l
160.810098 133.069594 l
161.027656 136.867461 l
161.245214 134.451947 l
161.462772 141.088529 l
161.68033 137.045997 l
161.897888 140.662058 l
162.115446 139.688961 l
162.333004 137.584139 l
162.550562 131.343707 l
162.76812 132.995902 l
162.985678 122.870788 l
163.203236 125.475452 l
163.420794 120.938761 l
163.638352 120.935966 l
164.073468 119.605192 l
164.291026 120.032205 l
164.508584 125.758474 l
164.726142 117.695379 l
164.9437 125.27969 l
165.161258 117.270957 l
165.378816 119.600136 l
165.596374 118.918286 l
165.813932 110.058436 l
166.03149 109.849524 l
166.249048 104.65758 l
166.466606 104.528596 l
166.684164 106.878809 l
166.901722 106.249324 l
167.11928 82.750969 l
167.336838 75.74661 l
167.554396 61.554641 l
167.771954 58.441148 l
167.989512 68.54215 l
168.424628 72.743369 l
168.642186 70.265766 l
168.859744 70.269655 l
169.077302 70.022774 l
169.29486 70.201679 l
169.512418 76.335053 l
170.165092 107.222224 l
170.38265 102.999803 l
170.600208 116.060542 l
170.817766 113.261006 l
171.035324 125.023203 l
171.252882 128.140955 l
171.47044 139.125329 l
171.687998 136.81727 l
171.905556 150.488038 l
172.123114 149.028472 l
172.340672 160.295628 l
172.55823 152.819533 l
172.775788 164.561713 l
172.993346 152.525503 l
173.210904 157.816707 l
173.428462 151.752585 l
173.64602 151.907501 l
173.863578 146.944928 l
174.081136 145.737222 l
174.73381 136.285888 l
174.951368 135.869611 l
175.168926 135.927409 l
175.386484 134.856412 l
175.604042 140.6129 l
175.8216 133.468786 l
176.039158 144.099916 l
176.256716 122.914075 l
176.474274 137.40648 l
176.691832 124.77148 l
176.90939 125.163838 l
177.126948 135.888608 l
177.344506 128.397537 l
177.562064 133.980395 l
177.779622 127.453192 l
178.214738 134.065113 l
178.432296 132.664225 l
178.649854 136.939328 l
178.867412 128.550241 l
179.08497 136.844013 l
179.302528 135.005119 l
179.520086 148.520458 l
180.17276 167.022814 l
180.390318 163.551776 l
180.607876 165.980612 l
180.825434 163.010951 l
181.042992 162.932639 l
181.26055 162.71901 l
181.478108 161.902254 l
181.695666 162.558606 l
181.913224 159.540783 l
182.130782 159.687747 l
182.34834 157.469079 l
182.565898 153.436005 l
182.783456 144.515137 l
183.001014 142.867147 l
183.43613 120.464044 l
183.653688 127.626209 l
183.871246 112.781029 l
184.088804 118.357932 l
184.306362 110.428649 l
184.52392 108.117598 l
184.741478 99.33081 l
184.959036 100.908867 l
185.394152 98.822576 l
185.61171 99.342435 l
185.829268 97.236727 l
186.046826 85.481884 l
186.264384 88.295382 l
186.481942 77.465773 l
186.6995 85.594783 l
186.917058 73.929033 l
187.134616 83.294087 l
187.352174 76.190991 l
187.569732 84.984045 l
187.78729 73.902737 l
188.004848 78.632044 l
188.222406 69.69491 l
188.657522 85.410122 l
188.87508 97.006991 l
189.092638 96.148462 l
189.310196 100.145457 l
189.527754 101.447827 l
189.745312 96.319391 l
189.96287 106.477717 l
190.180428 96.651424 l
190.397986 112.965061 l
190.615544 117.99283 l
191.05066 142.748494 l
191.268218 147.724474 l
191.485776 135.768166 l
191.703334 142.440096 l
192.13845 126.660992 l
192.356008 143.3836 l
192.573566 128.977328 l
192.791124 140.797803 l
193.008682 140.299733 l
193.22624 129.989205 l
193.443798 137.394106 l
193.661356 122.422824 l
193.878914 128.443209 l
194.096472 101.800997 l
194.31403 114.036562 l
194.531587 89.296923 l
194.749145 106.443081 l
194.966703 98.96783 l
195.184261 84.669262 l
195.401819 85.419145 l
195.619377 72.404749 l
195.836935 72.846219 l
196.054493 82.430899 l
196.272051 76.971327 l
196.489609 83.753194 l
196.707167 81.97438 l
197.142283 77.369781 l
197.359841 76.355118 l
197.577399 74.276334 l
197.794957 80.299245 l
198.012515 79.489049 l
198.447631 85.566388 l
198.665189 86.600168 l
198.882747 93.426219 l
199.100305 90.056679 l
199.317863 83.722513 l
199.535421 64.873152 l
199.752979 79.873547 l
199.970537 78.580105 l
200.405653 64.39674 l
200.623211 69.590971 l
200.840769 58.260421 l
201.058327 71.374119 l
201.275885 66.521479 l
201.493443 66.570514 l
201.711001 68.07946 l
201.928559 63.645937 l
202.146117 67.085111 l
202.363675 63.409748 l
202.581233 64.578736 l
202.798791 62.475411 l
203.016349 64.167243 l
203.233907 62.277172 l
203.451465 70.636995 l
203.669023 72.657755 l
203.886581 78.561501 l
204.104139 81.334832 l
204.321697 85.803762 l
204.539255 82.330383 l
204.756813 87.809917 l
204.974371 84.860977 l
205.191929 97.840989 l
205.409487 103.542909 l
205.627045 122.897752 l
205.844603 127.315546 l
206.062161 134.19704 l
206.279719 135.533172 l
206.497277 132.118415 l
206.714835 134.911986 l
206.932393 135.931578 l
207.149951 134.592366 l
207.367509 142.358716 l
207.585067 132.748037 l
207.802625 130.798076 l
208.237741 116.505474 l
208.455299 118.349231 l
208.672857 118.767554 l
208.890415 113.938399 l
209.107973 117.376096 l
209.543089 109.887809 l
209.760647 110.851334 l
209.978205 100.487242 l
210.195763 107.748556 l
210.413321 105.721297 l
211.065995 140.612191 l
211.283553 146.527458 l
212.588901 211.537379 l
213.024017 224.926451 l
213.241575 224.852667 l
213.459133 225.547216 l
213.894249 218.244391 l
214.329365 208.341974 l
214.764481 195.900065 l
214.982039 184.998805 l
215.199597 180.105515 l
215.417155 167.877555 l
215.634713 163.098797 l
216.287387 140.672904 l
216.504945 134.954254 l
217.375177 97.445384 l
217.592735 94.938603 l
217.810293 87.744346 l
218.245409 82.933761 l
218.680525 70.962815 l
219.115641 65.296546 l
219.333199 68.902729 l
219.550757 69.362887 l
219.768315 70.089763 l
219.985873 69.670195 l
220.203431 65.981651 l
220.420989 68.489533 l
220.638547 67.286399 l
220.856105 71.361201 l
221.073663 69.436191 l
221.508779 59.23505 l
221.943895 60.279158 l
222.161453 61.824504 l
222.379011 60.318189 l
222.814127 62.099037 l
223.031685 64.272232 l
223.249243 62.99012 l
223.466801 60.583497 l
223.684359 63.784586 l
223.901917 48.590087 l
224.119475 63.198984 l
224.337033 48.441186 l
224.554591 59.337914 l
224.772149 49.138338 l
224.989707 53.4333 l
225.207265 47.319006 l
225.424823 53.745654 l
225.642381 53.487725 l
225.859939 57.801721 l
226.077497 54.764783 l
226.295055 57.550802 l
226.512613 55.213766 l
226.730171 54.654621 l
226.947729 58.061698 l
227.165287 55.601876 l
227.382845 59.289122 l
227.817961 58.223808 l
228.035519 56.212553 l
228.253077 56.963318 l
228.470635 55.280828 l
228.688193 57.259676 l
228.905751 53.922021 l
229.123309 56.55378 l
229.340867 57.258471 l
229.558425 53.845752 l
229.775983 59.707682 l
229.993541 55.632861 l
230.211099 57.320782 l
230.428657 57.883273 l
230.646215 48.493628 l
230.863773 55.745775 l
231.081331 45.883636 l
232.169121 90.677411 l
232.386679 92.599288 l
232.604237 99.305081 l
232.821795 97.487076 l
233.909585 135.522757 l
234.127143 134.744569 l
234.344701 135.230422 l
234.562259 124.608936 l
234.779817 134.042262 l
234.997375 114.357998 l
235.214933 131.637149 l
235.432491 117.965081 l
235.650049 128.97675 l
235.867607 125.429314 l
236.085165 134.23068 l
236.302723 127.136052 l
236.520281 133.854133 l
236.737839 127.283141 l
236.955397 139.425827 l
237.608071 158.167095 l
237.825629 154.550593 l
238.043187 155.042003 l
238.260745 155.198435 l
238.478303 154.812201 l
243.047021 152.070975 l
243.264579 152.070976 l
243.699695 151.810079 l
243.917253 150.167412 l
244.134811 149.894597 l
245.005043 136.468951 l
245.222601 135.683971 l
245.440159 133.57471 l
245.657717 137.286261 l
245.875275 129.017776 l
246.092833 135.539461 l
246.310391 127.258972 l
246.527949 134.255919 l
246.745507 133.336942 l
246.963065 133.337525 l
247.180623 119.045789 l
247.398181 132.049644 l
247.615739 111.425221 l
247.833297 127.894415 l
248.050855 123.427808 l
248.268413 126.594865 l
248.48597 124.63607 l
248.703528 130.840365 l
248.921086 133.639701 l
249.791318 182.659082 l
250.226434 193.629747 l
250.443992 193.892346 l
250.66155 193.84834 l
250.879108 192.667505 l
251.096666 192.659836 l
251.531782 191.729954 l
251.74934 191.762669 l
251.966898 191.218441 l
252.184456 191.248312 l
252.402014 191.120484 l
252.619572 189.719615 l
253.489804 168.870878 l
253.707362 174.004372 l
253.92492 171.350653 l
254.142478 177.712028 l
254.360036 171.112982 l
254.577594 180.807047 l
254.795152 173.464682 l
255.01271 178.133335 l
255.230268 178.281549 l
255.447826 175.761826 l
255.665384 178.847576 l
255.882942 169.873743 l
256.1005 175.409617 l
256.318058 167.079839 l
256.535616 170.851096 l
256.753174 171.073673 l
257.18829 166.317193 l
257.405848 162.467058 l
257.623406 161.001848 l
257.840964 154.236449 l
258.058522 155.808878 l
258.27608 151.109036 l
258.493638 151.554559 l
258.711196 147.475287 l
258.928754 147.60506 l
259.146312 145.557164 l
259.36387 146.835387 l
259.581428 151.662766 l
259.798986 151.943813 l
260.016544 160.408309 l
260.234102 157.245749 l
260.45166 165.48662 l
260.669218 166.401972 l
261.104334 173.040402 l
261.321892 173.651561 l
261.53945 172.451265 l
261.974566 182.964403 l
262.192124 184.717587 l
262.409682 190.654404 l
262.62724 187.27817 l
263.062356 187.172346 l
264.80282 186.110589 l
265.020378 186.110589 l
265.237936 185.644385 l
265.455494 184.578116 l
265.89061 174.587242 l
266.108168 174.260753 l
266.325726 157.747023 l
266.543284 165.639087 l
266.760842 155.794416 l
266.9784 158.869339 l
267.195958 159.462195 l
267.413516 161.014596 l
267.631074 153.397813 l
267.848632 158.770804 l
268.06619 155.299493 l
268.283748 158.18463 l
268.501306 156.690721 l
268.718864 157.934613 l
268.936422 157.046979 l
269.15398 157.354103 l
269.371538 160.712779 l
269.589096 159.928271 l
269.806654 159.780157 l
270.024212 160.266257 l
270.24177 163.931261 l
270.459328 159.185586 l
270.676886 167.804472 l
270.894444 162.192989 l
271.112002 169.418328 l
271.32956 168.227938 l
271.547118 170.581495 l
271.764676 169.698367 l
271.982234 170.969888 l
272.199792 168.926168 l
272.41735 169.891092 l
272.852466 162.437937 l
273.070024 162.098851 l
273.287582 156.595334 l
273.50514 160.022172 l
273.722698 156.934581 l
273.940256 159.273356 l
274.157814 159.768352 l
274.375372 154.212117 l
274.59293 161.092679 l
274.810488 152.825083 l
275.028046 159.326857 l
275.245604 151.119723 l
275.463162 153.288541 l
275.68072 149.132334 l
275.898278 149.620876 l
276.115836 150.833449 l
276.333394 148.995082 l
276.550952 150.440062 l
276.76851 146.604447 l
276.986068 150.086155 l
277.203626 146.901211 l
277.421184 145.925568 l
277.638742 146.202984 l
277.8563 144.81229 l
278.073858 144.968264 l
278.291416 145.279226 l
278.508974 146.369399 l
278.94409 146.982041 l
279.161648 144.985395 l
279.596764 136.43515 l
279.814322 138.37881 l
280.03188 133.141843 l
280.249438 139.30587 l
280.684554 136.399126 l
280.902112 129.154107 l
281.11967 131.459721 l
281.337228 121.529958 l
281.554786 126.840088 l
281.772344 123.890637 l
281.989902 125.917958 l
282.20746 123.922999 l
282.425018 124.063864 l
282.642576 121.360782 l
282.860134 123.79483 l
283.077692 124.885845 l
283.29525 123.86493 l
283.512808 126.803792 l
283.730366 125.147197 l
283.947924 120.432197 l
284.165482 127.692585 l
284.38304 120.860272 l
284.600598 127.47617 l
284.818156 123.938409 l
285.035714 133.061848 l
285.253272 129.764279 l
285.47083 138.70098 l
285.688388 136.365744 l
285.905946 136.62148 l
286.123504 127.805569 l
286.55862 134.937987 l
286.776178 128.722197 l
286.993736 129.344169 l
287.211294 139.772105 l
287.428852 137.063569 l
287.64641 156.044041 l
287.863968 152.509142 l
288.081526 163.765449 l
288.299084 164.218199 l
288.516642 166.420846 l
289.169316 165.199366 l
289.82199 164.799461 l
290.039548 164.260125 l
290.257106 164.288604 l
290.474664 163.749794 l
290.692222 163.77791 l
297.654078 159.598225 l
297.871636 159.057824 l
298.089194 159.085701 l
298.306752 158.547682 l
298.52431 158.575243 l
301.135006 157.011732 l
301.78768 153.331386 l
302.005238 152.496494 l
302.440353 153.893875 l
302.875469 153.366534 l
306.791513 151.017636 l
307.009071 150.210048 l
307.226629 142.963473 l
307.444187 143.815008 l
307.661745 135.728725 l
308.096861 140.310836 l
308.314419 145.938961 l
308.531977 144.456999 l
308.749535 145.127665 l
308.967093 147.442683 l
309.184651 147.369526 l
309.619767 141.613763 l
310.054883 136.111943 l
310.272441 137.02554 l
310.489999 137.343054 l
310.925115 140.799597 l
311.142673 141.896521 l
311.360231 139.336219 l
311.577789 138.99558 l
312.012905 133.584556 l
312.230463 140.895912 l
312.448021 135.062393 l
312.665579 140.907032 l
312.883137 139.31408 l
313.318253 141.653321 l
313.753369 156.680052 l
313.970927 157.49648 l
314.188485 175.337326 l
314.406043 168.99896 l
314.623601 180.869343 l
315.058717 180.697479 l
315.276275 179.980046 l
315.493833 180.197811 l
315.711391 180.621113 l
315.928949 181.358073 l
316.146507 181.017546 l
316.364065 177.980158 l
316.581623 169.684451 l
316.799181 172.362609 l
317.016739 163.934168 l
317.234297 166.151563 l
317.451855 171.398922 l
317.669413 161.051406 l
317.886971 170.373296 l
318.104529 163.911629 l
318.322087 164.259033 l
318.539645 170.137467 l
318.757203 160.964892 l
318.974761 170.852005 l
319.192319 160.529698 l
319.409877 165.278493 l
319.627435 163.865738 l
319.844993 163.854914 l
320.062551 163.6756 l
320.280109 165.348436 l
320.497667 162.703434 l
320.932783 163.017919 l
321.150341 160.219273 l
321.367899 160.666325 l
321.585457 158.505325 l
321.803015 158.987153 l
322.020573 158.988913 l
322.238131 155.090696 l
322.455689 156.315951 l
322.673247 155.27101 l
322.890805 154.793686 l
323.108363 153.190402 l
323.325921 158.563754 l
323.543479 152.575987 l
323.761037 157.306901 l
324.196153 152.941784 l
324.413711 152.425672 l
324.631269 154.430297 l
325.066385 174.089066 l
325.501501 202.565771 l
325.719059 213.461934 l
327.024407 240.884181 l
327.241965 241.814203 l
327.459523 243.556364 l
327.677081 242.902056 l
327.894639 239.174891 l
328.112197 229.324548 l
328.764871 219.741884 l
328.982429 228.882315 l
329.199987 214.003515 l
329.417545 225.104325 l
329.635103 213.288163 l
329.852661 220.839149 l
330.070219 216.159599 l
330.287777 218.361637 l
351.826019 218.361637 l
353.348925 217.430342 l
359.875664 213.526438 l
360.093222 212.364254 l
360.31078 206.014338 l
360.528338 205.755236 l
360.745896 200.017067 l
360.963454 200.173571 l
361.181012 201.808068 l
361.39857 200.621966 l
361.616128 197.689606 l
361.833686 197.751283 l
362.051244 194.066016 l
362.268802 194.455138 l
362.48636 196.749088 l
362.703918 196.354047 l
362.921476 202.368992 l
363.139034 199.785312 l
363.57415 207.685498 l
363.791708 206.882125 l
364.009266 213.198537 l
364.226824 212.003791 l
364.444382 212.669549 l
364.66194 211.24974 l
364.879498 211.950669 l
365.097056 208.292656 l
365.314614 201.878756 l
365.532172 203.360102 l
365.74973 199.373854 l
366.184846 206.222693 l
366.402404 206.554973 l
366.619962 207.758369 l
367.055078 208.389121 l
367.272636 207.773151 l
367.490194 207.736263 l
367.707752 207.96852 l
368.142868 207.558363 l
369.230658 206.907416 l
369.665774 206.190416 l
370.10089 205.608963 l
370.318448 205.636555 l
371.841354 204.703491 l
373.581818 203.662283 l
373.581818 203.662283 l
stroke
grestore
0.800 setlinewidth
0 setlinejoin
[] 0 setdash
0.000 setgray
gsave
54 36 m
54 253.44 l
stroke
grestore
gsave
388.8 36 m
388.8 253.44 l
stroke
grestore
gsave
54 36 m
388.8 36 l
stroke
grestore
gsave
54 253.44 m
388.8 253.44 l
stroke
grestore

end
showpage
