%!PS-Adobe-3.0 EPSF-3.0
%%Title: ./plots/multimode/results__Ultracapacitor Current [A].eps
%%Creator: matplotlib version 2.0.0, http://matplotlib.org/
%%CreationDate: Sun May 14 22:45:25 2017
%%Orientation: portrait
%%BoundingBox: 90 252 522 540
%%EndComments
%%BeginProlog
/mpldict 8 dict def
mpldict begin
/m { moveto } bind def
/l { lineto } bind def
/r { rlineto } bind def
/c { curveto } bind def
/cl { closepath } bind def
/box {
m
1 index 0 r
0 exch r
neg 0 r
cl
} bind def
/clipbox {
box
clip
newpath
} bind def
%!PS-Adobe-3.0 Resource-Font
%%Title: DejaVu Sans
%%Copyright: Copyright (c) 2003 by Bitstream, Inc. All Rights Reserved. Copyright (c) 2006 by Tavmjong Bah. All Rights Reserved. DejaVu changes are in public domain 
%%Creator: Converted from TrueType to type 3 by PPR
25 dict begin
/_d{bind def}bind def
/_m{moveto}_d
/_l{lineto}_d
/_cl{closepath eofill}_d
/_c{curveto}_d
/_sc{7 -1 roll{setcachedevice}{pop pop pop pop pop pop}ifelse}_d
/_e{exec}_d
/FontName /DejaVuSans def
/PaintType 0 def
/FontMatrix[.001 0 0 .001 0 0]def
/FontBBox[-1021 -463 1793 1232]def
/FontType 3 def
/Encoding [ /space /zero /one /two /four /five /six /eight /A /C /T /U /bracketleft /bracketright /a /c /e /i /l /m /n /o /p /r /s /t /u /minus ] def
/FontInfo 10 dict dup begin
/FamilyName (DejaVu Sans) def
/FullName (DejaVu Sans) def
/Notice (Copyright (c) 2003 by Bitstream, Inc. All Rights Reserved. Copyright (c) 2006 by Tavmjong Bah. All Rights Reserved. DejaVu changes are in public domain ) def
/Weight (Book) def
/Version (Version 2.35) def
/ItalicAngle 0.0 def
/isFixedPitch false def
/UnderlinePosition -130 def
/UnderlineThickness 90 def
end readonly def
/CharStrings 28 dict dup begin
/space{318 0 0 0 0 0 _sc
}_d
/zero{636 0 66 -13 570 742 _sc
318 664 _m
267 664 229 639 203 589 _c
177 539 165 464 165 364 _c
165 264 177 189 203 139 _c
229 89 267 64 318 64 _c
369 64 407 89 433 139 _c
458 189 471 264 471 364 _c
471 464 458 539 433 589 _c
407 639 369 664 318 664 _c
318 742 _m
399 742 461 709 505 645 _c
548 580 570 486 570 364 _c
570 241 548 147 505 83 _c
461 19 399 -13 318 -13 _c
236 -13 173 19 130 83 _c
87 147 66 241 66 364 _c
66 486 87 580 130 645 _c
173 709 236 742 318 742 _c
_cl}_d
/one{636 0 110 0 544 729 _sc
124 83 _m
285 83 _l
285 639 _l
110 604 _l
110 694 _l
284 729 _l
383 729 _l
383 83 _l
544 83 _l
544 0 _l
124 0 _l
124 83 _l
_cl}_d
/two{{636 0 73 0 536 742 _sc
192 83 _m
536 83 _l
536 0 _l
73 0 _l
73 83 _l
110 121 161 173 226 239 _c
290 304 331 346 348 365 _c
380 400 402 430 414 455 _c
426 479 433 504 433 528 _c
433 566 419 598 392 622 _c
365 646 330 659 286 659 _c
255 659 222 653 188 643 _c
154 632 117 616 78 594 _c
78 694 _l
118 710 155 722 189 730 _c
223 738 255 742 284 742 _c
}_e{359 742 419 723 464 685 _c
509 647 532 597 532 534 _c
532 504 526 475 515 449 _c
504 422 484 390 454 354 _c
446 344 420 317 376 272 _c
332 227 271 164 192 83 _c
_cl}_e}_d
/four{636 0 49 0 580 729 _sc
378 643 _m
129 254 _l
378 254 _l
378 643 _l
352 729 _m
476 729 _l
476 254 _l
580 254 _l
580 172 _l
476 172 _l
476 0 _l
378 0 _l
378 172 _l
49 172 _l
49 267 _l
352 729 _l
_cl}_d
/five{{636 0 77 -13 549 729 _sc
108 729 _m
495 729 _l
495 646 _l
198 646 _l
198 467 _l
212 472 227 476 241 478 _c
255 480 270 482 284 482 _c
365 482 429 459 477 415 _c
525 370 549 310 549 234 _c
549 155 524 94 475 51 _c
426 8 357 -13 269 -13 _c
238 -13 207 -10 175 -6 _c
143 -1 111 6 77 17 _c
77 116 _l
106 100 136 88 168 80 _c
199 72 232 69 267 69 _c
}_e{323 69 368 83 401 113 _c
433 143 450 183 450 234 _c
450 284 433 324 401 354 _c
368 384 323 399 267 399 _c
241 399 214 396 188 390 _c
162 384 135 375 108 363 _c
108 729 _l
_cl}_e}_d
/six{{636 0 70 -13 573 742 _sc
330 404 _m
286 404 251 388 225 358 _c
199 328 186 286 186 234 _c
186 181 199 139 225 109 _c
251 79 286 64 330 64 _c
374 64 409 79 435 109 _c
461 139 474 181 474 234 _c
474 286 461 328 435 358 _c
409 388 374 404 330 404 _c
526 713 _m
526 623 _l
501 635 476 644 451 650 _c
425 656 400 659 376 659 _c
310 659 260 637 226 593 _c
}_e{192 549 172 482 168 394 _c
187 422 211 444 240 459 _c
269 474 301 482 336 482 _c
409 482 467 459 509 415 _c
551 371 573 310 573 234 _c
573 159 550 99 506 54 _c
462 9 403 -13 330 -13 _c
246 -13 181 19 137 83 _c
92 147 70 241 70 364 _c
70 479 97 571 152 639 _c
206 707 280 742 372 742 _c
396 742 421 739 447 735 _c
472 730 498 723 526 713 _c
_cl}_e}_d
/eight{{636 0 68 -13 568 742 _sc
318 346 _m
271 346 234 333 207 308 _c
180 283 167 249 167 205 _c
167 161 180 126 207 101 _c
234 76 271 64 318 64 _c
364 64 401 76 428 102 _c
455 127 469 161 469 205 _c
469 249 455 283 429 308 _c
402 333 365 346 318 346 _c
219 388 _m
177 398 144 418 120 447 _c
96 476 85 511 85 553 _c
85 611 105 657 147 691 _c
188 725 245 742 318 742 _c
}_e{390 742 447 725 489 691 _c
530 657 551 611 551 553 _c
551 511 539 476 515 447 _c
491 418 459 398 417 388 _c
464 377 501 355 528 323 _c
554 291 568 251 568 205 _c
568 134 546 80 503 43 _c
459 5 398 -13 318 -13 _c
237 -13 175 5 132 43 _c
89 80 68 134 68 205 _c
68 251 81 291 108 323 _c
134 355 171 377 219 388 _c
183 544 _m
183 506 194 476 218 455 _c
}_e{242 434 275 424 318 424 _c
360 424 393 434 417 455 _c
441 476 453 506 453 544 _c
453 582 441 611 417 632 _c
393 653 360 664 318 664 _c
275 664 242 653 218 632 _c
194 611 183 582 183 544 _c
_cl}_e}_d
/A{684 0 8 0 676 729 _sc
342 632 _m
208 269 _l
476 269 _l
342 632 _l
286 729 _m
398 729 _l
676 0 _l
573 0 _l
507 187 _l
178 187 _l
112 0 _l
8 0 _l
286 729 _l
_cl}_d
/C{{698 0 56 -13 644 742 _sc
644 673 _m
644 569 _l
610 599 575 622 537 638 _c
499 653 460 661 418 661 _c
334 661 270 635 226 584 _c
182 533 160 460 160 364 _c
160 268 182 194 226 143 _c
270 92 334 67 418 67 _c
460 67 499 74 537 90 _c
575 105 610 128 644 159 _c
644 56 _l
609 32 572 15 534 4 _c
496 -7 455 -13 412 -13 _c
302 -13 215 20 151 87 _c
}_e{87 154 56 246 56 364 _c
56 481 87 573 151 641 _c
215 708 302 742 412 742 _c
456 742 497 736 535 725 _c
573 713 610 696 644 673 _c
_cl}_e}_d
/T{611 0 -2 0 614 729 _sc
-2 729 _m
614 729 _l
614 646 _l
355 646 _l
355 0 _l
256 0 _l
256 646 _l
-2 646 _l
-2 729 _l
_cl}_d
/U{732 0 87 -13 645 729 _sc
87 729 _m
186 729 _l
186 286 _l
186 208 200 151 228 117 _c
256 83 302 66 366 66 _c
429 66 475 83 503 117 _c
531 151 546 208 546 286 _c
546 729 _l
645 729 _l
645 274 _l
645 178 621 107 574 59 _c
527 11 458 -13 366 -13 _c
274 -13 204 11 157 59 _c
110 107 87 178 87 274 _c
87 729 _l
_cl}_d
/bracketleft{390 0 86 -131 293 760 _sc
86 760 _m
293 760 _l
293 690 _l
176 690 _l
176 -61 _l
293 -61 _l
293 -131 _l
86 -131 _l
86 760 _l
_cl}_d
/bracketright{390 0 97 -131 304 760 _sc
304 760 _m
304 -131 _l
97 -131 _l
97 -61 _l
214 -61 _l
214 690 _l
97 690 _l
97 760 _l
304 760 _l
_cl}_d
/a{{613 0 60 -13 522 560 _sc
343 275 _m
270 275 220 266 192 250 _c
164 233 150 205 150 165 _c
150 133 160 107 181 89 _c
202 70 231 61 267 61 _c
317 61 357 78 387 114 _c
417 149 432 196 432 255 _c
432 275 _l
343 275 _l
522 312 _m
522 0 _l
432 0 _l
432 83 _l
411 49 385 25 355 10 _c
325 -5 287 -13 243 -13 _c
187 -13 142 2 109 33 _c
76 64 60 106 60 159 _c
}_e{60 220 80 266 122 298 _c
163 329 224 345 306 345 _c
432 345 _l
432 354 _l
432 395 418 427 391 450 _c
364 472 326 484 277 484 _c
245 484 215 480 185 472 _c
155 464 127 453 100 439 _c
100 522 _l
132 534 164 544 195 550 _c
226 556 256 560 286 560 _c
365 560 424 539 463 498 _c
502 457 522 395 522 312 _c
_cl}_e}_d
/c{{550 0 55 -13 488 560 _sc
488 526 _m
488 442 _l
462 456 437 466 411 473 _c
385 480 360 484 334 484 _c
276 484 230 465 198 428 _c
166 391 150 339 150 273 _c
150 206 166 154 198 117 _c
230 80 276 62 334 62 _c
360 62 385 65 411 72 _c
437 79 462 90 488 104 _c
488 21 _l
462 9 436 0 410 -5 _c
383 -10 354 -13 324 -13 _c
242 -13 176 12 128 64 _c
}_e{79 115 55 185 55 273 _c
55 362 79 432 128 483 _c
177 534 244 560 330 560 _c
358 560 385 557 411 551 _c
437 545 463 537 488 526 _c
_cl}_e}_d
/e{{615 0 55 -13 562 560 _sc
562 296 _m
562 252 _l
149 252 _l
153 190 171 142 205 110 _c
238 78 284 62 344 62 _c
378 62 412 66 444 74 _c
476 82 509 95 541 113 _c
541 28 _l
509 14 476 3 442 -3 _c
408 -9 373 -13 339 -13 _c
251 -13 182 12 131 62 _c
80 112 55 181 55 268 _c
55 357 79 428 127 481 _c
175 533 241 560 323 560 _c
397 560 455 536 498 489 _c
}_e{540 441 562 377 562 296 _c
472 322 _m
471 371 457 410 431 440 _c
404 469 368 484 324 484 _c
274 484 234 469 204 441 _c
174 413 156 373 152 322 _c
472 322 _l
_cl}_e}_d
/i{278 0 94 0 184 760 _sc
94 547 _m
184 547 _l
184 0 _l
94 0 _l
94 547 _l
94 760 _m
184 760 _l
184 646 _l
94 646 _l
94 760 _l
_cl}_d
/l{278 0 94 0 184 760 _sc
94 760 _m
184 760 _l
184 0 _l
94 0 _l
94 760 _l
_cl}_d
/m{{974 0 91 0 889 560 _sc
520 442 _m
542 482 569 511 600 531 _c
631 550 668 560 711 560 _c
767 560 811 540 842 500 _c
873 460 889 403 889 330 _c
889 0 _l
799 0 _l
799 327 _l
799 379 789 418 771 444 _c
752 469 724 482 686 482 _c
639 482 602 466 575 435 _c
548 404 535 362 535 309 _c
535 0 _l
445 0 _l
445 327 _l
445 379 435 418 417 444 _c
398 469 369 482 331 482 _c
}_e{285 482 248 466 221 435 _c
194 404 181 362 181 309 _c
181 0 _l
91 0 _l
91 547 _l
181 547 _l
181 462 _l
201 495 226 520 255 536 _c
283 552 317 560 357 560 _c
397 560 430 550 458 530 _c
486 510 506 480 520 442 _c
_cl}_e}_d
/n{634 0 91 0 549 560 _sc
549 330 _m
549 0 _l
459 0 _l
459 327 _l
459 379 448 417 428 443 _c
408 469 378 482 338 482 _c
289 482 251 466 223 435 _c
195 404 181 362 181 309 _c
181 0 _l
91 0 _l
91 547 _l
181 547 _l
181 462 _l
202 494 227 519 257 535 _c
286 551 320 560 358 560 _c
420 560 468 540 500 501 _c
532 462 549 405 549 330 _c
_cl}_d
/o{612 0 55 -13 557 560 _sc
306 484 _m
258 484 220 465 192 427 _c
164 389 150 338 150 273 _c
150 207 163 156 191 118 _c
219 80 257 62 306 62 _c
354 62 392 80 420 118 _c
448 156 462 207 462 273 _c
462 337 448 389 420 427 _c
392 465 354 484 306 484 _c
306 560 _m
384 560 445 534 490 484 _c
534 433 557 363 557 273 _c
557 183 534 113 490 63 _c
445 12 384 -13 306 -13 _c
227 -13 165 12 121 63 _c
77 113 55 183 55 273 _c
55 363 77 433 121 484 _c
165 534 227 560 306 560 _c
_cl}_d
/p{{635 0 91 -207 580 560 _sc
181 82 _m
181 -207 _l
91 -207 _l
91 547 _l
181 547 _l
181 464 _l
199 496 223 520 252 536 _c
281 552 316 560 356 560 _c
422 560 476 533 518 481 _c
559 428 580 359 580 273 _c
580 187 559 117 518 65 _c
476 13 422 -13 356 -13 _c
316 -13 281 -5 252 10 _c
223 25 199 49 181 82 _c
487 273 _m
487 339 473 390 446 428 _c
418 466 381 485 334 485 _c
}_e{286 485 249 466 222 428 _c
194 390 181 339 181 273 _c
181 207 194 155 222 117 _c
249 79 286 61 334 61 _c
381 61 418 79 446 117 _c
473 155 487 207 487 273 _c
_cl}_e}_d
/r{411 0 91 0 411 560 _sc
411 463 _m
401 469 390 473 378 476 _c
366 478 353 480 339 480 _c
288 480 249 463 222 430 _c
194 397 181 350 181 288 _c
181 0 _l
91 0 _l
91 547 _l
181 547 _l
181 462 _l
199 495 224 520 254 536 _c
284 552 321 560 365 560 _c
371 560 378 559 386 559 _c
393 558 401 557 411 555 _c
411 463 _l
_cl}_d
/s{{521 0 54 -13 472 560 _sc
443 531 _m
443 446 _l
417 458 391 468 364 475 _c
336 481 308 485 279 485 _c
234 485 200 478 178 464 _c
156 450 145 430 145 403 _c
145 382 153 366 169 354 _c
185 342 217 330 265 320 _c
296 313 _l
360 299 405 279 432 255 _c
458 230 472 195 472 151 _c
472 100 452 60 412 31 _c
372 1 316 -13 246 -13 _c
216 -13 186 -10 154 -5 _c
}_e{122 0 89 8 54 20 _c
54 113 _l
87 95 120 82 152 74 _c
184 65 216 61 248 61 _c
290 61 323 68 346 82 _c
368 96 380 117 380 144 _c
380 168 371 187 355 200 _c
339 213 303 226 247 238 _c
216 245 _l
160 257 119 275 95 299 _c
70 323 58 356 58 399 _c
58 450 76 490 112 518 _c
148 546 200 560 268 560 _c
301 560 332 557 362 552 _c
391 547 418 540 443 531 _c
}_e{_cl}_e}_d
/t{392 0 27 0 368 702 _sc
183 702 _m
183 547 _l
368 547 _l
368 477 _l
183 477 _l
183 180 _l
183 135 189 106 201 94 _c
213 81 238 75 276 75 _c
368 75 _l
368 0 _l
276 0 _l
206 0 158 13 132 39 _c
106 65 93 112 93 180 _c
93 477 _l
27 477 _l
27 547 _l
93 547 _l
93 702 _l
183 702 _l
_cl}_d
/u{634 0 85 -13 543 560 _sc
85 216 _m
85 547 _l
175 547 _l
175 219 _l
175 167 185 129 205 103 _c
225 77 255 64 296 64 _c
344 64 383 79 411 110 _c
439 141 453 183 453 237 _c
453 547 _l
543 547 _l
543 0 _l
453 0 _l
453 84 _l
431 50 405 26 377 10 _c
348 -5 315 -13 277 -13 _c
214 -13 166 6 134 45 _c
101 83 85 140 85 216 _c
311 560 _m
311 560 _l
_cl}_d
/minus{838 0 106 272 732 355 _sc
106 355 _m
732 355 _l
732 272 _l
106 272 _l
106 355 _l
_cl}_d
end readonly def

/BuildGlyph
 {exch begin
 CharStrings exch
 2 copy known not{pop /.notdef}if
 true 3 1 roll get exec
 end}_d

/BuildChar {
 1 index /Encoding get exch get
 1 index /BuildGlyph get exec
}_d

FontName currentdict end definefont pop
end
%%EndProlog
mpldict begin
90 252 translate
432 288 0 0 clipbox
gsave
0 0 m
432 0 l
432 288 l
0 288 l
cl
1.000 setgray
fill
grestore
gsave
54 36 m
388.8 36 l
388.8 253.44 l
54 253.44 l
cl
1.000 setgray
fill
grestore
0.800 setlinewidth
1 setlinejoin
2 setlinecap
[] 0 setdash
0.690 setgray
gsave
334.8 217.4 54 36 clipbox
69.218182 36 m
69.218182 253.44 l
stroke
grestore
0 setlinecap
0.000 setgray
gsave
/o {
gsave
newpath
translate
0.8 setlinewidth
1 setlinejoin
0 setlinecap
0 0 m
0 -3.5 l

gsave
0.000 setgray
fill
grestore
stroke
grestore
} bind def
69.2182 36 o
grestore
/DejaVuSans findfont
10.000 scalefont
setfont
gsave
66.038494 21.406250 translate
0.000000 rotate
0.000000 0.000000 m /zero glyphshow
grestore
2 setlinecap
0.690 setgray
gsave
334.8 217.4 54 36 clipbox
112.729781 36 m
112.729781 253.44 l
stroke
grestore
0 setlinecap
0.000 setgray
gsave
/o {
gsave
newpath
translate
0.8 setlinewidth
1 setlinejoin
0 setlinecap
0 0 m
0 -3.5 l

gsave
0.000 setgray
fill
grestore
stroke
grestore
} bind def
112.73 36 o
grestore
gsave
103.190719 21.406250 translate
0.000000 rotate
0.000000 0.000000 m /two glyphshow
6.362305 0.000000 m /zero glyphshow
12.724609 0.000000 m /zero glyphshow
grestore
2 setlinecap
0.690 setgray
gsave
334.8 217.4 54 36 clipbox
156.24138 36 m
156.24138 253.44 l
stroke
grestore
0 setlinecap
0.000 setgray
gsave
/o {
gsave
newpath
translate
0.8 setlinewidth
1 setlinejoin
0 setlinecap
0 0 m
0 -3.5 l

gsave
0.000 setgray
fill
grestore
stroke
grestore
} bind def
156.241 36 o
grestore
gsave
146.702318 21.406250 translate
0.000000 rotate
0.000000 0.000000 m /four glyphshow
6.362305 0.000000 m /zero glyphshow
12.724609 0.000000 m /zero glyphshow
grestore
2 setlinecap
0.690 setgray
gsave
334.8 217.4 54 36 clipbox
199.752979 36 m
199.752979 253.44 l
stroke
grestore
0 setlinecap
0.000 setgray
gsave
/o {
gsave
newpath
translate
0.8 setlinewidth
1 setlinejoin
0 setlinecap
0 0 m
0 -3.5 l

gsave
0.000 setgray
fill
grestore
stroke
grestore
} bind def
199.753 36 o
grestore
gsave
190.213917 21.406250 translate
0.000000 rotate
0.000000 0.000000 m /six glyphshow
6.362305 0.000000 m /zero glyphshow
12.724609 0.000000 m /zero glyphshow
grestore
2 setlinecap
0.690 setgray
gsave
334.8 217.4 54 36 clipbox
243.264579 36 m
243.264579 253.44 l
stroke
grestore
0 setlinecap
0.000 setgray
gsave
/o {
gsave
newpath
translate
0.8 setlinewidth
1 setlinejoin
0 setlinecap
0 0 m
0 -3.5 l

gsave
0.000 setgray
fill
grestore
stroke
grestore
} bind def
243.265 36 o
grestore
gsave
233.725516 21.406250 translate
0.000000 rotate
0.000000 0.000000 m /eight glyphshow
6.362305 0.000000 m /zero glyphshow
12.724609 0.000000 m /zero glyphshow
grestore
2 setlinecap
0.690 setgray
gsave
334.8 217.4 54 36 clipbox
286.776178 36 m
286.776178 253.44 l
stroke
grestore
0 setlinecap
0.000 setgray
gsave
/o {
gsave
newpath
translate
0.8 setlinewidth
1 setlinejoin
0 setlinecap
0 0 m
0 -3.5 l

gsave
0.000 setgray
fill
grestore
stroke
grestore
} bind def
286.776 36 o
grestore
gsave
274.057428 21.406250 translate
0.000000 rotate
0.000000 0.000000 m /one glyphshow
6.362305 0.000000 m /zero glyphshow
12.724609 0.000000 m /zero glyphshow
19.086914 0.000000 m /zero glyphshow
grestore
2 setlinecap
0.690 setgray
gsave
334.8 217.4 54 36 clipbox
330.287777 36 m
330.287777 253.44 l
stroke
grestore
0 setlinecap
0.000 setgray
gsave
/o {
gsave
newpath
translate
0.8 setlinewidth
1 setlinejoin
0 setlinecap
0 0 m
0 -3.5 l

gsave
0.000 setgray
fill
grestore
stroke
grestore
} bind def
330.288 36 o
grestore
gsave
317.569027 21.406250 translate
0.000000 rotate
0.000000 0.000000 m /one glyphshow
6.362305 0.000000 m /two glyphshow
12.724609 0.000000 m /zero glyphshow
19.086914 0.000000 m /zero glyphshow
grestore
2 setlinecap
0.690 setgray
gsave
334.8 217.4 54 36 clipbox
373.799376 36 m
373.799376 253.44 l
stroke
grestore
0 setlinecap
0.000 setgray
gsave
/o {
gsave
newpath
translate
0.8 setlinewidth
1 setlinejoin
0 setlinecap
0 0 m
0 -3.5 l

gsave
0.000 setgray
fill
grestore
stroke
grestore
} bind def
373.799 36 o
grestore
gsave
361.080626 21.406250 translate
0.000000 rotate
0.000000 0.000000 m /one glyphshow
6.362305 0.000000 m /four glyphshow
12.724609 0.000000 m /zero glyphshow
19.086914 0.000000 m /zero glyphshow
grestore
gsave
200.892188 7.734375 translate
0.000000 rotate
0.000000 0.000000 m /T glyphshow
6.108398 0.000000 m /i glyphshow
8.886719 0.000000 m /m glyphshow
18.627930 0.000000 m /e glyphshow
24.780273 0.000000 m /space glyphshow
27.958984 0.000000 m /bracketleft glyphshow
31.860352 0.000000 m /s glyphshow
37.070312 0.000000 m /bracketright glyphshow
grestore
2 setlinecap
0.690 setgray
gsave
334.8 217.4 54 36 clipbox
54 65.4409 m
388.8 65.4409 l
stroke
grestore
0 setlinecap
0.000 setgray
gsave
/o {
gsave
newpath
translate
0.8 setlinewidth
1 setlinejoin
0 setlinecap
0 0 m
-3.5 0 l

gsave
0.000 setgray
fill
grestore
stroke
grestore
} bind def
54 65.4409 o
grestore
gsave
19.546875 61.644025 translate
0.000000 rotate
0.000000 0.000000 m /minus glyphshow
8.378906 0.000000 m /one glyphshow
14.741211 0.000000 m /five glyphshow
21.103516 0.000000 m /zero glyphshow
grestore
2 setlinecap
0.690 setgray
gsave
334.8 217.4 54 36 clipbox
54 99.486017 m
388.8 99.486017 l
stroke
grestore
0 setlinecap
0.000 setgray
gsave
/o {
gsave
newpath
translate
0.8 setlinewidth
1 setlinejoin
0 setlinecap
0 0 m
-3.5 0 l

gsave
0.000 setgray
fill
grestore
stroke
grestore
} bind def
54 99.486 o
grestore
gsave
19.546875 95.689142 translate
0.000000 rotate
0.000000 0.000000 m /minus glyphshow
8.378906 0.000000 m /one glyphshow
14.741211 0.000000 m /zero glyphshow
21.103516 0.000000 m /zero glyphshow
grestore
2 setlinecap
0.690 setgray
gsave
334.8 217.4 54 36 clipbox
54 133.531134 m
388.8 133.531134 l
stroke
grestore
0 setlinecap
0.000 setgray
gsave
/o {
gsave
newpath
translate
0.8 setlinewidth
1 setlinejoin
0 setlinecap
0 0 m
-3.5 0 l

gsave
0.000 setgray
fill
grestore
stroke
grestore
} bind def
54 133.531 o
grestore
gsave
25.906250 129.734259 translate
0.000000 rotate
0.000000 0.000000 m /minus glyphshow
8.378906 0.000000 m /five glyphshow
14.741211 0.000000 m /zero glyphshow
grestore
2 setlinecap
0.690 setgray
gsave
334.8 217.4 54 36 clipbox
54 167.57625 m
388.8 167.57625 l
stroke
grestore
0 setlinecap
0.000 setgray
gsave
/o {
gsave
newpath
translate
0.8 setlinewidth
1 setlinejoin
0 setlinecap
0 0 m
-3.5 0 l

gsave
0.000 setgray
fill
grestore
stroke
grestore
} bind def
54 167.576 o
grestore
gsave
40.640625 163.779375 translate
0.000000 rotate
0.000000 0.000000 m /zero glyphshow
grestore
2 setlinecap
0.690 setgray
gsave
334.8 217.4 54 36 clipbox
54 201.621367 m
388.8 201.621367 l
stroke
grestore
0 setlinecap
0.000 setgray
gsave
/o {
gsave
newpath
translate
0.8 setlinewidth
1 setlinejoin
0 setlinecap
0 0 m
-3.5 0 l

gsave
0.000 setgray
fill
grestore
stroke
grestore
} bind def
54 201.621 o
grestore
gsave
34.281250 197.824492 translate
0.000000 rotate
0.000000 0.000000 m /five glyphshow
6.362305 0.000000 m /zero glyphshow
grestore
2 setlinecap
0.690 setgray
gsave
334.8 217.4 54 36 clipbox
54 235.666484 m
388.8 235.666484 l
stroke
grestore
0 setlinecap
0.000 setgray
gsave
/o {
gsave
newpath
translate
0.8 setlinewidth
1 setlinejoin
0 setlinecap
0 0 m
-3.5 0 l

gsave
0.000 setgray
fill
grestore
stroke
grestore
} bind def
54 235.666 o
grestore
gsave
27.921875 231.869609 translate
0.000000 rotate
0.000000 0.000000 m /one glyphshow
6.362305 0.000000 m /zero glyphshow
12.724609 0.000000 m /zero glyphshow
grestore
gsave
13.468750 79.821562 translate
90.000000 rotate
0.000000 0.000000 m /U glyphshow
7.319336 0.000000 m /l glyphshow
10.097656 0.000000 m /t glyphshow
14.018555 0.000000 m /r glyphshow
18.129883 0.000000 m /a glyphshow
24.257812 0.000000 m /c glyphshow
29.755859 0.000000 m /a glyphshow
35.883789 0.000000 m /p glyphshow
42.231445 0.000000 m /a glyphshow
48.359375 0.000000 m /c glyphshow
53.857422 0.000000 m /i glyphshow
56.635742 0.000000 m /t glyphshow
60.556641 0.000000 m /o glyphshow
66.674805 0.000000 m /r glyphshow
70.786133 0.000000 m /space glyphshow
73.964844 0.000000 m /C glyphshow
80.947266 0.000000 m /u glyphshow
87.285156 0.000000 m /r glyphshow
91.396484 0.000000 m /r glyphshow
95.507812 0.000000 m /e glyphshow
101.660156 0.000000 m /n glyphshow
107.998047 0.000000 m /t glyphshow
111.918945 0.000000 m /space glyphshow
115.097656 0.000000 m /bracketleft glyphshow
118.999023 0.000000 m /A glyphshow
125.839844 0.000000 m /bracketright glyphshow
grestore
1.500 setlinewidth
2 setlinecap
0.122 0.467 0.706 setrgbcolor
gsave
334.8 217.4 54 36 clipbox
69.218182 89.057672 m
69.43574 129.92678 l
69.653298 202.346649 l
69.870856 169.030259 l
70.088414 174.98598 l
70.305972 170.161342 l
70.52353 173.627441 l
70.741088 169.60261 l
70.958646 175.296327 l
71.176204 167.153086 l
71.393762 166.722293 l
72.046436 137.953154 l
72.263994 130.991962 l
72.481552 151.873429 l
72.69911 146.003677 l
72.916668 175.847402 l
73.351784 177.561593 l
73.569342 172.049794 l
73.7869 151.586179 l
74.004458 155.392743 l
74.222016 78.434324 l
74.439574 177.813488 l
74.657132 101.347783 l
74.87469 184.400154 l
75.309806 156.362467 l
75.527364 155.02623 l
75.744922 167.28835 l
75.96248 171.249803 l
76.180038 192.061967 l
76.397596 194.233739 l
76.615154 162.600899 l
76.832712 205.479097 l
77.05027 145.514466 l
77.267828 187.382693 l
77.485386 164.641632 l
77.702944 164.265722 l
77.920502 180.211104 l
78.13806 177.935129 l
78.355618 204.02881 l
78.573176 190.05628 l
78.790734 190.091262 l
79.22585 171.456555 l
79.443408 171.834025 l
79.660966 192.027912 l
79.878524 190.905107 l
80.096082 186.490988 l
80.31364 197.772443 l
80.531198 166.91014 l
80.748756 176.592193 l
80.966314 175.652314 l
81.183872 166.52153 l
81.40143 173.635059 l
81.836546 164.911797 l
82.054104 154.757312 l
82.271662 159.083363 l
82.48922 158.47325 l
82.706778 154.422583 l
82.924336 169.119474 l
83.141894 155.157781 l
83.359452 152.489411 l
83.57701 158.731298 l
83.794568 144.001331 l
84.012126 153.552842 l
84.229684 185.887067 l
84.447242 189.860611 l
84.6648 232.995006 l
84.882358 235.856875 l
85.75259 184.523771 l
85.970148 185.70074 l
86.187706 176.852642 l
86.405263 185.005778 l
86.622821 179.084677 l
86.840379 180.161071 l
87.275495 146.237094 l
87.493053 164.898238 l
87.710611 142.947334 l
87.928169 187.739765 l
88.145727 155.033371 l
88.363285 163.839564 l
88.580843 124.326935 l
88.798401 114.187913 l
89.015959 94.991772 l
89.233517 111.097755 l
89.451075 88.978683 l
89.668633 148.834343 l
89.886191 112.304897 l
90.103749 168.35541 l
90.321307 131.88291 l
90.538865 169.289816 l
91.191539 165.100636 l
91.409097 178.566157 l
91.626655 157.61257 l
91.844213 170.327702 l
92.279329 153.584456 l
92.496887 174.686094 l
92.714445 159.990151 l
92.932003 171.93341 l
93.367119 155.864504 l
93.584677 135.247984 l
93.802235 166.50355 l
94.019793 110.860764 l
94.237351 189.035425 l
94.454909 140.123054 l
94.672467 173.464671 l
94.890025 169.730046 l
95.107583 144.385661 l
95.325141 170.051005 l
95.542699 159.460588 l
95.760257 160.872292 l
95.977815 174.977486 l
96.195373 175.821016 l
96.412931 171.465442 l
96.630489 180.741077 l
96.848047 174.319678 l
97.065605 176.449024 l
97.283163 166.759538 l
97.500721 176.015474 l
97.718279 178.726921 l
98.153395 186.865123 l
98.370953 184.265469 l
98.588511 178.085246 l
98.806069 148.249063 l
99.241185 157.378175 l
99.458743 151.783892 l
99.676301 176.027175 l
100.111417 170.882827 l
100.981649 228.899431 l
101.199207 208.356561 l
101.416765 205.626744 l
101.851881 168.38018 l
102.069439 174.451551 l
102.286997 164.574943 l
102.504555 168.420415 l
102.722113 178.693357 l
102.939671 160.494327 l
103.157229 177.786484 l
103.374787 107.193282 l
103.592345 196.07546 l
103.809903 116.386641 l
104.027461 190.654354 l
104.245019 147.000086 l
104.462577 148.730801 l
104.680135 108.06518 l
104.897693 91.842678 l
105.115251 91.961719 l
105.332809 82.480157 l
105.550367 104.313376 l
105.767925 140.343054 l
105.985483 145.644546 l
106.203041 157.0398 l
106.420599 178.601586 l
106.638157 157.336941 l
106.855715 173.496822 l
107.073273 174.397765 l
107.725947 208.704764 l
107.943505 180.065359 l
108.596179 160.818797 l
108.813737 132.937299 l
109.031295 213.048252 l
109.248853 134.922254 l
109.466411 204.593747 l
109.683969 215.201857 l
109.901527 159.685362 l
110.119085 239.972389 l
110.336643 172.437992 l
110.554201 207.013613 l
110.771759 172.678682 l
110.989317 175.942961 l
111.424433 157.068748 l
111.641991 175.389152 l
111.859549 129.199333 l
112.077107 164.386595 l
112.294665 169.712913 l
112.512223 222.117938 l
112.729781 160.084051 l
112.947339 152.062316 l
113.164897 165.223663 l
113.382455 154.143408 l
113.600013 156.372996 l
113.817571 145.355718 l
114.035129 173.259721 l
114.252687 146.120875 l
114.470245 188.204911 l
114.687803 146.202967 l
114.905361 160.567895 l
115.122919 146.278697 l
115.340477 169.30283 l
115.558035 168.07696 l
115.775593 177.07372 l
115.993151 165.61533 l
116.210709 166.782854 l
116.645825 158.797207 l
116.863383 168.944466 l
117.080941 188.532287 l
117.298499 144.925907 l
117.516057 184.109854 l
117.733615 147.015202 l
118.168731 174.623606 l
118.386289 166.068572 l
118.603847 164.470104 l
118.821405 171.399617 l
119.038963 159.256258 l
119.256521 171.151537 l
119.474079 163.984806 l
119.691637 181.800137 l
119.909195 172.552885 l
120.126753 120.874184 l
120.344311 113.185624 l
120.561869 45.883636 l
120.779427 143.949104 l
120.996985 148.400496 l
121.214543 206.452174 l
121.432101 206.802251 l
121.649659 176.454516 l
121.867217 168.512471 l
122.084775 178.075915 l
122.302333 175.756472 l
122.519891 176.811495 l
122.737449 175.691574 l
123.390123 153.719286 l
123.607681 161.408627 l
123.825239 160.472409 l
124.042797 181.789348 l
124.260355 191.651868 l
124.477913 219.639922 l
124.695471 227.528906 l
125.130587 206.352509 l
125.348145 162.479402 l
125.565703 163.440312 l
125.783261 142.176515 l
126.000819 157.069725 l
126.218377 154.786769 l
126.871051 176.939203 l
127.088609 175.438299 l
127.306167 169.055447 l
127.523725 170.640053 l
127.741283 162.644067 l
127.958841 175.014266 l
128.176399 166.515189 l
128.393957 175.784044 l
128.611515 156.379931 l
128.829073 171.340959 l
129.046631 155.184927 l
129.264189 174.705778 l
129.481747 160.828301 l
129.699305 174.467482 l
129.916863 162.557488 l
130.134421 172.424532 l
130.351979 161.743549 l
130.569537 167.498022 l
130.787095 160.375231 l
131.004653 168.373347 l
131.222211 170.42952 l
131.439769 171.341049 l
132.310001 215.913145 l
132.527559 213.294688 l
132.745117 184.869858 l
132.962675 188.110669 l
133.180233 125.145039 l
133.397791 181.384929 l
133.615349 151.717411 l
133.832907 154.584469 l
134.050465 192.681953 l
134.268023 178.088269 l
134.485581 181.064637 l
134.703139 167.455957 l
134.920697 172.355672 l
135.138255 158.543944 l
135.355813 172.819756 l
135.790929 153.10856 l
136.008487 169.293783 l
136.226045 154.777129 l
136.443603 167.334203 l
136.661161 159.072635 l
136.878719 140.855936 l
137.096277 170.369244 l
137.313835 142.064383 l
137.531393 173.945104 l
137.748951 155.351272 l
137.966509 160.856552 l
138.184067 128.545537 l
138.401625 177.094157 l
138.619183 126.239606 l
138.836741 187.118197 l
139.054299 164.765333 l
139.271857 169.850064 l
139.489415 171.22765 l
139.924531 158.477637 l
140.359647 194.491726 l
140.577204 196.671571 l
140.794762 205.600532 l
141.01232 207.305621 l
141.229878 177.863929 l
141.447436 208.282129 l
141.664994 156.867491 l
141.882552 193.084486 l
142.10011 161.694999 l
142.317668 184.342191 l
142.535226 180.304623 l
142.752784 182.768486 l
142.970342 149.645615 l
143.1879 169.310222 l
143.405458 147.712227 l
143.840574 168.532766 l
144.058132 159.086477 l
144.27569 167.635171 l
144.493248 136.027857 l
144.710806 154.63664 l
144.928364 126.120677 l
145.145922 141.480742 l
145.581038 146.380171 l
146.233712 170.452139 l
146.45127 171.278054 l
146.668828 179.516719 l
146.886386 176.065664 l
147.103944 174.461881 l
147.321502 176.76481 l
147.53906 170.492666 l
147.756618 174.082867 l
148.191734 162.689463 l
148.409292 175.045374 l
148.62685 163.545343 l
148.844408 169.476979 l
149.061966 179.584637 l
149.279524 155.754071 l
149.497082 213.01696 l
149.71464 177.90871 l
149.932198 222.587224 l
150.149756 181.822383 l
150.367314 179.943613 l
150.584872 159.547941 l
150.80243 157.376497 l
151.019988 162.330179 l
151.237546 158.75907 l
151.455104 166.205373 l
151.672662 178.54551 l
151.89022 168.638733 l
152.107778 182.270859 l
152.325336 163.448777 l
152.542894 176.951321 l
152.760452 158.316355 l
152.97801 193.206122 l
153.195568 122.678028 l
153.413126 161.615085 l
153.630684 112.13129 l
153.848242 138.340934 l
154.0658 143.334632 l
154.500916 157.083128 l
154.718474 160.764042 l
154.936032 171.192405 l
155.15359 170.969606 l
155.371148 169.343682 l
155.806264 161.736612 l
156.023822 157.394613 l
156.24138 159.460222 l
156.458938 155.953097 l
156.676496 161.152668 l
156.894054 156.444344 l
157.111612 161.243507 l
157.32917 161.34636 l
157.546728 151.202146 l
157.764286 174.273949 l
157.981844 146.538753 l
158.199402 181.228509 l
158.41696 168.461713 l
158.634518 183.167386 l
158.852076 165.532257 l
159.069634 188.309585 l
159.287192 160.623925 l
159.50475 175.485091 l
159.939866 157.316444 l
160.157424 158.54327 l
160.374982 156.611 l
160.59254 175.090533 l
160.810098 167.595978 l
161.027656 180.258867 l
161.245214 165.255239 l
161.462772 188.791693 l
161.68033 163.408291 l
161.897888 178.049975 l
162.333004 160.930576 l
162.550562 144.0895 l
162.76812 162.819151 l
162.985678 131.936668 l
163.203236 161.18407 l
163.420794 149.922412 l
163.638352 160.617852 l
164.073468 164.874293 l
164.291026 168.815883 l
164.508584 187.493683 l
164.726142 149.80961 l
164.9437 185.272115 l
165.161258 148.269926 l
165.378816 166.839284 l
165.596374 164.277208 l
165.813932 136.730304 l
166.03149 154.110954 l
166.249048 145.146078 l
166.684164 171.997394 l
166.901722 167.905478 l
167.11928 92.024957 l
167.336838 115.34382 l
167.554396 100.988645 l
167.771954 130.952007 l
167.989512 185.537531 l
168.20707 180.053439 l
168.424628 180.106831 l
168.642186 164.469563 l
168.859744 166.648874 l
169.077302 166.924529 l
169.29486 168.390495 l
169.729976 206.269648 l
169.947534 205.198421 l
170.165092 227.556513 l
170.38265 176.469454 l
170.600208 212.778278 l
170.817766 176.41482 l
171.035324 210.106549 l
171.252882 196.006507 l
171.47044 216.146051 l
171.687998 180.688954 l
171.905556 217.879505 l
172.123114 182.749823 l
172.340672 209.560581 l
172.55823 159.046069 l
172.775788 201.529501 l
172.993346 141.473596 l
173.210904 174.287308 l
173.428462 150.654645 l
173.64602 161.42548 l
173.863578 148.850461 l
174.081136 155.746086 l
174.298694 151.727191 l
174.516252 151.954849 l
174.73381 149.731837 l
175.168926 165.233584 l
175.386484 164.106762 l
175.604042 185.798503 l
175.8216 152.248025 l
176.039158 196.254496 l
176.256716 109.956345 l
176.474274 191.318349 l
176.691832 135.346727 l
176.90939 155.509269 l
177.126948 197.250531 l
177.344506 154.86905 l
177.562064 180.728279 l
177.779622 151.865871 l
178.214738 178.278864 l
178.432296 167.253831 l
178.649854 181.287519 l
178.867412 145.77673 l
179.08497 185.82847 l
179.302528 168.836198 l
179.520086 211.90634 l
179.737644 204.549156 l
180.17276 201.48082 l
180.390318 169.732838 l
180.607876 176.344433 l
180.825434 161.546604 l
181.042992 165.205577 l
181.26055 166.396201 l
181.478108 165.109878 l
181.695666 169.555634 l
181.913224 159.514654 l
182.130782 165.80744 l
182.34834 160.487997 l
182.565898 152.20757 l
182.783456 132.662027 l
183.001014 148.006635 l
183.43613 109.938825 l
183.653688 166.265087 l
183.871246 117.025074 l
184.088804 163.777655 l
184.306362 138.681662 l
184.52392 147.302264 l
184.741478 130.142987 l
184.959036 157.413231 l
185.394152 161.844239 l
185.61171 167.534434 l
185.829268 161.439744 l
186.046826 127.853239 l
186.264384 161.886368 l
186.481942 131.187243 l
186.6995 180.579024 l
186.917058 135.985503 l
187.134616 186.506931 l
187.352174 153.018366 l
187.569732 191.051131 l
187.78729 141.36607 l
188.004848 172.542485 l
188.222406 140.176568 l
188.439964 179.971448 l
188.87508 216.058606 l
189.092638 182.633126 l
189.310196 185.310772 l
189.527754 177.941042 l
189.745312 154.629446 l
189.96287 195.508879 l
190.180428 147.438016 l
190.397986 213.690058 l
190.615544 203.69759 l
190.833102 227.149469 l
191.05066 229.772976 l
191.268218 209.975267 l
191.485776 146.889818 l
191.703334 181.922424 l
191.920892 145.908038 l
192.13845 135.548266 l
192.356008 208.788701 l
192.573566 136.542559 l
192.791124 192.91327 l
193.008682 175.217049 l
193.22624 136.407375 l
193.443798 178.481329 l
193.661356 122.581645 l
193.878914 168.476066 l
194.096472 80.663639 l
194.31403 171.928817 l
194.531587 88.136331 l
194.749145 190.796607 l
195.184261 114.293804 l
195.401819 148.59008 l
195.619377 117.771173 l
196.054493 191.877269 l
196.272051 159.959431 l
196.489609 186.912235 l
196.924725 159.025898 l
197.142283 158.471497 l
197.359841 160.466248 l
197.577399 157.896488 l
197.794957 183.324724 l
198.012515 171.539761 l
198.230073 181.997987 l
198.447631 181.820994 l
198.665189 177.782377 l
198.882747 194.932555 l
199.317863 148.214704 l
199.535421 99.272863 l
199.752979 167.84354 l
199.970537 163.492344 l
200.188095 143.414343 l
200.405653 134.592812 l
200.623211 171.417453 l
200.840769 132.425561 l
201.058327 196.293068 l
201.275885 163.322846 l
201.493443 166.176969 l
201.711001 172.049387 l
201.928559 155.099889 l
202.146117 173.914238 l
202.363675 158.268628 l
202.581233 167.757756 l
202.798791 160.866425 l
203.016349 170.406277 l
203.233907 162.522455 l
203.451465 192.598481 l
203.669023 183.894629 l
203.886581 192.990076 l
204.104139 186.389616 l
204.321697 189.233051 l
204.539255 164.568024 l
204.756813 183.823777 l
204.974371 164.107954 l
205.191929 207.971489 l
205.409487 201.739958 l
205.627045 243.556364 l
205.844603 211.662649 l
206.062161 207.024374 l
206.497277 163.969688 l
206.714835 174.933161 l
206.932393 173.556289 l
207.149951 165.407341 l
207.367509 191.772211 l
207.585067 145.923459 l
207.802625 152.714759 l
208.237741 132.16613 l
208.455299 159.974485 l
208.672857 166.498146 l
208.890415 152.158782 l
209.107973 173.365677 l
209.325531 154.953041 l
209.543089 154.843874 l
209.760647 166.502063 l
209.978205 134.301068 l
210.195763 178.622292 l
210.413321 165.914932 l
210.630879 208.536953 l
211.065995 225.310949 l
211.283553 209.301628 l
211.501111 221.00401 l
211.718669 210.394438 l
212.153785 229.945919 l
212.371343 228.151026 l
212.588901 223.810024 l
212.806459 209.935133 l
213.024017 205.194114 l
213.241575 181.103008 l
213.459133 174.230292 l
213.894249 150.09804 l
214.111807 146.662739 l
214.329365 141.156968 l
214.764481 135.437351 l
214.982039 120.617633 l
215.199597 134.482404 l
215.417155 116.404451 l
215.634713 133.5621 l
215.852271 127.725912 l
216.069829 137.128051 l
216.287387 129.254321 l
216.504945 135.447342 l
216.722503 121.87441 l
217.157619 125.574675 l
217.375177 116.131566 l
217.592735 139.238796 l
217.810293 132.916338 l
218.027851 146.603175 l
218.245409 149.964804 l
218.462967 140.12134 l
218.680525 136.763885 l
218.898083 146.872754 l
219.115641 147.718602 l
219.333199 170.578902 l
219.550757 169.505333 l
219.768315 170.040914 l
219.985873 166.612969 l
220.203431 154.751771 l
220.420989 170.224203 l
220.638547 164.38682 l
220.856105 179.252481 l
221.291221 147.651024 l
221.508779 127.793635 l
221.726337 153.172817 l
222.161453 171.129764 l
222.379011 164.094755 l
222.596569 169.418413 l
222.814127 170.865869 l
223.031685 175.936165 l
223.466801 159.426635 l
223.684359 174.737716 l
223.901917 121.084686 l
224.119475 196.572206 l
224.337033 131.159864 l
224.554591 188.514929 l
224.772149 142.764068 l
224.989707 171.682425 l
225.207265 149.353431 l
225.424823 181.215926 l
225.642381 172.146977 l
225.859939 183.39454 l
226.077497 163.988347 l
226.295055 175.198853 l
226.512613 163.011093 l
226.730171 163.950825 l
226.947729 177.200326 l
227.165287 163.406034 l
227.382845 177.893924 l
227.600403 169.42376 l
227.817961 167.093542 l
228.035519 160.855033 l
228.253077 167.348753 l
228.470635 162.023608 l
228.688193 171.799237 l
228.905751 158.414495 l
229.123309 172.487994 l
229.340867 171.811636 l
229.558425 158.175705 l
229.775983 182.88052 l
229.993541 160.414907 l
230.211099 170.216854 l
230.428657 170.449454 l
230.646215 138.230669 l
230.863773 179.485854 l
231.081331 140.279579 l
231.298889 186.799022 l
231.516447 190.091633 l
231.734005 209.947956 l
231.951563 211.157478 l
232.169121 225.120831 l
232.386679 196.632306 l
232.604237 200.868271 l
232.821795 174.874116 l
233.039353 196.926672 l
233.256911 195.034143 l
233.474469 215.985409 l
233.692027 207.268232 l
233.909585 206.505159 l
234.127143 180.485053 l
234.344701 174.27198 l
234.562259 135.746948 l
234.779817 185.582569 l
234.997375 110.808008 l
235.214933 201.166862 l
235.432491 136.506617 l
235.650049 191.008089 l
235.867607 165.349716 l
236.085165 195.268307 l
236.302723 155.522432 l
236.520281 184.608114 l
236.737839 152.995726 l
236.955397 201.218021 l
237.172955 199.009828 l
237.390513 202.374503 l
237.608071 201.790445 l
237.825629 169.400682 l
238.043187 169.89507 l
238.260745 169.003539 l
238.478303 166.888207 l
240.436325 166.874414 l
243.699695 166.874477 l
243.917253 161.964849 l
244.134811 164.465599 l
244.352369 155.089028 l
244.569927 155.14201 l
244.787485 144.183427 l
245.222601 158.816953 l
245.440159 157.255179 l
245.657717 175.534022 l
245.875275 143.886702 l
246.092833 179.356921 l
246.310391 145.363507 l
246.527949 181.48548 l
246.745507 170.107667 l
246.963065 168.581849 l
247.180623 121.57483 l
247.398181 191.555553 l
247.615739 110.123936 l
247.833297 198.265989 l
248.050855 165.243254 l
248.268413 176.933513 l
248.48597 164.926899 l
248.703528 186.668903 l
248.921086 184.23492 l
249.138644 216.170921 l
249.57376 233.386436 l
249.791318 229.317167 l
250.66155 172.878521 l
250.879108 165.84485 l
251.096666 166.864855 l
251.314224 165.530409 l
251.531782 165.509855 l
251.74934 166.863138 l
251.966898 165.526589 l
252.184456 166.860542 l
252.402014 166.87746 l
252.619572 162.75106 l
253.054688 137.799535 l
253.272246 147.045557 l
253.489804 138.738783 l
253.707362 172.808817 l
253.92492 161.035289 l
254.142478 185.635863 l
254.360036 153.312145 l
254.577594 193.393688 l
254.795152 153.974832 l
255.01271 177.340733 l
255.230268 171.929064 l
255.447826 161.121503 l
255.665384 175.035266 l
255.882942 141.398934 l
256.1005 175.169949 l
256.318058 143.54335 l
256.535616 170.29113 l
256.753174 169.375327 l
257.18829 156.554938 l
257.405848 150.706297 l
257.623406 156.130306 l
257.840964 141.073114 l
258.058522 162.172877 l
258.27608 150.175115 l
258.493638 162.12316 l
258.711196 152.170167 l
258.928754 161.889071 l
259.146312 158.672501 l
259.36387 168.195848 l
259.581428 183.494689 l
259.798986 174.800365 l
260.016544 197.92179 l
260.234102 169.340551 l
260.45166 195.030946 l
260.669218 181.433849 l
261.104334 185.15713 l
261.53945 167.229986 l
261.757008 188.308611 l
261.974566 189.059356 l
262.192124 181.786256 l
262.409682 192.485227 l
262.62724 166.491232 l
262.844798 167.032723 l
263.062356 167.130486 l
263.497472 166.876688 l
265.020378 166.874908 l
265.237936 165.78457 l
265.455494 163.404058 l
265.673052 149.325585 l
265.89061 144.499474 l
266.108168 157.366323 l
266.325726 109.913863 l
266.543284 170.33583 l
266.760842 136.70831 l
266.9784 165.320293 l
267.413516 173.024853 l
267.631074 145.007661 l
267.848632 176.071985 l
268.06619 159.674704 l
268.283748 173.810293 l
268.501306 165.197861 l
268.718864 170.671691 l
268.936422 165.921762 l
269.15398 167.917369 l
269.371538 178.615919 l
269.589096 169.406458 l
269.806654 167.821055 l
270.024212 169.251509 l
270.24177 180.139443 l
270.459328 157.150048 l
270.676886 191.424694 l
270.894444 158.813678 l
271.112002 187.559978 l
271.32956 171.635022 l
271.547118 176.826708 l
271.764676 168.376853 l
271.982234 172.021863 l
272.199792 162.703707 l
272.41735 168.77705 l
272.634908 154.913324 l
272.852466 151.496729 l
273.070024 160.099834 l
273.287582 146.743908 l
273.50514 170.441948 l
273.722698 158.688197 l
273.940256 171.645304 l
274.157814 170.796704 l
274.375372 150.814058 l
274.59293 183.268762 l
274.810488 146.956409 l
275.028046 180.509415 l
275.245604 146.058629 l
275.463162 166.085891 l
275.68072 153.491611 l
276.115836 169.927662 l
276.333394 162.540067 l
276.550952 170.270736 l
276.76851 156.191747 l
276.986068 174.366153 l
277.203626 159.928077 l
277.421184 161.376188 l
277.638742 166.018597 l
277.8563 162.443559 l
278.291416 167.979695 l
278.508974 171.275617 l
278.94409 169.460891 l
279.596764 146.862429 l
279.814322 165.673592 l
280.03188 149.819293 l
280.249438 180.548006 l
280.466996 168.411782 l
280.684554 162.77815 l
280.902112 142.151829 l
281.11967 164.980975 l
281.337228 134.308847 l
281.554786 171.625823 l
281.772344 159.606094 l
281.989902 170.99807 l
282.20746 162.456084 l
282.425018 166.003445 l
282.642576 158.176697 l
282.860134 171.751809 l
283.077692 172.773992 l
283.29525 166.322611 l
283.512808 176.620612 l
283.947924 151.557699 l
284.165482 184.796772 l
284.38304 152.222115 l
284.600598 182.967787 l
284.818156 162.19315 l
285.035714 195.062386 l
285.253272 167.76847 l
285.47083 196.666727 l
285.688388 171.528943 l
285.905946 169.973775 l
286.123504 139.904769 l
286.341062 169.05874 l
286.55862 178.866234 l
286.776178 149.964775 l
286.993736 162.612625 l
287.211294 199.463941 l
287.428852 171.426065 l
287.64641 230.725482 l
287.863968 181.138355 l
288.081526 209.498811 l
288.299084 185.668449 l
288.516642 181.901005 l
288.7342 171.767436 l
288.951758 167.38133 l
289.169316 166.878559 l
289.82199 166.858499 l
290.039548 165.540632 l
290.257106 166.861589 l
290.474664 165.543566 l
290.692222 166.861575 l
292.432686 166.874214 l
297.654078 166.873851 l
297.871636 165.54326 l
298.089194 166.860678 l
298.306752 165.545772 l
298.52431 166.860646 l
300.047216 166.874367 l
301.135006 166.874381 l
301.570122 159.590105 l
301.78768 162.914207 l
302.005238 163.017158 l
302.440353 170.306006 l
302.657911 167.688219 l
302.875469 166.878938 l
306.791513 166.874409 l
307.009071 164.67602 l
307.226629 142.899282 l
307.444187 160.556469 l
307.661745 138.539651 l
307.879303 164.002789 l
308.096861 173.096301 l
308.314419 188.037453 l
308.749535 175.134381 l
308.967093 178.089079 l
309.184651 171.50707 l
309.619767 154.387965 l
309.837325 151.004022 l
310.054883 154.486009 l
310.272441 165.352097 l
310.489999 167.725227 l
310.707557 174.232624 l
310.925115 174.840351 l
311.142673 174.017784 l
311.360231 161.817934 l
311.577789 164.187147 l
312.012905 153.943957 l
312.230463 185.908399 l
312.448021 155.905598 l
312.665579 181.924287 l
312.883137 168.093499 l
313.100695 171.565323 l
313.318253 172.968609 l
313.535811 195.168708 l
313.753369 201.848664 l
313.970927 183.8159 l
314.188485 231.938093 l
314.406043 172.517302 l
314.623601 208.074247 l
314.841159 183.428865 l
315.276275 167.5992 l
315.711391 169.234494 l
315.928949 170.626388 l
316.146507 167.68006 l
316.364065 157.756104 l
316.581623 136.749382 l
316.799181 164.048423 l
317.016739 138.813346 l
317.451855 182.945103 l
317.669413 140.075326 l
317.886971 186.936974 l
318.104529 154.274057 l
318.322087 163.429829 l
318.539645 185.017363 l
318.757203 144.711588 l
318.974761 190.610325 l
319.192319 143.196428 l
319.409877 173.327291 l
319.627435 165.269828 l
319.844993 166.626613 l
320.062551 166.617552 l
320.280109 172.627223 l
320.497667 160.991589 l
320.715225 165.632789 l
320.932783 167.159331 l
321.150341 158.324745 l
321.367899 165.359447 l
321.585457 159.681296 l
321.803015 166.010228 l
322.020573 166.961037 l
322.238131 154.676205 l
322.455689 166.439351 l
322.673247 163.732923 l
322.890805 164.502672 l
323.108363 161.15229 l
323.325921 182.474497 l
323.543479 154.043271 l
323.761037 177.570008 l
323.978595 164.709418 l
324.196153 159.096936 l
324.413711 162.538575 l
324.631269 172.08711 l
324.848827 200.674743 l
325.066385 213.214823 l
325.283943 237.636086 l
325.501501 235.844442 l
325.719059 230.020499 l
325.936617 207.353539 l
326.154175 205.672661 l
326.371733 192.379414 l
326.589291 190.169492 l
326.806849 194.735033 l
327.024407 189.374693 l
327.241965 179.238776 l
327.459523 177.856608 l
327.677081 169.528108 l
327.894639 156.249395 l
328.112197 131.104626 l
328.547313 150.854756 l
328.764871 147.336727 l
328.982429 189.226986 l
329.199987 127.854635 l
329.417545 187.866989 l
329.635103 137.258684 l
329.852661 180.070687 l
330.070219 157.33747 l
330.287777 167.57625 l
351.826019 167.57625 l
352.043577 166.876233 l
359.875664 166.876164 l
360.093222 163.525471 l
360.31078 145.354219 l
360.528338 157.924009 l
360.745896 145.119366 l
361.181012 169.55385 l
361.39857 164.509519 l
361.616128 156.839974 l
361.833686 163.519563 l
362.051244 154.003033 l
362.48636 173.390923 l
362.703918 168.599213 l
362.921476 187.51022 l
363.139034 167.091784 l
363.356592 180.825715 l
363.57415 185.037173 l
363.791708 171.891235 l
364.009266 189.794264 l
364.226824 172.506774 l
364.444382 171.69268 l
364.66194 164.598803 l
364.879498 168.67136 l
365.314614 142.215853 l
365.532172 162.330259 l
365.74973 152.554299 l
366.184846 181.32493 l
366.402404 174.106389 l
366.619962 174.072445 l
366.83752 171.187907 l
367.055078 170.02018 l
367.272636 166.545433 l
367.490194 167.04777 l
367.707752 168.120764 l
367.92531 166.884154 l
369.230658 166.876138 l
369.448216 165.787442 l
369.665774 166.050359 l
369.883332 165.971269 l
370.10089 166.052075 l
370.318448 167.061494 l
370.536006 166.877842 l
373.581818 166.876072 l
373.581818 166.876072 l
stroke
grestore
0.800 setlinewidth
0 setlinejoin
[] 0 setdash
0.000 setgray
gsave
54 36 m
54 253.44 l
stroke
grestore
gsave
388.8 36 m
388.8 253.44 l
stroke
grestore
gsave
54 36 m
388.8 36 l
stroke
grestore
gsave
54 253.44 m
388.8 253.44 l
stroke
grestore

end
showpage
