%!PS-Adobe-3.0 EPSF-3.0
%%Title: current3.eps
%%Creator: matplotlib version 2.0.0, http://matplotlib.org/
%%CreationDate: Mon May 15 01:01:19 2017
%%Orientation: portrait
%%BoundingBox: 90 252 522 540
%%EndComments
%%BeginProlog
/mpldict 8 dict def
mpldict begin
/m { moveto } bind def
/l { lineto } bind def
/r { rlineto } bind def
/c { curveto } bind def
/cl { closepath } bind def
/box {
m
1 index 0 r
0 exch r
neg 0 r
cl
} bind def
/clipbox {
box
clip
newpath
} bind def
%!PS-Adobe-3.0 Resource-Font
%%Title: DejaVu Sans
%%Copyright: Copyright (c) 2003 by Bitstream, Inc. All Rights Reserved. Copyright (c) 2006 by Tavmjong Bah. All Rights Reserved. DejaVu changes are in public domain 
%%Creator: Converted from TrueType to type 3 by PPR
25 dict begin
/_d{bind def}bind def
/_m{moveto}_d
/_l{lineto}_d
/_cl{closepath eofill}_d
/_c{curveto}_d
/_sc{7 -1 roll{setcachedevice}{pop pop pop pop pop pop}ifelse}_d
/_e{exec}_d
/FontName /DejaVuSans def
/PaintType 0 def
/FontMatrix[.001 0 0 .001 0 0]def
/FontBBox[-1021 -463 1793 1232]def
/FontType 3 def
/Encoding [ /space /zero /one /two /four /five /six /eight /A /C /T /bracketleft /bracketright /e /i /m /n /r /s /t /u /minus ] def
/FontInfo 10 dict dup begin
/FamilyName (DejaVu Sans) def
/FullName (DejaVu Sans) def
/Notice (Copyright (c) 2003 by Bitstream, Inc. All Rights Reserved. Copyright (c) 2006 by Tavmjong Bah. All Rights Reserved. DejaVu changes are in public domain ) def
/Weight (Book) def
/Version (Version 2.35) def
/ItalicAngle 0.0 def
/isFixedPitch false def
/UnderlinePosition -130 def
/UnderlineThickness 90 def
end readonly def
/CharStrings 22 dict dup begin
/space{318 0 0 0 0 0 _sc
}_d
/zero{636 0 66 -13 570 742 _sc
318 664 _m
267 664 229 639 203 589 _c
177 539 165 464 165 364 _c
165 264 177 189 203 139 _c
229 89 267 64 318 64 _c
369 64 407 89 433 139 _c
458 189 471 264 471 364 _c
471 464 458 539 433 589 _c
407 639 369 664 318 664 _c
318 742 _m
399 742 461 709 505 645 _c
548 580 570 486 570 364 _c
570 241 548 147 505 83 _c
461 19 399 -13 318 -13 _c
236 -13 173 19 130 83 _c
87 147 66 241 66 364 _c
66 486 87 580 130 645 _c
173 709 236 742 318 742 _c
_cl}_d
/one{636 0 110 0 544 729 _sc
124 83 _m
285 83 _l
285 639 _l
110 604 _l
110 694 _l
284 729 _l
383 729 _l
383 83 _l
544 83 _l
544 0 _l
124 0 _l
124 83 _l
_cl}_d
/two{{636 0 73 0 536 742 _sc
192 83 _m
536 83 _l
536 0 _l
73 0 _l
73 83 _l
110 121 161 173 226 239 _c
290 304 331 346 348 365 _c
380 400 402 430 414 455 _c
426 479 433 504 433 528 _c
433 566 419 598 392 622 _c
365 646 330 659 286 659 _c
255 659 222 653 188 643 _c
154 632 117 616 78 594 _c
78 694 _l
118 710 155 722 189 730 _c
223 738 255 742 284 742 _c
}_e{359 742 419 723 464 685 _c
509 647 532 597 532 534 _c
532 504 526 475 515 449 _c
504 422 484 390 454 354 _c
446 344 420 317 376 272 _c
332 227 271 164 192 83 _c
_cl}_e}_d
/four{636 0 49 0 580 729 _sc
378 643 _m
129 254 _l
378 254 _l
378 643 _l
352 729 _m
476 729 _l
476 254 _l
580 254 _l
580 172 _l
476 172 _l
476 0 _l
378 0 _l
378 172 _l
49 172 _l
49 267 _l
352 729 _l
_cl}_d
/five{{636 0 77 -13 549 729 _sc
108 729 _m
495 729 _l
495 646 _l
198 646 _l
198 467 _l
212 472 227 476 241 478 _c
255 480 270 482 284 482 _c
365 482 429 459 477 415 _c
525 370 549 310 549 234 _c
549 155 524 94 475 51 _c
426 8 357 -13 269 -13 _c
238 -13 207 -10 175 -6 _c
143 -1 111 6 77 17 _c
77 116 _l
106 100 136 88 168 80 _c
199 72 232 69 267 69 _c
}_e{323 69 368 83 401 113 _c
433 143 450 183 450 234 _c
450 284 433 324 401 354 _c
368 384 323 399 267 399 _c
241 399 214 396 188 390 _c
162 384 135 375 108 363 _c
108 729 _l
_cl}_e}_d
/six{{636 0 70 -13 573 742 _sc
330 404 _m
286 404 251 388 225 358 _c
199 328 186 286 186 234 _c
186 181 199 139 225 109 _c
251 79 286 64 330 64 _c
374 64 409 79 435 109 _c
461 139 474 181 474 234 _c
474 286 461 328 435 358 _c
409 388 374 404 330 404 _c
526 713 _m
526 623 _l
501 635 476 644 451 650 _c
425 656 400 659 376 659 _c
310 659 260 637 226 593 _c
}_e{192 549 172 482 168 394 _c
187 422 211 444 240 459 _c
269 474 301 482 336 482 _c
409 482 467 459 509 415 _c
551 371 573 310 573 234 _c
573 159 550 99 506 54 _c
462 9 403 -13 330 -13 _c
246 -13 181 19 137 83 _c
92 147 70 241 70 364 _c
70 479 97 571 152 639 _c
206 707 280 742 372 742 _c
396 742 421 739 447 735 _c
472 730 498 723 526 713 _c
_cl}_e}_d
/eight{{636 0 68 -13 568 742 _sc
318 346 _m
271 346 234 333 207 308 _c
180 283 167 249 167 205 _c
167 161 180 126 207 101 _c
234 76 271 64 318 64 _c
364 64 401 76 428 102 _c
455 127 469 161 469 205 _c
469 249 455 283 429 308 _c
402 333 365 346 318 346 _c
219 388 _m
177 398 144 418 120 447 _c
96 476 85 511 85 553 _c
85 611 105 657 147 691 _c
188 725 245 742 318 742 _c
}_e{390 742 447 725 489 691 _c
530 657 551 611 551 553 _c
551 511 539 476 515 447 _c
491 418 459 398 417 388 _c
464 377 501 355 528 323 _c
554 291 568 251 568 205 _c
568 134 546 80 503 43 _c
459 5 398 -13 318 -13 _c
237 -13 175 5 132 43 _c
89 80 68 134 68 205 _c
68 251 81 291 108 323 _c
134 355 171 377 219 388 _c
183 544 _m
183 506 194 476 218 455 _c
}_e{242 434 275 424 318 424 _c
360 424 393 434 417 455 _c
441 476 453 506 453 544 _c
453 582 441 611 417 632 _c
393 653 360 664 318 664 _c
275 664 242 653 218 632 _c
194 611 183 582 183 544 _c
_cl}_e}_d
/A{684 0 8 0 676 729 _sc
342 632 _m
208 269 _l
476 269 _l
342 632 _l
286 729 _m
398 729 _l
676 0 _l
573 0 _l
507 187 _l
178 187 _l
112 0 _l
8 0 _l
286 729 _l
_cl}_d
/C{{698 0 56 -13 644 742 _sc
644 673 _m
644 569 _l
610 599 575 622 537 638 _c
499 653 460 661 418 661 _c
334 661 270 635 226 584 _c
182 533 160 460 160 364 _c
160 268 182 194 226 143 _c
270 92 334 67 418 67 _c
460 67 499 74 537 90 _c
575 105 610 128 644 159 _c
644 56 _l
609 32 572 15 534 4 _c
496 -7 455 -13 412 -13 _c
302 -13 215 20 151 87 _c
}_e{87 154 56 246 56 364 _c
56 481 87 573 151 641 _c
215 708 302 742 412 742 _c
456 742 497 736 535 725 _c
573 713 610 696 644 673 _c
_cl}_e}_d
/T{611 0 -2 0 614 729 _sc
-2 729 _m
614 729 _l
614 646 _l
355 646 _l
355 0 _l
256 0 _l
256 646 _l
-2 646 _l
-2 729 _l
_cl}_d
/bracketleft{390 0 86 -131 293 760 _sc
86 760 _m
293 760 _l
293 690 _l
176 690 _l
176 -61 _l
293 -61 _l
293 -131 _l
86 -131 _l
86 760 _l
_cl}_d
/bracketright{390 0 97 -131 304 760 _sc
304 760 _m
304 -131 _l
97 -131 _l
97 -61 _l
214 -61 _l
214 690 _l
97 690 _l
97 760 _l
304 760 _l
_cl}_d
/e{{615 0 55 -13 562 560 _sc
562 296 _m
562 252 _l
149 252 _l
153 190 171 142 205 110 _c
238 78 284 62 344 62 _c
378 62 412 66 444 74 _c
476 82 509 95 541 113 _c
541 28 _l
509 14 476 3 442 -3 _c
408 -9 373 -13 339 -13 _c
251 -13 182 12 131 62 _c
80 112 55 181 55 268 _c
55 357 79 428 127 481 _c
175 533 241 560 323 560 _c
397 560 455 536 498 489 _c
}_e{540 441 562 377 562 296 _c
472 322 _m
471 371 457 410 431 440 _c
404 469 368 484 324 484 _c
274 484 234 469 204 441 _c
174 413 156 373 152 322 _c
472 322 _l
_cl}_e}_d
/i{278 0 94 0 184 760 _sc
94 547 _m
184 547 _l
184 0 _l
94 0 _l
94 547 _l
94 760 _m
184 760 _l
184 646 _l
94 646 _l
94 760 _l
_cl}_d
/m{{974 0 91 0 889 560 _sc
520 442 _m
542 482 569 511 600 531 _c
631 550 668 560 711 560 _c
767 560 811 540 842 500 _c
873 460 889 403 889 330 _c
889 0 _l
799 0 _l
799 327 _l
799 379 789 418 771 444 _c
752 469 724 482 686 482 _c
639 482 602 466 575 435 _c
548 404 535 362 535 309 _c
535 0 _l
445 0 _l
445 327 _l
445 379 435 418 417 444 _c
398 469 369 482 331 482 _c
}_e{285 482 248 466 221 435 _c
194 404 181 362 181 309 _c
181 0 _l
91 0 _l
91 547 _l
181 547 _l
181 462 _l
201 495 226 520 255 536 _c
283 552 317 560 357 560 _c
397 560 430 550 458 530 _c
486 510 506 480 520 442 _c
_cl}_e}_d
/n{634 0 91 0 549 560 _sc
549 330 _m
549 0 _l
459 0 _l
459 327 _l
459 379 448 417 428 443 _c
408 469 378 482 338 482 _c
289 482 251 466 223 435 _c
195 404 181 362 181 309 _c
181 0 _l
91 0 _l
91 547 _l
181 547 _l
181 462 _l
202 494 227 519 257 535 _c
286 551 320 560 358 560 _c
420 560 468 540 500 501 _c
532 462 549 405 549 330 _c
_cl}_d
/r{411 0 91 0 411 560 _sc
411 463 _m
401 469 390 473 378 476 _c
366 478 353 480 339 480 _c
288 480 249 463 222 430 _c
194 397 181 350 181 288 _c
181 0 _l
91 0 _l
91 547 _l
181 547 _l
181 462 _l
199 495 224 520 254 536 _c
284 552 321 560 365 560 _c
371 560 378 559 386 559 _c
393 558 401 557 411 555 _c
411 463 _l
_cl}_d
/s{{521 0 54 -13 472 560 _sc
443 531 _m
443 446 _l
417 458 391 468 364 475 _c
336 481 308 485 279 485 _c
234 485 200 478 178 464 _c
156 450 145 430 145 403 _c
145 382 153 366 169 354 _c
185 342 217 330 265 320 _c
296 313 _l
360 299 405 279 432 255 _c
458 230 472 195 472 151 _c
472 100 452 60 412 31 _c
372 1 316 -13 246 -13 _c
216 -13 186 -10 154 -5 _c
}_e{122 0 89 8 54 20 _c
54 113 _l
87 95 120 82 152 74 _c
184 65 216 61 248 61 _c
290 61 323 68 346 82 _c
368 96 380 117 380 144 _c
380 168 371 187 355 200 _c
339 213 303 226 247 238 _c
216 245 _l
160 257 119 275 95 299 _c
70 323 58 356 58 399 _c
58 450 76 490 112 518 _c
148 546 200 560 268 560 _c
301 560 332 557 362 552 _c
391 547 418 540 443 531 _c
}_e{_cl}_e}_d
/t{392 0 27 0 368 702 _sc
183 702 _m
183 547 _l
368 547 _l
368 477 _l
183 477 _l
183 180 _l
183 135 189 106 201 94 _c
213 81 238 75 276 75 _c
368 75 _l
368 0 _l
276 0 _l
206 0 158 13 132 39 _c
106 65 93 112 93 180 _c
93 477 _l
27 477 _l
27 547 _l
93 547 _l
93 702 _l
183 702 _l
_cl}_d
/u{634 0 85 -13 543 560 _sc
85 216 _m
85 547 _l
175 547 _l
175 219 _l
175 167 185 129 205 103 _c
225 77 255 64 296 64 _c
344 64 383 79 411 110 _c
439 141 453 183 453 237 _c
453 547 _l
543 547 _l
543 0 _l
453 0 _l
453 84 _l
431 50 405 26 377 10 _c
348 -5 315 -13 277 -13 _c
214 -13 166 6 134 45 _c
101 83 85 140 85 216 _c
311 560 _m
311 560 _l
_cl}_d
/minus{838 0 106 272 732 355 _sc
106 355 _m
732 355 _l
732 272 _l
106 272 _l
106 355 _l
_cl}_d
end readonly def

/BuildGlyph
 {exch begin
 CharStrings exch
 2 copy known not{pop /.notdef}if
 true 3 1 roll get exec
 end}_d

/BuildChar {
 1 index /Encoding get exch get
 1 index /BuildGlyph get exec
}_d

FontName currentdict end definefont pop
end
%%EndProlog
mpldict begin
90 252 translate
432 288 0 0 clipbox
gsave
0 0 m
432 0 l
432 288 l
0 288 l
cl
1.000 setgray
fill
grestore
gsave
54 36 m
388.8 36 l
388.8 253.44 l
54 253.44 l
cl
1.000 setgray
fill
grestore
0.800 setlinewidth
1 setlinejoin
2 setlinecap
[] 0 setdash
0.690 setgray
gsave
334.8 217.4 54 36 clipbox
69.218182 36 m
69.218182 253.44 l
stroke
grestore
0 setlinecap
0.000 setgray
gsave
/o {
gsave
newpath
translate
0.8 setlinewidth
1 setlinejoin
0 setlinecap
0 0 m
0 -3.5 l

gsave
0.000 setgray
fill
grestore
stroke
grestore
} bind def
69.2182 36 o
grestore
/DejaVuSans findfont
10.000 scalefont
setfont
gsave
66.038494 21.406250 translate
0.000000 rotate
0.000000 0.000000 m /zero glyphshow
grestore
2 setlinecap
0.690 setgray
gsave
334.8 217.4 54 36 clipbox
116.079404 36 m
116.079404 253.44 l
stroke
grestore
0 setlinecap
0.000 setgray
gsave
/o {
gsave
newpath
translate
0.8 setlinewidth
1 setlinejoin
0 setlinecap
0 0 m
0 -3.5 l

gsave
0.000 setgray
fill
grestore
stroke
grestore
} bind def
116.079 36 o
grestore
gsave
106.540341 21.406250 translate
0.000000 rotate
0.000000 0.000000 m /two glyphshow
6.362305 0.000000 m /zero glyphshow
12.724609 0.000000 m /zero glyphshow
grestore
2 setlinecap
0.690 setgray
gsave
334.8 217.4 54 36 clipbox
162.940626 36 m
162.940626 253.44 l
stroke
grestore
0 setlinecap
0.000 setgray
gsave
/o {
gsave
newpath
translate
0.8 setlinewidth
1 setlinejoin
0 setlinecap
0 0 m
0 -3.5 l

gsave
0.000 setgray
fill
grestore
stroke
grestore
} bind def
162.941 36 o
grestore
gsave
153.401563 21.406250 translate
0.000000 rotate
0.000000 0.000000 m /four glyphshow
6.362305 0.000000 m /zero glyphshow
12.724609 0.000000 m /zero glyphshow
grestore
2 setlinecap
0.690 setgray
gsave
334.8 217.4 54 36 clipbox
209.801848 36 m
209.801848 253.44 l
stroke
grestore
0 setlinecap
0.000 setgray
gsave
/o {
gsave
newpath
translate
0.8 setlinewidth
1 setlinejoin
0 setlinecap
0 0 m
0 -3.5 l

gsave
0.000 setgray
fill
grestore
stroke
grestore
} bind def
209.802 36 o
grestore
gsave
200.262785 21.406250 translate
0.000000 rotate
0.000000 0.000000 m /six glyphshow
6.362305 0.000000 m /zero glyphshow
12.724609 0.000000 m /zero glyphshow
grestore
2 setlinecap
0.690 setgray
gsave
334.8 217.4 54 36 clipbox
256.663069 36 m
256.663069 253.44 l
stroke
grestore
0 setlinecap
0.000 setgray
gsave
/o {
gsave
newpath
translate
0.8 setlinewidth
1 setlinejoin
0 setlinecap
0 0 m
0 -3.5 l

gsave
0.000 setgray
fill
grestore
stroke
grestore
} bind def
256.663 36 o
grestore
gsave
247.124007 21.406250 translate
0.000000 rotate
0.000000 0.000000 m /eight glyphshow
6.362305 0.000000 m /zero glyphshow
12.724609 0.000000 m /zero glyphshow
grestore
2 setlinecap
0.690 setgray
gsave
334.8 217.4 54 36 clipbox
303.524291 36 m
303.524291 253.44 l
stroke
grestore
0 setlinecap
0.000 setgray
gsave
/o {
gsave
newpath
translate
0.8 setlinewidth
1 setlinejoin
0 setlinecap
0 0 m
0 -3.5 l

gsave
0.000 setgray
fill
grestore
stroke
grestore
} bind def
303.524 36 o
grestore
gsave
290.805541 21.406250 translate
0.000000 rotate
0.000000 0.000000 m /one glyphshow
6.362305 0.000000 m /zero glyphshow
12.724609 0.000000 m /zero glyphshow
19.086914 0.000000 m /zero glyphshow
grestore
2 setlinecap
0.690 setgray
gsave
334.8 217.4 54 36 clipbox
350.385513 36 m
350.385513 253.44 l
stroke
grestore
0 setlinecap
0.000 setgray
gsave
/o {
gsave
newpath
translate
0.8 setlinewidth
1 setlinejoin
0 setlinecap
0 0 m
0 -3.5 l

gsave
0.000 setgray
fill
grestore
stroke
grestore
} bind def
350.386 36 o
grestore
gsave
337.666763 21.406250 translate
0.000000 rotate
0.000000 0.000000 m /one glyphshow
6.362305 0.000000 m /two glyphshow
12.724609 0.000000 m /zero glyphshow
19.086914 0.000000 m /zero glyphshow
grestore
gsave
200.892188 7.734375 translate
0.000000 rotate
0.000000 0.000000 m /T glyphshow
6.108398 0.000000 m /i glyphshow
8.886719 0.000000 m /m glyphshow
18.627930 0.000000 m /e glyphshow
24.780273 0.000000 m /space glyphshow
27.958984 0.000000 m /bracketleft glyphshow
31.860352 0.000000 m /s glyphshow
37.070312 0.000000 m /bracketright glyphshow
grestore
2 setlinecap
0.690 setgray
gsave
334.8 217.4 54 36 clipbox
54 50.819119 m
388.8 50.819119 l
stroke
grestore
0 setlinecap
0.000 setgray
gsave
/o {
gsave
newpath
translate
0.8 setlinewidth
1 setlinejoin
0 setlinecap
0 0 m
-3.5 0 l

gsave
0.000 setgray
fill
grestore
stroke
grestore
} bind def
54 50.8191 o
grestore
gsave
19.546875 47.022244 translate
0.000000 rotate
0.000000 0.000000 m /minus glyphshow
8.378906 0.000000 m /one glyphshow
14.741211 0.000000 m /zero glyphshow
21.103516 0.000000 m /zero glyphshow
grestore
2 setlinecap
0.690 setgray
gsave
334.8 217.4 54 36 clipbox
54 80.395099 m
388.8 80.395099 l
stroke
grestore
0 setlinecap
0.000 setgray
gsave
/o {
gsave
newpath
translate
0.8 setlinewidth
1 setlinejoin
0 setlinecap
0 0 m
-3.5 0 l

gsave
0.000 setgray
fill
grestore
stroke
grestore
} bind def
54 80.3951 o
grestore
gsave
25.906250 76.598224 translate
0.000000 rotate
0.000000 0.000000 m /minus glyphshow
8.378906 0.000000 m /five glyphshow
14.741211 0.000000 m /zero glyphshow
grestore
2 setlinecap
0.690 setgray
gsave
334.8 217.4 54 36 clipbox
54 109.971079 m
388.8 109.971079 l
stroke
grestore
0 setlinecap
0.000 setgray
gsave
/o {
gsave
newpath
translate
0.8 setlinewidth
1 setlinejoin
0 setlinecap
0 0 m
-3.5 0 l

gsave
0.000 setgray
fill
grestore
stroke
grestore
} bind def
54 109.971 o
grestore
gsave
40.640625 106.174204 translate
0.000000 rotate
0.000000 0.000000 m /zero glyphshow
grestore
2 setlinecap
0.690 setgray
gsave
334.8 217.4 54 36 clipbox
54 139.547059 m
388.8 139.547059 l
stroke
grestore
0 setlinecap
0.000 setgray
gsave
/o {
gsave
newpath
translate
0.8 setlinewidth
1 setlinejoin
0 setlinecap
0 0 m
-3.5 0 l

gsave
0.000 setgray
fill
grestore
stroke
grestore
} bind def
54 139.547 o
grestore
gsave
34.281250 135.750184 translate
0.000000 rotate
0.000000 0.000000 m /five glyphshow
6.362305 0.000000 m /zero glyphshow
grestore
2 setlinecap
0.690 setgray
gsave
334.8 217.4 54 36 clipbox
54 169.123039 m
388.8 169.123039 l
stroke
grestore
0 setlinecap
0.000 setgray
gsave
/o {
gsave
newpath
translate
0.8 setlinewidth
1 setlinejoin
0 setlinecap
0 0 m
-3.5 0 l

gsave
0.000 setgray
fill
grestore
stroke
grestore
} bind def
54 169.123 o
grestore
gsave
27.921875 165.326164 translate
0.000000 rotate
0.000000 0.000000 m /one glyphshow
6.362305 0.000000 m /zero glyphshow
12.724609 0.000000 m /zero glyphshow
grestore
2 setlinecap
0.690 setgray
gsave
334.8 217.4 54 36 clipbox
54 198.699019 m
388.8 198.699019 l
stroke
grestore
0 setlinecap
0.000 setgray
gsave
/o {
gsave
newpath
translate
0.8 setlinewidth
1 setlinejoin
0 setlinecap
0 0 m
-3.5 0 l

gsave
0.000 setgray
fill
grestore
stroke
grestore
} bind def
54 198.699 o
grestore
gsave
27.921875 194.902144 translate
0.000000 rotate
0.000000 0.000000 m /one glyphshow
6.362305 0.000000 m /five glyphshow
12.724609 0.000000 m /zero glyphshow
grestore
2 setlinecap
0.690 setgray
gsave
334.8 217.4 54 36 clipbox
54 228.274999 m
388.8 228.274999 l
stroke
grestore
0 setlinecap
0.000 setgray
gsave
/o {
gsave
newpath
translate
0.8 setlinewidth
1 setlinejoin
0 setlinecap
0 0 m
-3.5 0 l

gsave
0.000 setgray
fill
grestore
stroke
grestore
} bind def
54 228.275 o
grestore
gsave
27.921875 224.478124 translate
0.000000 rotate
0.000000 0.000000 m /two glyphshow
6.362305 0.000000 m /zero glyphshow
12.724609 0.000000 m /zero glyphshow
grestore
gsave
13.468750 116.813750 translate
90.000000 rotate
0.000000 0.000000 m /C glyphshow
6.982422 0.000000 m /u glyphshow
13.320312 0.000000 m /r glyphshow
17.431641 0.000000 m /r glyphshow
21.542969 0.000000 m /e glyphshow
27.695312 0.000000 m /n glyphshow
34.033203 0.000000 m /t glyphshow
37.954102 0.000000 m /space glyphshow
41.132812 0.000000 m /bracketleft glyphshow
45.034180 0.000000 m /A glyphshow
51.875000 0.000000 m /bracketright glyphshow
grestore
1.500 setlinewidth
2 setlinecap
gsave
334.8 217.4 54 36 clipbox
69.218182 178.134639 m
69.452488 59.225969 l
69.686794 107.168019 l
69.9211 100.352626 l
70.155406 110.451528 l
70.624018 105.030609 l
70.858325 102.095763 l
71.092631 110.758255 l
71.326937 104.101176 l
71.795549 118.705716 l
72.029855 130.691197 l
72.264161 131.901071 l
72.498467 138.038042 l
72.732773 148.226478 l
72.96708 108.515897 l
73.201386 114.610786 l
73.669998 105.70833 l
73.904304 107.011343 l
74.13861 112.258772 l
74.372916 136.327736 l
74.607222 116.686102 l
74.841528 223.641773 l
75.075835 72.521225 l
75.310141 101.871575 l
75.544447 110.87167 l
75.778753 108.758965 l
76.247365 132.951374 l
76.481671 108.529732 l
76.715977 107.316255 l
76.950283 110.765476 l
77.18459 117.285872 l
77.418896 167.356722 l
77.653202 73.785287 l
77.887508 108.387307 l
78.121814 110.785047 l
78.35612 107.010274 l
78.590426 111.161388 l
78.824732 105.676426 l
79.059038 127.867175 l
79.293345 103.427003 l
79.527651 106.83914 l
79.761957 118.858145 l
80.230569 101.232151 l
80.464875 102.665005 l
80.699181 78.173815 l
80.933487 85.389825 l
81.167793 124.02674 l
81.4021 100.808763 l
81.636406 116.348061 l
81.870712 121.119747 l
82.105018 103.896858 l
82.339324 110.043964 l
82.57363 108.903151 l
82.807936 106.530467 l
83.042242 110.493837 l
83.276548 131.005446 l
83.510855 123.09824 l
83.745161 108.504323 l
83.979467 127.34108 l
84.213773 117.325045 l
84.448079 119.383517 l
84.682385 126.222632 l
84.916691 102.450127 l
85.150997 110.637232 l
85.385303 111.713551 l
85.619609 48.764774 l
85.853916 49.550032 l
86.088222 49.904823 l
86.322528 54.576164 l
86.556834 78.711017 l
87.025446 86.122696 l
87.259752 105.52364 l
87.494058 102.061888 l
87.728364 104.528104 l
87.962671 101.48724 l
88.196977 114.60632 l
88.431283 117.339633 l
88.899895 159.153475 l
89.134201 105.669914 l
89.368507 123.631806 l
89.602813 93.214702 l
89.837119 115.596471 l
90.071426 103.255056 l
90.305732 116.207325 l
90.540038 116.32173 l
90.774344 119.813247 l
91.00865 92.705874 l
91.242956 144.455257 l
91.477262 92.389197 l
91.711568 127.390956 l
91.945874 97.535512 l
92.180181 133.287933 l
92.414487 102.43623 l
92.648793 111.09378 l
92.883099 106.381333 l
93.117405 113.147302 l
93.351711 94.487293 l
93.586017 124.093445 l
93.820323 120.654846 l
94.054629 107.393672 l
94.288936 123.554787 l
94.523242 100.242803 l
94.757548 109.680649 l
95.22616 114.319733 l
95.460466 127.793362 l
95.694772 161.329503 l
95.929078 93.694297 l
96.163384 157.254264 l
96.397691 89.853614 l
96.631997 111.56332 l
96.866303 120.441395 l
97.100609 103.591425 l
97.334915 136.792668 l
97.569221 108.268434 l
97.803527 94.935764 l
98.037833 124.748755 l
98.272139 118.078908 l
98.506446 89.649783 l
98.975058 112.2286 l
99.209364 105.956668 l
99.44367 93.113692 l
99.677976 121.666361 l
99.912282 128.904009 l
100.146588 107.3261 l
100.380894 100.891056 l
100.615201 116.285423 l
100.849507 120.89594 l
101.083813 106.001327 l
101.318119 143.649786 l
101.552425 145.092424 l
101.786731 99.254894 l
102.255343 116.162778 l
102.723955 103.311106 l
103.192568 49.732745 l
103.426874 53.996217 l
103.66118 51.837452 l
103.895486 86.985772 l
104.129792 99.288288 l
104.364098 102.661776 l
104.598404 123.698571 l
104.83271 110.559509 l
105.067017 107.366798 l
105.301323 116.095281 l
105.535629 106.184664 l
105.769935 135.03587 l
106.004241 120.649255 l
106.238547 217.76507 l
106.472853 77.78716 l
106.707159 114.539781 l
106.941465 115.231369 l
107.175772 137.031874 l
107.410078 109.294123 l
107.87869 161.666901 l
108.112996 126.358754 l
108.347302 113.684995 l
108.581608 128.709287 l
108.815914 105.351629 l
109.05022 106.88522 l
109.284527 127.863783 l
109.518833 96.489307 l
109.753139 114.799799 l
109.987445 122.225328 l
110.221751 112.468276 l
110.456057 97.592688 l
110.690363 97.646985 l
110.924669 102.756855 l
111.158975 147.038174 l
111.393282 141.94836 l
111.627588 104.323092 l
111.861894 109.655753 l
112.0962 201.462326 l
112.330506 68.077053 l
112.564812 121.017484 l
112.799118 134.736378 l
113.033424 55.640833 l
113.26773 125.013329 l
113.502037 51.748844 l
113.736343 91.624799 l
113.970649 102.725457 l
114.204955 123.711635 l
114.439261 107.829713 l
114.673567 101.985221 l
114.907873 129.601938 l
115.142179 100.251269 l
115.376485 153.304718 l
115.610792 127.90657 l
115.845098 76.766279 l
116.079404 116.482832 l
116.31371 127.75645 l
116.548016 130.462257 l
116.782322 96.349471 l
117.016628 112.892651 l
117.250934 143.08169 l
117.48524 145.592909 l
117.719547 66.834842 l
117.953853 111.471211 l
118.188159 117.235752 l
118.422465 145.80257 l
118.656771 115.306092 l
118.891077 111.615471 l
119.125383 101.850673 l
119.359689 107.113146 l
119.593995 100.623703 l
119.828301 115.042568 l
120.062608 120.268275 l
120.296914 115.580696 l
120.53122 120.689946 l
120.765526 112.854124 l
120.999832 78.883286 l
121.234138 166.341853 l
121.70275 109.513608 l
121.937056 115.094682 l
122.171363 112.387108 l
122.639975 125.239099 l
122.874281 106.81189 l
123.108587 123.219169 l
123.342893 120.031626 l
123.577199 112.985299 l
123.811505 80.677095 l
124.045811 99.290812 l
124.280118 218.551813 l
124.514424 213.135069 l
124.74873 213.438024 l
124.983036 53.122205 l
125.217342 50.47085 l
125.451648 114.791776 l
125.685954 120.356996 l
125.92026 110.908434 l
126.154566 120.527071 l
126.623179 110.442997 l
127.091791 117.768931 l
127.326097 120.005483 l
127.560403 115.897639 l
127.794709 119.219198 l
128.029015 108.672815 l
128.263321 118.644653 l
128.497628 116.874767 l
128.731934 121.028391 l
128.96624 100.743255 l
129.200546 93.705249 l
129.434852 124.002184 l
129.669158 119.178712 l
129.903464 129.376816 l
130.13777 102.216569 l
130.372076 113.253379 l
130.606383 115.320887 l
130.840689 120.33613 l
131.074995 120.141563 l
131.543607 103.848881 l
131.777913 113.478666 l
132.012219 128.030733 l
132.246525 113.085512 l
132.480831 111.815046 l
132.715138 105.411959 l
132.949444 120.726478 l
133.18375 108.769236 l
133.418056 124.079121 l
133.652362 107.622179 l
133.886668 119.868107 l
134.120974 104.113145 l
134.35528 119.123864 l
134.589586 114.429355 l
134.823893 122.279953 l
135.058199 110.350089 l
135.292505 120.155731 l
135.526811 120.507634 l
135.761117 121.612972 l
135.995423 106.515081 l
136.229729 101.651333 l
136.464035 115.354485 l
136.698341 98.352176 l
137.166954 50.143504 l
137.869872 125.748802 l
138.104178 94.05568 l
138.338484 176.286649 l
138.57279 110.399618 l
138.807096 79.769549 l
139.041402 140.787108 l
139.275709 105.666412 l
139.510015 98.243162 l
139.744321 118.840599 l
139.978627 121.921952 l
140.212933 92.809475 l
140.447239 113.742023 l
140.681545 118.020902 l
140.915851 116.407081 l
141.150157 127.010421 l
141.384464 100.455674 l
141.61877 115.089096 l
141.853076 119.863255 l
142.087382 119.685625 l
142.321688 146.709102 l
142.555994 95.649395 l
142.7903 117.783691 l
143.024606 113.187996 l
143.258912 122.956899 l
143.493219 117.471784 l
143.727525 163.435577 l
143.961831 84.300014 l
144.196137 126.917345 l
144.430443 100.84926 l
144.664749 98.177988 l
144.899055 116.960209 l
145.133361 119.185019 l
145.367667 117.219081 l
145.601974 125.096915 l
146.070586 61.08536 l
146.304892 92.36808 l
146.539198 108.457817 l
146.773504 75.027831 l
147.00781 111.055654 l
147.242116 92.88421 l
147.476422 147.812897 l
147.710729 104.413054 l
147.945035 104.560708 l
148.413647 112.134651 l
148.647953 101.413081 l
148.882259 151.266823 l
149.350871 111.43396 l
149.585177 119.733622 l
149.819484 110.870002 l
150.05379 113.737203 l
150.288096 99.624556 l
150.522402 141.815147 l
150.756708 114.200294 l
150.991014 115.258169 l
151.22532 114.83291 l
151.459626 112.224081 l
151.693932 117.616702 l
151.928239 115.919019 l
152.162545 109.992637 l
152.396851 100.851687 l
152.631157 110.214598 l
152.865463 108.299702 l
153.099769 107.454382 l
153.334075 114.659898 l
153.568381 113.670153 l
153.802687 118.866174 l
154.036993 113.732924 l
154.2713 117.879093 l
154.505606 130.046065 l
154.739912 102.312885 l
154.974218 108.933187 l
155.208524 126.454729 l
155.44283 103.305707 l
155.677136 128.336308 l
155.911442 52.132756 l
156.145748 86.753444 l
156.380055 82.201112 l
156.614361 114.359881 l
156.848667 117.887159 l
157.082973 117.816663 l
157.317279 116.1716 l
157.551585 107.572734 l
157.785891 117.064189 l
158.020197 115.753811 l
158.254503 88.7671 l
158.48881 111.865689 l
158.723116 119.650867 l
158.957422 132.901155 l
159.191728 103.26522 l
159.426034 120.801758 l
159.66034 84.19819 l
159.894646 179.830166 l
160.128952 136.914769 l
160.597565 103.85348 l
160.831871 112.958115 l
161.066177 111.269219 l
161.300483 102.072896 l
161.534789 108.381408 l
162.003401 112.397679 l
162.472013 119.303062 l
162.70632 118.732006 l
162.940626 117.013003 l
163.174932 118.868823 l
163.409238 123.088621 l
163.643544 112.205793 l
164.112156 118.784087 l
164.346462 114.706594 l
164.580768 129.792127 l
164.815075 93.862654 l
165.049381 126.900856 l
165.283687 102.452315 l
165.517993 91.329072 l
165.752299 89.90118 l
165.986605 131.301694 l
166.220911 92.992397 l
166.455217 99.792019 l
166.92383 127.443074 l
167.158136 127.690787 l
167.392442 113.559315 l
167.626748 119.647601 l
167.861054 104.829443 l
168.09536 114.619343 l
168.329666 109.554332 l
168.563972 126.674419 l
168.798278 90.128392 l
169.032585 114.559615 l
169.266891 121.504912 l
169.501197 108.001837 l
169.735503 108.702841 l
169.969809 146.139494 l
170.204115 109.065122 l
170.438421 123.566597 l
170.672727 110.698826 l
170.907033 118.987965 l
171.141339 118.264294 l
171.375646 112.527441 l
171.609952 114.425442 l
171.844258 117.3139 l
172.078564 84.972321 l
172.31287 147.310836 l
172.547176 116.068335 l
172.781482 114.952554 l
173.015788 110.841198 l
173.250094 114.186311 l
173.484401 165.372805 l
173.953013 99.748339 l
174.421625 125.972733 l
174.655931 123.138127 l
174.890237 243.556364 l
175.124543 206.137572 l
175.358849 109.462536 l
175.593156 92.577225 l
175.827462 91.945805 l
176.061768 116.147577 l
176.296074 115.35412 l
176.53038 118.048522 l
176.998992 113.82273 l
177.233298 115.064988 l
177.701911 53.915508 l
177.936217 89.797506 l
178.170523 87.19363 l
178.404829 147.999698 l
178.639135 97.654191 l
178.873441 111.163506 l
179.107747 113.494951 l
179.342053 132.28428 l
179.576359 98.300541 l
179.810666 139.022933 l
180.044972 100.961831 l
180.279278 109.48751 l
180.513584 86.605746 l
180.74789 150.622393 l
180.982196 85.389858 l
181.216502 113.115962 l
181.450808 111.04168 l
181.685114 116.424253 l
181.919421 94.008056 l
182.388033 116.433909 l
182.856645 106.779748 l
183.090951 121.810717 l
183.325257 118.647661 l
183.559563 102.004244 l
183.793869 114.383818 l
184.028176 98.332366 l
184.262482 146.478235 l
184.496788 85.624517 l
184.731094 184.765579 l
184.9654 100.645509 l
185.199706 94.759213 l
185.434012 140.504172 l
185.668318 71.596103 l
186.136931 121.861192 l
186.839849 90.234255 l
187.074155 120.498766 l
187.308461 105.856616 l
187.542767 137.362839 l
187.777073 82.426806 l
188.011379 80.51154 l
188.245685 60.617524 l
188.479992 75.349185 l
188.714298 98.351054 l
188.948604 85.92904 l
189.18291 118.199142 l
189.417216 119.23789 l
189.885828 105.500535 l
190.120134 109.817022 l
190.35444 119.067786 l
190.588747 106.29859 l
190.823053 113.184403 l
191.057359 112.952809 l
191.291665 112.437376 l
191.525971 123.42245 l
191.760277 153.689817 l
191.994583 111.487917 l
192.228889 114.877375 l
192.463195 181.230447 l
192.697502 76.911478 l
193.166114 117.277164 l
193.40042 144.744808 l
193.634726 109.806657 l
193.869032 116.35153 l
194.337644 104.410933 l
194.57195 113.833725 l
194.806257 114.477415 l
195.040563 121.242525 l
195.274869 184.102343 l
195.509175 122.648119 l
195.743481 116.912765 l
195.977787 95.478485 l
196.212093 180.896546 l
196.446399 115.758056 l
196.680705 88.927802 l
196.915012 87.355811 l
197.149318 199.269134 l
197.61793 86.959277 l
197.852236 70.220151 l
198.086542 94.387191 l
198.320848 79.305641 l
198.555154 113.229532 l
198.78946 124.791065 l
199.023767 105.863009 l
199.258073 137.937186 l
199.492379 89.476789 l
199.726685 144.835553 l
200.195297 46.508277 l
200.898215 110.569527 l
201.132522 186.650216 l
201.366828 112.714055 l
201.601134 94.341552 l
201.83544 180.833323 l
202.069746 66.318297 l
202.304052 99.93566 l
202.538358 111.481391 l
202.772664 104.123507 l
203.00697 156.208666 l
203.241277 87.13771 l
203.475583 129.593469 l
203.709889 116.84462 l
203.944195 225.689296 l
204.178501 79.135014 l
204.412807 116.088149 l
204.647113 85.046022 l
204.881419 117.727837 l
205.115725 216.32091 l
205.350031 127.199824 l
205.584338 85.692011 l
205.818644 123.427235 l
206.05295 94.951154 l
206.287256 116.233251 l
206.521562 100.972948 l
206.755868 112.460385 l
206.990174 148.75702 l
207.22448 140.663058 l
207.458786 103.372932 l
207.693093 118.590569 l
207.927399 114.430578 l
208.161705 122.553773 l
208.396011 111.272791 l
208.630317 105.7465 l
208.864623 125.72044 l
209.098929 102.031862 l
209.333235 127.545217 l
209.567541 185.202054 l
209.801848 109.738631 l
210.036154 116.341747 l
210.27046 117.315101 l
210.504766 145.647215 l
210.739072 160.086112 l
210.973378 67.826358 l
211.207684 121.294785 l
211.44199 102.696773 l
211.676296 106.735362 l
211.910603 120.661342 l
212.144909 106.767694 l
212.379215 122.738034 l
212.613521 104.426133 l
212.847827 116.207591 l
213.082133 118.633938 l
213.316439 119.473626 l
213.550745 101.123405 l
213.785051 114.647517 l
214.019358 81.338301 l
214.253664 83.501513 l
214.722276 111.178861 l
214.956582 88.510686 l
215.190888 121.818553 l
215.425194 110.976928 l
215.6595 111.721109 l
215.893806 45.883636 l
216.128113 55.305682 l
216.362419 47.545211 l
216.596725 92.420643 l
216.831031 106.901133 l
217.065337 94.916808 l
217.299643 119.087322 l
217.533949 110.069054 l
217.768255 86.148012 l
218.002561 107.035311 l
218.236868 82.690443 l
218.471174 139.00089 l
218.70548 149.049611 l
218.939786 111.589755 l
219.174092 113.636953 l
219.642704 85.237344 l
219.87701 121.523689 l
220.111316 98.651219 l
220.345623 93.45606 l
220.579929 115.969796 l
220.814235 100.870817 l
221.048541 134.686749 l
221.282847 73.497677 l
221.751459 51.30974 l
221.985765 47.044261 l
222.220071 47.478471 l
222.454377 81.187043 l
222.92299 47.854688 l
223.157296 47.89457 l
223.391602 48.449695 l
223.625908 51.331228 l
223.860214 57.491935 l
224.09452 77.202225 l
224.328826 77.054214 l
224.563132 96.267035 l
224.797439 104.802761 l
225.031745 106.875352 l
225.266051 110.321911 l
225.500357 109.373292 l
225.734663 110.571242 l
226.203275 110.581338 l
226.437581 131.96817 l
226.671887 104.017163 l
226.906194 110.924539 l
227.1405 106.734121 l
227.374806 108.537681 l
227.609112 95.949551 l
227.843418 108.299989 l
228.077724 111.564129 l
228.31203 125.139162 l
228.546336 121.137524 l
228.780642 108.916179 l
229.014949 133.827631 l
229.249255 110.781681 l
229.483561 102.069889 l
229.717867 106.636327 l
229.952173 114.796779 l
230.186479 132.518283 l
230.420785 135.081532 l
230.655091 104.405174 l
230.889397 104.557494 l
231.123704 99.293014 l
231.826622 114.92628 l
232.060928 130.391797 l
232.295234 101.843629 l
232.52954 97.919697 l
232.763846 101.753869 l
232.998152 130.098566 l
233.232459 144.53139 l
233.466765 108.415156 l
233.701071 100.436128 l
233.935377 117.940781 l
234.638295 103.40953 l
234.872601 106.176254 l
235.106907 102.007628 l
235.57552 132.094144 l
235.809826 92.2604 l
236.044132 168.625155 l
236.278438 77.302504 l
236.512744 114.588945 l
236.74705 106.25958 l
236.981356 148.463338 l
237.215662 106.548272 l
237.449969 103.140204 l
237.684275 89.695524 l
237.918581 108.860509 l
238.152887 102.763021 l
238.387193 117.315481 l
238.621499 103.935185 l
238.855805 110.558447 l
239.090111 122.305998 l
239.324417 92.662284 l
239.558723 104.881736 l
240.027336 111.850452 l
240.261642 111.427494 l
240.495948 119.769539 l
240.730254 108.909931 l
240.96456 109.820102 l
241.198866 103.694966 l
241.433172 126.040221 l
241.901785 86.543132 l
242.136091 128.561966 l
242.370397 106.808501 l
242.604703 103.822726 l
243.073315 111.127361 l
243.307621 162.383154 l
243.541927 88.122361 l
243.776233 104.985824 l
244.01054 98.42104 l
244.479152 47.902059 l
244.713458 68.384802 l
244.947764 72.058808 l
245.18207 101.07368 l
245.416376 90.039862 l
245.650682 106.188743 l
245.884988 78.907172 l
246.353601 56.926107 l
246.587907 84.932527 l
246.822213 95.378709 l
247.056519 112.581128 l
247.290825 112.9299 l
247.525131 162.663105 l
247.759437 75.727035 l
247.993743 155.91149 l
248.22805 85.852846 l
248.462356 118.01285 l
248.696662 93.377478 l
248.930968 105.797819 l
249.165274 78.450895 l
249.39958 135.087341 l
249.633886 111.899115 l
249.868192 110.187865 l
250.102498 49.59188 l
250.336805 55.139773 l
250.571111 109.889777 l
250.805417 105.35666 l
251.039723 106.882507 l
251.274029 110.556646 l
252.44556 110.580807 l
257.365988 110.580727 l
257.600294 119.111003 l
257.8346 114.766057 l
258.537518 138.059027 l
259.006131 97.102043 l
259.240437 117.497062 l
259.474743 109.013821 l
259.709049 143.604691 l
259.943355 90.459917 l
260.177661 114.931176 l
260.411967 105.315538 l
260.646273 100.612752 l
260.880579 112.879435 l
261.114886 199.254941 l
261.349192 65.399692 l
261.583498 120.5082 l
261.817804 101.220333 l
262.05211 103.487442 l
262.286416 102.463974 l
262.520722 121.057853 l
262.755028 84.305502 l
263.223641 51.205458 l
263.457947 49.326334 l
263.692253 54.394268 l
263.926559 63.343576 l
264.395171 100.156515 l
264.629477 110.029602 l
264.863783 110.57317 l
265.098089 112.920792 l
265.332396 110.605008 l
265.566702 110.575929 l
265.801008 112.927426 l
266.035314 110.605232 l
266.738232 110.580345 l
266.972538 117.745286 l
267.441151 153.932665 l
267.675457 116.300077 l
267.909763 116.113381 l
268.144069 94.550717 l
268.378375 115.193423 l
268.612681 94.013623 l
268.846987 129.532019 l
269.081293 81.071822 l
269.315599 114.042032 l
269.549906 121.904958 l
269.784212 98.337296 l
270.018518 109.252053 l
270.252824 108.645136 l
270.48713 156.172092 l
270.721436 98.103291 l
270.955742 105.526221 l
271.190048 117.121877 l
271.424354 111.290118 l
271.658661 113.495315 l
272.127273 135.757677 l
272.361579 112.027897 l
272.595885 130.232567 l
272.830191 117.302395 l
273.064497 119.943333 l
273.298803 112.114279 l
273.533109 126.766247 l
274.236028 101.156518 l
274.470334 83.638738 l
274.70464 106.234044 l
274.938946 83.57932 l
275.173252 110.642717 l
275.407558 88.661458 l
275.641864 85.222445 l
275.87617 104.027661 l
276.110477 104.173673 l
276.344783 100.355514 l
276.579089 116.370105 l
277.047701 66.24606 l
277.282007 111.687833 l
277.516313 110.417798 l
277.750619 110.1395 l
277.984925 110.468716 l
278.453538 110.579659 l
280.327987 110.580354 l
280.562293 112.474772 l
280.796599 116.610813 l
281.030905 139.177149 l
281.265211 143.426275 l
281.499517 98.504329 l
281.733823 176.701859 l
281.968129 116.643175 l
282.202435 96.872049 l
282.671048 121.280001 l
282.905354 103.256826 l
283.13966 137.874134 l
283.373966 101.924349 l
283.608272 95.796628 l
283.842578 107.186421 l
284.076884 128.277881 l
284.545497 94.538881 l
284.779803 111.971941 l
285.014109 106.222317 l
285.248415 104.790308 l
285.482721 113.294504 l
285.717027 112.24116 l
285.951333 84.819634 l
286.185639 125.816088 l
286.419945 93.686856 l
286.654252 109.350671 l
286.888558 91.534414 l
287.35717 112.335462 l
287.591476 115.011604 l
287.825782 99.882632 l
288.060088 113.396393 l
288.294394 117.973187 l
288.5287 128.547068 l
288.763007 129.906464 l
288.997313 104.38505 l
289.231619 126.231014 l
289.465925 110.578079 l
289.700231 109.153763 l
289.934537 102.294269 l
290.168843 105.192992 l
290.403149 146.771495 l
290.637455 87.484085 l
290.871761 108.996771 l
291.106068 109.987242 l
291.340374 148.331349 l
291.57468 112.544353 l
291.808986 96.082278 l
292.043292 114.344914 l
292.277598 119.774401 l
292.511904 114.347401 l
292.74621 95.486201 l
292.980516 125.374854 l
293.214823 112.658786 l
293.449129 107.855684 l
293.683435 118.055719 l
294.386353 107.805411 l
294.620659 108.436915 l
294.854965 105.709254 l
295.089271 106.981854 l
295.323578 110.95842 l
295.79219 135.814955 l
296.026496 133.006697 l
296.260802 87.432992 l
296.495108 117.787429 l
296.96372 100.703028 l
297.198026 118.30737 l
297.432333 163.412994 l
297.666639 106.143969 l
297.900945 114.32988 l
298.135251 106.762226 l
298.369557 119.46009 l
298.603863 107.234664 l
298.838169 109.378142 l
299.072475 115.440177 l
299.306781 126.895344 l
299.541088 97.247123 l
299.775394 84.015956 l
300.0097 124.873181 l
300.244006 120.212004 l
300.478312 98.182997 l
300.712618 127.561715 l
300.946924 91.839229 l
301.18123 119.057608 l
301.415536 101.360782 l
301.649843 110.237461 l
301.884149 70.825371 l
302.118455 109.370724 l
302.352761 98.573307 l
302.587067 103.703797 l
302.821373 117.203252 l
303.055679 164.316397 l
303.289985 100.163143 l
303.524291 125.270679 l
303.992904 103.295569 l
304.22721 48.47344 l
304.461516 109.957697 l
304.695822 61.74958 l
304.930128 86.420874 l
305.164434 85.353891 l
305.39874 102.086849 l
305.633046 109.699608 l
305.867353 110.573299 l
307.038883 110.58102 l
307.273189 112.897183 l
307.507495 110.602832 l
308.679026 110.580982 l
315.473903 110.58092 l
315.708209 112.893539 l
315.942515 110.604515 l
316.87974 110.580839 l
319.222801 110.580811 l
319.691413 123.236939 l
319.925719 110.777094 l
320.160025 104.62645 l
320.394331 109.166909 l
320.628637 110.572872 l
324.143229 110.580794 l
325.31476 110.580788 l
325.549066 114.400398 l
325.783372 152.236566 l
326.017678 117.738335 l
326.251984 118.155464 l
326.48629 108.412562 l
326.720596 92.195839 l
327.423515 108.628273 l
327.657821 95.568235 l
327.892127 104.484252 l
328.126433 135.717186 l
328.360739 138.371999 l
328.595045 113.018523 l
328.829351 104.313904 l
329.297963 115.369414 l
329.53227 97.58898 l
329.766576 91.951675 l
330.235188 137.995316 l
330.7038 97.145311 l
330.938106 128.958395 l
331.172412 90.945509 l
331.406718 111.261031 l
331.641025 104.067538 l
331.875331 107.782429 l
332.109637 108.943774 l
332.343943 102.790733 l
332.578249 63.057648 l
332.812555 57.604546 l
333.046861 128.668801 l
333.281167 50.511615 l
333.515473 82.688487 l
333.984086 109.710419 l
334.218392 110.567874 l
334.452698 110.191865 l
334.92131 106.869165 l
335.155616 106.512588 l
335.389922 112.892629 l
335.624228 130.491662 l
335.858535 160.609918 l
336.092841 95.579948 l
336.327147 109.306578 l
336.561453 131.668915 l
336.795759 83.932844 l
337.030065 136.054944 l
337.264371 102.370871 l
337.498677 106.999217 l
337.732983 124.775521 l
337.96729 82.639741 l
338.201596 134.893028 l
338.435902 97.281681 l
338.670208 127.408048 l
339.13882 96.541422 l
339.607432 125.066435 l
339.841738 102.242476 l
340.076045 106.316295 l
340.310351 121.076364 l
340.544657 114.350243 l
340.778963 114.939896 l
341.013269 109.443519 l
341.247575 118.719413 l
341.481881 113.219538 l
341.716187 102.291651 l
341.950493 129.135907 l
342.184799 119.625822 l
342.419106 97.483871 l
342.653412 105.65655 l
342.887718 133.619649 l
343.122024 88.40053 l
343.35633 109.835492 l
343.590636 114.177893 l
343.824942 115.087666 l
344.059248 120.496717 l
344.293554 113.607241 l
344.527861 91.608012 l
344.762167 48.827678 l
345.230779 49.388459 l
345.465085 52.290001 l
345.699391 62.05944 l
345.933697 98.540789 l
346.168003 91.691805 l
346.402309 78.306915 l
346.636616 88.995545 l
346.870922 94.448 l
347.105228 93.072736 l
347.339534 105.23101 l
347.808146 111.319878 l
348.042452 130.614361 l
348.276758 171.990194 l
348.745371 77.004858 l
348.979677 121.899861 l
349.213983 105.320056 l
349.448289 167.056935 l
349.682595 79.367796 l
349.916901 105.56072 l
350.151207 118.865804 l
350.385513 92.272712 l
350.619819 151.847702 l
350.854126 84.794867 l
351.088432 110.019033 l
351.322738 109.863039 l
351.557044 110.973398 l
351.79135 147.497048 l
352.025656 87.896191 l
352.259962 111.010578 l
352.494268 111.31778 l
352.728574 118.162029 l
352.962881 89.497865 l
353.197187 126.43889 l
353.431493 121.838557 l
353.665799 127.432355 l
353.900105 109.508292 l
354.134411 113.472362 l
354.368717 121.071744 l
354.603023 88.404852 l
354.837329 86.704339 l
355.071636 74.808129 l
355.305942 88.914522 l
355.540248 52.623315 l
355.774554 84.775076 l
356.00886 63.652383 l
356.243166 68.136581 l
356.477472 76.736338 l
356.946084 106.130765 l
357.180391 110.550393 l
357.883309 110.579975 l
358.117615 115.332776 l
358.351921 173.578868 l
358.586227 130.634185 l
358.820533 112.838688 l
359.054839 120.286701 l
359.289145 94.517173 l
359.523452 125.313938 l
359.757758 132.220791 l
359.992064 95.494593 l
360.22637 129.359635 l
360.460676 74.376349 l
360.929288 192.899832 l
361.163594 56.090705 l
361.632207 122.662872 l
361.866513 104.888651 l
362.100819 114.722153 l
362.335125 110.33042 l
362.569431 125.749516 l
362.803737 96.53428 l
363.272349 74.307474 l
363.506655 49.96061 l
363.740962 50.085904 l
363.975268 50.851667 l
364.209574 55.112878 l
364.912492 100.526849 l
365.146798 109.308614 l
365.381104 110.569804 l
368.427084 110.579174 l
373.581818 110.579203 l
373.581818 110.579203 l
stroke
grestore
0.800 setlinewidth
0 setlinejoin
[] 0 setdash
gsave
54 36 m
54 253.44 l
stroke
grestore
gsave
388.8 36 m
388.8 253.44 l
stroke
grestore
gsave
54 36 m
388.8 36 l
stroke
grestore
gsave
54 253.44 m
388.8 253.44 l
stroke
grestore

end
showpage
