%!PS-Adobe-3.0 EPSF-3.0
%%Title: current.eps
%%Creator: matplotlib version 2.0.0, http://matplotlib.org/
%%CreationDate: Sat May 13 22:45:47 2017
%%Orientation: portrait
%%BoundingBox: 90 252 522 540
%%EndComments
%%BeginProlog
/mpldict 8 dict def
mpldict begin
/m { moveto } bind def
/l { lineto } bind def
/r { rlineto } bind def
/c { curveto } bind def
/cl { closepath } bind def
/box {
m
1 index 0 r
0 exch r
neg 0 r
cl
} bind def
/clipbox {
box
clip
newpath
} bind def
%!PS-Adobe-3.0 Resource-Font
%%Title: DejaVu Sans
%%Copyright: Copyright (c) 2003 by Bitstream, Inc. All Rights Reserved. Copyright (c) 2006 by Tavmjong Bah. All Rights Reserved. DejaVu changes are in public domain 
%%Creator: Converted from TrueType to type 3 by PPR
25 dict begin
/_d{bind def}bind def
/_m{moveto}_d
/_l{lineto}_d
/_cl{closepath eofill}_d
/_c{curveto}_d
/_sc{7 -1 roll{setcachedevice}{pop pop pop pop pop pop}ifelse}_d
/_e{exec}_d
/FontName /DejaVuSans def
/PaintType 0 def
/FontMatrix[.001 0 0 .001 0 0]def
/FontBBox[-1021 -463 1793 1232]def
/FontType 3 def
/Encoding [ /space /zero /one /two /four /five /six /eight /A /C /T /bracketleft /bracketright /e /i /m /n /r /s /t /u /minus ] def
/FontInfo 10 dict dup begin
/FamilyName (DejaVu Sans) def
/FullName (DejaVu Sans) def
/Notice (Copyright (c) 2003 by Bitstream, Inc. All Rights Reserved. Copyright (c) 2006 by Tavmjong Bah. All Rights Reserved. DejaVu changes are in public domain ) def
/Weight (Book) def
/Version (Version 2.35) def
/ItalicAngle 0.0 def
/isFixedPitch false def
/UnderlinePosition -130 def
/UnderlineThickness 90 def
end readonly def
/CharStrings 22 dict dup begin
/space{318 0 0 0 0 0 _sc
}_d
/zero{636 0 66 -13 570 742 _sc
318 664 _m
267 664 229 639 203 589 _c
177 539 165 464 165 364 _c
165 264 177 189 203 139 _c
229 89 267 64 318 64 _c
369 64 407 89 433 139 _c
458 189 471 264 471 364 _c
471 464 458 539 433 589 _c
407 639 369 664 318 664 _c
318 742 _m
399 742 461 709 505 645 _c
548 580 570 486 570 364 _c
570 241 548 147 505 83 _c
461 19 399 -13 318 -13 _c
236 -13 173 19 130 83 _c
87 147 66 241 66 364 _c
66 486 87 580 130 645 _c
173 709 236 742 318 742 _c
_cl}_d
/one{636 0 110 0 544 729 _sc
124 83 _m
285 83 _l
285 639 _l
110 604 _l
110 694 _l
284 729 _l
383 729 _l
383 83 _l
544 83 _l
544 0 _l
124 0 _l
124 83 _l
_cl}_d
/two{{636 0 73 0 536 742 _sc
192 83 _m
536 83 _l
536 0 _l
73 0 _l
73 83 _l
110 121 161 173 226 239 _c
290 304 331 346 348 365 _c
380 400 402 430 414 455 _c
426 479 433 504 433 528 _c
433 566 419 598 392 622 _c
365 646 330 659 286 659 _c
255 659 222 653 188 643 _c
154 632 117 616 78 594 _c
78 694 _l
118 710 155 722 189 730 _c
223 738 255 742 284 742 _c
}_e{359 742 419 723 464 685 _c
509 647 532 597 532 534 _c
532 504 526 475 515 449 _c
504 422 484 390 454 354 _c
446 344 420 317 376 272 _c
332 227 271 164 192 83 _c
_cl}_e}_d
/four{636 0 49 0 580 729 _sc
378 643 _m
129 254 _l
378 254 _l
378 643 _l
352 729 _m
476 729 _l
476 254 _l
580 254 _l
580 172 _l
476 172 _l
476 0 _l
378 0 _l
378 172 _l
49 172 _l
49 267 _l
352 729 _l
_cl}_d
/five{{636 0 77 -13 549 729 _sc
108 729 _m
495 729 _l
495 646 _l
198 646 _l
198 467 _l
212 472 227 476 241 478 _c
255 480 270 482 284 482 _c
365 482 429 459 477 415 _c
525 370 549 310 549 234 _c
549 155 524 94 475 51 _c
426 8 357 -13 269 -13 _c
238 -13 207 -10 175 -6 _c
143 -1 111 6 77 17 _c
77 116 _l
106 100 136 88 168 80 _c
199 72 232 69 267 69 _c
}_e{323 69 368 83 401 113 _c
433 143 450 183 450 234 _c
450 284 433 324 401 354 _c
368 384 323 399 267 399 _c
241 399 214 396 188 390 _c
162 384 135 375 108 363 _c
108 729 _l
_cl}_e}_d
/six{{636 0 70 -13 573 742 _sc
330 404 _m
286 404 251 388 225 358 _c
199 328 186 286 186 234 _c
186 181 199 139 225 109 _c
251 79 286 64 330 64 _c
374 64 409 79 435 109 _c
461 139 474 181 474 234 _c
474 286 461 328 435 358 _c
409 388 374 404 330 404 _c
526 713 _m
526 623 _l
501 635 476 644 451 650 _c
425 656 400 659 376 659 _c
310 659 260 637 226 593 _c
}_e{192 549 172 482 168 394 _c
187 422 211 444 240 459 _c
269 474 301 482 336 482 _c
409 482 467 459 509 415 _c
551 371 573 310 573 234 _c
573 159 550 99 506 54 _c
462 9 403 -13 330 -13 _c
246 -13 181 19 137 83 _c
92 147 70 241 70 364 _c
70 479 97 571 152 639 _c
206 707 280 742 372 742 _c
396 742 421 739 447 735 _c
472 730 498 723 526 713 _c
_cl}_e}_d
/eight{{636 0 68 -13 568 742 _sc
318 346 _m
271 346 234 333 207 308 _c
180 283 167 249 167 205 _c
167 161 180 126 207 101 _c
234 76 271 64 318 64 _c
364 64 401 76 428 102 _c
455 127 469 161 469 205 _c
469 249 455 283 429 308 _c
402 333 365 346 318 346 _c
219 388 _m
177 398 144 418 120 447 _c
96 476 85 511 85 553 _c
85 611 105 657 147 691 _c
188 725 245 742 318 742 _c
}_e{390 742 447 725 489 691 _c
530 657 551 611 551 553 _c
551 511 539 476 515 447 _c
491 418 459 398 417 388 _c
464 377 501 355 528 323 _c
554 291 568 251 568 205 _c
568 134 546 80 503 43 _c
459 5 398 -13 318 -13 _c
237 -13 175 5 132 43 _c
89 80 68 134 68 205 _c
68 251 81 291 108 323 _c
134 355 171 377 219 388 _c
183 544 _m
183 506 194 476 218 455 _c
}_e{242 434 275 424 318 424 _c
360 424 393 434 417 455 _c
441 476 453 506 453 544 _c
453 582 441 611 417 632 _c
393 653 360 664 318 664 _c
275 664 242 653 218 632 _c
194 611 183 582 183 544 _c
_cl}_e}_d
/A{684 0 8 0 676 729 _sc
342 632 _m
208 269 _l
476 269 _l
342 632 _l
286 729 _m
398 729 _l
676 0 _l
573 0 _l
507 187 _l
178 187 _l
112 0 _l
8 0 _l
286 729 _l
_cl}_d
/C{{698 0 56 -13 644 742 _sc
644 673 _m
644 569 _l
610 599 575 622 537 638 _c
499 653 460 661 418 661 _c
334 661 270 635 226 584 _c
182 533 160 460 160 364 _c
160 268 182 194 226 143 _c
270 92 334 67 418 67 _c
460 67 499 74 537 90 _c
575 105 610 128 644 159 _c
644 56 _l
609 32 572 15 534 4 _c
496 -7 455 -13 412 -13 _c
302 -13 215 20 151 87 _c
}_e{87 154 56 246 56 364 _c
56 481 87 573 151 641 _c
215 708 302 742 412 742 _c
456 742 497 736 535 725 _c
573 713 610 696 644 673 _c
_cl}_e}_d
/T{611 0 -2 0 614 729 _sc
-2 729 _m
614 729 _l
614 646 _l
355 646 _l
355 0 _l
256 0 _l
256 646 _l
-2 646 _l
-2 729 _l
_cl}_d
/bracketleft{390 0 86 -131 293 760 _sc
86 760 _m
293 760 _l
293 690 _l
176 690 _l
176 -61 _l
293 -61 _l
293 -131 _l
86 -131 _l
86 760 _l
_cl}_d
/bracketright{390 0 97 -131 304 760 _sc
304 760 _m
304 -131 _l
97 -131 _l
97 -61 _l
214 -61 _l
214 690 _l
97 690 _l
97 760 _l
304 760 _l
_cl}_d
/e{{615 0 55 -13 562 560 _sc
562 296 _m
562 252 _l
149 252 _l
153 190 171 142 205 110 _c
238 78 284 62 344 62 _c
378 62 412 66 444 74 _c
476 82 509 95 541 113 _c
541 28 _l
509 14 476 3 442 -3 _c
408 -9 373 -13 339 -13 _c
251 -13 182 12 131 62 _c
80 112 55 181 55 268 _c
55 357 79 428 127 481 _c
175 533 241 560 323 560 _c
397 560 455 536 498 489 _c
}_e{540 441 562 377 562 296 _c
472 322 _m
471 371 457 410 431 440 _c
404 469 368 484 324 484 _c
274 484 234 469 204 441 _c
174 413 156 373 152 322 _c
472 322 _l
_cl}_e}_d
/i{278 0 94 0 184 760 _sc
94 547 _m
184 547 _l
184 0 _l
94 0 _l
94 547 _l
94 760 _m
184 760 _l
184 646 _l
94 646 _l
94 760 _l
_cl}_d
/m{{974 0 91 0 889 560 _sc
520 442 _m
542 482 569 511 600 531 _c
631 550 668 560 711 560 _c
767 560 811 540 842 500 _c
873 460 889 403 889 330 _c
889 0 _l
799 0 _l
799 327 _l
799 379 789 418 771 444 _c
752 469 724 482 686 482 _c
639 482 602 466 575 435 _c
548 404 535 362 535 309 _c
535 0 _l
445 0 _l
445 327 _l
445 379 435 418 417 444 _c
398 469 369 482 331 482 _c
}_e{285 482 248 466 221 435 _c
194 404 181 362 181 309 _c
181 0 _l
91 0 _l
91 547 _l
181 547 _l
181 462 _l
201 495 226 520 255 536 _c
283 552 317 560 357 560 _c
397 560 430 550 458 530 _c
486 510 506 480 520 442 _c
_cl}_e}_d
/n{634 0 91 0 549 560 _sc
549 330 _m
549 0 _l
459 0 _l
459 327 _l
459 379 448 417 428 443 _c
408 469 378 482 338 482 _c
289 482 251 466 223 435 _c
195 404 181 362 181 309 _c
181 0 _l
91 0 _l
91 547 _l
181 547 _l
181 462 _l
202 494 227 519 257 535 _c
286 551 320 560 358 560 _c
420 560 468 540 500 501 _c
532 462 549 405 549 330 _c
_cl}_d
/r{411 0 91 0 411 560 _sc
411 463 _m
401 469 390 473 378 476 _c
366 478 353 480 339 480 _c
288 480 249 463 222 430 _c
194 397 181 350 181 288 _c
181 0 _l
91 0 _l
91 547 _l
181 547 _l
181 462 _l
199 495 224 520 254 536 _c
284 552 321 560 365 560 _c
371 560 378 559 386 559 _c
393 558 401 557 411 555 _c
411 463 _l
_cl}_d
/s{{521 0 54 -13 472 560 _sc
443 531 _m
443 446 _l
417 458 391 468 364 475 _c
336 481 308 485 279 485 _c
234 485 200 478 178 464 _c
156 450 145 430 145 403 _c
145 382 153 366 169 354 _c
185 342 217 330 265 320 _c
296 313 _l
360 299 405 279 432 255 _c
458 230 472 195 472 151 _c
472 100 452 60 412 31 _c
372 1 316 -13 246 -13 _c
216 -13 186 -10 154 -5 _c
}_e{122 0 89 8 54 20 _c
54 113 _l
87 95 120 82 152 74 _c
184 65 216 61 248 61 _c
290 61 323 68 346 82 _c
368 96 380 117 380 144 _c
380 168 371 187 355 200 _c
339 213 303 226 247 238 _c
216 245 _l
160 257 119 275 95 299 _c
70 323 58 356 58 399 _c
58 450 76 490 112 518 _c
148 546 200 560 268 560 _c
301 560 332 557 362 552 _c
391 547 418 540 443 531 _c
}_e{_cl}_e}_d
/t{392 0 27 0 368 702 _sc
183 702 _m
183 547 _l
368 547 _l
368 477 _l
183 477 _l
183 180 _l
183 135 189 106 201 94 _c
213 81 238 75 276 75 _c
368 75 _l
368 0 _l
276 0 _l
206 0 158 13 132 39 _c
106 65 93 112 93 180 _c
93 477 _l
27 477 _l
27 547 _l
93 547 _l
93 702 _l
183 702 _l
_cl}_d
/u{634 0 85 -13 543 560 _sc
85 216 _m
85 547 _l
175 547 _l
175 219 _l
175 167 185 129 205 103 _c
225 77 255 64 296 64 _c
344 64 383 79 411 110 _c
439 141 453 183 453 237 _c
453 547 _l
543 547 _l
543 0 _l
453 0 _l
453 84 _l
431 50 405 26 377 10 _c
348 -5 315 -13 277 -13 _c
214 -13 166 6 134 45 _c
101 83 85 140 85 216 _c
311 560 _m
311 560 _l
_cl}_d
/minus{838 0 106 272 732 355 _sc
106 355 _m
732 355 _l
732 272 _l
106 272 _l
106 355 _l
_cl}_d
end readonly def

/BuildGlyph
 {exch begin
 CharStrings exch
 2 copy known not{pop /.notdef}if
 true 3 1 roll get exec
 end}_d

/BuildChar {
 1 index /Encoding get exch get
 1 index /BuildGlyph get exec
}_d

FontName currentdict end definefont pop
end
%%EndProlog
mpldict begin
90 252 translate
432 288 0 0 clipbox
gsave
0 0 m
432 0 l
432 288 l
0 288 l
cl
1.000 setgray
fill
grestore
gsave
54 36 m
388.8 36 l
388.8 253.44 l
54 253.44 l
cl
1.000 setgray
fill
grestore
0.800 setlinewidth
1 setlinejoin
2 setlinecap
[] 0 setdash
0.690 setgray
gsave
334.8 217.4 54 36 clipbox
69.218182 36 m
69.218182 253.44 l
stroke
grestore
0 setlinecap
0.000 setgray
gsave
/o {
gsave
newpath
translate
0.8 setlinewidth
1 setlinejoin
0 setlinecap
0 0 m
0 -3.5 l

gsave
0.000 setgray
fill
grestore
stroke
grestore
} bind def
69.2182 36 o
grestore
/DejaVuSans findfont
10.000 scalefont
setfont
gsave
66.038494 21.406250 translate
0.000000 rotate
0.000000 0.000000 m /zero glyphshow
grestore
2 setlinecap
0.690 setgray
gsave
334.8 217.4 54 36 clipbox
112.729781 36 m
112.729781 253.44 l
stroke
grestore
0 setlinecap
0.000 setgray
gsave
/o {
gsave
newpath
translate
0.8 setlinewidth
1 setlinejoin
0 setlinecap
0 0 m
0 -3.5 l

gsave
0.000 setgray
fill
grestore
stroke
grestore
} bind def
112.73 36 o
grestore
gsave
103.190719 21.406250 translate
0.000000 rotate
0.000000 0.000000 m /two glyphshow
6.362305 0.000000 m /zero glyphshow
12.724609 0.000000 m /zero glyphshow
grestore
2 setlinecap
0.690 setgray
gsave
334.8 217.4 54 36 clipbox
156.24138 36 m
156.24138 253.44 l
stroke
grestore
0 setlinecap
0.000 setgray
gsave
/o {
gsave
newpath
translate
0.8 setlinewidth
1 setlinejoin
0 setlinecap
0 0 m
0 -3.5 l

gsave
0.000 setgray
fill
grestore
stroke
grestore
} bind def
156.241 36 o
grestore
gsave
146.702318 21.406250 translate
0.000000 rotate
0.000000 0.000000 m /four glyphshow
6.362305 0.000000 m /zero glyphshow
12.724609 0.000000 m /zero glyphshow
grestore
2 setlinecap
0.690 setgray
gsave
334.8 217.4 54 36 clipbox
199.752979 36 m
199.752979 253.44 l
stroke
grestore
0 setlinecap
0.000 setgray
gsave
/o {
gsave
newpath
translate
0.8 setlinewidth
1 setlinejoin
0 setlinecap
0 0 m
0 -3.5 l

gsave
0.000 setgray
fill
grestore
stroke
grestore
} bind def
199.753 36 o
grestore
gsave
190.213917 21.406250 translate
0.000000 rotate
0.000000 0.000000 m /six glyphshow
6.362305 0.000000 m /zero glyphshow
12.724609 0.000000 m /zero glyphshow
grestore
2 setlinecap
0.690 setgray
gsave
334.8 217.4 54 36 clipbox
243.264579 36 m
243.264579 253.44 l
stroke
grestore
0 setlinecap
0.000 setgray
gsave
/o {
gsave
newpath
translate
0.8 setlinewidth
1 setlinejoin
0 setlinecap
0 0 m
0 -3.5 l

gsave
0.000 setgray
fill
grestore
stroke
grestore
} bind def
243.265 36 o
grestore
gsave
233.725516 21.406250 translate
0.000000 rotate
0.000000 0.000000 m /eight glyphshow
6.362305 0.000000 m /zero glyphshow
12.724609 0.000000 m /zero glyphshow
grestore
2 setlinecap
0.690 setgray
gsave
334.8 217.4 54 36 clipbox
286.776178 36 m
286.776178 253.44 l
stroke
grestore
0 setlinecap
0.000 setgray
gsave
/o {
gsave
newpath
translate
0.8 setlinewidth
1 setlinejoin
0 setlinecap
0 0 m
0 -3.5 l

gsave
0.000 setgray
fill
grestore
stroke
grestore
} bind def
286.776 36 o
grestore
gsave
274.057428 21.406250 translate
0.000000 rotate
0.000000 0.000000 m /one glyphshow
6.362305 0.000000 m /zero glyphshow
12.724609 0.000000 m /zero glyphshow
19.086914 0.000000 m /zero glyphshow
grestore
2 setlinecap
0.690 setgray
gsave
334.8 217.4 54 36 clipbox
330.287777 36 m
330.287777 253.44 l
stroke
grestore
0 setlinecap
0.000 setgray
gsave
/o {
gsave
newpath
translate
0.8 setlinewidth
1 setlinejoin
0 setlinecap
0 0 m
0 -3.5 l

gsave
0.000 setgray
fill
grestore
stroke
grestore
} bind def
330.288 36 o
grestore
gsave
317.569027 21.406250 translate
0.000000 rotate
0.000000 0.000000 m /one glyphshow
6.362305 0.000000 m /two glyphshow
12.724609 0.000000 m /zero glyphshow
19.086914 0.000000 m /zero glyphshow
grestore
2 setlinecap
0.690 setgray
gsave
334.8 217.4 54 36 clipbox
373.799376 36 m
373.799376 253.44 l
stroke
grestore
0 setlinecap
0.000 setgray
gsave
/o {
gsave
newpath
translate
0.8 setlinewidth
1 setlinejoin
0 setlinecap
0 0 m
0 -3.5 l

gsave
0.000 setgray
fill
grestore
stroke
grestore
} bind def
373.799 36 o
grestore
gsave
361.080626 21.406250 translate
0.000000 rotate
0.000000 0.000000 m /one glyphshow
6.362305 0.000000 m /four glyphshow
12.724609 0.000000 m /zero glyphshow
19.086914 0.000000 m /zero glyphshow
grestore
gsave
200.892188 7.734375 translate
0.000000 rotate
0.000000 0.000000 m /T glyphshow
6.108398 0.000000 m /i glyphshow
8.886719 0.000000 m /m glyphshow
18.627930 0.000000 m /e glyphshow
24.780273 0.000000 m /space glyphshow
27.958984 0.000000 m /bracketleft glyphshow
31.860352 0.000000 m /s glyphshow
37.070312 0.000000 m /bracketright glyphshow
grestore
2 setlinecap
0.690 setgray
gsave
334.8 217.4 54 36 clipbox
54 50.819119 m
388.8 50.819119 l
stroke
grestore
0 setlinecap
0.000 setgray
gsave
/o {
gsave
newpath
translate
0.8 setlinewidth
1 setlinejoin
0 setlinecap
0 0 m
-3.5 0 l

gsave
0.000 setgray
fill
grestore
stroke
grestore
} bind def
54 50.8191 o
grestore
gsave
19.546875 47.022244 translate
0.000000 rotate
0.000000 0.000000 m /minus glyphshow
8.378906 0.000000 m /one glyphshow
14.741211 0.000000 m /zero glyphshow
21.103516 0.000000 m /zero glyphshow
grestore
2 setlinecap
0.690 setgray
gsave
334.8 217.4 54 36 clipbox
54 80.395099 m
388.8 80.395099 l
stroke
grestore
0 setlinecap
0.000 setgray
gsave
/o {
gsave
newpath
translate
0.8 setlinewidth
1 setlinejoin
0 setlinecap
0 0 m
-3.5 0 l

gsave
0.000 setgray
fill
grestore
stroke
grestore
} bind def
54 80.3951 o
grestore
gsave
25.906250 76.598224 translate
0.000000 rotate
0.000000 0.000000 m /minus glyphshow
8.378906 0.000000 m /five glyphshow
14.741211 0.000000 m /zero glyphshow
grestore
2 setlinecap
0.690 setgray
gsave
334.8 217.4 54 36 clipbox
54 109.971079 m
388.8 109.971079 l
stroke
grestore
0 setlinecap
0.000 setgray
gsave
/o {
gsave
newpath
translate
0.8 setlinewidth
1 setlinejoin
0 setlinecap
0 0 m
-3.5 0 l

gsave
0.000 setgray
fill
grestore
stroke
grestore
} bind def
54 109.971 o
grestore
gsave
40.640625 106.174204 translate
0.000000 rotate
0.000000 0.000000 m /zero glyphshow
grestore
2 setlinecap
0.690 setgray
gsave
334.8 217.4 54 36 clipbox
54 139.547059 m
388.8 139.547059 l
stroke
grestore
0 setlinecap
0.000 setgray
gsave
/o {
gsave
newpath
translate
0.8 setlinewidth
1 setlinejoin
0 setlinecap
0 0 m
-3.5 0 l

gsave
0.000 setgray
fill
grestore
stroke
grestore
} bind def
54 139.547 o
grestore
gsave
34.281250 135.750184 translate
0.000000 rotate
0.000000 0.000000 m /five glyphshow
6.362305 0.000000 m /zero glyphshow
grestore
2 setlinecap
0.690 setgray
gsave
334.8 217.4 54 36 clipbox
54 169.123039 m
388.8 169.123039 l
stroke
grestore
0 setlinecap
0.000 setgray
gsave
/o {
gsave
newpath
translate
0.8 setlinewidth
1 setlinejoin
0 setlinecap
0 0 m
-3.5 0 l

gsave
0.000 setgray
fill
grestore
stroke
grestore
} bind def
54 169.123 o
grestore
gsave
27.921875 165.326164 translate
0.000000 rotate
0.000000 0.000000 m /one glyphshow
6.362305 0.000000 m /zero glyphshow
12.724609 0.000000 m /zero glyphshow
grestore
2 setlinecap
0.690 setgray
gsave
334.8 217.4 54 36 clipbox
54 198.699019 m
388.8 198.699019 l
stroke
grestore
0 setlinecap
0.000 setgray
gsave
/o {
gsave
newpath
translate
0.8 setlinewidth
1 setlinejoin
0 setlinecap
0 0 m
-3.5 0 l

gsave
0.000 setgray
fill
grestore
stroke
grestore
} bind def
54 198.699 o
grestore
gsave
27.921875 194.902144 translate
0.000000 rotate
0.000000 0.000000 m /one glyphshow
6.362305 0.000000 m /five glyphshow
12.724609 0.000000 m /zero glyphshow
grestore
2 setlinecap
0.690 setgray
gsave
334.8 217.4 54 36 clipbox
54 228.274999 m
388.8 228.274999 l
stroke
grestore
0 setlinecap
0.000 setgray
gsave
/o {
gsave
newpath
translate
0.8 setlinewidth
1 setlinejoin
0 setlinecap
0 0 m
-3.5 0 l

gsave
0.000 setgray
fill
grestore
stroke
grestore
} bind def
54 228.275 o
grestore
gsave
27.921875 224.478124 translate
0.000000 rotate
0.000000 0.000000 m /two glyphshow
6.362305 0.000000 m /zero glyphshow
12.724609 0.000000 m /zero glyphshow
grestore
gsave
13.468750 116.813750 translate
90.000000 rotate
0.000000 0.000000 m /C glyphshow
6.982422 0.000000 m /u glyphshow
13.320312 0.000000 m /r glyphshow
17.431641 0.000000 m /r glyphshow
21.542969 0.000000 m /e glyphshow
27.695312 0.000000 m /n glyphshow
34.033203 0.000000 m /t glyphshow
37.954102 0.000000 m /space glyphshow
41.132812 0.000000 m /bracketleft glyphshow
45.034180 0.000000 m /A glyphshow
51.875000 0.000000 m /bracketright glyphshow
grestore
1.500 setlinewidth
2 setlinecap
gsave
334.8 217.4 54 36 clipbox
69.218182 178.134639 m
69.43574 59.225969 l
69.653298 107.168019 l
69.870856 100.352626 l
70.088414 110.451528 l
70.52353 105.030609 l
70.741088 102.095763 l
70.958646 110.758255 l
71.176204 104.101176 l
71.61132 118.705716 l
71.828878 130.691197 l
72.046436 131.901071 l
72.263994 138.038042 l
72.481552 148.226478 l
72.69911 108.515897 l
72.916668 114.610786 l
73.351784 105.70833 l
73.569342 107.011343 l
73.7869 112.258772 l
74.004458 136.327736 l
74.222016 116.686102 l
74.439574 223.641773 l
74.657132 72.521225 l
74.87469 101.871575 l
75.092248 110.87167 l
75.309806 108.758965 l
75.744922 132.951374 l
75.96248 108.529732 l
76.180038 107.316255 l
76.397596 110.765476 l
76.615154 117.285872 l
76.832712 167.356722 l
77.05027 73.785287 l
77.267828 108.387307 l
77.485386 110.785047 l
77.702944 107.010274 l
77.920502 111.161388 l
78.13806 105.676426 l
78.355618 127.867175 l
78.573176 103.427003 l
78.790734 106.83914 l
79.008292 118.858145 l
79.443408 101.232151 l
79.660966 102.665005 l
79.878524 78.173815 l
80.096082 85.389825 l
80.31364 124.02674 l
80.531198 100.808763 l
80.748756 116.348061 l
80.966314 121.119747 l
81.183872 103.896858 l
81.40143 110.043964 l
81.618988 108.903151 l
81.836546 106.530467 l
82.054104 110.493837 l
82.271662 131.005446 l
82.48922 123.09824 l
82.706778 108.504323 l
82.924336 127.34108 l
83.141894 117.325045 l
83.359452 119.383517 l
83.57701 126.222632 l
83.794568 102.450127 l
84.012126 110.637232 l
84.229684 111.713551 l
84.447242 48.764774 l
84.6648 49.550032 l
84.882358 49.904823 l
85.099916 54.576164 l
85.317474 78.711017 l
85.75259 86.122696 l
85.970148 105.52364 l
86.187706 102.061888 l
86.405263 104.528104 l
86.622821 101.48724 l
86.840379 114.60632 l
87.057937 117.339633 l
87.493053 159.153475 l
87.710611 105.669914 l
87.928169 123.631806 l
88.145727 93.214702 l
88.363285 115.596471 l
88.580843 103.255056 l
88.798401 116.207325 l
89.015959 116.32173 l
89.233517 119.813247 l
89.451075 92.705874 l
89.668633 144.455257 l
89.886191 92.389197 l
90.103749 127.390956 l
90.321307 97.535512 l
90.538865 133.287933 l
90.756423 102.43623 l
90.973981 111.09378 l
91.191539 106.381333 l
91.409097 113.147302 l
91.626655 94.487293 l
91.844213 124.093445 l
92.061771 120.654846 l
92.279329 107.393672 l
92.496887 123.554787 l
92.714445 100.242803 l
92.932003 109.680649 l
93.367119 114.319733 l
93.584677 127.793362 l
93.802235 161.329503 l
94.019793 93.694297 l
94.237351 157.254264 l
94.454909 89.853614 l
94.672467 111.56332 l
94.890025 120.441395 l
95.107583 103.591425 l
95.325141 136.792668 l
95.542699 108.268434 l
95.760257 94.935764 l
95.977815 124.748755 l
96.195373 118.078908 l
96.412931 89.649783 l
96.848047 112.2286 l
97.065605 105.956668 l
97.283163 93.113692 l
97.500721 121.666361 l
97.718279 128.904009 l
97.935837 107.3261 l
98.153395 100.891056 l
98.370953 116.285423 l
98.588511 120.89594 l
98.806069 106.001327 l
99.023627 143.649786 l
99.241185 145.092424 l
99.458743 99.254894 l
99.893859 116.162778 l
100.328975 103.311106 l
100.764091 49.732745 l
100.981649 53.996217 l
101.199207 51.837452 l
101.416765 86.985772 l
101.634323 99.288288 l
101.851881 102.661776 l
102.069439 123.698571 l
102.286997 110.559509 l
102.504555 107.366798 l
102.722113 116.095281 l
102.939671 106.184664 l
103.157229 135.03587 l
103.374787 120.649255 l
103.592345 217.76507 l
103.809903 77.78716 l
104.027461 114.539781 l
104.245019 115.231369 l
104.462577 137.031874 l
104.680135 109.294123 l
105.115251 161.666901 l
105.332809 126.358754 l
105.550367 113.684995 l
105.767925 128.709287 l
105.985483 105.351629 l
106.203041 106.88522 l
106.420599 127.863783 l
106.638157 96.489307 l
106.855715 114.799799 l
107.073273 122.225328 l
107.290831 112.468276 l
107.508389 97.592688 l
107.725947 97.646985 l
107.943505 102.756855 l
108.161063 147.038174 l
108.378621 141.94836 l
108.596179 104.323092 l
108.813737 109.655753 l
109.031295 201.462326 l
109.248853 68.077053 l
109.466411 121.017484 l
109.683969 134.736378 l
109.901527 55.640833 l
110.119085 125.013329 l
110.336643 51.748844 l
110.554201 91.624799 l
110.771759 102.725457 l
110.989317 123.711635 l
111.206875 107.829713 l
111.424433 101.985221 l
111.641991 129.601938 l
111.859549 100.251269 l
112.077107 153.304718 l
112.294665 127.90657 l
112.512223 76.766279 l
112.729781 116.482832 l
112.947339 127.75645 l
113.164897 130.462257 l
113.382455 96.349471 l
113.600013 112.892651 l
113.817571 143.08169 l
114.035129 145.592909 l
114.252687 66.834842 l
114.470245 111.471211 l
114.687803 117.235752 l
114.905361 145.80257 l
115.122919 115.306092 l
115.340477 111.615471 l
115.558035 101.850673 l
115.775593 107.113146 l
115.993151 100.623703 l
116.210709 115.042568 l
116.428267 120.268275 l
116.645825 115.580696 l
116.863383 120.689946 l
117.080941 112.854124 l
117.298499 78.883286 l
117.516057 166.341853 l
117.951173 109.513608 l
118.168731 115.094682 l
118.386289 112.387108 l
118.821405 125.239099 l
119.038963 106.81189 l
119.256521 123.219169 l
119.474079 120.031626 l
119.691637 112.985299 l
119.909195 80.677095 l
120.126753 99.290812 l
120.344311 218.551813 l
120.561869 213.135069 l
120.779427 213.438024 l
120.996985 53.122205 l
121.214543 50.47085 l
121.432101 114.791776 l
121.649659 120.356996 l
121.867217 110.908434 l
122.084775 120.527071 l
122.519891 110.442997 l
122.955007 117.768931 l
123.172565 120.005483 l
123.390123 115.897639 l
123.607681 119.219198 l
123.825239 108.672815 l
124.042797 118.644653 l
124.260355 116.874767 l
124.477913 121.028391 l
124.695471 100.743255 l
124.913029 93.705249 l
125.130587 124.002184 l
125.348145 119.178712 l
125.565703 129.376816 l
125.783261 102.216569 l
126.000819 113.253379 l
126.218377 115.320887 l
126.435935 120.33613 l
126.653493 120.141563 l
127.088609 103.848881 l
127.306167 113.478666 l
127.523725 128.030733 l
127.741283 113.085512 l
127.958841 111.815046 l
128.176399 105.411959 l
128.393957 120.726478 l
128.611515 108.769236 l
128.829073 124.079121 l
129.046631 107.622179 l
129.264189 119.868107 l
129.481747 104.113145 l
129.699305 119.123864 l
129.916863 114.429355 l
130.134421 122.279953 l
130.351979 110.350089 l
130.569537 120.155731 l
130.787095 120.507634 l
131.004653 121.612972 l
131.222211 106.515081 l
131.439769 101.651333 l
131.657327 115.354485 l
131.874885 98.352176 l
132.310001 50.143504 l
132.962675 125.748802 l
133.180233 94.05568 l
133.397791 176.286649 l
133.615349 110.399618 l
133.832907 79.769549 l
134.050465 140.787108 l
134.268023 105.666412 l
134.485581 98.243162 l
134.703139 118.840599 l
134.920697 121.921952 l
135.138255 92.809475 l
135.355813 113.742023 l
135.573371 118.020902 l
135.790929 116.407081 l
136.008487 127.010421 l
136.226045 100.455674 l
136.443603 115.089096 l
136.661161 119.863255 l
136.878719 119.685625 l
137.096277 146.709102 l
137.313835 95.649395 l
137.531393 117.783691 l
137.748951 113.187996 l
137.966509 122.956899 l
138.184067 117.471784 l
138.401625 163.435577 l
138.619183 84.300014 l
138.836741 126.917345 l
139.054299 100.84926 l
139.271857 98.177988 l
139.489415 116.960209 l
139.706973 119.185019 l
139.924531 117.219081 l
140.142089 125.096915 l
140.577204 61.08536 l
141.01232 108.457817 l
141.229878 75.027831 l
141.447436 111.055654 l
141.664994 92.88421 l
141.882552 147.812897 l
142.10011 104.413054 l
142.317668 104.560708 l
142.752784 112.134651 l
142.970342 101.413081 l
143.1879 151.266823 l
143.623016 111.43396 l
143.840574 119.733622 l
144.058132 110.870002 l
144.27569 113.737203 l
144.493248 99.624556 l
144.710806 141.815147 l
144.928364 114.200294 l
145.145922 115.258169 l
145.36348 114.83291 l
145.581038 112.224081 l
145.798596 117.616702 l
146.016154 115.919019 l
146.233712 109.992637 l
146.45127 100.851687 l
146.668828 110.214598 l
146.886386 108.299702 l
147.103944 107.454382 l
147.321502 114.659898 l
147.53906 113.670153 l
147.756618 118.866174 l
147.974176 113.732924 l
148.191734 117.879093 l
148.409292 130.046065 l
148.62685 102.312885 l
148.844408 108.933187 l
149.061966 126.454729 l
149.279524 103.305707 l
149.497082 128.336308 l
149.71464 52.132756 l
149.932198 86.753444 l
150.149756 82.201112 l
150.367314 114.359881 l
150.584872 117.887159 l
150.80243 117.816663 l
151.019988 116.1716 l
151.237546 107.572734 l
151.455104 117.064189 l
151.672662 115.753811 l
151.89022 88.7671 l
152.107778 111.865689 l
152.325336 119.650867 l
152.542894 132.901155 l
152.760452 103.26522 l
152.97801 120.801758 l
153.195568 84.19819 l
153.413126 179.830166 l
153.848242 115.43821 l
154.0658 103.85348 l
154.283358 112.958115 l
154.500916 111.269219 l
154.718474 102.072896 l
154.936032 108.381408 l
155.371148 112.397679 l
155.806264 119.303062 l
156.023822 118.732006 l
156.24138 117.013003 l
156.458938 118.868823 l
156.676496 123.088621 l
156.894054 112.205793 l
157.32917 118.784087 l
157.546728 114.706594 l
157.764286 129.792127 l
157.981844 93.862654 l
158.199402 126.900856 l
158.41696 102.452315 l
158.634518 91.329072 l
158.852076 89.90118 l
159.069634 131.301694 l
159.287192 92.992397 l
159.50475 99.792019 l
159.939866 127.443074 l
160.157424 127.690787 l
160.374982 113.559315 l
160.59254 119.647601 l
160.810098 104.829443 l
161.027656 114.619343 l
161.245214 109.554332 l
161.462772 126.674419 l
161.68033 90.128392 l
161.897888 114.559615 l
162.115446 121.504912 l
162.333004 108.001837 l
162.550562 108.702841 l
162.76812 146.139494 l
162.985678 109.065122 l
163.203236 123.566597 l
163.420794 110.698826 l
163.638352 118.987965 l
163.85591 118.264294 l
164.073468 112.527441 l
164.291026 114.425442 l
164.508584 117.3139 l
164.726142 84.972321 l
164.9437 147.310836 l
165.161258 116.068335 l
165.378816 114.952554 l
165.596374 110.841198 l
165.813932 114.186311 l
166.03149 165.372805 l
166.466606 99.748339 l
166.901722 125.972733 l
167.11928 123.138127 l
167.336838 243.556364 l
167.554396 206.137572 l
167.771954 109.462536 l
167.989512 92.577225 l
168.20707 91.945805 l
168.424628 116.147577 l
168.642186 115.35412 l
168.859744 118.048522 l
169.29486 113.82273 l
169.512418 115.064988 l
169.947534 53.915508 l
170.165092 89.797506 l
170.38265 87.19363 l
170.600208 147.999698 l
170.817766 97.654191 l
171.035324 111.163506 l
171.252882 113.494951 l
171.47044 132.28428 l
171.687998 98.300541 l
171.905556 139.022933 l
172.123114 100.961831 l
172.340672 109.48751 l
172.55823 86.605746 l
172.775788 150.622393 l
172.993346 85.389858 l
173.210904 113.115962 l
173.428462 111.04168 l
173.64602 116.424253 l
173.863578 94.008056 l
174.298694 116.433909 l
174.73381 106.779748 l
174.951368 121.810717 l
175.168926 118.647661 l
175.386484 102.004244 l
175.604042 114.383818 l
175.8216 98.332366 l
176.039158 146.478235 l
176.256716 85.624517 l
176.474274 184.765579 l
176.691832 100.645509 l
176.90939 94.759213 l
177.126948 140.504172 l
177.344506 71.596103 l
177.779622 121.861192 l
178.432296 90.234255 l
178.649854 120.498766 l
178.867412 105.856616 l
179.08497 137.362839 l
179.302528 82.426806 l
179.520086 80.51154 l
179.737644 60.617524 l
179.955202 75.349185 l
180.17276 98.351054 l
180.390318 85.92904 l
180.607876 118.199142 l
180.825434 119.23789 l
181.26055 105.500535 l
181.478108 109.817022 l
181.695666 119.067786 l
181.913224 106.29859 l
182.130782 113.184403 l
182.34834 112.952809 l
182.565898 112.437376 l
182.783456 123.42245 l
183.001014 153.689817 l
183.218572 111.487917 l
183.43613 114.877375 l
183.653688 181.230447 l
183.871246 76.911478 l
184.306362 117.277164 l
184.52392 144.744808 l
184.741478 109.806657 l
184.959036 116.35153 l
185.394152 104.410933 l
185.61171 113.833725 l
185.829268 114.477415 l
186.046826 121.242525 l
186.264384 184.102343 l
186.481942 122.648119 l
186.6995 116.912765 l
186.917058 95.478485 l
187.134616 180.896546 l
187.352174 115.758056 l
187.569732 88.927802 l
187.78729 87.355811 l
188.004848 199.269134 l
188.439964 86.959277 l
188.657522 70.220151 l
188.87508 94.387191 l
189.092638 79.305641 l
189.310196 113.229532 l
189.527754 124.791065 l
189.745312 105.863009 l
189.96287 137.937186 l
190.180428 89.476789 l
190.397986 144.835553 l
190.833102 46.508277 l
191.485776 110.569527 l
191.703334 186.650216 l
191.920892 112.714055 l
192.13845 94.341552 l
192.356008 180.833323 l
192.573566 66.318297 l
192.791124 99.93566 l
193.008682 111.481391 l
193.22624 104.123507 l
193.443798 156.208666 l
193.661356 87.13771 l
193.878914 129.593469 l
194.096472 116.84462 l
194.31403 225.689296 l
194.531587 79.135014 l
194.749145 116.088149 l
194.966703 85.046022 l
195.184261 117.727837 l
195.401819 216.32091 l
195.619377 127.199824 l
195.836935 85.692011 l
196.054493 123.427235 l
196.272051 94.951154 l
196.489609 116.233251 l
196.707167 100.972948 l
196.924725 112.460385 l
197.142283 148.75702 l
197.359841 140.663058 l
197.577399 103.372932 l
197.794957 118.590569 l
198.012515 114.430578 l
198.230073 122.553773 l
198.665189 105.7465 l
198.882747 125.72044 l
199.100305 102.031862 l
199.317863 127.545217 l
199.535421 185.202054 l
199.752979 109.738631 l
199.970537 116.341747 l
200.188095 117.315101 l
200.623211 160.086112 l
200.840769 67.826358 l
201.058327 121.294785 l
201.275885 102.696773 l
201.493443 106.735362 l
201.711001 120.661342 l
201.928559 106.767694 l
202.146117 122.738034 l
202.363675 104.426133 l
202.581233 116.207591 l
202.798791 118.633938 l
203.016349 119.473626 l
203.233907 101.123405 l
203.451465 114.647517 l
203.669023 81.338301 l
203.886581 83.501513 l
204.321697 111.178861 l
204.539255 88.510686 l
204.756813 121.818553 l
204.974371 110.976928 l
205.191929 111.721109 l
205.409487 45.883636 l
205.627045 55.305682 l
205.844603 47.545211 l
206.062161 92.420643 l
206.279719 106.901133 l
206.497277 94.916808 l
206.714835 119.087322 l
206.932393 110.069054 l
207.149951 86.148012 l
207.367509 107.035311 l
207.585067 82.690443 l
207.802625 139.00089 l
208.020183 149.049611 l
208.237741 111.589755 l
208.455299 113.636953 l
208.890415 85.237344 l
209.107973 121.523689 l
209.325531 98.651219 l
209.543089 93.45606 l
209.760647 115.969796 l
209.978205 100.870817 l
210.195763 134.686749 l
210.413321 73.497677 l
210.848437 51.30974 l
211.065995 47.044261 l
211.283553 47.478471 l
211.501111 81.187043 l
211.936227 47.854688 l
212.153785 47.89457 l
212.371343 48.449695 l
212.588901 51.331228 l
212.806459 57.491935 l
213.024017 77.202225 l
213.241575 77.054214 l
213.459133 96.267035 l
213.676691 104.802761 l
213.894249 106.875352 l
214.111807 110.321911 l
214.329365 109.373292 l
214.546923 110.571242 l
214.982039 110.581338 l
215.199597 131.96817 l
215.417155 104.017163 l
215.634713 110.924539 l
215.852271 106.734121 l
216.069829 108.537681 l
216.287387 95.949551 l
216.504945 108.299989 l
216.722503 111.564129 l
216.940061 125.139162 l
217.157619 121.137524 l
217.375177 108.916179 l
217.592735 133.827631 l
217.810293 110.781681 l
218.027851 102.069889 l
218.245409 106.636327 l
218.462967 114.796779 l
218.680525 132.518283 l
218.898083 135.081532 l
219.115641 104.405174 l
219.333199 104.557494 l
219.550757 99.293014 l
220.203431 114.92628 l
220.420989 130.391797 l
220.638547 101.843629 l
220.856105 97.919697 l
221.073663 101.753869 l
221.508779 144.53139 l
221.726337 108.415156 l
221.943895 100.436128 l
222.161453 117.940781 l
222.814127 103.40953 l
223.031685 106.176254 l
223.249243 102.007628 l
223.684359 132.094144 l
223.901917 92.2604 l
224.119475 168.625155 l
224.337033 77.302504 l
224.554591 114.588945 l
224.772149 106.25958 l
224.989707 148.463338 l
225.207265 106.548272 l
225.424823 103.140204 l
225.642381 89.695524 l
225.859939 108.860509 l
226.077497 102.763021 l
226.295055 117.315481 l
226.512613 103.935185 l
226.730171 110.558447 l
226.947729 122.305998 l
227.165287 92.662284 l
227.382845 104.881736 l
227.817961 111.850452 l
228.035519 111.427494 l
228.253077 119.769539 l
228.470635 108.909931 l
228.688193 109.820102 l
228.905751 103.694966 l
229.123309 126.040221 l
229.558425 86.543132 l
229.775983 128.561966 l
229.993541 106.808501 l
230.211099 103.822726 l
230.646215 111.127361 l
230.863773 162.383154 l
231.081331 88.122361 l
231.298889 104.985824 l
231.516447 98.42104 l
231.951563 47.902059 l
232.169121 68.384802 l
232.386679 72.058808 l
232.604237 101.07368 l
232.821795 90.039862 l
233.039353 106.188743 l
233.256911 78.907172 l
233.692027 56.926107 l
233.909585 84.932527 l
234.127143 95.378709 l
234.344701 112.581128 l
234.562259 112.9299 l
234.779817 162.663105 l
234.997375 75.727035 l
235.214933 155.91149 l
235.432491 85.852846 l
235.650049 118.01285 l
235.867607 93.377478 l
236.085165 105.797819 l
236.302723 78.450895 l
236.520281 135.087341 l
236.737839 111.899115 l
236.955397 110.187865 l
237.172955 49.59188 l
237.390513 55.139773 l
237.608071 109.889777 l
237.825629 105.35666 l
238.043187 106.882507 l
238.260745 110.556646 l
239.348535 110.580807 l
243.917253 110.580727 l
244.134811 119.111003 l
244.352369 114.766057 l
245.005043 138.059027 l
245.440159 97.102043 l
245.657717 117.497062 l
245.875275 109.013821 l
246.092833 143.604691 l
246.310391 90.459917 l
246.527949 114.931176 l
246.745507 105.315538 l
246.963065 100.612752 l
247.180623 112.879435 l
247.398181 199.254941 l
247.615739 65.399692 l
247.833297 120.5082 l
248.050855 101.220333 l
248.268413 103.487442 l
248.48597 102.463974 l
248.703528 121.057853 l
248.921086 84.305502 l
249.356202 51.205458 l
249.57376 49.326334 l
249.791318 54.394268 l
250.008876 63.343576 l
250.443992 100.156515 l
250.66155 110.029602 l
250.879108 110.57317 l
251.096666 112.920792 l
251.314224 110.605008 l
251.531782 110.575929 l
251.74934 112.927426 l
251.966898 110.605232 l
252.619572 110.580345 l
252.83713 117.745286 l
253.272246 153.932665 l
253.489804 116.300077 l
253.707362 116.113381 l
253.92492 94.550717 l
254.142478 115.193423 l
254.360036 94.013623 l
254.577594 129.532019 l
254.795152 81.071822 l
255.01271 114.042032 l
255.230268 121.904958 l
255.447826 98.337296 l
255.665384 109.252053 l
255.882942 108.645136 l
256.1005 156.172092 l
256.318058 98.103291 l
256.535616 105.526221 l
256.753174 117.121877 l
256.970732 111.290118 l
257.18829 113.495315 l
257.623406 135.757677 l
257.840964 112.027897 l
258.058522 130.232567 l
258.27608 117.302395 l
258.493638 119.943333 l
258.711196 112.114279 l
258.928754 126.766247 l
259.581428 101.156518 l
259.798986 83.638738 l
260.016544 106.234044 l
260.234102 83.57932 l
260.45166 110.642717 l
260.669218 88.661458 l
260.886776 85.222445 l
261.104334 104.027661 l
261.321892 104.173673 l
261.53945 100.355514 l
261.757008 116.370105 l
262.192124 66.24606 l
262.409682 111.687833 l
262.62724 110.417798 l
262.844798 110.1395 l
263.062356 110.468716 l
263.497472 110.579659 l
265.237936 110.580354 l
265.455494 112.474772 l
265.673052 116.610813 l
265.89061 139.177149 l
266.108168 143.426275 l
266.325726 98.504329 l
266.543284 176.701859 l
266.760842 116.643175 l
266.9784 96.872049 l
267.413516 121.280001 l
267.631074 103.256826 l
267.848632 137.874134 l
268.06619 101.924349 l
268.283748 95.796628 l
268.501306 107.186421 l
268.718864 128.277881 l
269.15398 94.538881 l
269.371538 111.971941 l
269.589096 106.222317 l
269.806654 104.790308 l
270.024212 113.294504 l
270.24177 112.24116 l
270.459328 84.819634 l
270.676886 125.816088 l
270.894444 93.686856 l
271.112002 109.350671 l
271.32956 91.534414 l
271.764676 112.335462 l
271.982234 115.011604 l
272.199792 99.882632 l
272.41735 113.396393 l
272.634908 117.973187 l
272.852466 128.547068 l
273.070024 129.906464 l
273.287582 104.38505 l
273.50514 126.231014 l
273.722698 110.578079 l
273.940256 109.153763 l
274.157814 102.294269 l
274.375372 105.192992 l
274.59293 146.771495 l
274.810488 87.484085 l
275.028046 108.996771 l
275.245604 109.987242 l
275.463162 148.331349 l
275.68072 112.544353 l
275.898278 96.082278 l
276.115836 114.344914 l
276.333394 119.774401 l
276.550952 114.347401 l
276.76851 95.486201 l
276.986068 125.374854 l
277.203626 112.658786 l
277.421184 107.855684 l
277.638742 118.055719 l
278.291416 107.805411 l
278.508974 108.436915 l
278.726532 105.709254 l
278.94409 106.981854 l
279.161648 110.95842 l
279.596764 135.814955 l
279.814322 133.006697 l
280.03188 87.432992 l
280.249438 117.787429 l
280.684554 100.703028 l
280.902112 118.30737 l
281.11967 163.412994 l
281.337228 106.143969 l
281.554786 114.32988 l
281.772344 106.762226 l
281.989902 119.46009 l
282.20746 107.234664 l
282.425018 109.378142 l
282.642576 115.440177 l
282.860134 126.895344 l
283.077692 97.247123 l
283.29525 84.015956 l
283.512808 124.873181 l
283.730366 120.212004 l
283.947924 98.182997 l
284.165482 127.561715 l
284.38304 91.839229 l
284.600598 119.057608 l
284.818156 101.360782 l
285.035714 110.237461 l
285.253272 70.825371 l
285.47083 109.370724 l
285.688388 98.573307 l
285.905946 103.703797 l
286.123504 117.203252 l
286.341062 164.316397 l
286.55862 100.163143 l
286.776178 125.270679 l
287.211294 103.295569 l
287.428852 48.47344 l
287.64641 109.957697 l
287.863968 61.74958 l
288.081526 86.420874 l
288.299084 85.353891 l
288.516642 102.086849 l
288.7342 109.699608 l
288.951758 110.573299 l
290.039548 110.58102 l
290.257106 112.897183 l
290.474664 110.602832 l
291.562454 110.580982 l
297.871636 110.58092 l
298.089194 112.893539 l
298.306752 110.604515 l
299.176984 110.580839 l
301.352564 110.580811 l
301.78768 123.236939 l
302.222796 104.62645 l
302.440353 109.166909 l
302.657911 110.572872 l
305.921281 110.580794 l
307.009071 110.580788 l
307.226629 114.400398 l
307.444187 152.236566 l
307.661745 117.738335 l
307.879303 118.155464 l
308.096861 108.412562 l
308.314419 92.195839 l
308.967093 108.628273 l
309.184651 95.568235 l
309.402209 104.484252 l
309.619767 135.717186 l
309.837325 138.371999 l
310.054883 113.018523 l
310.272441 104.313904 l
310.707557 115.369414 l
310.925115 97.58898 l
311.142673 91.951675 l
311.577789 137.995316 l
312.012905 97.145311 l
312.230463 128.958395 l
312.448021 90.945509 l
312.665579 111.261031 l
312.883137 104.067538 l
313.100695 107.782429 l
313.318253 108.943774 l
313.535811 102.790733 l
313.753369 63.057648 l
313.970927 57.604546 l
314.188485 128.668801 l
314.406043 50.511615 l
314.841159 99.066975 l
315.058717 109.710419 l
315.276275 110.567874 l
315.493833 110.191865 l
315.928949 106.869165 l
316.146507 106.512588 l
316.364065 112.892629 l
316.581623 130.491662 l
316.799181 160.609918 l
317.016739 95.579948 l
317.234297 109.306578 l
317.451855 131.668915 l
317.669413 83.932844 l
317.886971 136.054944 l
318.104529 102.370871 l
318.322087 106.999217 l
318.539645 124.775521 l
318.757203 82.639741 l
318.974761 134.893028 l
319.192319 97.281681 l
319.409877 127.408048 l
319.844993 96.541422 l
320.280109 125.066435 l
320.497667 102.242476 l
320.715225 106.316295 l
320.932783 121.076364 l
321.150341 114.350243 l
321.367899 114.939896 l
321.585457 109.443519 l
321.803015 118.719413 l
322.020573 113.219538 l
322.238131 102.291651 l
322.455689 129.135907 l
322.673247 119.625822 l
322.890805 97.483871 l
323.108363 105.65655 l
323.325921 133.619649 l
323.543479 88.40053 l
323.761037 109.835492 l
323.978595 114.177893 l
324.196153 115.087666 l
324.413711 120.496717 l
324.631269 113.607241 l
324.848827 91.608012 l
325.066385 48.827678 l
325.501501 49.388459 l
325.719059 52.290001 l
325.936617 62.05944 l
326.154175 98.540789 l
326.371733 91.691805 l
326.589291 78.306915 l
327.024407 94.448 l
327.241965 93.072736 l
327.459523 105.23101 l
327.894639 111.319878 l
328.112197 130.614361 l
328.329755 171.990194 l
328.764871 77.004858 l
328.982429 121.899861 l
329.199987 105.320056 l
329.417545 167.056935 l
329.635103 79.367796 l
330.070219 118.865804 l
330.287777 92.272712 l
330.505335 151.847702 l
330.722893 84.794867 l
330.940451 110.019033 l
331.158009 109.863039 l
331.375567 110.973398 l
331.593125 147.497048 l
331.810683 87.896191 l
332.028241 111.010578 l
332.245799 111.31778 l
332.463357 118.162029 l
332.680915 89.497865 l
332.898473 126.43889 l
333.116031 121.838557 l
333.333589 127.432355 l
333.551147 109.508292 l
333.768705 113.472362 l
333.986263 121.071744 l
334.203821 88.404852 l
334.421379 86.704339 l
334.638937 74.808129 l
334.856495 88.914522 l
335.074053 52.623315 l
335.291611 84.775076 l
335.509169 63.652383 l
335.726727 68.136581 l
335.944285 76.736338 l
336.379401 106.130765 l
336.596959 110.550393 l
337.249633 110.579975 l
337.467191 115.332776 l
337.684749 173.578868 l
337.902307 130.634185 l
338.119865 112.838688 l
338.337423 120.286701 l
338.554981 94.517173 l
338.772539 125.313938 l
338.990097 132.220791 l
339.207655 95.494593 l
339.425213 129.359635 l
339.642771 74.376349 l
340.077887 192.899832 l
340.295445 56.090705 l
340.730561 122.662872 l
340.948119 104.888651 l
341.165677 114.722153 l
341.383235 110.33042 l
341.600793 125.749516 l
341.818351 96.53428 l
342.253467 74.307474 l
342.471025 49.96061 l
342.688583 50.085904 l
342.906141 50.851667 l
343.123699 55.112878 l
343.776373 100.526849 l
343.993931 109.308614 l
344.211489 110.569804 l
347.039743 110.579174 l
360.093222 110.579267 l
360.31078 116.400952 l
360.528338 147.972737 l
360.745896 120.311571 l
360.963454 110.987315 l
361.181012 114.218351 l
361.39857 105.518846 l
361.616128 111.052124 l
361.833686 133.077141 l
362.051244 115.938357 l
362.268802 110.447913 l
362.48636 111.159412 l
362.703918 99.391495 l
362.921476 107.005391 l
363.139034 85.916228 l
363.356592 113.778507 l
363.57415 111.005542 l
363.791708 75.826031 l
364.009266 101.439513 l
364.444382 109.936068 l
364.66194 107.276772 l
364.879498 115.17928 l
365.097056 110.76268 l
365.314614 124.642955 l
365.532172 153.242104 l
365.74973 104.413893 l
365.967288 92.800064 l
366.184846 108.242044 l
366.619962 100.354273 l
366.83752 105.400952 l
367.055078 113.312784 l
367.490194 108.420376 l
367.707752 110.56539 l
369.448216 110.579289 l
369.665774 112.47085 l
369.883332 112.014041 l
370.10089 110.259896 l
370.318448 110.576308 l
373.581818 110.579344 l
373.581818 110.579344 l
stroke
grestore
0.800 setlinewidth
0 setlinejoin
[] 0 setdash
gsave
54 36 m
54 253.44 l
stroke
grestore
gsave
388.8 36 m
388.8 253.44 l
stroke
grestore
gsave
54 36 m
388.8 36 l
stroke
grestore
gsave
54 253.44 m
388.8 253.44 l
stroke
grestore

end
showpage
