%!PS-Adobe-3.0 EPSF-3.0
%%Title: ./plots/passive/fixed_init_HESS voltage [V].eps
%%Creator: matplotlib version 2.0.0, http://matplotlib.org/
%%CreationDate: Mon May 15 21:32:14 2017
%%Orientation: portrait
%%BoundingBox: 90 252 522 540
%%EndComments
%%BeginProlog
/mpldict 8 dict def
mpldict begin
/m { moveto } bind def
/l { lineto } bind def
/r { rlineto } bind def
/c { curveto } bind def
/cl { closepath } bind def
/box {
m
1 index 0 r
0 exch r
neg 0 r
cl
} bind def
/clipbox {
box
clip
newpath
} bind def
%!PS-Adobe-3.0 Resource-Font
%%Title: DejaVu Sans
%%Copyright: Copyright (c) 2003 by Bitstream, Inc. All Rights Reserved. Copyright (c) 2006 by Tavmjong Bah. All Rights Reserved. DejaVu changes are in public domain 
%%Creator: Converted from TrueType to type 3 by PPR
25 dict begin
/_d{bind def}bind def
/_m{moveto}_d
/_l{lineto}_d
/_cl{closepath eofill}_d
/_c{curveto}_d
/_sc{7 -1 roll{setcachedevice}{pop pop pop pop pop pop}ifelse}_d
/_e{exec}_d
/FontName /DejaVuSans def
/PaintType 0 def
/FontMatrix[.001 0 0 .001 0 0]def
/FontBBox[-1021 -463 1793 1232]def
/FontType 3 def
/Encoding [ /space /zero /one /two /three /four /five /six /eight /E /H /S /T /V /bracketleft /bracketright /a /e /g /i /l /m /o /s /t /v ] def
/FontInfo 10 dict dup begin
/FamilyName (DejaVu Sans) def
/FullName (DejaVu Sans) def
/Notice (Copyright (c) 2003 by Bitstream, Inc. All Rights Reserved. Copyright (c) 2006 by Tavmjong Bah. All Rights Reserved. DejaVu changes are in public domain ) def
/Weight (Book) def
/Version (Version 2.35) def
/ItalicAngle 0.0 def
/isFixedPitch false def
/UnderlinePosition -130 def
/UnderlineThickness 90 def
end readonly def
/CharStrings 26 dict dup begin
/space{318 0 0 0 0 0 _sc
}_d
/zero{636 0 66 -13 570 742 _sc
318 664 _m
267 664 229 639 203 589 _c
177 539 165 464 165 364 _c
165 264 177 189 203 139 _c
229 89 267 64 318 64 _c
369 64 407 89 433 139 _c
458 189 471 264 471 364 _c
471 464 458 539 433 589 _c
407 639 369 664 318 664 _c
318 742 _m
399 742 461 709 505 645 _c
548 580 570 486 570 364 _c
570 241 548 147 505 83 _c
461 19 399 -13 318 -13 _c
236 -13 173 19 130 83 _c
87 147 66 241 66 364 _c
66 486 87 580 130 645 _c
173 709 236 742 318 742 _c
_cl}_d
/one{636 0 110 0 544 729 _sc
124 83 _m
285 83 _l
285 639 _l
110 604 _l
110 694 _l
284 729 _l
383 729 _l
383 83 _l
544 83 _l
544 0 _l
124 0 _l
124 83 _l
_cl}_d
/two{{636 0 73 0 536 742 _sc
192 83 _m
536 83 _l
536 0 _l
73 0 _l
73 83 _l
110 121 161 173 226 239 _c
290 304 331 346 348 365 _c
380 400 402 430 414 455 _c
426 479 433 504 433 528 _c
433 566 419 598 392 622 _c
365 646 330 659 286 659 _c
255 659 222 653 188 643 _c
154 632 117 616 78 594 _c
78 694 _l
118 710 155 722 189 730 _c
223 738 255 742 284 742 _c
}_e{359 742 419 723 464 685 _c
509 647 532 597 532 534 _c
532 504 526 475 515 449 _c
504 422 484 390 454 354 _c
446 344 420 317 376 272 _c
332 227 271 164 192 83 _c
_cl}_e}_d
/three{{636 0 76 -13 556 742 _sc
406 393 _m
453 383 490 362 516 330 _c
542 298 556 258 556 212 _c
556 140 531 84 482 45 _c
432 6 362 -13 271 -13 _c
240 -13 208 -10 176 -4 _c
144 1 110 10 76 22 _c
76 117 _l
103 101 133 89 166 81 _c
198 73 232 69 268 69 _c
330 69 377 81 409 105 _c
441 129 458 165 458 212 _c
458 254 443 288 413 312 _c
383 336 341 349 287 349 _c
}_e{202 349 _l
202 430 _l
291 430 _l
339 430 376 439 402 459 _c
428 478 441 506 441 543 _c
441 580 427 609 401 629 _c
374 649 336 659 287 659 _c
260 659 231 656 200 650 _c
169 644 135 635 98 623 _c
98 711 _l
135 721 170 729 203 734 _c
235 739 266 742 296 742 _c
370 742 429 725 473 691 _c
517 657 539 611 539 553 _c
539 513 527 479 504 451 _c
481 423 448 403 406 393 _c
_cl}_e}_d
/four{636 0 49 0 580 729 _sc
378 643 _m
129 254 _l
378 254 _l
378 643 _l
352 729 _m
476 729 _l
476 254 _l
580 254 _l
580 172 _l
476 172 _l
476 0 _l
378 0 _l
378 172 _l
49 172 _l
49 267 _l
352 729 _l
_cl}_d
/five{{636 0 77 -13 549 729 _sc
108 729 _m
495 729 _l
495 646 _l
198 646 _l
198 467 _l
212 472 227 476 241 478 _c
255 480 270 482 284 482 _c
365 482 429 459 477 415 _c
525 370 549 310 549 234 _c
549 155 524 94 475 51 _c
426 8 357 -13 269 -13 _c
238 -13 207 -10 175 -6 _c
143 -1 111 6 77 17 _c
77 116 _l
106 100 136 88 168 80 _c
199 72 232 69 267 69 _c
}_e{323 69 368 83 401 113 _c
433 143 450 183 450 234 _c
450 284 433 324 401 354 _c
368 384 323 399 267 399 _c
241 399 214 396 188 390 _c
162 384 135 375 108 363 _c
108 729 _l
_cl}_e}_d
/six{{636 0 70 -13 573 742 _sc
330 404 _m
286 404 251 388 225 358 _c
199 328 186 286 186 234 _c
186 181 199 139 225 109 _c
251 79 286 64 330 64 _c
374 64 409 79 435 109 _c
461 139 474 181 474 234 _c
474 286 461 328 435 358 _c
409 388 374 404 330 404 _c
526 713 _m
526 623 _l
501 635 476 644 451 650 _c
425 656 400 659 376 659 _c
310 659 260 637 226 593 _c
}_e{192 549 172 482 168 394 _c
187 422 211 444 240 459 _c
269 474 301 482 336 482 _c
409 482 467 459 509 415 _c
551 371 573 310 573 234 _c
573 159 550 99 506 54 _c
462 9 403 -13 330 -13 _c
246 -13 181 19 137 83 _c
92 147 70 241 70 364 _c
70 479 97 571 152 639 _c
206 707 280 742 372 742 _c
396 742 421 739 447 735 _c
472 730 498 723 526 713 _c
_cl}_e}_d
/eight{{636 0 68 -13 568 742 _sc
318 346 _m
271 346 234 333 207 308 _c
180 283 167 249 167 205 _c
167 161 180 126 207 101 _c
234 76 271 64 318 64 _c
364 64 401 76 428 102 _c
455 127 469 161 469 205 _c
469 249 455 283 429 308 _c
402 333 365 346 318 346 _c
219 388 _m
177 398 144 418 120 447 _c
96 476 85 511 85 553 _c
85 611 105 657 147 691 _c
188 725 245 742 318 742 _c
}_e{390 742 447 725 489 691 _c
530 657 551 611 551 553 _c
551 511 539 476 515 447 _c
491 418 459 398 417 388 _c
464 377 501 355 528 323 _c
554 291 568 251 568 205 _c
568 134 546 80 503 43 _c
459 5 398 -13 318 -13 _c
237 -13 175 5 132 43 _c
89 80 68 134 68 205 _c
68 251 81 291 108 323 _c
134 355 171 377 219 388 _c
183 544 _m
183 506 194 476 218 455 _c
}_e{242 434 275 424 318 424 _c
360 424 393 434 417 455 _c
441 476 453 506 453 544 _c
453 582 441 611 417 632 _c
393 653 360 664 318 664 _c
275 664 242 653 218 632 _c
194 611 183 582 183 544 _c
_cl}_e}_d
/E{632 0 98 0 568 729 _sc
98 729 _m
559 729 _l
559 646 _l
197 646 _l
197 430 _l
544 430 _l
544 347 _l
197 347 _l
197 83 _l
568 83 _l
568 0 _l
98 0 _l
98 729 _l
_cl}_d
/H{752 0 98 0 654 729 _sc
98 729 _m
197 729 _l
197 430 _l
555 430 _l
555 729 _l
654 729 _l
654 0 _l
555 0 _l
555 347 _l
197 347 _l
197 0 _l
98 0 _l
98 729 _l
_cl}_d
/S{{635 0 66 -13 579 742 _sc
535 705 _m
535 609 _l
497 627 462 640 429 649 _c
395 657 363 662 333 662 _c
279 662 237 651 208 631 _c
179 610 165 580 165 542 _c
165 510 174 485 194 469 _c
213 452 250 439 304 429 _c
364 417 _l
437 403 491 378 526 343 _c
561 307 579 260 579 201 _c
579 130 555 77 508 41 _c
460 5 391 -13 300 -13 _c
265 -13 228 -9 189 -2 _c
}_e{150 5 110 16 69 32 _c
69 134 _l
109 111 148 94 186 83 _c
224 71 262 66 300 66 _c
356 66 399 77 430 99 _c
460 121 476 152 476 194 _c
476 230 465 258 443 278 _c
421 298 385 313 335 323 _c
275 335 _l
201 349 148 372 115 404 _c
82 435 66 478 66 534 _c
66 598 88 649 134 686 _c
179 723 242 742 322 742 _c
356 742 390 739 426 733 _c
461 727 497 717 535 705 _c
}_e{_cl}_e}_d
/T{611 0 -2 0 614 729 _sc
-2 729 _m
614 729 _l
614 646 _l
355 646 _l
355 0 _l
256 0 _l
256 646 _l
-2 646 _l
-2 729 _l
_cl}_d
/V{684 0 8 0 676 729 _sc
286 0 _m
8 729 _l
111 729 _l
342 115 _l
573 729 _l
676 729 _l
398 0 _l
286 0 _l
_cl}_d
/bracketleft{390 0 86 -131 293 760 _sc
86 760 _m
293 760 _l
293 690 _l
176 690 _l
176 -61 _l
293 -61 _l
293 -131 _l
86 -131 _l
86 760 _l
_cl}_d
/bracketright{390 0 97 -131 304 760 _sc
304 760 _m
304 -131 _l
97 -131 _l
97 -61 _l
214 -61 _l
214 690 _l
97 690 _l
97 760 _l
304 760 _l
_cl}_d
/a{{613 0 60 -13 522 560 _sc
343 275 _m
270 275 220 266 192 250 _c
164 233 150 205 150 165 _c
150 133 160 107 181 89 _c
202 70 231 61 267 61 _c
317 61 357 78 387 114 _c
417 149 432 196 432 255 _c
432 275 _l
343 275 _l
522 312 _m
522 0 _l
432 0 _l
432 83 _l
411 49 385 25 355 10 _c
325 -5 287 -13 243 -13 _c
187 -13 142 2 109 33 _c
76 64 60 106 60 159 _c
}_e{60 220 80 266 122 298 _c
163 329 224 345 306 345 _c
432 345 _l
432 354 _l
432 395 418 427 391 450 _c
364 472 326 484 277 484 _c
245 484 215 480 185 472 _c
155 464 127 453 100 439 _c
100 522 _l
132 534 164 544 195 550 _c
226 556 256 560 286 560 _c
365 560 424 539 463 498 _c
502 457 522 395 522 312 _c
_cl}_e}_d
/e{{615 0 55 -13 562 560 _sc
562 296 _m
562 252 _l
149 252 _l
153 190 171 142 205 110 _c
238 78 284 62 344 62 _c
378 62 412 66 444 74 _c
476 82 509 95 541 113 _c
541 28 _l
509 14 476 3 442 -3 _c
408 -9 373 -13 339 -13 _c
251 -13 182 12 131 62 _c
80 112 55 181 55 268 _c
55 357 79 428 127 481 _c
175 533 241 560 323 560 _c
397 560 455 536 498 489 _c
}_e{540 441 562 377 562 296 _c
472 322 _m
471 371 457 410 431 440 _c
404 469 368 484 324 484 _c
274 484 234 469 204 441 _c
174 413 156 373 152 322 _c
472 322 _l
_cl}_e}_d
/g{{635 0 55 -207 544 560 _sc
454 280 _m
454 344 440 395 414 431 _c
387 467 349 485 301 485 _c
253 485 215 467 188 431 _c
161 395 148 344 148 280 _c
148 215 161 165 188 129 _c
215 93 253 75 301 75 _c
349 75 387 93 414 129 _c
440 165 454 215 454 280 _c
544 68 _m
544 -24 523 -93 482 -139 _c
440 -184 377 -207 292 -207 _c
260 -207 231 -204 203 -200 _c
175 -195 147 -188 121 -178 _c
}_e{121 -91 _l
147 -105 173 -115 199 -122 _c
225 -129 251 -133 278 -133 _c
336 -133 380 -117 410 -87 _c
439 -56 454 -10 454 52 _c
454 96 _l
435 64 411 40 382 24 _c
353 8 319 0 279 0 _c
211 0 157 25 116 76 _c
75 127 55 195 55 280 _c
55 364 75 432 116 483 _c
157 534 211 560 279 560 _c
319 560 353 552 382 536 _c
411 520 435 496 454 464 _c
454 547 _l
544 547 _l
}_e{544 68 _l
_cl}_e}_d
/i{278 0 94 0 184 760 _sc
94 547 _m
184 547 _l
184 0 _l
94 0 _l
94 547 _l
94 760 _m
184 760 _l
184 646 _l
94 646 _l
94 760 _l
_cl}_d
/l{278 0 94 0 184 760 _sc
94 760 _m
184 760 _l
184 0 _l
94 0 _l
94 760 _l
_cl}_d
/m{{974 0 91 0 889 560 _sc
520 442 _m
542 482 569 511 600 531 _c
631 550 668 560 711 560 _c
767 560 811 540 842 500 _c
873 460 889 403 889 330 _c
889 0 _l
799 0 _l
799 327 _l
799 379 789 418 771 444 _c
752 469 724 482 686 482 _c
639 482 602 466 575 435 _c
548 404 535 362 535 309 _c
535 0 _l
445 0 _l
445 327 _l
445 379 435 418 417 444 _c
398 469 369 482 331 482 _c
}_e{285 482 248 466 221 435 _c
194 404 181 362 181 309 _c
181 0 _l
91 0 _l
91 547 _l
181 547 _l
181 462 _l
201 495 226 520 255 536 _c
283 552 317 560 357 560 _c
397 560 430 550 458 530 _c
486 510 506 480 520 442 _c
_cl}_e}_d
/o{612 0 55 -13 557 560 _sc
306 484 _m
258 484 220 465 192 427 _c
164 389 150 338 150 273 _c
150 207 163 156 191 118 _c
219 80 257 62 306 62 _c
354 62 392 80 420 118 _c
448 156 462 207 462 273 _c
462 337 448 389 420 427 _c
392 465 354 484 306 484 _c
306 560 _m
384 560 445 534 490 484 _c
534 433 557 363 557 273 _c
557 183 534 113 490 63 _c
445 12 384 -13 306 -13 _c
227 -13 165 12 121 63 _c
77 113 55 183 55 273 _c
55 363 77 433 121 484 _c
165 534 227 560 306 560 _c
_cl}_d
/s{{521 0 54 -13 472 560 _sc
443 531 _m
443 446 _l
417 458 391 468 364 475 _c
336 481 308 485 279 485 _c
234 485 200 478 178 464 _c
156 450 145 430 145 403 _c
145 382 153 366 169 354 _c
185 342 217 330 265 320 _c
296 313 _l
360 299 405 279 432 255 _c
458 230 472 195 472 151 _c
472 100 452 60 412 31 _c
372 1 316 -13 246 -13 _c
216 -13 186 -10 154 -5 _c
}_e{122 0 89 8 54 20 _c
54 113 _l
87 95 120 82 152 74 _c
184 65 216 61 248 61 _c
290 61 323 68 346 82 _c
368 96 380 117 380 144 _c
380 168 371 187 355 200 _c
339 213 303 226 247 238 _c
216 245 _l
160 257 119 275 95 299 _c
70 323 58 356 58 399 _c
58 450 76 490 112 518 _c
148 546 200 560 268 560 _c
301 560 332 557 362 552 _c
391 547 418 540 443 531 _c
}_e{_cl}_e}_d
/t{392 0 27 0 368 702 _sc
183 702 _m
183 547 _l
368 547 _l
368 477 _l
183 477 _l
183 180 _l
183 135 189 106 201 94 _c
213 81 238 75 276 75 _c
368 75 _l
368 0 _l
276 0 _l
206 0 158 13 132 39 _c
106 65 93 112 93 180 _c
93 477 _l
27 477 _l
27 547 _l
93 547 _l
93 702 _l
183 702 _l
_cl}_d
/v{592 0 30 0 562 547 _sc
30 547 _m
125 547 _l
296 88 _l
467 547 _l
562 547 _l
357 0 _l
235 0 _l
30 547 _l
_cl}_d
end readonly def

/BuildGlyph
 {exch begin
 CharStrings exch
 2 copy known not{pop /.notdef}if
 true 3 1 roll get exec
 end}_d

/BuildChar {
 1 index /Encoding get exch get
 1 index /BuildGlyph get exec
}_d

FontName currentdict end definefont pop
end
%%EndProlog
mpldict begin
90 252 translate
432 288 0 0 clipbox
gsave
0 0 m
432 0 l
432 288 l
0 288 l
cl
1.000 setgray
fill
grestore
gsave
54 36 m
388.8 36 l
388.8 253.44 l
54 253.44 l
cl
1.000 setgray
fill
grestore
0.800 setlinewidth
1 setlinejoin
2 setlinecap
[] 0 setdash
0.690 setgray
gsave
334.8 217.4 54 36 clipbox
69.218182 36 m
69.218182 253.44 l
stroke
grestore
0 setlinecap
0.000 setgray
gsave
/o {
gsave
newpath
translate
0.8 setlinewidth
1 setlinejoin
0 setlinecap
0 0 m
0 -3.5 l

gsave
0.000 setgray
fill
grestore
stroke
grestore
} bind def
69.2182 36 o
grestore
/DejaVuSans findfont
10.000 scalefont
setfont
gsave
66.038494 21.406250 translate
0.000000 rotate
0.000000 0.000000 m /zero glyphshow
grestore
2 setlinecap
0.690 setgray
gsave
334.8 217.4 54 36 clipbox
112.729781 36 m
112.729781 253.44 l
stroke
grestore
0 setlinecap
0.000 setgray
gsave
/o {
gsave
newpath
translate
0.8 setlinewidth
1 setlinejoin
0 setlinecap
0 0 m
0 -3.5 l

gsave
0.000 setgray
fill
grestore
stroke
grestore
} bind def
112.73 36 o
grestore
gsave
103.190719 21.406250 translate
0.000000 rotate
0.000000 0.000000 m /two glyphshow
6.362305 0.000000 m /zero glyphshow
12.724609 0.000000 m /zero glyphshow
grestore
2 setlinecap
0.690 setgray
gsave
334.8 217.4 54 36 clipbox
156.24138 36 m
156.24138 253.44 l
stroke
grestore
0 setlinecap
0.000 setgray
gsave
/o {
gsave
newpath
translate
0.8 setlinewidth
1 setlinejoin
0 setlinecap
0 0 m
0 -3.5 l

gsave
0.000 setgray
fill
grestore
stroke
grestore
} bind def
156.241 36 o
grestore
gsave
146.702318 21.406250 translate
0.000000 rotate
0.000000 0.000000 m /four glyphshow
6.362305 0.000000 m /zero glyphshow
12.724609 0.000000 m /zero glyphshow
grestore
2 setlinecap
0.690 setgray
gsave
334.8 217.4 54 36 clipbox
199.752979 36 m
199.752979 253.44 l
stroke
grestore
0 setlinecap
0.000 setgray
gsave
/o {
gsave
newpath
translate
0.8 setlinewidth
1 setlinejoin
0 setlinecap
0 0 m
0 -3.5 l

gsave
0.000 setgray
fill
grestore
stroke
grestore
} bind def
199.753 36 o
grestore
gsave
190.213917 21.406250 translate
0.000000 rotate
0.000000 0.000000 m /six glyphshow
6.362305 0.000000 m /zero glyphshow
12.724609 0.000000 m /zero glyphshow
grestore
2 setlinecap
0.690 setgray
gsave
334.8 217.4 54 36 clipbox
243.264579 36 m
243.264579 253.44 l
stroke
grestore
0 setlinecap
0.000 setgray
gsave
/o {
gsave
newpath
translate
0.8 setlinewidth
1 setlinejoin
0 setlinecap
0 0 m
0 -3.5 l

gsave
0.000 setgray
fill
grestore
stroke
grestore
} bind def
243.265 36 o
grestore
gsave
233.725516 21.406250 translate
0.000000 rotate
0.000000 0.000000 m /eight glyphshow
6.362305 0.000000 m /zero glyphshow
12.724609 0.000000 m /zero glyphshow
grestore
2 setlinecap
0.690 setgray
gsave
334.8 217.4 54 36 clipbox
286.776178 36 m
286.776178 253.44 l
stroke
grestore
0 setlinecap
0.000 setgray
gsave
/o {
gsave
newpath
translate
0.8 setlinewidth
1 setlinejoin
0 setlinecap
0 0 m
0 -3.5 l

gsave
0.000 setgray
fill
grestore
stroke
grestore
} bind def
286.776 36 o
grestore
gsave
274.057428 21.406250 translate
0.000000 rotate
0.000000 0.000000 m /one glyphshow
6.362305 0.000000 m /zero glyphshow
12.724609 0.000000 m /zero glyphshow
19.086914 0.000000 m /zero glyphshow
grestore
2 setlinecap
0.690 setgray
gsave
334.8 217.4 54 36 clipbox
330.287777 36 m
330.287777 253.44 l
stroke
grestore
0 setlinecap
0.000 setgray
gsave
/o {
gsave
newpath
translate
0.8 setlinewidth
1 setlinejoin
0 setlinecap
0 0 m
0 -3.5 l

gsave
0.000 setgray
fill
grestore
stroke
grestore
} bind def
330.288 36 o
grestore
gsave
317.569027 21.406250 translate
0.000000 rotate
0.000000 0.000000 m /one glyphshow
6.362305 0.000000 m /two glyphshow
12.724609 0.000000 m /zero glyphshow
19.086914 0.000000 m /zero glyphshow
grestore
2 setlinecap
0.690 setgray
gsave
334.8 217.4 54 36 clipbox
373.799376 36 m
373.799376 253.44 l
stroke
grestore
0 setlinecap
0.000 setgray
gsave
/o {
gsave
newpath
translate
0.8 setlinewidth
1 setlinejoin
0 setlinecap
0 0 m
0 -3.5 l

gsave
0.000 setgray
fill
grestore
stroke
grestore
} bind def
373.799 36 o
grestore
gsave
361.080626 21.406250 translate
0.000000 rotate
0.000000 0.000000 m /one glyphshow
6.362305 0.000000 m /four glyphshow
12.724609 0.000000 m /zero glyphshow
19.086914 0.000000 m /zero glyphshow
grestore
gsave
200.892188 7.734375 translate
0.000000 rotate
0.000000 0.000000 m /T glyphshow
6.108398 0.000000 m /i glyphshow
8.886719 0.000000 m /m glyphshow
18.627930 0.000000 m /e glyphshow
24.780273 0.000000 m /space glyphshow
27.958984 0.000000 m /bracketleft glyphshow
31.860352 0.000000 m /s glyphshow
37.070312 0.000000 m /bracketright glyphshow
grestore
2 setlinecap
0.690 setgray
gsave
334.8 217.4 54 36 clipbox
54 36.885564 m
388.8 36.885564 l
stroke
grestore
0 setlinecap
0.000 setgray
gsave
/o {
gsave
newpath
translate
0.8 setlinewidth
1 setlinejoin
0 setlinecap
0 0 m
-3.5 0 l

gsave
0.000 setgray
fill
grestore
stroke
grestore
} bind def
54 36.8856 o
grestore
gsave
27.921875 33.088689 translate
0.000000 rotate
0.000000 0.000000 m /two glyphshow
6.362305 0.000000 m /zero glyphshow
12.724609 0.000000 m /zero glyphshow
grestore
2 setlinecap
0.690 setgray
gsave
334.8 217.4 54 36 clipbox
54 70.193408 m
388.8 70.193408 l
stroke
grestore
0 setlinecap
0.000 setgray
gsave
/o {
gsave
newpath
translate
0.8 setlinewidth
1 setlinejoin
0 setlinecap
0 0 m
-3.5 0 l

gsave
0.000 setgray
fill
grestore
stroke
grestore
} bind def
54 70.1934 o
grestore
gsave
27.921875 66.396533 translate
0.000000 rotate
0.000000 0.000000 m /two glyphshow
6.362305 0.000000 m /one glyphshow
12.724609 0.000000 m /zero glyphshow
grestore
2 setlinecap
0.690 setgray
gsave
334.8 217.4 54 36 clipbox
54 103.501251 m
388.8 103.501251 l
stroke
grestore
0 setlinecap
0.000 setgray
gsave
/o {
gsave
newpath
translate
0.8 setlinewidth
1 setlinejoin
0 setlinecap
0 0 m
-3.5 0 l

gsave
0.000 setgray
fill
grestore
stroke
grestore
} bind def
54 103.501 o
grestore
gsave
27.921875 99.704376 translate
0.000000 rotate
0.000000 0.000000 m /two glyphshow
6.362305 0.000000 m /two glyphshow
12.724609 0.000000 m /zero glyphshow
grestore
2 setlinecap
0.690 setgray
gsave
334.8 217.4 54 36 clipbox
54 136.809095 m
388.8 136.809095 l
stroke
grestore
0 setlinecap
0.000 setgray
gsave
/o {
gsave
newpath
translate
0.8 setlinewidth
1 setlinejoin
0 setlinecap
0 0 m
-3.5 0 l

gsave
0.000 setgray
fill
grestore
stroke
grestore
} bind def
54 136.809 o
grestore
gsave
27.921875 133.012220 translate
0.000000 rotate
0.000000 0.000000 m /two glyphshow
6.362305 0.000000 m /three glyphshow
12.724609 0.000000 m /zero glyphshow
grestore
2 setlinecap
0.690 setgray
gsave
334.8 217.4 54 36 clipbox
54 170.116938 m
388.8 170.116938 l
stroke
grestore
0 setlinecap
0.000 setgray
gsave
/o {
gsave
newpath
translate
0.8 setlinewidth
1 setlinejoin
0 setlinecap
0 0 m
-3.5 0 l

gsave
0.000 setgray
fill
grestore
stroke
grestore
} bind def
54 170.117 o
grestore
gsave
27.921875 166.320063 translate
0.000000 rotate
0.000000 0.000000 m /two glyphshow
6.362305 0.000000 m /four glyphshow
12.724609 0.000000 m /zero glyphshow
grestore
2 setlinecap
0.690 setgray
gsave
334.8 217.4 54 36 clipbox
54 203.424782 m
388.8 203.424782 l
stroke
grestore
0 setlinecap
0.000 setgray
gsave
/o {
gsave
newpath
translate
0.8 setlinewidth
1 setlinejoin
0 setlinecap
0 0 m
-3.5 0 l

gsave
0.000 setgray
fill
grestore
stroke
grestore
} bind def
54 203.425 o
grestore
gsave
27.921875 199.627907 translate
0.000000 rotate
0.000000 0.000000 m /two glyphshow
6.362305 0.000000 m /five glyphshow
12.724609 0.000000 m /zero glyphshow
grestore
2 setlinecap
0.690 setgray
gsave
334.8 217.4 54 36 clipbox
54 236.732625 m
388.8 236.732625 l
stroke
grestore
0 setlinecap
0.000 setgray
gsave
/o {
gsave
newpath
translate
0.8 setlinewidth
1 setlinejoin
0 setlinecap
0 0 m
-3.5 0 l

gsave
0.000 setgray
fill
grestore
stroke
grestore
} bind def
54 236.733 o
grestore
gsave
27.921875 232.935750 translate
0.000000 rotate
0.000000 0.000000 m /two glyphshow
6.362305 0.000000 m /six glyphshow
12.724609 0.000000 m /zero glyphshow
grestore
gsave
21.843750 102.259062 translate
90.000000 rotate
0.000000 0.000000 m /H glyphshow
7.519531 0.000000 m /E glyphshow
13.837891 0.000000 m /S glyphshow
20.185547 0.000000 m /S glyphshow
26.533203 0.000000 m /space glyphshow
29.711914 0.000000 m /v glyphshow
35.629883 0.000000 m /o glyphshow
41.748047 0.000000 m /l glyphshow
44.526367 0.000000 m /t glyphshow
48.447266 0.000000 m /a glyphshow
54.575195 0.000000 m /g glyphshow
60.922852 0.000000 m /e glyphshow
67.075195 0.000000 m /space glyphshow
70.253906 0.000000 m /bracketleft glyphshow
74.155273 0.000000 m /V glyphshow
80.996094 0.000000 m /bracketright glyphshow
grestore
1.500 setlinewidth
2 setlinecap
0.122 0.467 0.706 setrgbcolor
gsave
334.8 217.4 54 36 clipbox
69.218182 177.162027 m
69.43574 243.556364 l
70.088414 200.561408 l
70.741088 170.555889 l
71.828878 134.796208 l
72.69911 100.7339 l
72.916668 106.262734 l
73.134226 106.893687 l
73.351784 108.475226 l
73.569342 109.198292 l
73.7869 104.684542 l
74.004458 105.812015 l
74.222016 78.359977 l
74.439574 100.61977 l
74.657132 77.696594 l
74.87469 98.409855 l
75.092248 99.156653 l
75.527364 95.8179 l
75.744922 97.316231 l
75.96248 96.00335 l
76.180038 99.919981 l
76.397596 100.514897 l
76.615154 90.349096 l
76.832712 103.936242 l
77.05027 91.066393 l
77.267828 105.718329 l
77.485386 104.620358 l
77.702944 104.847639 l
77.920502 107.495553 l
78.13806 103.578163 l
78.355618 108.532575 l
78.573176 105.083179 l
79.008292 108.356304 l
79.22585 108.585445 l
79.443408 110.646299 l
79.660966 118.695101 l
79.878524 121.224588 l
80.096082 119.905767 l
80.31364 122.912204 l
81.183872 115.959703 l
81.40143 115.609205 l
81.618988 115.858022 l
81.836546 115.623107 l
82.271662 111.299303 l
82.706778 102.976365 l
82.924336 105.470701 l
83.141894 101.287563 l
83.359452 100.006263 l
83.57701 103.127974 l
83.794568 100.952352 l
84.012126 104.997919 l
84.447242 124.573594 l
84.6648 130.492024 l
85.099916 154.539402 l
85.317474 160.877362 l
85.535032 163.294414 l
85.75259 161.818465 l
85.970148 159.415018 l
86.840379 142.185463 l
87.710611 110.340668 l
87.928169 112.81968 l
88.145727 107.163376 l
88.363285 114.437437 l
88.580843 109.930186 l
88.798401 111.443762 l
89.015959 108.332477 l
89.233517 112.581618 l
89.451075 102.58246 l
89.668633 114.850181 l
89.886191 101.01613 l
90.103749 113.099364 l
90.321307 102.198449 l
90.538865 111.121577 l
90.756423 104.682743 l
90.973981 110.109738 l
91.191539 108.714448 l
91.409097 113.631048 l
91.626655 108.44032 l
91.844213 111.489181 l
92.279329 105.397127 l
92.496887 110.951493 l
92.714445 107.478512 l
92.932003 110.858711 l
93.149561 109.716707 l
93.367119 106.323897 l
93.584677 97.26903 l
93.802235 103.531735 l
94.019793 84.358994 l
94.237351 103.648883 l
94.454909 91.676776 l
94.672467 100.396637 l
94.890025 102.181752 l
95.107583 95.405308 l
95.325141 102.359436 l
95.542699 100.576071 l
95.760257 100.386435 l
95.977815 104.475468 l
96.195373 106.120457 l
96.412931 106.20896 l
96.630489 110.930244 l
96.848047 111.903328 l
97.065605 114.197784 l
97.283163 111.243959 l
97.500721 111.656921 l
97.935837 109.153707 l
98.370953 109.9945 l
98.588511 110.02353 l
98.806069 101.304783 l
99.023627 99.943669 l
99.241185 99.341016 l
99.458743 95.591248 l
99.676301 101.577561 l
100.111417 104.040961 l
100.764091 124.964382 l
101.199207 148.225806 l
101.416765 153.569946 l
101.634323 154.027213 l
103.157229 122.462131 l
103.374787 108.30739 l
103.592345 108.318803 l
103.809903 83.792433 l
104.027461 102.320376 l
104.245019 94.885534 l
104.462577 98.839641 l
104.897693 87.180195 l
105.115251 86.944903 l
105.332809 81.720933 l
105.550367 82.884378 l
105.767925 89.712809 l
105.985483 89.282604 l
106.203041 90.758517 l
106.420599 98.045039 l
106.638157 93.801968 l
106.855715 98.293127 l
107.073273 98.466624 l
107.508389 104.372152 l
107.725947 108.665732 l
107.943505 102.407948 l
108.161063 100.570413 l
108.596179 95.448113 l
108.813737 82.351442 l
109.031295 101.934582 l
109.248853 78.477736 l
109.683969 104.47548 l
109.901527 93.640698 l
110.119085 122.609971 l
110.336643 112.742438 l
110.554201 118.615612 l
110.771759 121.346238 l
110.989317 121.160355 l
111.206875 119.806835 l
111.424433 116.796631 l
111.641991 116.953861 l
112.077107 107.508244 l
112.294665 106.245377 l
112.512223 102.754952 l
112.729781 109.156958 l
112.947339 102.67062 l
113.164897 105.227961 l
113.382455 101.581872 l
113.600013 100.792244 l
113.817571 95.816813 l
114.035129 103.111504 l
114.252687 95.709967 l
114.470245 108.263778 l
114.687803 98.042387 l
114.905361 100.257182 l
115.122919 94.98303 l
115.340477 100.774066 l
115.558035 102.198109 l
115.775593 106.949393 l
115.993151 105.68002 l
116.210709 106.448224 l
116.428267 104.991357 l
116.645825 102.371596 l
116.863383 103.524728 l
117.080941 109.491073 l
117.298499 95.817781 l
117.516057 104.222679 l
117.733615 92.958128 l
117.951173 93.931036 l
118.168731 98.119691 l
118.386289 96.879584 l
118.603847 96.298664 l
118.821405 98.28582 l
119.038963 94.591564 l
119.256521 97.633131 l
119.474079 96.570075 l
119.691637 103.769702 l
119.909195 104.7468 l
120.344311 78.73005 l
120.561869 46.447378 l
120.779427 62.405727 l
120.996985 63.219457 l
121.214543 83.683159 l
121.432101 93.060777 l
121.649659 90.107658 l
121.867217 88.876181 l
122.084775 92.211594 l
122.302333 92.758163 l
122.737449 95.214736 l
122.955007 94.840392 l
123.172565 95.225875 l
123.390123 94.330168 l
123.607681 97.045625 l
123.825239 95.451593 l
124.042797 97.708194 l
124.260355 95.731102 l
124.695471 102.037509 l
124.913029 101.72625 l
125.130587 104.740108 l
125.348145 97.985785 l
125.565703 102.053599 l
125.783261 98.564281 l
126.000819 102.474946 l
126.218377 100.492067 l
126.435935 99.690038 l
126.653493 99.977365 l
126.871051 101.441569 l
127.088609 101.988901 l
127.306167 100.995643 l
127.523725 101.831293 l
127.741283 99.362838 l
127.958841 102.732625 l
128.176399 101.002612 l
128.393957 104.46189 l
128.611515 99.609029 l
128.829073 103.790449 l
129.046631 99.378427 l
129.264189 104.484137 l
129.481747 100.629919 l
129.699305 103.754353 l
129.916863 100.048096 l
130.134421 102.144295 l
130.351979 98.935512 l
130.569537 99.988905 l
130.787095 97.685394 l
131.222211 100.904059 l
131.439769 101.996172 l
131.874885 112.939626 l
132.092443 124.824676 l
132.310001 125.240397 l
132.527559 133.620066 l
132.745117 135.936495 l
132.962675 136.013273 l
133.180233 126.032758 l
133.832907 111.504116 l
134.050465 113.110391 l
134.268023 112.6756 l
134.485581 111.037872 l
134.703139 110.755666 l
134.920697 112.476565 l
135.138255 110.215743 l
135.355813 111.575821 l
135.790929 104.503056 l
136.008487 107.992205 l
136.226045 103.480156 l
136.443603 106.138246 l
136.661161 103.663094 l
136.878719 96.078381 l
137.096277 102.707028 l
137.313835 94.066587 l
137.531393 102.126682 l
137.748951 97.957825 l
137.966509 99.036294 l
138.184067 87.554576 l
138.401625 99.691705 l
138.619183 84.916597 l
138.836741 101.16661 l
139.054299 98.404892 l
139.489415 102.384756 l
139.924531 97.637807 l
140.794762 122.193304 l
141.01232 122.399746 l
141.229878 123.347457 l
141.447436 126.457036 l
141.664994 123.096944 l
141.882552 121.541718 l
142.317668 116.138352 l
142.535226 116.048225 l
142.752784 116.462817 l
143.1879 109.100425 l
143.405458 100.306869 l
143.623016 99.89792 l
143.840574 102.814008 l
144.058132 101.172254 l
144.27569 105.433258 l
144.493248 97.896527 l
144.710806 103.690257 l
144.928364 96.324039 l
145.145922 99.273769 l
145.36348 99.862864 l
145.581038 99.219333 l
146.016154 100.360299 l
146.233712 102.922149 l
146.45127 103.555668 l
146.668828 106.693462 l
146.886386 106.756126 l
147.103944 106.412343 l
147.321502 106.927811 l
147.53906 104.647132 l
147.756618 104.945919 l
148.191734 100.147702 l
148.409292 103.348476 l
148.62685 100.296414 l
148.844408 101.297949 l
149.061966 104.770045 l
149.279524 97.592381 l
149.497082 115.491934 l
149.71464 110.557374 l
149.932198 127.965712 l
150.149756 121.678039 l
150.367314 122.888838 l
150.584872 120.951455 l
151.019988 115.329474 l
151.455104 111.780142 l
151.672662 112.76359 l
151.89022 112.416542 l
152.107778 112.856802 l
152.542894 109.221071 l
152.760452 102.394008 l
152.97801 112.945518 l
153.195568 93.177148 l
153.413126 101.743481 l
153.630684 87.248475 l
153.848242 92.016656 l
154.0658 94.264435 l
154.500916 100.155746 l
154.718474 101.090195 l
154.936032 103.790267 l
155.15359 103.820713 l
155.371148 103.228819 l
156.24138 99.0054 l
156.458938 97.67573 l
156.676496 98.595234 l
156.894054 96.947475 l
157.111612 97.903905 l
157.32917 98.07673 l
157.546728 94.535872 l
157.764286 101.222726 l
157.981844 93.754811 l
158.199402 103.759429 l
158.41696 102.972761 l
158.634518 109.485359 l
158.852076 106.745655 l
159.069634 115.121478 l
159.287192 109.139646 l
159.50475 111.515349 l
159.722308 111.34094 l
159.939866 108.884016 l
160.374982 100.762031 l
160.59254 104.521037 l
160.810098 102.118515 l
161.027656 105.46637 l
161.245214 101.150737 l
161.462772 108.258844 l
161.68033 102.394628 l
161.897888 106.854025 l
162.115446 106.037891 l
162.333004 104.634204 l
162.550562 99.046969 l
162.76812 103.702953 l
162.985678 93.95791 l
163.203236 100.112071 l
163.420794 96.628347 l
163.638352 98.292189 l
164.073468 97.881804 l
164.291026 98.386209 l
164.508584 104.936612 l
164.726142 94.568637 l
164.9437 104.119216 l
165.161258 94.47347 l
165.378816 98.44779 l
165.596374 98.539857 l
165.813932 88.994118 l
166.03149 90.597449 l
166.249048 85.809898 l
166.466606 87.176007 l
166.684164 90.906798 l
166.901722 90.403487 l
167.11928 62.938562 l
167.336838 58.275849 l
167.554396 45.883636 l
167.771954 48.312072 l
167.989512 66.256544 l
168.424628 78.723595 l
168.642186 78.505508 l
169.077302 83.102901 l
169.29486 85.074088 l
170.165092 122.862737 l
170.38265 113.74439 l
170.600208 115.591671 l
171.035324 111.221389 l
171.252882 109.202852 l
171.47044 108.862623 l
171.687998 98.659294 l
171.905556 108.563535 l
172.123114 101.005288 l
172.340672 111.180845 l
172.55823 99.910973 l
172.775788 114.431487 l
172.993346 100.715229 l
173.210904 110.334276 l
173.428462 106.282992 l
173.64602 110.588751 l
173.863578 108.495323 l
174.081136 110.897295 l
174.73381 108.224265 l
174.951368 106.79565 l
175.168926 106.77532 l
175.386484 104.69913 l
175.604042 110.468842 l
175.8216 100.18391 l
176.039158 112.23158 l
176.256716 85.671111 l
176.474274 104.837527 l
176.691832 90.167284 l
176.90939 93.040194 l
177.126948 108.000058 l
177.344506 99.824197 l
177.562064 108.094581 l
177.779622 108.29154 l
177.99718 107.156571 l
178.214738 111.485429 l
178.432296 109.58155 l
178.649854 111.885123 l
178.867412 109.142017 l
179.302528 111.940989 l
180.17276 139.013011 l
180.390318 138.105832 l
180.607876 135.677342 l
181.26055 124.60687 l
181.913224 117.874362 l
182.565898 112.216645 l
183.218572 94.283791 l
183.43613 84.994176 l
183.653688 99.91367 l
183.871246 87.136437 l
184.088804 99.886007 l
184.306362 94.923659 l
184.52392 96.825392 l
184.741478 90.381134 l
184.959036 96.36789 l
185.61171 100.422038 l
185.829268 98.286818 l
186.046826 84.485021 l
186.264384 89.04862 l
186.481942 76.584901 l
186.6995 87.698505 l
186.917058 73.927355 l
187.134616 86.536093 l
187.352174 78.175001 l
187.569732 89.63903 l
187.78729 76.377294 l
188.004848 83.515097 l
188.222406 73.799594 l
188.87508 108.547712 l
189.092638 105.373224 l
189.310196 108.134527 l
189.527754 107.126984 l
189.745312 98.361029 l
189.96287 108.37011 l
190.180428 93.287929 l
190.397986 110.631737 l
190.615544 112.391049 l
190.833102 123.788361 l
191.05066 124.19854 l
191.268218 129.330273 l
192.13845 99.591009 l
192.356008 111.146421 l
192.573566 93.277486 l
192.791124 109.075457 l
193.008682 108.917795 l
193.22624 97.657513 l
193.443798 109.018197 l
193.661356 92.888376 l
193.878914 103.67366 l
194.096472 74.711723 l
194.31403 95.139742 l
194.531587 69.362891 l
194.749145 95.978613 l
194.966703 90.045342 l
195.184261 76.485654 l
195.401819 81.966863 l
195.619377 70.149548 l
195.836935 75.259269 l
196.054493 90.129049 l
196.272051 85.033737 l
196.489609 94.607469 l
196.707167 92.520448 l
197.142283 86.938717 l
197.359841 85.616295 l
197.577399 82.878462 l
197.794957 89.733803 l
198.012515 87.433609 l
198.230073 90.578159 l
198.447631 91.512135 l
198.665189 90.7285 l
198.882747 96.869393 l
199.317863 81.238426 l
199.535421 86.515854 l
199.752979 73.570373 l
199.970537 83.103316 l
200.405653 73.177712 l
200.623211 83.583594 l
200.840769 73.22964 l
201.058327 92.931584 l
201.275885 89.024454 l
201.493443 91.337164 l
201.711001 95.030357 l
201.928559 91.209336 l
202.146117 97.058101 l
202.363675 93.723328 l
202.581233 96.413682 l
202.798791 94.818439 l
203.016349 97.790311 l
203.233907 96.076812 l
203.451465 106.55483 l
203.669023 108.197278 l
203.886581 114.143356 l
204.104139 113.029314 l
204.321697 116.420072 l
204.539255 115.508978 l
204.756813 115.770701 l
204.974371 114.432128 l
205.409487 125.462842 l
205.844603 146.595893 l
206.062161 151.023115 l
206.279719 151.399709 l
206.714835 142.275279 l
207.149951 136.353139 l
207.367509 137.457293 l
207.802625 127.649134 l
208.455299 112.043971 l
208.672857 113.947331 l
208.890415 114.054601 l
209.107973 116.614279 l
209.325531 117.769113 l
209.543089 117.266707 l
209.760647 118.768646 l
209.978205 115.743673 l
210.195763 117.566824 l
210.413321 120.711758 l
210.848437 141.440452 l
211.283553 162.27027 l
211.936227 181.098501 l
212.588901 199.55215 l
212.806459 201.238843 l
213.024017 201.00567 l
213.459133 190.532059 l
214.982039 137.907979 l
215.634713 125.342785 l
215.852271 123.677485 l
216.069829 123.40208 l
216.504945 122.204292 l
216.940061 116.58348 l
217.157619 113.703356 l
217.375177 109.191329 l
217.592735 107.945128 l
217.810293 104.859204 l
218.027851 107.34508 l
218.245409 108.112435 l
218.680525 100.177245 l
218.898083 100.326994 l
219.115641 98.821554 l
219.333199 105.219292 l
219.768315 108.155575 l
219.985873 107.77632 l
220.203431 103.405861 l
220.420989 106.701114 l
220.638547 105.101256 l
220.856105 109.806316 l
221.726337 98.959541 l
222.161453 103.966553 l
222.379011 102.935955 l
223.031685 109.493314 l
223.249243 108.042621 l
223.466801 105.446988 l
223.684359 109.765372 l
223.901917 91.91369 l
224.119475 111.315879 l
224.337033 93.781967 l
224.554591 108.592052 l
224.772149 96.752713 l
224.989707 103.428129 l
225.207265 97.028336 l
225.424823 106.174751 l
225.642381 106.328424 l
225.859939 111.845033 l
226.077497 108.031203 l
226.295055 111.537309 l
226.512613 108.582961 l
226.730171 108.084811 l
226.947729 112.313011 l
227.165287 109.119891 l
227.382845 111.494688 l
227.600403 112.45267 l
227.817961 112.171217 l
228.253077 109.978021 l
228.470635 109.034397 l
228.688193 110.356831 l
228.905751 106.371583 l
229.123309 109.899495 l
229.340867 110.725963 l
229.558425 106.608012 l
229.775983 113.906926 l
229.993541 108.617448 l
230.211099 110.224723 l
230.428657 110.871721 l
230.646215 106.169981 l
230.863773 109.197432 l
231.081331 97.676558 l
231.298889 110.064834 l
231.516447 115.43844 l
231.734005 126.87834 l
231.951563 127.081707 l
232.386679 143.584561 l
232.604237 146.793382 l
232.821795 145.655793 l
233.039353 146.067888 l
233.256911 147.998415 l
233.909585 160.607249 l
234.127143 158.929178 l
234.344701 154.248361 l
234.562259 143.393434 l
234.779817 138.936829 l
234.997375 127.131277 l
235.214933 125.397106 l
235.432491 121.047917 l
235.650049 120.714076 l
235.867607 120.886721 l
236.085165 123.742416 l
236.302723 122.245707 l
236.520281 122.326451 l
236.737839 119.706897 l
236.955397 122.651815 l
237.608071 139.839041 l
237.825629 138.897009 l
238.695861 126.395578 l
239.348535 120.115806 l
240.001209 116.163219 l
240.653883 113.676481 l
241.306557 112.11209 l
241.959231 111.127705 l
242.829463 110.244299 l
243.699695 109.915951 l
243.917253 108.083831 l
244.134811 108.086038 l
244.787485 96.777638 l
245.005043 96.194224 l
245.222601 97.069618 l
245.440159 96.283031 l
245.657717 102.422863 l
245.875275 93.7406 l
246.092833 103.49081 l
246.310391 94.655713 l
246.527949 104.8487 l
246.745507 104.481236 l
246.963065 105.241718 l
247.180623 89.129506 l
247.398181 107.049203 l
247.615739 83.272602 l
247.833297 105.991123 l
248.050855 101.306799 l
248.268413 106.174289 l
248.48597 104.411061 l
248.703528 112.450482 l
248.921086 115.49398 l
249.138644 120.726245 l
249.791318 156.223214 l
250.008876 162.494125 l
250.226434 164.336768 l
250.443992 161.717604 l
251.966898 127.610652 l
252.83713 115.646423 l
253.489804 93.516904 l
253.707362 101.704745 l
253.92492 99.74723 l
254.142478 108.601539 l
254.360036 101.157145 l
254.577594 113.737552 l
254.795152 104.777848 l
255.01271 111.015605 l
255.230268 111.172301 l
255.447826 108.186108 l
255.665384 112.139461 l
255.882942 101.465851 l
256.1005 109.12919 l
256.318058 99.583097 l
256.535616 105.414275 l
256.753174 106.354812 l
257.18829 102.145852 l
257.405848 98.718274 l
257.623406 98.512551 l
257.840964 92.117417 l
258.058522 96.293385 l
258.27608 92.592344 l
258.493638 95.386327 l
258.711196 92.521777 l
258.928754 94.949252 l
259.146312 94.516899 l
259.36387 98.038851 l
259.581428 105.283163 l
259.798986 106.292839 l
260.016544 116.773741 l
260.234102 112.310883 l
260.669218 120.302383 l
261.104334 125.201073 l
261.321892 126.106581 l
261.53945 124.625407 l
261.757008 126.009615 l
262.192124 130.665037 l
262.409682 133.119155 l
262.62724 131.886174 l
263.279914 123.720221 l
263.932588 118.51796 l
264.585262 115.24744 l
265.455494 111.883445 l
265.673052 108.406478 l
265.89061 99.347771 l
266.108168 100.409948 l
266.325726 82.36836 l
266.543284 95.18016 l
266.760842 85.600214 l
266.9784 92.365919 l
267.413516 99.126109 l
267.631074 91.659417 l
267.848632 100.349694 l
268.06619 97.583715 l
268.283748 102.617791 l
268.501306 101.885079 l
268.718864 104.454311 l
268.936422 104.201236 l
269.15398 105.380318 l
269.371538 109.989522 l
269.589096 109.166208 l
269.806654 109.191259 l
270.024212 109.955022 l
270.24177 114.351681 l
270.459328 110.591945 l
270.676886 113.626073 l
270.894444 113.818912 l
271.32956 117.541386 l
271.547118 118.435467 l
271.982234 117.990416 l
272.41735 115.501528 l
272.634908 112.858927 l
273.287582 99.645157 l
273.50514 105.050077 l
273.722698 102.143815 l
273.940256 105.964002 l
274.157814 107.143638 l
274.375372 101.081295 l
274.59293 110.355202 l
274.810488 100.709831 l
275.028046 109.586706 l
275.245604 100.105052 l
275.463162 103.974558 l
275.68072 99.939697 l
276.115836 104.382309 l
276.333394 103.015789 l
276.550952 105.668853 l
276.76851 101.796267 l
276.986068 106.988009 l
277.203626 103.712404 l
277.421184 103.436543 l
277.638742 104.661801 l
277.8563 103.778436 l
278.291416 105.910131 l
278.508974 107.779945 l
278.94409 109.118068 l
279.161648 106.965712 l
279.596764 98.381173 l
279.814322 102.182666 l
280.03188 97.087045 l
280.249438 106.002669 l
280.684554 103.861526 l
280.902112 96.195883 l
281.11967 100.687588 l
281.337228 90.261107 l
281.554786 99.015591 l
281.772344 96.985506 l
281.989902 101.052221 l
282.20746 99.887898 l
282.425018 101.374785 l
282.642576 99.335846 l
283.077692 105.718865 l
283.29525 105.114012 l
283.512808 109.230594 l
283.730366 107.440957 l
283.947924 102.282846 l
284.165482 111.820278 l
284.38304 103.631376 l
284.600598 112.247228 l
284.818156 107.871187 l
285.035714 118.904585 l
285.253272 114.438712 l
285.47083 118.655308 l
285.688388 120.626265 l
285.905946 119.917507 l
286.123504 114.253987 l
286.341062 111.595006 l
286.55862 105.000032 l
286.993736 102.820305 l
287.211294 116.013308 l
287.428852 112.149477 l
287.863968 127.864506 l
288.299084 136.714752 l
288.516642 136.887019 l
288.7342 135.055428 l
289.604432 123.620811 l
290.257106 118.07184 l
290.692222 115.485476 l
291.344896 113.258866 l
291.99757 111.858886 l
292.650244 110.978068 l
293.520476 110.202273 l
294.608266 109.849004 l
296.131172 109.619867 l
297.654078 109.520619 l
297.871636 109.032358 l
298.089194 109.271185 l
298.306752 108.816373 l
298.52431 109.081487 l
299.829658 109.286204 l
301.135006 109.372811 l
301.570122 106.090274 l
301.78768 106.118467 l
302.005238 105.70403 l
302.440353 108.41838 l
302.875469 108.365451 l
303.745701 108.797141 l
304.833491 109.092371 l
306.573955 109.290664 l
306.791513 109.303072 l
307.009071 108.519348 l
307.226629 100.278152 l
307.444187 102.560275 l
307.661745 94.070247 l
308.096861 102.941635 l
308.967093 113.578599 l
309.402209 111.495319 l
309.619767 108.646001 l
309.837325 102.146499 l
310.054883 100.833484 l
310.925115 109.602484 l
311.142673 111.007706 l
311.360231 107.945342 l
311.577789 107.867034 l
312.012905 102.468345 l
312.230463 112.049538 l
312.448021 105.014322 l
312.665579 112.559783 l
312.883137 110.436022 l
313.100695 111.816079 l
313.318253 112.045554 l
313.970927 127.576489 l
314.188485 137.079457 l
314.841159 144.053219 l
315.058717 141.623381 l
315.711391 131.007259 l
316.146507 126.465041 l
316.364065 122.62714 l
316.799181 111.230637 l
317.234297 103.642592 l
317.451855 110.684292 l
317.669413 98.565522 l
317.886971 111.018849 l
318.104529 103.410947 l
318.322087 104.738994 l
318.539645 112.381771 l
318.757203 101.426807 l
318.974761 114.184275 l
319.192319 101.652429 l
319.409877 108.357197 l
319.627435 106.996425 l
320.062551 107.653292 l
320.280109 110.000345 l
320.497667 106.991445 l
320.932783 108.204772 l
321.150341 105.238168 l
321.367899 106.446213 l
321.585457 104.444397 l
321.803015 105.791633 l
322.020573 106.407094 l
322.238131 102.372096 l
322.455689 104.846706 l
322.673247 104.349667 l
322.890805 104.581144 l
323.108363 103.461326 l
323.325921 110.663899 l
323.543479 103.643737 l
323.761037 110.069636 l
324.196153 105.398153 l
324.413711 105.447293 l
324.631269 108.447632 l
324.848827 120.037112 l
325.066385 122.094384 l
325.719059 159.940786 l
325.936617 164.765056 l
326.154175 166.690509 l
326.371733 166.024257 l
326.806849 162.743407 l
327.024407 161.216601 l
327.459523 153.773055 l
327.894639 141.752765 l
328.329755 120.425647 l
328.764871 109.036046 l
328.982429 115.87804 l
329.199987 97.880685 l
329.417545 112.546677 l
329.635103 98.54736 l
329.852661 108.9787 l
330.070219 112.059068 l
330.287777 99.60277 l
330.505335 114.131352 l
330.722893 101.535401 l
330.940451 111.44685 l
331.158009 109.115211 l
331.375567 101.700554 l
331.593125 110.340425 l
331.810683 100.708521 l
332.028241 109.498552 l
332.245799 106.086488 l
332.463357 111.455963 l
332.680915 104.728499 l
332.898473 109.35143 l
333.116031 101.827309 l
333.333589 103.422398 l
333.551147 100.97688 l
333.768705 101.769122 l
333.986263 107.56887 l
334.203821 109.055979 l
334.421379 120.09237 l
334.638937 118.929288 l
335.291611 143.668359 l
335.726727 155.543404 l
335.944285 158.686637 l
336.161843 158.27985 l
336.379401 154.957379 l
337.249633 134.869285 l
338.119865 100.576341 l
338.337423 107.127721 l
338.554981 101.346595 l
338.990097 104.777846 l
339.207655 97.08215 l
339.425213 112.721367 l
339.642771 99.345509 l
339.860329 94.693365 l
340.077887 106.766355 l
340.295445 90.02363 l
340.513003 107.195415 l
340.730561 107.658794 l
340.948119 103.22948 l
341.165677 106.680181 l
341.383235 102.636999 l
341.600793 108.147611 l
341.818351 109.101824 l
342.253467 131.30822 l
342.471025 132.465746 l
343.123699 165.471611 l
343.341257 169.916727 l
343.558815 169.929068 l
343.776373 166.214699 l
345.081721 134.294462 l
345.734395 125.830574 l
346.387069 120.551634 l
347.039743 117.255213 l
347.692417 115.194565 l
348.345091 113.904878 l
348.997765 113.09642 l
349.867997 112.399481 l
350.955787 112.067774 l
352.478693 111.848006 l
355.306947 111.70797 l
359.875664 111.63074 l
360.093222 110.417863 l
360.31078 103.272609 l
360.528338 104.152524 l
360.745896 98.498441 l
360.963454 100.458673 l
361.181012 103.903283 l
361.39857 103.616725 l
361.616128 101.315281 l
361.833686 102.802977 l
362.051244 99.711996 l
362.268802 101.778688 l
362.48636 105.816267 l
362.703918 106.202048 l
362.921476 114.048336 l
363.139034 110.840354 l
363.57415 119.899118 l
363.791708 117.759387 l
364.009266 121.023728 l
364.226824 122.523662 l
364.444382 122.206223 l
364.879498 119.475307 l
365.097056 116.721129 l
365.532172 107.635244 l
365.74973 103.585295 l
366.184846 113.27397 l
366.402404 113.593512 l
366.619962 114.890858 l
366.83752 114.420964 l
367.055078 114.877901 l
369.883332 111.349095 l
370.10089 111.193498 l
370.318448 111.409813 l
371.406238 111.408652 l
373.581818 111.413409 l
373.581818 111.413409 l
stroke
grestore
0.800 setlinewidth
0 setlinejoin
[] 0 setdash
0.000 setgray
gsave
54 36 m
54 253.44 l
stroke
grestore
gsave
388.8 36 m
388.8 253.44 l
stroke
grestore
gsave
54 36 m
388.8 36 l
stroke
grestore
gsave
54 253.44 m
388.8 253.44 l
stroke
grestore

end
showpage
