%!PS-Adobe-3.0 EPSF-3.0
%%Title: ./plots/passive/fixed_init_Battery SOC [100%].eps
%%Creator: matplotlib version 2.0.0, http://matplotlib.org/
%%CreationDate: Mon May 15 21:32:14 2017
%%Orientation: portrait
%%BoundingBox: 90 252 522 540
%%EndComments
%%BeginProlog
/mpldict 8 dict def
mpldict begin
/m { moveto } bind def
/l { lineto } bind def
/r { rlineto } bind def
/c { curveto } bind def
/cl { closepath } bind def
/box {
m
1 index 0 r
0 exch r
neg 0 r
cl
} bind def
/clipbox {
box
clip
newpath
} bind def
%!PS-Adobe-3.0 Resource-Font
%%Title: DejaVu Sans
%%Copyright: Copyright (c) 2003 by Bitstream, Inc. All Rights Reserved. Copyright (c) 2006 by Tavmjong Bah. All Rights Reserved. DejaVu changes are in public domain 
%%Creator: Converted from TrueType to type 3 by PPR
25 dict begin
/_d{bind def}bind def
/_m{moveto}_d
/_l{lineto}_d
/_cl{closepath eofill}_d
/_c{curveto}_d
/_sc{7 -1 roll{setcachedevice}{pop pop pop pop pop pop}ifelse}_d
/_e{exec}_d
/FontName /DejaVuSans def
/PaintType 0 def
/FontMatrix[.001 0 0 .001 0 0]def
/FontBBox[-1021 -463 1793 1232]def
/FontType 3 def
/Encoding [ /space /percent /period /zero /one /two /four /five /six /seven /eight /B /C /O /S /T /bracketleft /bracketright /a /e /i /m /r /s /t /y ] def
/FontInfo 10 dict dup begin
/FamilyName (DejaVu Sans) def
/FullName (DejaVu Sans) def
/Notice (Copyright (c) 2003 by Bitstream, Inc. All Rights Reserved. Copyright (c) 2006 by Tavmjong Bah. All Rights Reserved. DejaVu changes are in public domain ) def
/Weight (Book) def
/Version (Version 2.35) def
/ItalicAngle 0.0 def
/isFixedPitch false def
/UnderlinePosition -130 def
/UnderlineThickness 90 def
end readonly def
/CharStrings 26 dict dup begin
/space{318 0 0 0 0 0 _sc
}_d
/percent{{950 0 55 -13 895 742 _sc
727 321 _m
699 321 676 309 660 285 _c
644 261 636 227 636 184 _c
636 142 644 108 660 84 _c
676 60 699 48 727 48 _c
755 48 777 60 793 84 _c
809 108 817 142 817 184 _c
817 226 809 260 793 284 _c
777 308 755 321 727 321 _c
727 383 _m
778 383 819 365 849 329 _c
879 293 895 244 895 184 _c
895 123 879 75 849 40 _c
819 4 778 -13 727 -13 _c
}_e{675 -13 633 4 603 40 _c
573 75 558 123 558 184 _c
558 245 573 293 603 329 _c
633 365 675 383 727 383 _c
223 680 _m
195 680 173 667 157 643 _c
141 619 133 586 133 544 _c
133 500 141 467 157 443 _c
173 419 195 407 223 407 _c
251 407 274 419 290 443 _c
306 467 314 500 314 544 _c
314 586 305 619 289 643 _c
273 667 251 680 223 680 _c
664 742 _m
742 742 _l
286 -13 _l
}_e{208 -13 _l
664 742 _l
223 742 _m
274 742 315 724 346 688 _c
376 652 392 604 392 544 _c
392 482 376 434 346 398 _c
316 362 275 345 223 345 _c
171 345 130 362 100 398 _c
70 434 55 482 55 544 _c
55 604 70 652 100 688 _c
130 724 171 742 223 742 _c
_cl}_e}_d
/period{318 0 107 0 210 124 _sc
107 124 _m
210 124 _l
210 0 _l
107 0 _l
107 124 _l
_cl}_d
/zero{636 0 66 -13 570 742 _sc
318 664 _m
267 664 229 639 203 589 _c
177 539 165 464 165 364 _c
165 264 177 189 203 139 _c
229 89 267 64 318 64 _c
369 64 407 89 433 139 _c
458 189 471 264 471 364 _c
471 464 458 539 433 589 _c
407 639 369 664 318 664 _c
318 742 _m
399 742 461 709 505 645 _c
548 580 570 486 570 364 _c
570 241 548 147 505 83 _c
461 19 399 -13 318 -13 _c
236 -13 173 19 130 83 _c
87 147 66 241 66 364 _c
66 486 87 580 130 645 _c
173 709 236 742 318 742 _c
_cl}_d
/one{636 0 110 0 544 729 _sc
124 83 _m
285 83 _l
285 639 _l
110 604 _l
110 694 _l
284 729 _l
383 729 _l
383 83 _l
544 83 _l
544 0 _l
124 0 _l
124 83 _l
_cl}_d
/two{{636 0 73 0 536 742 _sc
192 83 _m
536 83 _l
536 0 _l
73 0 _l
73 83 _l
110 121 161 173 226 239 _c
290 304 331 346 348 365 _c
380 400 402 430 414 455 _c
426 479 433 504 433 528 _c
433 566 419 598 392 622 _c
365 646 330 659 286 659 _c
255 659 222 653 188 643 _c
154 632 117 616 78 594 _c
78 694 _l
118 710 155 722 189 730 _c
223 738 255 742 284 742 _c
}_e{359 742 419 723 464 685 _c
509 647 532 597 532 534 _c
532 504 526 475 515 449 _c
504 422 484 390 454 354 _c
446 344 420 317 376 272 _c
332 227 271 164 192 83 _c
_cl}_e}_d
/four{636 0 49 0 580 729 _sc
378 643 _m
129 254 _l
378 254 _l
378 643 _l
352 729 _m
476 729 _l
476 254 _l
580 254 _l
580 172 _l
476 172 _l
476 0 _l
378 0 _l
378 172 _l
49 172 _l
49 267 _l
352 729 _l
_cl}_d
/five{{636 0 77 -13 549 729 _sc
108 729 _m
495 729 _l
495 646 _l
198 646 _l
198 467 _l
212 472 227 476 241 478 _c
255 480 270 482 284 482 _c
365 482 429 459 477 415 _c
525 370 549 310 549 234 _c
549 155 524 94 475 51 _c
426 8 357 -13 269 -13 _c
238 -13 207 -10 175 -6 _c
143 -1 111 6 77 17 _c
77 116 _l
106 100 136 88 168 80 _c
199 72 232 69 267 69 _c
}_e{323 69 368 83 401 113 _c
433 143 450 183 450 234 _c
450 284 433 324 401 354 _c
368 384 323 399 267 399 _c
241 399 214 396 188 390 _c
162 384 135 375 108 363 _c
108 729 _l
_cl}_e}_d
/six{{636 0 70 -13 573 742 _sc
330 404 _m
286 404 251 388 225 358 _c
199 328 186 286 186 234 _c
186 181 199 139 225 109 _c
251 79 286 64 330 64 _c
374 64 409 79 435 109 _c
461 139 474 181 474 234 _c
474 286 461 328 435 358 _c
409 388 374 404 330 404 _c
526 713 _m
526 623 _l
501 635 476 644 451 650 _c
425 656 400 659 376 659 _c
310 659 260 637 226 593 _c
}_e{192 549 172 482 168 394 _c
187 422 211 444 240 459 _c
269 474 301 482 336 482 _c
409 482 467 459 509 415 _c
551 371 573 310 573 234 _c
573 159 550 99 506 54 _c
462 9 403 -13 330 -13 _c
246 -13 181 19 137 83 _c
92 147 70 241 70 364 _c
70 479 97 571 152 639 _c
206 707 280 742 372 742 _c
396 742 421 739 447 735 _c
472 730 498 723 526 713 _c
_cl}_e}_d
/seven{636 0 82 0 551 729 _sc
82 729 _m
551 729 _l
551 687 _l
286 0 _l
183 0 _l
432 646 _l
82 646 _l
82 729 _l
_cl}_d
/eight{{636 0 68 -13 568 742 _sc
318 346 _m
271 346 234 333 207 308 _c
180 283 167 249 167 205 _c
167 161 180 126 207 101 _c
234 76 271 64 318 64 _c
364 64 401 76 428 102 _c
455 127 469 161 469 205 _c
469 249 455 283 429 308 _c
402 333 365 346 318 346 _c
219 388 _m
177 398 144 418 120 447 _c
96 476 85 511 85 553 _c
85 611 105 657 147 691 _c
188 725 245 742 318 742 _c
}_e{390 742 447 725 489 691 _c
530 657 551 611 551 553 _c
551 511 539 476 515 447 _c
491 418 459 398 417 388 _c
464 377 501 355 528 323 _c
554 291 568 251 568 205 _c
568 134 546 80 503 43 _c
459 5 398 -13 318 -13 _c
237 -13 175 5 132 43 _c
89 80 68 134 68 205 _c
68 251 81 291 108 323 _c
134 355 171 377 219 388 _c
183 544 _m
183 506 194 476 218 455 _c
}_e{242 434 275 424 318 424 _c
360 424 393 434 417 455 _c
441 476 453 506 453 544 _c
453 582 441 611 417 632 _c
393 653 360 664 318 664 _c
275 664 242 653 218 632 _c
194 611 183 582 183 544 _c
_cl}_e}_d
/B{{686 0 98 0 615 729 _sc
197 348 _m
197 81 _l
355 81 _l
408 81 447 92 473 114 _c
498 136 511 169 511 215 _c
511 260 498 293 473 315 _c
447 337 408 348 355 348 _c
197 348 _l
197 648 _m
197 428 _l
343 428 _l
391 428 426 437 450 455 _c
474 473 486 500 486 538 _c
486 574 474 602 450 620 _c
426 638 391 648 343 648 _c
197 648 _l
98 729 _m
350 729 _l
}_e{425 729 483 713 524 682 _c
564 650 585 606 585 549 _c
585 504 574 468 553 442 _c
532 416 502 399 462 393 _c
510 382 548 360 575 327 _c
601 294 615 253 615 204 _c
615 138 592 88 548 53 _c
504 17 441 0 360 0 _c
98 0 _l
98 729 _l
_cl}_e}_d
/C{{698 0 56 -13 644 742 _sc
644 673 _m
644 569 _l
610 599 575 622 537 638 _c
499 653 460 661 418 661 _c
334 661 270 635 226 584 _c
182 533 160 460 160 364 _c
160 268 182 194 226 143 _c
270 92 334 67 418 67 _c
460 67 499 74 537 90 _c
575 105 610 128 644 159 _c
644 56 _l
609 32 572 15 534 4 _c
496 -7 455 -13 412 -13 _c
302 -13 215 20 151 87 _c
}_e{87 154 56 246 56 364 _c
56 481 87 573 151 641 _c
215 708 302 742 412 742 _c
456 742 497 736 535 725 _c
573 713 610 696 644 673 _c
_cl}_e}_d
/O{787 0 56 -13 731 742 _sc
394 662 _m
322 662 265 635 223 582 _c
181 528 160 456 160 364 _c
160 272 181 199 223 146 _c
265 92 322 66 394 66 _c
465 66 522 92 564 146 _c
606 199 627 272 627 364 _c
627 456 606 528 564 582 _c
522 635 465 662 394 662 _c
394 742 _m
496 742 577 707 639 639 _c
700 571 731 479 731 364 _c
731 248 700 157 639 89 _c
577 21 496 -13 394 -13 _c
291 -13 209 21 148 89 _c
86 157 56 248 56 364 _c
56 479 86 571 148 639 _c
209 707 291 742 394 742 _c
_cl}_d
/S{{635 0 66 -13 579 742 _sc
535 705 _m
535 609 _l
497 627 462 640 429 649 _c
395 657 363 662 333 662 _c
279 662 237 651 208 631 _c
179 610 165 580 165 542 _c
165 510 174 485 194 469 _c
213 452 250 439 304 429 _c
364 417 _l
437 403 491 378 526 343 _c
561 307 579 260 579 201 _c
579 130 555 77 508 41 _c
460 5 391 -13 300 -13 _c
265 -13 228 -9 189 -2 _c
}_e{150 5 110 16 69 32 _c
69 134 _l
109 111 148 94 186 83 _c
224 71 262 66 300 66 _c
356 66 399 77 430 99 _c
460 121 476 152 476 194 _c
476 230 465 258 443 278 _c
421 298 385 313 335 323 _c
275 335 _l
201 349 148 372 115 404 _c
82 435 66 478 66 534 _c
66 598 88 649 134 686 _c
179 723 242 742 322 742 _c
356 742 390 739 426 733 _c
461 727 497 717 535 705 _c
}_e{_cl}_e}_d
/T{611 0 -2 0 614 729 _sc
-2 729 _m
614 729 _l
614 646 _l
355 646 _l
355 0 _l
256 0 _l
256 646 _l
-2 646 _l
-2 729 _l
_cl}_d
/bracketleft{390 0 86 -131 293 760 _sc
86 760 _m
293 760 _l
293 690 _l
176 690 _l
176 -61 _l
293 -61 _l
293 -131 _l
86 -131 _l
86 760 _l
_cl}_d
/bracketright{390 0 97 -131 304 760 _sc
304 760 _m
304 -131 _l
97 -131 _l
97 -61 _l
214 -61 _l
214 690 _l
97 690 _l
97 760 _l
304 760 _l
_cl}_d
/a{{613 0 60 -13 522 560 _sc
343 275 _m
270 275 220 266 192 250 _c
164 233 150 205 150 165 _c
150 133 160 107 181 89 _c
202 70 231 61 267 61 _c
317 61 357 78 387 114 _c
417 149 432 196 432 255 _c
432 275 _l
343 275 _l
522 312 _m
522 0 _l
432 0 _l
432 83 _l
411 49 385 25 355 10 _c
325 -5 287 -13 243 -13 _c
187 -13 142 2 109 33 _c
76 64 60 106 60 159 _c
}_e{60 220 80 266 122 298 _c
163 329 224 345 306 345 _c
432 345 _l
432 354 _l
432 395 418 427 391 450 _c
364 472 326 484 277 484 _c
245 484 215 480 185 472 _c
155 464 127 453 100 439 _c
100 522 _l
132 534 164 544 195 550 _c
226 556 256 560 286 560 _c
365 560 424 539 463 498 _c
502 457 522 395 522 312 _c
_cl}_e}_d
/e{{615 0 55 -13 562 560 _sc
562 296 _m
562 252 _l
149 252 _l
153 190 171 142 205 110 _c
238 78 284 62 344 62 _c
378 62 412 66 444 74 _c
476 82 509 95 541 113 _c
541 28 _l
509 14 476 3 442 -3 _c
408 -9 373 -13 339 -13 _c
251 -13 182 12 131 62 _c
80 112 55 181 55 268 _c
55 357 79 428 127 481 _c
175 533 241 560 323 560 _c
397 560 455 536 498 489 _c
}_e{540 441 562 377 562 296 _c
472 322 _m
471 371 457 410 431 440 _c
404 469 368 484 324 484 _c
274 484 234 469 204 441 _c
174 413 156 373 152 322 _c
472 322 _l
_cl}_e}_d
/i{278 0 94 0 184 760 _sc
94 547 _m
184 547 _l
184 0 _l
94 0 _l
94 547 _l
94 760 _m
184 760 _l
184 646 _l
94 646 _l
94 760 _l
_cl}_d
/m{{974 0 91 0 889 560 _sc
520 442 _m
542 482 569 511 600 531 _c
631 550 668 560 711 560 _c
767 560 811 540 842 500 _c
873 460 889 403 889 330 _c
889 0 _l
799 0 _l
799 327 _l
799 379 789 418 771 444 _c
752 469 724 482 686 482 _c
639 482 602 466 575 435 _c
548 404 535 362 535 309 _c
535 0 _l
445 0 _l
445 327 _l
445 379 435 418 417 444 _c
398 469 369 482 331 482 _c
}_e{285 482 248 466 221 435 _c
194 404 181 362 181 309 _c
181 0 _l
91 0 _l
91 547 _l
181 547 _l
181 462 _l
201 495 226 520 255 536 _c
283 552 317 560 357 560 _c
397 560 430 550 458 530 _c
486 510 506 480 520 442 _c
_cl}_e}_d
/r{411 0 91 0 411 560 _sc
411 463 _m
401 469 390 473 378 476 _c
366 478 353 480 339 480 _c
288 480 249 463 222 430 _c
194 397 181 350 181 288 _c
181 0 _l
91 0 _l
91 547 _l
181 547 _l
181 462 _l
199 495 224 520 254 536 _c
284 552 321 560 365 560 _c
371 560 378 559 386 559 _c
393 558 401 557 411 555 _c
411 463 _l
_cl}_d
/s{{521 0 54 -13 472 560 _sc
443 531 _m
443 446 _l
417 458 391 468 364 475 _c
336 481 308 485 279 485 _c
234 485 200 478 178 464 _c
156 450 145 430 145 403 _c
145 382 153 366 169 354 _c
185 342 217 330 265 320 _c
296 313 _l
360 299 405 279 432 255 _c
458 230 472 195 472 151 _c
472 100 452 60 412 31 _c
372 1 316 -13 246 -13 _c
216 -13 186 -10 154 -5 _c
}_e{122 0 89 8 54 20 _c
54 113 _l
87 95 120 82 152 74 _c
184 65 216 61 248 61 _c
290 61 323 68 346 82 _c
368 96 380 117 380 144 _c
380 168 371 187 355 200 _c
339 213 303 226 247 238 _c
216 245 _l
160 257 119 275 95 299 _c
70 323 58 356 58 399 _c
58 450 76 490 112 518 _c
148 546 200 560 268 560 _c
301 560 332 557 362 552 _c
391 547 418 540 443 531 _c
}_e{_cl}_e}_d
/t{392 0 27 0 368 702 _sc
183 702 _m
183 547 _l
368 547 _l
368 477 _l
183 477 _l
183 180 _l
183 135 189 106 201 94 _c
213 81 238 75 276 75 _c
368 75 _l
368 0 _l
276 0 _l
206 0 158 13 132 39 _c
106 65 93 112 93 180 _c
93 477 _l
27 477 _l
27 547 _l
93 547 _l
93 702 _l
183 702 _l
_cl}_d
/y{592 0 30 -207 562 547 _sc
322 -50 _m
296 -114 271 -157 247 -177 _c
223 -197 191 -207 151 -207 _c
79 -207 _l
79 -132 _l
132 -132 _l
156 -132 175 -126 189 -114 _c
203 -102 218 -75 235 -31 _c
251 9 _l
30 547 _l
125 547 _l
296 119 _l
467 547 _l
562 547 _l
322 -50 _l
_cl}_d
end readonly def

/BuildGlyph
 {exch begin
 CharStrings exch
 2 copy known not{pop /.notdef}if
 true 3 1 roll get exec
 end}_d

/BuildChar {
 1 index /Encoding get exch get
 1 index /BuildGlyph get exec
}_d

FontName currentdict end definefont pop
end
%%EndProlog
mpldict begin
90 252 translate
432 288 0 0 clipbox
gsave
0 0 m
432 0 l
432 288 l
0 288 l
cl
1.000 setgray
fill
grestore
gsave
54 36 m
388.8 36 l
388.8 253.44 l
54 253.44 l
cl
1.000 setgray
fill
grestore
0.800 setlinewidth
1 setlinejoin
2 setlinecap
[] 0 setdash
0.690 setgray
gsave
334.8 217.4 54 36 clipbox
69.218182 36 m
69.218182 253.44 l
stroke
grestore
0 setlinecap
0.000 setgray
gsave
/o {
gsave
newpath
translate
0.8 setlinewidth
1 setlinejoin
0 setlinecap
0 0 m
0 -3.5 l

gsave
0.000 setgray
fill
grestore
stroke
grestore
} bind def
69.2182 36 o
grestore
/DejaVuSans findfont
10.000 scalefont
setfont
gsave
66.038494 21.406250 translate
0.000000 rotate
0.000000 0.000000 m /zero glyphshow
grestore
2 setlinecap
0.690 setgray
gsave
334.8 217.4 54 36 clipbox
112.729781 36 m
112.729781 253.44 l
stroke
grestore
0 setlinecap
0.000 setgray
gsave
/o {
gsave
newpath
translate
0.8 setlinewidth
1 setlinejoin
0 setlinecap
0 0 m
0 -3.5 l

gsave
0.000 setgray
fill
grestore
stroke
grestore
} bind def
112.73 36 o
grestore
gsave
103.190719 21.406250 translate
0.000000 rotate
0.000000 0.000000 m /two glyphshow
6.362305 0.000000 m /zero glyphshow
12.724609 0.000000 m /zero glyphshow
grestore
2 setlinecap
0.690 setgray
gsave
334.8 217.4 54 36 clipbox
156.24138 36 m
156.24138 253.44 l
stroke
grestore
0 setlinecap
0.000 setgray
gsave
/o {
gsave
newpath
translate
0.8 setlinewidth
1 setlinejoin
0 setlinecap
0 0 m
0 -3.5 l

gsave
0.000 setgray
fill
grestore
stroke
grestore
} bind def
156.241 36 o
grestore
gsave
146.702318 21.406250 translate
0.000000 rotate
0.000000 0.000000 m /four glyphshow
6.362305 0.000000 m /zero glyphshow
12.724609 0.000000 m /zero glyphshow
grestore
2 setlinecap
0.690 setgray
gsave
334.8 217.4 54 36 clipbox
199.752979 36 m
199.752979 253.44 l
stroke
grestore
0 setlinecap
0.000 setgray
gsave
/o {
gsave
newpath
translate
0.8 setlinewidth
1 setlinejoin
0 setlinecap
0 0 m
0 -3.5 l

gsave
0.000 setgray
fill
grestore
stroke
grestore
} bind def
199.753 36 o
grestore
gsave
190.213917 21.406250 translate
0.000000 rotate
0.000000 0.000000 m /six glyphshow
6.362305 0.000000 m /zero glyphshow
12.724609 0.000000 m /zero glyphshow
grestore
2 setlinecap
0.690 setgray
gsave
334.8 217.4 54 36 clipbox
243.264579 36 m
243.264579 253.44 l
stroke
grestore
0 setlinecap
0.000 setgray
gsave
/o {
gsave
newpath
translate
0.8 setlinewidth
1 setlinejoin
0 setlinecap
0 0 m
0 -3.5 l

gsave
0.000 setgray
fill
grestore
stroke
grestore
} bind def
243.265 36 o
grestore
gsave
233.725516 21.406250 translate
0.000000 rotate
0.000000 0.000000 m /eight glyphshow
6.362305 0.000000 m /zero glyphshow
12.724609 0.000000 m /zero glyphshow
grestore
2 setlinecap
0.690 setgray
gsave
334.8 217.4 54 36 clipbox
286.776178 36 m
286.776178 253.44 l
stroke
grestore
0 setlinecap
0.000 setgray
gsave
/o {
gsave
newpath
translate
0.8 setlinewidth
1 setlinejoin
0 setlinecap
0 0 m
0 -3.5 l

gsave
0.000 setgray
fill
grestore
stroke
grestore
} bind def
286.776 36 o
grestore
gsave
274.057428 21.406250 translate
0.000000 rotate
0.000000 0.000000 m /one glyphshow
6.362305 0.000000 m /zero glyphshow
12.724609 0.000000 m /zero glyphshow
19.086914 0.000000 m /zero glyphshow
grestore
2 setlinecap
0.690 setgray
gsave
334.8 217.4 54 36 clipbox
330.287777 36 m
330.287777 253.44 l
stroke
grestore
0 setlinecap
0.000 setgray
gsave
/o {
gsave
newpath
translate
0.8 setlinewidth
1 setlinejoin
0 setlinecap
0 0 m
0 -3.5 l

gsave
0.000 setgray
fill
grestore
stroke
grestore
} bind def
330.288 36 o
grestore
gsave
317.569027 21.406250 translate
0.000000 rotate
0.000000 0.000000 m /one glyphshow
6.362305 0.000000 m /two glyphshow
12.724609 0.000000 m /zero glyphshow
19.086914 0.000000 m /zero glyphshow
grestore
2 setlinecap
0.690 setgray
gsave
334.8 217.4 54 36 clipbox
373.799376 36 m
373.799376 253.44 l
stroke
grestore
0 setlinecap
0.000 setgray
gsave
/o {
gsave
newpath
translate
0.8 setlinewidth
1 setlinejoin
0 setlinecap
0 0 m
0 -3.5 l

gsave
0.000 setgray
fill
grestore
stroke
grestore
} bind def
373.799 36 o
grestore
gsave
361.080626 21.406250 translate
0.000000 rotate
0.000000 0.000000 m /one glyphshow
6.362305 0.000000 m /four glyphshow
12.724609 0.000000 m /zero glyphshow
19.086914 0.000000 m /zero glyphshow
grestore
gsave
200.892188 7.734375 translate
0.000000 rotate
0.000000 0.000000 m /T glyphshow
6.108398 0.000000 m /i glyphshow
8.886719 0.000000 m /m glyphshow
18.627930 0.000000 m /e glyphshow
24.780273 0.000000 m /space glyphshow
27.958984 0.000000 m /bracketleft glyphshow
31.860352 0.000000 m /s glyphshow
37.070312 0.000000 m /bracketright glyphshow
grestore
2 setlinecap
0.690 setgray
gsave
334.8 217.4 54 36 clipbox
54 46.693017 m
388.8 46.693017 l
stroke
grestore
0 setlinecap
0.000 setgray
gsave
/o {
gsave
newpath
translate
0.8 setlinewidth
1 setlinejoin
0 setlinecap
0 0 m
-3.5 0 l

gsave
0.000 setgray
fill
grestore
stroke
grestore
} bind def
54 46.693 o
grestore
gsave
24.734375 42.896142 translate
0.000000 rotate
0.000000 0.000000 m /zero glyphshow
6.362305 0.000000 m /period glyphshow
9.541016 0.000000 m /five glyphshow
15.903320 0.000000 m /eight glyphshow
grestore
2 setlinecap
0.690 setgray
gsave
334.8 217.4 54 36 clipbox
54 71.942181 m
388.8 71.942181 l
stroke
grestore
0 setlinecap
0.000 setgray
gsave
/o {
gsave
newpath
translate
0.8 setlinewidth
1 setlinejoin
0 setlinecap
0 0 m
-3.5 0 l

gsave
0.000 setgray
fill
grestore
stroke
grestore
} bind def
54 71.9422 o
grestore
gsave
24.734375 68.145306 translate
0.000000 rotate
0.000000 0.000000 m /zero glyphshow
6.362305 0.000000 m /period glyphshow
9.541016 0.000000 m /six glyphshow
15.903320 0.000000 m /zero glyphshow
grestore
2 setlinecap
0.690 setgray
gsave
334.8 217.4 54 36 clipbox
54 97.191346 m
388.8 97.191346 l
stroke
grestore
0 setlinecap
0.000 setgray
gsave
/o {
gsave
newpath
translate
0.8 setlinewidth
1 setlinejoin
0 setlinecap
0 0 m
-3.5 0 l

gsave
0.000 setgray
fill
grestore
stroke
grestore
} bind def
54 97.1913 o
grestore
gsave
24.734375 93.394471 translate
0.000000 rotate
0.000000 0.000000 m /zero glyphshow
6.362305 0.000000 m /period glyphshow
9.541016 0.000000 m /six glyphshow
15.903320 0.000000 m /two glyphshow
grestore
2 setlinecap
0.690 setgray
gsave
334.8 217.4 54 36 clipbox
54 122.44051 m
388.8 122.44051 l
stroke
grestore
0 setlinecap
0.000 setgray
gsave
/o {
gsave
newpath
translate
0.8 setlinewidth
1 setlinejoin
0 setlinecap
0 0 m
-3.5 0 l

gsave
0.000 setgray
fill
grestore
stroke
grestore
} bind def
54 122.441 o
grestore
gsave
24.734375 118.643635 translate
0.000000 rotate
0.000000 0.000000 m /zero glyphshow
6.362305 0.000000 m /period glyphshow
9.541016 0.000000 m /six glyphshow
15.903320 0.000000 m /four glyphshow
grestore
2 setlinecap
0.690 setgray
gsave
334.8 217.4 54 36 clipbox
54 147.689674 m
388.8 147.689674 l
stroke
grestore
0 setlinecap
0.000 setgray
gsave
/o {
gsave
newpath
translate
0.8 setlinewidth
1 setlinejoin
0 setlinecap
0 0 m
-3.5 0 l

gsave
0.000 setgray
fill
grestore
stroke
grestore
} bind def
54 147.69 o
grestore
gsave
24.734375 143.892799 translate
0.000000 rotate
0.000000 0.000000 m /zero glyphshow
6.362305 0.000000 m /period glyphshow
9.541016 0.000000 m /six glyphshow
15.903320 0.000000 m /six glyphshow
grestore
2 setlinecap
0.690 setgray
gsave
334.8 217.4 54 36 clipbox
54 172.938839 m
388.8 172.938839 l
stroke
grestore
0 setlinecap
0.000 setgray
gsave
/o {
gsave
newpath
translate
0.8 setlinewidth
1 setlinejoin
0 setlinecap
0 0 m
-3.5 0 l

gsave
0.000 setgray
fill
grestore
stroke
grestore
} bind def
54 172.939 o
grestore
gsave
24.734375 169.141964 translate
0.000000 rotate
0.000000 0.000000 m /zero glyphshow
6.362305 0.000000 m /period glyphshow
9.541016 0.000000 m /six glyphshow
15.903320 0.000000 m /eight glyphshow
grestore
2 setlinecap
0.690 setgray
gsave
334.8 217.4 54 36 clipbox
54 198.188003 m
388.8 198.188003 l
stroke
grestore
0 setlinecap
0.000 setgray
gsave
/o {
gsave
newpath
translate
0.8 setlinewidth
1 setlinejoin
0 setlinecap
0 0 m
-3.5 0 l

gsave
0.000 setgray
fill
grestore
stroke
grestore
} bind def
54 198.188 o
grestore
gsave
24.734375 194.391128 translate
0.000000 rotate
0.000000 0.000000 m /zero glyphshow
6.362305 0.000000 m /period glyphshow
9.541016 0.000000 m /seven glyphshow
15.903320 0.000000 m /zero glyphshow
grestore
2 setlinecap
0.690 setgray
gsave
334.8 217.4 54 36 clipbox
54 223.437167 m
388.8 223.437167 l
stroke
grestore
0 setlinecap
0.000 setgray
gsave
/o {
gsave
newpath
translate
0.8 setlinewidth
1 setlinejoin
0 setlinecap
0 0 m
-3.5 0 l

gsave
0.000 setgray
fill
grestore
stroke
grestore
} bind def
54 223.437 o
grestore
gsave
24.734375 219.640292 translate
0.000000 rotate
0.000000 0.000000 m /zero glyphshow
6.362305 0.000000 m /period glyphshow
9.541016 0.000000 m /seven glyphshow
15.903320 0.000000 m /two glyphshow
grestore
2 setlinecap
0.690 setgray
gsave
334.8 217.4 54 36 clipbox
54 248.686332 m
388.8 248.686332 l
stroke
grestore
0 setlinecap
0.000 setgray
gsave
/o {
gsave
newpath
translate
0.8 setlinewidth
1 setlinejoin
0 setlinecap
0 0 m
-3.5 0 l

gsave
0.000 setgray
fill
grestore
stroke
grestore
} bind def
54 248.686 o
grestore
gsave
24.734375 244.889457 translate
0.000000 rotate
0.000000 0.000000 m /zero glyphshow
6.362305 0.000000 m /period glyphshow
9.541016 0.000000 m /seven glyphshow
15.903320 0.000000 m /four glyphshow
grestore
gsave
18.656250 94.227812 translate
90.000000 rotate
0.000000 0.000000 m /B glyphshow
6.860352 0.000000 m /a glyphshow
12.988281 0.000000 m /t glyphshow
16.909180 0.000000 m /t glyphshow
20.830078 0.000000 m /e glyphshow
26.982422 0.000000 m /r glyphshow
31.093750 0.000000 m /y glyphshow
37.011719 0.000000 m /space glyphshow
40.190430 0.000000 m /S glyphshow
46.538086 0.000000 m /O glyphshow
54.409180 0.000000 m /C glyphshow
61.391602 0.000000 m /space glyphshow
64.570312 0.000000 m /bracketleft glyphshow
68.471680 0.000000 m /one glyphshow
74.833984 0.000000 m /zero glyphshow
81.196289 0.000000 m /zero glyphshow
87.558594 0.000000 m /percent glyphshow
97.060547 0.000000 m /bracketright glyphshow
grestore
1.500 setlinewidth
2 setlinecap
0.122 0.467 0.706 setrgbcolor
gsave
334.8 217.4 54 36 clipbox
69.218182 199.698495 m
70.741088 228.973251 l
71.393762 235.438235 l
71.828878 238.11729 l
72.046436 238.881033 l
72.263994 239.212431 l
72.481552 239.188505 l
73.351784 237.812102 l
73.7869 237.318944 l
74.004458 236.953678 l
75.527364 230.617583 l
77.267828 225.028855 l
78.573176 223.140271 l
79.008292 222.606286 l
79.443408 222.284392 l
79.660966 222.380062 l
81.183872 224.688946 l
82.054104 225.193184 l
82.271662 225.180913 l
82.48922 225.018994 l
83.141894 223.860613 l
84.012126 221.894211 l
84.229684 221.847089 l
84.447242 222.24589 l
84.6648 222.927506 l
85.099916 225.753208 l
86.840379 241.29499 l
87.275495 243.169403 l
87.493053 243.527927 l
87.710611 243.556364 l
88.798401 242.976811 l
89.668633 242.17719 l
91.409097 240.237134 l
92.061771 239.823129 l
92.714445 239.111555 l
93.367119 238.536285 l
93.802235 237.426146 l
94.672467 234.192413 l
96.412931 230.123617 l
96.848047 229.854711 l
97.500721 229.781799 l
97.935837 229.53827 l
98.806069 228.777815 l
100.328975 225.146119 l
100.546533 225.357254 l
100.764091 225.871274 l
100.981649 226.737938 l
101.416765 229.860244 l
102.069439 235.011679 l
102.722113 238.297113 l
103.157229 239.514809 l
103.374787 239.604041 l
103.592345 239.372882 l
104.897693 234.337565 l
106.420599 226.305044 l
107.290831 223.537967 l
107.725947 222.805044 l
108.161063 221.979192 l
108.596179 220.636178 l
109.466411 216.45164 l
109.901527 215.270204 l
110.119085 215.083063 l
110.771759 215.844524 l
111.424433 216.906094 l
111.859549 217.196723 l
112.294665 216.815079 l
113.600013 214.596811 l
114.470245 212.340708 l
114.905361 211.343484 l
115.558035 209.560613 l
117.516057 206.431981 l
117.951173 204.989672 l
119.474079 200.212101 l
120.126753 198.684347 l
120.344311 197.409344 l
121.214543 188.607945 l
122.302333 183.886437 l
123.607681 179.423969 l
124.695471 176.3842 l
126.218377 173.307548 l
127.741283 170.120035 l
129.046631 167.676178 l
130.569537 164.702834 l
131.439769 162.727964 l
131.657327 162.456935 l
131.874885 162.434139 l
132.092443 162.806542 l
132.527559 164.307328 l
133.180233 167.465202 l
133.615349 168.433632 l
134.050465 168.663771 l
134.485581 168.808274 l
135.573371 168.849635 l
136.443603 167.951324 l
136.661161 167.68478 l
137.966509 164.500887 l
139.054299 160.814741 l
140.142089 158.50483 l
140.359647 158.3451 l
140.577204 158.44997 l
141.01232 159.347942 l
142.317668 162.426714 l
142.970342 163.089437 l
143.1879 163.085665 l
143.405458 162.81513 l
144.058132 161.522198 l
144.710806 160.337638 l
146.45127 156.574504 l
147.103944 155.977846 l
147.756618 155.329611 l
148.191734 154.618507 l
149.497082 152.458578 l
149.71464 152.574003 l
149.932198 152.970957 l
150.584872 154.667482 l
151.019988 155.329647 l
151.455104 155.58427 l
152.542894 155.884519 l
153.195568 155.204318 l
153.630684 153.890552 l
154.283358 151.517488 l
154.936032 150.200241 l
155.806264 148.849796 l
156.676496 146.821595 l
158.41696 142.519056 l
158.852076 142.240326 l
159.939866 142.402115 l
160.157424 142.228917 l
161.245214 140.617043 l
162.76812 138.7346 l
165.596374 131.970325 l
166.03149 130.332627 l
167.11928 125.011054 l
168.642186 110.380523 l
169.29486 106.701241 l
169.729976 105.326444 l
169.947534 105.225962 l
170.817766 106.35824 l
171.252882 106.49524 l
171.47044 106.471669 l
172.340672 105.584964 l
172.775788 105.302137 l
173.863578 104.933827 l
174.951368 104.887028 l
176.039158 104.177357 l
176.691832 102.544557 l
177.126948 101.354805 l
177.562064 100.865056 l
178.214738 100.726742 l
179.302528 100.964291 l
179.520086 101.229719 l
179.955202 102.778291 l
181.042992 108.437246 l
181.695666 110.289358 l
182.130782 111.038653 l
182.565898 111.467824 l
182.783456 111.458632 l
183.001014 111.228862 l
183.218572 110.723449 l
183.871246 108.35511 l
184.959036 105.063842 l
186.046826 102.309017 l
186.6995 98.91178 l
188.657522 88.048957 l
188.87508 87.728054 l
189.527754 87.452921 l
190.397986 86.22611 l
190.615544 86.329267 l
190.833102 86.72231 l
191.703334 89.320374 l
191.920892 89.490632 l
192.573566 88.806955 l
192.791124 88.452242 l
193.008682 88.442668 l
193.661356 87.559171 l
193.878914 87.078053 l
194.31403 85.128494 l
196.489609 73.643034 l
196.924725 72.173309 l
198.882747 64.242153 l
199.317863 62.574942 l
200.188095 57.670539 l
201.058327 52.460421 l
202.146117 48.938703 l
203.233907 46.217488 l
203.451465 45.916287 l
203.669023 45.883636 l
204.104139 46.261298 l
204.974371 47.540037 l
205.191929 47.915149 l
205.409487 48.533598 l
205.844603 51.064395 l
206.932393 59.560004 l
207.802625 64.258401 l
208.237741 65.363296 l
209.107973 66.271105 l
210.413321 68.612683 l
210.630879 69.321543 l
211.065995 72.186129 l
211.718669 79.639621 l
212.371343 89.629968 l
213.894249 115.744388 l
214.546923 122.696531 l
215.199597 126.955713 l
215.852271 129.285869 l
216.722503 131.520536 l
217.157619 132.113524 l
217.375177 132.175466 l
217.810293 131.944138 l
218.680525 131.130285 l
219.333199 129.863959 l
219.768315 129.569147 l
220.203431 129.279297 l
220.856105 128.759399 l
221.073663 128.683311 l
221.508779 128.082668 l
222.379011 126.576941 l
222.814127 126.11995 l
223.684359 125.732464 l
225.424823 122.669364 l
225.859939 122.471748 l
227.600403 122.574156 l
228.035519 122.752342 l
228.688193 122.747673 l
229.558425 122.567011 l
230.646215 122.594168 l
230.863773 122.496102 l
231.298889 121.940521 l
231.516447 122.069136 l
231.951563 123.336507 l
232.386679 125.719563 l
233.474469 133.987295 l
234.779817 145.636803 l
235.214933 147.376072 l
236.520281 150.538861 l
237.172955 152.194032 l
237.608071 154.367953 l
238.260745 157.928743 l
238.913419 160.281164 l
239.566093 161.703525 l
240.218767 162.536591 l
240.871441 162.99873 l
241.741673 163.268038 l
242.829463 163.29716 l
243.917253 163.110411 l
244.352369 162.790962 l
244.787485 161.959565 l
246.092833 158.431827 l
246.745507 157.154352 l
246.963065 156.896678 l
248.050855 154.006406 l
248.48597 153.466342 l
248.703528 153.373457 l
248.921086 153.530925 l
249.138644 153.875196 l
249.356202 154.612569 l
249.791318 157.729796 l
251.096666 170.478207 l
251.74934 174.054787 l
252.402014 176.177646 l
252.83713 176.97633 l
253.054688 177.030708 l
253.272246 176.718834 l
253.92492 174.991966 l
254.577594 174.25397 l
255.882942 173.778514 l
256.970732 172.37123 l
257.405848 171.553527 l
257.840964 170.29222 l
259.36387 165.111301 l
259.798986 164.477258 l
260.016544 164.514866 l
260.45166 164.8572 l
260.886776 165.695416 l
261.757008 168.296338 l
262.409682 170.884485 l
263.062356 173.504718 l
263.71503 175.133099 l
264.367704 176.094213 l
265.020378 176.635308 l
265.455494 176.815956 l
265.673052 176.779622 l
266.108168 175.95409 l
267.631074 170.034431 l
268.283748 168.338169 l
268.936422 167.313412 l
269.371538 166.903197 l
270.24177 166.789347 l
270.894444 167.064359 l
271.32956 167.521757 l
272.41735 169.060605 l
272.634908 169.214604 l
272.852466 169.217407 l
273.070024 169.051485 l
273.940256 167.662202 l
274.375372 167.169161 l
275.245604 166.182025 l
276.550952 163.993419 l
278.073858 161.948549 l
278.508974 161.536618 l
279.161648 161.224629 l
279.379206 160.960915 l
280.466996 158.896918 l
280.684554 158.618485 l
281.11967 157.591608 l
281.989902 155.101549 l
283.077692 153.070849 l
283.512808 152.693125 l
283.730366 152.596712 l
284.165482 152.189503 l
284.818156 151.934365 l
285.035714 152.066685 l
285.688388 153.035901 l
286.123504 153.77638 l
286.341062 153.886365 l
286.55862 153.787241 l
287.211294 153.154926 l
287.64641 153.612076 l
288.081526 155.171137 l
289.386874 161.302979 l
290.039548 162.937508 l
290.692222 163.854425 l
291.344896 164.344604 l
291.99757 164.590949 l
292.867802 164.691557 l
294.17315 164.572138 l
296.566288 164.088841 l
298.741868 163.471248 l
301.570122 162.521973 l
302.440353 161.770674 l
304.398375 160.958747 l
307.009071 160.165034 l
307.444187 159.467385 l
308.096861 157.839602 l
308.531977 157.438905 l
308.967093 157.506599 l
309.402209 157.683402 l
309.619767 157.660934 l
309.837325 157.427067 l
310.489999 156.321486 l
310.925115 156.026817 l
311.360231 155.968497 l
311.795347 155.676189 l
312.230463 155.233214 l
312.665579 155.065065 l
313.318253 155.200693 l
313.535811 155.377228 l
313.970927 156.508067 l
314.406043 158.749494 l
315.711391 166.51009 l
316.364065 168.769345 l
316.581623 169.135309 l
316.799181 169.24215 l
317.016739 169.146762 l
317.886971 168.16262 l
318.104529 168.000939 l
318.322087 167.696912 l
318.974761 167.287409 l
319.192319 167.158549 l
319.627435 166.75806 l
320.280109 166.366562 l
320.932783 165.984661 l
321.585457 165.341582 l
323.761037 162.911583 l
324.196153 162.642821 l
324.631269 162.236882 l
324.848827 162.399193 l
325.066385 162.870609 l
325.283943 163.699659 l
325.719059 167.140832 l
327.677081 187.763312 l
328.112197 190.464861 l
328.329755 191.116081 l
328.547313 191.395283 l
328.982429 191.469565 l
329.635103 190.734896 l
329.852661 190.393512 l
330.070219 190.361729 l
330.722893 189.762674 l
330.940451 189.547205 l
331.158009 189.505371 l
332.245799 188.312387 l
332.898473 187.873272 l
333.333589 187.228178 l
333.986263 186.076547 l
334.203821 185.947861 l
334.421379 186.105546 l
334.856495 187.068577 l
335.291611 189.307414 l
335.944285 194.96103 l
336.814517 202.72454 l
337.249633 205.29152 l
337.684749 206.574192 l
337.902307 206.650261 l
338.772539 205.198416 l
339.642771 203.786005 l
340.513003 201.417563 l
340.948119 200.95047 l
341.818351 199.927155 l
342.035909 200.045141 l
342.471025 201.609128 l
342.906141 204.686382 l
344.646605 222.382245 l
345.299279 225.632658 l
345.951953 227.595969 l
346.604627 228.75873 l
347.257301 229.422722 l
347.909975 229.775637 l
348.780207 229.957711 l
349.867997 229.922507 l
351.826019 229.585632 l
356.394737 228.4983 l
360.093222 227.544474 l
360.528338 226.859155 l
362.48636 222.43834 l
362.921476 222.028316 l
363.356592 222.060774 l
364.009266 222.899807 l
364.879498 224.501358 l
365.097056 224.748292 l
365.314614 224.802196 l
365.532172 224.649246 l
365.967288 224.023298 l
366.184846 223.939944 l
366.83752 224.139257 l
367.92531 224.519613 l
368.795542 224.60633 l
369.665774 224.511422 l
373.581818 223.485216 l
373.581818 223.485216 l
stroke
grestore
0.800 setlinewidth
0 setlinejoin
[] 0 setdash
0.000 setgray
gsave
54 36 m
54 253.44 l
stroke
grestore
gsave
388.8 36 m
388.8 253.44 l
stroke
grestore
gsave
54 36 m
388.8 36 l
stroke
grestore
gsave
54 253.44 m
388.8 253.44 l
stroke
grestore

end
showpage
