%!PS-Adobe-3.0 EPSF-3.0
%%Title: ./plots/passive/fixed_init_Ultracapacitor SOC [100%].eps
%%Creator: matplotlib version 2.0.0, http://matplotlib.org/
%%CreationDate: Mon May 15 21:32:13 2017
%%Orientation: portrait
%%BoundingBox: 90 252 522 540
%%EndComments
%%BeginProlog
/mpldict 8 dict def
mpldict begin
/m { moveto } bind def
/l { lineto } bind def
/r { rlineto } bind def
/c { curveto } bind def
/cl { closepath } bind def
/box {
m
1 index 0 r
0 exch r
neg 0 r
cl
} bind def
/clipbox {
box
clip
newpath
} bind def
%!PS-Adobe-3.0 Resource-Font
%%Title: DejaVu Sans
%%Copyright: Copyright (c) 2003 by Bitstream, Inc. All Rights Reserved. Copyright (c) 2006 by Tavmjong Bah. All Rights Reserved. DejaVu changes are in public domain 
%%Creator: Converted from TrueType to type 3 by PPR
25 dict begin
/_d{bind def}bind def
/_m{moveto}_d
/_l{lineto}_d
/_cl{closepath eofill}_d
/_c{curveto}_d
/_sc{7 -1 roll{setcachedevice}{pop pop pop pop pop pop}ifelse}_d
/_e{exec}_d
/FontName /DejaVuSans def
/PaintType 0 def
/FontMatrix[.001 0 0 .001 0 0]def
/FontBBox[-1021 -463 1793 1232]def
/FontType 3 def
/Encoding [ /space /percent /period /zero /one /two /four /five /six /seven /eight /C /O /S /T /U /bracketleft /bracketright /a /c /e /i /l /m /o /p /r /s /t ] def
/FontInfo 10 dict dup begin
/FamilyName (DejaVu Sans) def
/FullName (DejaVu Sans) def
/Notice (Copyright (c) 2003 by Bitstream, Inc. All Rights Reserved. Copyright (c) 2006 by Tavmjong Bah. All Rights Reserved. DejaVu changes are in public domain ) def
/Weight (Book) def
/Version (Version 2.35) def
/ItalicAngle 0.0 def
/isFixedPitch false def
/UnderlinePosition -130 def
/UnderlineThickness 90 def
end readonly def
/CharStrings 29 dict dup begin
/space{318 0 0 0 0 0 _sc
}_d
/percent{{950 0 55 -13 895 742 _sc
727 321 _m
699 321 676 309 660 285 _c
644 261 636 227 636 184 _c
636 142 644 108 660 84 _c
676 60 699 48 727 48 _c
755 48 777 60 793 84 _c
809 108 817 142 817 184 _c
817 226 809 260 793 284 _c
777 308 755 321 727 321 _c
727 383 _m
778 383 819 365 849 329 _c
879 293 895 244 895 184 _c
895 123 879 75 849 40 _c
819 4 778 -13 727 -13 _c
}_e{675 -13 633 4 603 40 _c
573 75 558 123 558 184 _c
558 245 573 293 603 329 _c
633 365 675 383 727 383 _c
223 680 _m
195 680 173 667 157 643 _c
141 619 133 586 133 544 _c
133 500 141 467 157 443 _c
173 419 195 407 223 407 _c
251 407 274 419 290 443 _c
306 467 314 500 314 544 _c
314 586 305 619 289 643 _c
273 667 251 680 223 680 _c
664 742 _m
742 742 _l
286 -13 _l
}_e{208 -13 _l
664 742 _l
223 742 _m
274 742 315 724 346 688 _c
376 652 392 604 392 544 _c
392 482 376 434 346 398 _c
316 362 275 345 223 345 _c
171 345 130 362 100 398 _c
70 434 55 482 55 544 _c
55 604 70 652 100 688 _c
130 724 171 742 223 742 _c
_cl}_e}_d
/period{318 0 107 0 210 124 _sc
107 124 _m
210 124 _l
210 0 _l
107 0 _l
107 124 _l
_cl}_d
/zero{636 0 66 -13 570 742 _sc
318 664 _m
267 664 229 639 203 589 _c
177 539 165 464 165 364 _c
165 264 177 189 203 139 _c
229 89 267 64 318 64 _c
369 64 407 89 433 139 _c
458 189 471 264 471 364 _c
471 464 458 539 433 589 _c
407 639 369 664 318 664 _c
318 742 _m
399 742 461 709 505 645 _c
548 580 570 486 570 364 _c
570 241 548 147 505 83 _c
461 19 399 -13 318 -13 _c
236 -13 173 19 130 83 _c
87 147 66 241 66 364 _c
66 486 87 580 130 645 _c
173 709 236 742 318 742 _c
_cl}_d
/one{636 0 110 0 544 729 _sc
124 83 _m
285 83 _l
285 639 _l
110 604 _l
110 694 _l
284 729 _l
383 729 _l
383 83 _l
544 83 _l
544 0 _l
124 0 _l
124 83 _l
_cl}_d
/two{{636 0 73 0 536 742 _sc
192 83 _m
536 83 _l
536 0 _l
73 0 _l
73 83 _l
110 121 161 173 226 239 _c
290 304 331 346 348 365 _c
380 400 402 430 414 455 _c
426 479 433 504 433 528 _c
433 566 419 598 392 622 _c
365 646 330 659 286 659 _c
255 659 222 653 188 643 _c
154 632 117 616 78 594 _c
78 694 _l
118 710 155 722 189 730 _c
223 738 255 742 284 742 _c
}_e{359 742 419 723 464 685 _c
509 647 532 597 532 534 _c
532 504 526 475 515 449 _c
504 422 484 390 454 354 _c
446 344 420 317 376 272 _c
332 227 271 164 192 83 _c
_cl}_e}_d
/four{636 0 49 0 580 729 _sc
378 643 _m
129 254 _l
378 254 _l
378 643 _l
352 729 _m
476 729 _l
476 254 _l
580 254 _l
580 172 _l
476 172 _l
476 0 _l
378 0 _l
378 172 _l
49 172 _l
49 267 _l
352 729 _l
_cl}_d
/five{{636 0 77 -13 549 729 _sc
108 729 _m
495 729 _l
495 646 _l
198 646 _l
198 467 _l
212 472 227 476 241 478 _c
255 480 270 482 284 482 _c
365 482 429 459 477 415 _c
525 370 549 310 549 234 _c
549 155 524 94 475 51 _c
426 8 357 -13 269 -13 _c
238 -13 207 -10 175 -6 _c
143 -1 111 6 77 17 _c
77 116 _l
106 100 136 88 168 80 _c
199 72 232 69 267 69 _c
}_e{323 69 368 83 401 113 _c
433 143 450 183 450 234 _c
450 284 433 324 401 354 _c
368 384 323 399 267 399 _c
241 399 214 396 188 390 _c
162 384 135 375 108 363 _c
108 729 _l
_cl}_e}_d
/six{{636 0 70 -13 573 742 _sc
330 404 _m
286 404 251 388 225 358 _c
199 328 186 286 186 234 _c
186 181 199 139 225 109 _c
251 79 286 64 330 64 _c
374 64 409 79 435 109 _c
461 139 474 181 474 234 _c
474 286 461 328 435 358 _c
409 388 374 404 330 404 _c
526 713 _m
526 623 _l
501 635 476 644 451 650 _c
425 656 400 659 376 659 _c
310 659 260 637 226 593 _c
}_e{192 549 172 482 168 394 _c
187 422 211 444 240 459 _c
269 474 301 482 336 482 _c
409 482 467 459 509 415 _c
551 371 573 310 573 234 _c
573 159 550 99 506 54 _c
462 9 403 -13 330 -13 _c
246 -13 181 19 137 83 _c
92 147 70 241 70 364 _c
70 479 97 571 152 639 _c
206 707 280 742 372 742 _c
396 742 421 739 447 735 _c
472 730 498 723 526 713 _c
_cl}_e}_d
/seven{636 0 82 0 551 729 _sc
82 729 _m
551 729 _l
551 687 _l
286 0 _l
183 0 _l
432 646 _l
82 646 _l
82 729 _l
_cl}_d
/eight{{636 0 68 -13 568 742 _sc
318 346 _m
271 346 234 333 207 308 _c
180 283 167 249 167 205 _c
167 161 180 126 207 101 _c
234 76 271 64 318 64 _c
364 64 401 76 428 102 _c
455 127 469 161 469 205 _c
469 249 455 283 429 308 _c
402 333 365 346 318 346 _c
219 388 _m
177 398 144 418 120 447 _c
96 476 85 511 85 553 _c
85 611 105 657 147 691 _c
188 725 245 742 318 742 _c
}_e{390 742 447 725 489 691 _c
530 657 551 611 551 553 _c
551 511 539 476 515 447 _c
491 418 459 398 417 388 _c
464 377 501 355 528 323 _c
554 291 568 251 568 205 _c
568 134 546 80 503 43 _c
459 5 398 -13 318 -13 _c
237 -13 175 5 132 43 _c
89 80 68 134 68 205 _c
68 251 81 291 108 323 _c
134 355 171 377 219 388 _c
183 544 _m
183 506 194 476 218 455 _c
}_e{242 434 275 424 318 424 _c
360 424 393 434 417 455 _c
441 476 453 506 453 544 _c
453 582 441 611 417 632 _c
393 653 360 664 318 664 _c
275 664 242 653 218 632 _c
194 611 183 582 183 544 _c
_cl}_e}_d
/C{{698 0 56 -13 644 742 _sc
644 673 _m
644 569 _l
610 599 575 622 537 638 _c
499 653 460 661 418 661 _c
334 661 270 635 226 584 _c
182 533 160 460 160 364 _c
160 268 182 194 226 143 _c
270 92 334 67 418 67 _c
460 67 499 74 537 90 _c
575 105 610 128 644 159 _c
644 56 _l
609 32 572 15 534 4 _c
496 -7 455 -13 412 -13 _c
302 -13 215 20 151 87 _c
}_e{87 154 56 246 56 364 _c
56 481 87 573 151 641 _c
215 708 302 742 412 742 _c
456 742 497 736 535 725 _c
573 713 610 696 644 673 _c
_cl}_e}_d
/O{787 0 56 -13 731 742 _sc
394 662 _m
322 662 265 635 223 582 _c
181 528 160 456 160 364 _c
160 272 181 199 223 146 _c
265 92 322 66 394 66 _c
465 66 522 92 564 146 _c
606 199 627 272 627 364 _c
627 456 606 528 564 582 _c
522 635 465 662 394 662 _c
394 742 _m
496 742 577 707 639 639 _c
700 571 731 479 731 364 _c
731 248 700 157 639 89 _c
577 21 496 -13 394 -13 _c
291 -13 209 21 148 89 _c
86 157 56 248 56 364 _c
56 479 86 571 148 639 _c
209 707 291 742 394 742 _c
_cl}_d
/S{{635 0 66 -13 579 742 _sc
535 705 _m
535 609 _l
497 627 462 640 429 649 _c
395 657 363 662 333 662 _c
279 662 237 651 208 631 _c
179 610 165 580 165 542 _c
165 510 174 485 194 469 _c
213 452 250 439 304 429 _c
364 417 _l
437 403 491 378 526 343 _c
561 307 579 260 579 201 _c
579 130 555 77 508 41 _c
460 5 391 -13 300 -13 _c
265 -13 228 -9 189 -2 _c
}_e{150 5 110 16 69 32 _c
69 134 _l
109 111 148 94 186 83 _c
224 71 262 66 300 66 _c
356 66 399 77 430 99 _c
460 121 476 152 476 194 _c
476 230 465 258 443 278 _c
421 298 385 313 335 323 _c
275 335 _l
201 349 148 372 115 404 _c
82 435 66 478 66 534 _c
66 598 88 649 134 686 _c
179 723 242 742 322 742 _c
356 742 390 739 426 733 _c
461 727 497 717 535 705 _c
}_e{_cl}_e}_d
/T{611 0 -2 0 614 729 _sc
-2 729 _m
614 729 _l
614 646 _l
355 646 _l
355 0 _l
256 0 _l
256 646 _l
-2 646 _l
-2 729 _l
_cl}_d
/U{732 0 87 -13 645 729 _sc
87 729 _m
186 729 _l
186 286 _l
186 208 200 151 228 117 _c
256 83 302 66 366 66 _c
429 66 475 83 503 117 _c
531 151 546 208 546 286 _c
546 729 _l
645 729 _l
645 274 _l
645 178 621 107 574 59 _c
527 11 458 -13 366 -13 _c
274 -13 204 11 157 59 _c
110 107 87 178 87 274 _c
87 729 _l
_cl}_d
/bracketleft{390 0 86 -131 293 760 _sc
86 760 _m
293 760 _l
293 690 _l
176 690 _l
176 -61 _l
293 -61 _l
293 -131 _l
86 -131 _l
86 760 _l
_cl}_d
/bracketright{390 0 97 -131 304 760 _sc
304 760 _m
304 -131 _l
97 -131 _l
97 -61 _l
214 -61 _l
214 690 _l
97 690 _l
97 760 _l
304 760 _l
_cl}_d
/a{{613 0 60 -13 522 560 _sc
343 275 _m
270 275 220 266 192 250 _c
164 233 150 205 150 165 _c
150 133 160 107 181 89 _c
202 70 231 61 267 61 _c
317 61 357 78 387 114 _c
417 149 432 196 432 255 _c
432 275 _l
343 275 _l
522 312 _m
522 0 _l
432 0 _l
432 83 _l
411 49 385 25 355 10 _c
325 -5 287 -13 243 -13 _c
187 -13 142 2 109 33 _c
76 64 60 106 60 159 _c
}_e{60 220 80 266 122 298 _c
163 329 224 345 306 345 _c
432 345 _l
432 354 _l
432 395 418 427 391 450 _c
364 472 326 484 277 484 _c
245 484 215 480 185 472 _c
155 464 127 453 100 439 _c
100 522 _l
132 534 164 544 195 550 _c
226 556 256 560 286 560 _c
365 560 424 539 463 498 _c
502 457 522 395 522 312 _c
_cl}_e}_d
/c{{550 0 55 -13 488 560 _sc
488 526 _m
488 442 _l
462 456 437 466 411 473 _c
385 480 360 484 334 484 _c
276 484 230 465 198 428 _c
166 391 150 339 150 273 _c
150 206 166 154 198 117 _c
230 80 276 62 334 62 _c
360 62 385 65 411 72 _c
437 79 462 90 488 104 _c
488 21 _l
462 9 436 0 410 -5 _c
383 -10 354 -13 324 -13 _c
242 -13 176 12 128 64 _c
}_e{79 115 55 185 55 273 _c
55 362 79 432 128 483 _c
177 534 244 560 330 560 _c
358 560 385 557 411 551 _c
437 545 463 537 488 526 _c
_cl}_e}_d
/e{{615 0 55 -13 562 560 _sc
562 296 _m
562 252 _l
149 252 _l
153 190 171 142 205 110 _c
238 78 284 62 344 62 _c
378 62 412 66 444 74 _c
476 82 509 95 541 113 _c
541 28 _l
509 14 476 3 442 -3 _c
408 -9 373 -13 339 -13 _c
251 -13 182 12 131 62 _c
80 112 55 181 55 268 _c
55 357 79 428 127 481 _c
175 533 241 560 323 560 _c
397 560 455 536 498 489 _c
}_e{540 441 562 377 562 296 _c
472 322 _m
471 371 457 410 431 440 _c
404 469 368 484 324 484 _c
274 484 234 469 204 441 _c
174 413 156 373 152 322 _c
472 322 _l
_cl}_e}_d
/i{278 0 94 0 184 760 _sc
94 547 _m
184 547 _l
184 0 _l
94 0 _l
94 547 _l
94 760 _m
184 760 _l
184 646 _l
94 646 _l
94 760 _l
_cl}_d
/l{278 0 94 0 184 760 _sc
94 760 _m
184 760 _l
184 0 _l
94 0 _l
94 760 _l
_cl}_d
/m{{974 0 91 0 889 560 _sc
520 442 _m
542 482 569 511 600 531 _c
631 550 668 560 711 560 _c
767 560 811 540 842 500 _c
873 460 889 403 889 330 _c
889 0 _l
799 0 _l
799 327 _l
799 379 789 418 771 444 _c
752 469 724 482 686 482 _c
639 482 602 466 575 435 _c
548 404 535 362 535 309 _c
535 0 _l
445 0 _l
445 327 _l
445 379 435 418 417 444 _c
398 469 369 482 331 482 _c
}_e{285 482 248 466 221 435 _c
194 404 181 362 181 309 _c
181 0 _l
91 0 _l
91 547 _l
181 547 _l
181 462 _l
201 495 226 520 255 536 _c
283 552 317 560 357 560 _c
397 560 430 550 458 530 _c
486 510 506 480 520 442 _c
_cl}_e}_d
/o{612 0 55 -13 557 560 _sc
306 484 _m
258 484 220 465 192 427 _c
164 389 150 338 150 273 _c
150 207 163 156 191 118 _c
219 80 257 62 306 62 _c
354 62 392 80 420 118 _c
448 156 462 207 462 273 _c
462 337 448 389 420 427 _c
392 465 354 484 306 484 _c
306 560 _m
384 560 445 534 490 484 _c
534 433 557 363 557 273 _c
557 183 534 113 490 63 _c
445 12 384 -13 306 -13 _c
227 -13 165 12 121 63 _c
77 113 55 183 55 273 _c
55 363 77 433 121 484 _c
165 534 227 560 306 560 _c
_cl}_d
/p{{635 0 91 -207 580 560 _sc
181 82 _m
181 -207 _l
91 -207 _l
91 547 _l
181 547 _l
181 464 _l
199 496 223 520 252 536 _c
281 552 316 560 356 560 _c
422 560 476 533 518 481 _c
559 428 580 359 580 273 _c
580 187 559 117 518 65 _c
476 13 422 -13 356 -13 _c
316 -13 281 -5 252 10 _c
223 25 199 49 181 82 _c
487 273 _m
487 339 473 390 446 428 _c
418 466 381 485 334 485 _c
}_e{286 485 249 466 222 428 _c
194 390 181 339 181 273 _c
181 207 194 155 222 117 _c
249 79 286 61 334 61 _c
381 61 418 79 446 117 _c
473 155 487 207 487 273 _c
_cl}_e}_d
/r{411 0 91 0 411 560 _sc
411 463 _m
401 469 390 473 378 476 _c
366 478 353 480 339 480 _c
288 480 249 463 222 430 _c
194 397 181 350 181 288 _c
181 0 _l
91 0 _l
91 547 _l
181 547 _l
181 462 _l
199 495 224 520 254 536 _c
284 552 321 560 365 560 _c
371 560 378 559 386 559 _c
393 558 401 557 411 555 _c
411 463 _l
_cl}_d
/s{{521 0 54 -13 472 560 _sc
443 531 _m
443 446 _l
417 458 391 468 364 475 _c
336 481 308 485 279 485 _c
234 485 200 478 178 464 _c
156 450 145 430 145 403 _c
145 382 153 366 169 354 _c
185 342 217 330 265 320 _c
296 313 _l
360 299 405 279 432 255 _c
458 230 472 195 472 151 _c
472 100 452 60 412 31 _c
372 1 316 -13 246 -13 _c
216 -13 186 -10 154 -5 _c
}_e{122 0 89 8 54 20 _c
54 113 _l
87 95 120 82 152 74 _c
184 65 216 61 248 61 _c
290 61 323 68 346 82 _c
368 96 380 117 380 144 _c
380 168 371 187 355 200 _c
339 213 303 226 247 238 _c
216 245 _l
160 257 119 275 95 299 _c
70 323 58 356 58 399 _c
58 450 76 490 112 518 _c
148 546 200 560 268 560 _c
301 560 332 557 362 552 _c
391 547 418 540 443 531 _c
}_e{_cl}_e}_d
/t{392 0 27 0 368 702 _sc
183 702 _m
183 547 _l
368 547 _l
368 477 _l
183 477 _l
183 180 _l
183 135 189 106 201 94 _c
213 81 238 75 276 75 _c
368 75 _l
368 0 _l
276 0 _l
206 0 158 13 132 39 _c
106 65 93 112 93 180 _c
93 477 _l
27 477 _l
27 547 _l
93 547 _l
93 702 _l
183 702 _l
_cl}_d
end readonly def

/BuildGlyph
 {exch begin
 CharStrings exch
 2 copy known not{pop /.notdef}if
 true 3 1 roll get exec
 end}_d

/BuildChar {
 1 index /Encoding get exch get
 1 index /BuildGlyph get exec
}_d

FontName currentdict end definefont pop
end
%%EndProlog
mpldict begin
90 252 translate
432 288 0 0 clipbox
gsave
0 0 m
432 0 l
432 288 l
0 288 l
cl
1.000 setgray
fill
grestore
gsave
54 36 m
388.8 36 l
388.8 253.44 l
54 253.44 l
cl
1.000 setgray
fill
grestore
0.800 setlinewidth
1 setlinejoin
2 setlinecap
[] 0 setdash
0.690 setgray
gsave
334.8 217.4 54 36 clipbox
69.218182 36 m
69.218182 253.44 l
stroke
grestore
0 setlinecap
0.000 setgray
gsave
/o {
gsave
newpath
translate
0.8 setlinewidth
1 setlinejoin
0 setlinecap
0 0 m
0 -3.5 l

gsave
0.000 setgray
fill
grestore
stroke
grestore
} bind def
69.2182 36 o
grestore
/DejaVuSans findfont
10.000 scalefont
setfont
gsave
66.038494 21.406250 translate
0.000000 rotate
0.000000 0.000000 m /zero glyphshow
grestore
2 setlinecap
0.690 setgray
gsave
334.8 217.4 54 36 clipbox
112.729781 36 m
112.729781 253.44 l
stroke
grestore
0 setlinecap
0.000 setgray
gsave
/o {
gsave
newpath
translate
0.8 setlinewidth
1 setlinejoin
0 setlinecap
0 0 m
0 -3.5 l

gsave
0.000 setgray
fill
grestore
stroke
grestore
} bind def
112.73 36 o
grestore
gsave
103.190719 21.406250 translate
0.000000 rotate
0.000000 0.000000 m /two glyphshow
6.362305 0.000000 m /zero glyphshow
12.724609 0.000000 m /zero glyphshow
grestore
2 setlinecap
0.690 setgray
gsave
334.8 217.4 54 36 clipbox
156.24138 36 m
156.24138 253.44 l
stroke
grestore
0 setlinecap
0.000 setgray
gsave
/o {
gsave
newpath
translate
0.8 setlinewidth
1 setlinejoin
0 setlinecap
0 0 m
0 -3.5 l

gsave
0.000 setgray
fill
grestore
stroke
grestore
} bind def
156.241 36 o
grestore
gsave
146.702318 21.406250 translate
0.000000 rotate
0.000000 0.000000 m /four glyphshow
6.362305 0.000000 m /zero glyphshow
12.724609 0.000000 m /zero glyphshow
grestore
2 setlinecap
0.690 setgray
gsave
334.8 217.4 54 36 clipbox
199.752979 36 m
199.752979 253.44 l
stroke
grestore
0 setlinecap
0.000 setgray
gsave
/o {
gsave
newpath
translate
0.8 setlinewidth
1 setlinejoin
0 setlinecap
0 0 m
0 -3.5 l

gsave
0.000 setgray
fill
grestore
stroke
grestore
} bind def
199.753 36 o
grestore
gsave
190.213917 21.406250 translate
0.000000 rotate
0.000000 0.000000 m /six glyphshow
6.362305 0.000000 m /zero glyphshow
12.724609 0.000000 m /zero glyphshow
grestore
2 setlinecap
0.690 setgray
gsave
334.8 217.4 54 36 clipbox
243.264579 36 m
243.264579 253.44 l
stroke
grestore
0 setlinecap
0.000 setgray
gsave
/o {
gsave
newpath
translate
0.8 setlinewidth
1 setlinejoin
0 setlinecap
0 0 m
0 -3.5 l

gsave
0.000 setgray
fill
grestore
stroke
grestore
} bind def
243.265 36 o
grestore
gsave
233.725516 21.406250 translate
0.000000 rotate
0.000000 0.000000 m /eight glyphshow
6.362305 0.000000 m /zero glyphshow
12.724609 0.000000 m /zero glyphshow
grestore
2 setlinecap
0.690 setgray
gsave
334.8 217.4 54 36 clipbox
286.776178 36 m
286.776178 253.44 l
stroke
grestore
0 setlinecap
0.000 setgray
gsave
/o {
gsave
newpath
translate
0.8 setlinewidth
1 setlinejoin
0 setlinecap
0 0 m
0 -3.5 l

gsave
0.000 setgray
fill
grestore
stroke
grestore
} bind def
286.776 36 o
grestore
gsave
274.057428 21.406250 translate
0.000000 rotate
0.000000 0.000000 m /one glyphshow
6.362305 0.000000 m /zero glyphshow
12.724609 0.000000 m /zero glyphshow
19.086914 0.000000 m /zero glyphshow
grestore
2 setlinecap
0.690 setgray
gsave
334.8 217.4 54 36 clipbox
330.287777 36 m
330.287777 253.44 l
stroke
grestore
0 setlinecap
0.000 setgray
gsave
/o {
gsave
newpath
translate
0.8 setlinewidth
1 setlinejoin
0 setlinecap
0 0 m
0 -3.5 l

gsave
0.000 setgray
fill
grestore
stroke
grestore
} bind def
330.288 36 o
grestore
gsave
317.569027 21.406250 translate
0.000000 rotate
0.000000 0.000000 m /one glyphshow
6.362305 0.000000 m /two glyphshow
12.724609 0.000000 m /zero glyphshow
19.086914 0.000000 m /zero glyphshow
grestore
2 setlinecap
0.690 setgray
gsave
334.8 217.4 54 36 clipbox
373.799376 36 m
373.799376 253.44 l
stroke
grestore
0 setlinecap
0.000 setgray
gsave
/o {
gsave
newpath
translate
0.8 setlinewidth
1 setlinejoin
0 setlinecap
0 0 m
0 -3.5 l

gsave
0.000 setgray
fill
grestore
stroke
grestore
} bind def
373.799 36 o
grestore
gsave
361.080626 21.406250 translate
0.000000 rotate
0.000000 0.000000 m /one glyphshow
6.362305 0.000000 m /four glyphshow
12.724609 0.000000 m /zero glyphshow
19.086914 0.000000 m /zero glyphshow
grestore
gsave
200.892188 7.734375 translate
0.000000 rotate
0.000000 0.000000 m /T glyphshow
6.108398 0.000000 m /i glyphshow
8.886719 0.000000 m /m glyphshow
18.627930 0.000000 m /e glyphshow
24.780273 0.000000 m /space glyphshow
27.958984 0.000000 m /bracketleft glyphshow
31.860352 0.000000 m /s glyphshow
37.070312 0.000000 m /bracketright glyphshow
grestore
2 setlinecap
0.690 setgray
gsave
334.8 217.4 54 36 clipbox
54 46.646806 m
388.8 46.646806 l
stroke
grestore
0 setlinecap
0.000 setgray
gsave
/o {
gsave
newpath
translate
0.8 setlinewidth
1 setlinejoin
0 setlinecap
0 0 m
-3.5 0 l

gsave
0.000 setgray
fill
grestore
stroke
grestore
} bind def
54 46.6468 o
grestore
gsave
18.375000 42.849931 translate
0.000000 rotate
0.000000 0.000000 m /zero glyphshow
6.362305 0.000000 m /period glyphshow
9.541016 0.000000 m /five glyphshow
15.903320 0.000000 m /two glyphshow
22.265625 0.000000 m /five glyphshow
grestore
2 setlinecap
0.690 setgray
gsave
334.8 217.4 54 36 clipbox
54 74.776743 m
388.8 74.776743 l
stroke
grestore
0 setlinecap
0.000 setgray
gsave
/o {
gsave
newpath
translate
0.8 setlinewidth
1 setlinejoin
0 setlinecap
0 0 m
-3.5 0 l

gsave
0.000 setgray
fill
grestore
stroke
grestore
} bind def
54 74.7767 o
grestore
gsave
18.375000 70.979868 translate
0.000000 rotate
0.000000 0.000000 m /zero glyphshow
6.362305 0.000000 m /period glyphshow
9.541016 0.000000 m /five glyphshow
15.903320 0.000000 m /five glyphshow
22.265625 0.000000 m /zero glyphshow
grestore
2 setlinecap
0.690 setgray
gsave
334.8 217.4 54 36 clipbox
54 102.90668 m
388.8 102.90668 l
stroke
grestore
0 setlinecap
0.000 setgray
gsave
/o {
gsave
newpath
translate
0.8 setlinewidth
1 setlinejoin
0 setlinecap
0 0 m
-3.5 0 l

gsave
0.000 setgray
fill
grestore
stroke
grestore
} bind def
54 102.907 o
grestore
gsave
18.375000 99.109805 translate
0.000000 rotate
0.000000 0.000000 m /zero glyphshow
6.362305 0.000000 m /period glyphshow
9.541016 0.000000 m /five glyphshow
15.903320 0.000000 m /seven glyphshow
22.265625 0.000000 m /five glyphshow
grestore
2 setlinecap
0.690 setgray
gsave
334.8 217.4 54 36 clipbox
54 131.036616 m
388.8 131.036616 l
stroke
grestore
0 setlinecap
0.000 setgray
gsave
/o {
gsave
newpath
translate
0.8 setlinewidth
1 setlinejoin
0 setlinecap
0 0 m
-3.5 0 l

gsave
0.000 setgray
fill
grestore
stroke
grestore
} bind def
54 131.037 o
grestore
gsave
18.375000 127.239741 translate
0.000000 rotate
0.000000 0.000000 m /zero glyphshow
6.362305 0.000000 m /period glyphshow
9.541016 0.000000 m /six glyphshow
15.903320 0.000000 m /zero glyphshow
22.265625 0.000000 m /zero glyphshow
grestore
2 setlinecap
0.690 setgray
gsave
334.8 217.4 54 36 clipbox
54 159.166553 m
388.8 159.166553 l
stroke
grestore
0 setlinecap
0.000 setgray
gsave
/o {
gsave
newpath
translate
0.8 setlinewidth
1 setlinejoin
0 setlinecap
0 0 m
-3.5 0 l

gsave
0.000 setgray
fill
grestore
stroke
grestore
} bind def
54 159.167 o
grestore
gsave
18.375000 155.369678 translate
0.000000 rotate
0.000000 0.000000 m /zero glyphshow
6.362305 0.000000 m /period glyphshow
9.541016 0.000000 m /six glyphshow
15.903320 0.000000 m /two glyphshow
22.265625 0.000000 m /five glyphshow
grestore
2 setlinecap
0.690 setgray
gsave
334.8 217.4 54 36 clipbox
54 187.29649 m
388.8 187.29649 l
stroke
grestore
0 setlinecap
0.000 setgray
gsave
/o {
gsave
newpath
translate
0.8 setlinewidth
1 setlinejoin
0 setlinecap
0 0 m
-3.5 0 l

gsave
0.000 setgray
fill
grestore
stroke
grestore
} bind def
54 187.296 o
grestore
gsave
18.375000 183.499615 translate
0.000000 rotate
0.000000 0.000000 m /zero glyphshow
6.362305 0.000000 m /period glyphshow
9.541016 0.000000 m /six glyphshow
15.903320 0.000000 m /five glyphshow
22.265625 0.000000 m /zero glyphshow
grestore
2 setlinecap
0.690 setgray
gsave
334.8 217.4 54 36 clipbox
54 215.426427 m
388.8 215.426427 l
stroke
grestore
0 setlinecap
0.000 setgray
gsave
/o {
gsave
newpath
translate
0.8 setlinewidth
1 setlinejoin
0 setlinecap
0 0 m
-3.5 0 l

gsave
0.000 setgray
fill
grestore
stroke
grestore
} bind def
54 215.426 o
grestore
gsave
18.375000 211.629552 translate
0.000000 rotate
0.000000 0.000000 m /zero glyphshow
6.362305 0.000000 m /period glyphshow
9.541016 0.000000 m /six glyphshow
15.903320 0.000000 m /seven glyphshow
22.265625 0.000000 m /five glyphshow
grestore
2 setlinecap
0.690 setgray
gsave
334.8 217.4 54 36 clipbox
54 243.556364 m
388.8 243.556364 l
stroke
grestore
0 setlinecap
0.000 setgray
gsave
/o {
gsave
newpath
translate
0.8 setlinewidth
1 setlinejoin
0 setlinecap
0 0 m
-3.5 0 l

gsave
0.000 setgray
fill
grestore
stroke
grestore
} bind def
54 243.556 o
grestore
gsave
18.375000 239.759489 translate
0.000000 rotate
0.000000 0.000000 m /zero glyphshow
6.362305 0.000000 m /period glyphshow
9.541016 0.000000 m /seven glyphshow
15.903320 0.000000 m /zero glyphshow
22.265625 0.000000 m /zero glyphshow
grestore
gsave
12.296875 77.337187 translate
90.000000 rotate
0.000000 0.000000 m /U glyphshow
7.319336 0.000000 m /l glyphshow
10.097656 0.000000 m /t glyphshow
14.018555 0.000000 m /r glyphshow
18.129883 0.000000 m /a glyphshow
24.257812 0.000000 m /c glyphshow
29.755859 0.000000 m /a glyphshow
35.883789 0.000000 m /p glyphshow
42.231445 0.000000 m /a glyphshow
48.359375 0.000000 m /c glyphshow
53.857422 0.000000 m /i glyphshow
56.635742 0.000000 m /t glyphshow
60.556641 0.000000 m /o glyphshow
66.674805 0.000000 m /r glyphshow
70.786133 0.000000 m /space glyphshow
73.964844 0.000000 m /S glyphshow
80.312500 0.000000 m /O glyphshow
88.183594 0.000000 m /C glyphshow
95.166016 0.000000 m /space glyphshow
98.344727 0.000000 m /bracketleft glyphshow
102.246094 0.000000 m /one glyphshow
108.608398 0.000000 m /zero glyphshow
114.970703 0.000000 m /zero glyphshow
121.333008 0.000000 m /percent glyphshow
130.834961 0.000000 m /bracketright glyphshow
grestore
1.500 setlinewidth
2 setlinecap
0.122 0.467 0.706 setrgbcolor
gsave
334.8 217.4 54 36 clipbox
69.218182 243.556364 m
69.43574 216.095441 l
69.653298 198.691318 l
70.741088 149.675253 l
72.046436 111.057629 l
72.481552 96.722917 l
72.69911 93.056573 l
72.916668 91.604385 l
73.569342 94.626218 l
73.7869 94.027582 l
74.004458 92.905449 l
74.439574 81.327455 l
74.87469 78.163275 l
75.092248 83.255544 l
75.309806 84.957958 l
75.744922 84.700867 l
75.96248 84.728827 l
76.180038 85.420555 l
76.397596 86.873582 l
76.615154 84.945641 l
77.05027 85.318199 l
77.267828 85.878549 l
77.485386 89.643619 l
77.920502 92.152519 l
78.13806 92.314922 l
78.573176 93.176221 l
78.790734 92.919184 l
79.443408 95.355422 l
80.31364 106.937057 l
80.531198 106.560337 l
80.748756 104.0222 l
81.40143 101.033468 l
81.618988 101.337536 l
81.836546 101.189709 l
82.271662 97.659264 l
83.359452 89.378595 l
83.57701 89.143349 l
83.794568 89.298358 l
84.012126 89.847874 l
84.447242 101.501352 l
85.317474 139.497894 l
85.535032 142.211075 l
85.75259 141.389841 l
86.187706 136.084359 l
86.840379 124.657082 l
87.275495 110.590659 l
87.710611 97.835945 l
87.928169 95.250805 l
88.363285 96.533506 l
88.580843 97.522321 l
89.015959 96.557701 l
89.233517 96.629303 l
89.451075 95.154822 l
89.668633 95.164538 l
90.103749 94.14156 l
90.321307 94.20633 l
90.538865 93.715168 l
90.756423 94.170032 l
90.973981 94.085729 l
91.626655 96.880956 l
91.844213 96.499017 l
92.061771 96.476929 l
92.279329 94.876242 l
92.496887 94.770908 l
92.714445 95.274334 l
92.932003 95.448491 l
93.149561 96.102022 l
93.367119 95.175164 l
94.019793 85.165782 l
94.237351 83.524318 l
94.454909 84.789728 l
94.672467 84.439112 l
94.890025 87.045595 l
95.107583 86.772221 l
95.325141 86.708757 l
95.542699 88.036638 l
95.760257 88.045866 l
95.977815 89.068065 l
97.065605 97.796918 l
97.283163 98.301103 l
97.718279 97.354725 l
98.153395 96.06385 l
98.588511 96.21652 l
98.806069 93.988074 l
99.241185 88.569484 l
99.458743 86.680491 l
99.676301 86.517896 l
100.328975 92.542366 l
100.764091 107.624744 l
101.199207 128.398716 l
101.416765 133.327398 l
101.634323 134.540352 l
102.069439 126.758996 l
103.157229 107.377342 l
103.592345 90.60217 l
104.027461 83.647106 l
104.245019 85.329433 l
104.462577 85.085064 l
104.680135 84.00179 l
105.115251 78.059444 l
105.550367 73.645919 l
105.767925 74.940317 l
106.638157 82.881618 l
106.855715 83.688609 l
107.508389 88.560573 l
107.725947 91.408972 l
107.943505 92.021075 l
108.596179 86.010723 l
108.813737 81.188859 l
109.031295 80.978323 l
109.248853 79.883984 l
109.466411 77.560109 l
109.683969 83.43929 l
109.901527 85.486128 l
110.771759 106.192075 l
110.989317 105.914797 l
111.206875 105.036033 l
111.424433 102.617867 l
111.641991 102.004554 l
112.294665 93.672921 l
112.512223 92.372365 l
112.729781 92.620571 l
112.947339 92.697435 l
113.600013 89.593638 l
113.817571 87.522044 l
114.252687 87.198529 l
114.687803 89.625495 l
115.122919 86.523944 l
115.340477 86.086237 l
116.210709 92.492191 l
116.428267 92.54361 l
116.863383 90.702303 l
117.080941 92.249203 l
117.733615 87.402269 l
117.951173 84.114924 l
118.168731 84.164374 l
118.386289 84.956168 l
118.603847 84.791821 l
118.821405 85.09398 l
119.256521 84.46755 l
119.474079 84.866455 l
119.691637 86.628587 l
119.909195 89.462704 l
120.126753 86.596241 l
120.344311 78.65979 l
120.779427 54.668911 l
120.996985 55.158368 l
121.214543 60.90898 l
121.649659 76.635662 l
122.737449 82.280562 l
122.955007 82.909264 l
123.172565 83.16094 l
123.390123 83.127265 l
124.042797 84.427026 l
124.260355 84.643098 l
124.477913 85.260812 l
124.913029 88.420353 l
125.130587 89.627866 l
125.348145 89.128456 l
125.565703 88.228496 l
125.783261 88.023768 l
126.000819 88.052984 l
126.218377 88.568204 l
126.653493 87.702281 l
126.871051 88.024823 l
127.088609 88.678205 l
127.523725 88.835107 l
127.741283 88.414384 l
127.958841 88.48335 l
128.393957 89.571682 l
128.829073 89.237044 l
129.046631 89.089559 l
129.264189 89.212479 l
129.481747 89.588206 l
129.699305 89.546202 l
129.916863 89.377416 l
130.569537 87.65142 l
131.004653 86.685664 l
131.439769 88.289068 l
131.657327 90.337161 l
131.874885 94.008091 l
132.310001 108.151675 l
132.527559 115.682088 l
132.745117 118.799396 l
132.962675 118.746981 l
133.397791 105.919207 l
133.615349 103.35565 l
133.832907 98.258174 l
134.050465 98.273355 l
134.268023 99.0417 l
134.485581 97.275104 l
134.703139 96.93199 l
134.920697 97.371563 l
135.355813 96.318694 l
135.573371 96.338823 l
135.790929 94.498465 l
136.443603 92.261355 l
136.661161 92.020234 l
137.096277 87.966872 l
137.531393 86.347916 l
137.748951 87.139958 l
137.966509 86.64594 l
138.184067 83.731343 l
138.619183 81.671634 l
138.836741 81.630159 l
139.054299 85.138362 l
139.706973 88.449766 l
139.924531 87.393804 l
140.142089 87.846369 l
140.577204 95.861208 l
141.229878 108.091678 l
141.447436 109.741661 l
141.664994 108.713922 l
142.317668 101.533021 l
142.535226 101.553905 l
142.752784 101.75886 l
143.840574 89.198027 l
144.058132 89.288222 l
144.27569 90.007982 l
144.928364 88.074201 l
145.145922 86.650613 l
145.36348 87.0118 l
145.798596 87.21662 l
146.016154 87.544795 l
146.45127 89.642277 l
146.886386 92.51368 l
147.321502 93.23707 l
147.53906 92.869802 l
147.974176 91.450008 l
148.191734 89.896596 l
148.409292 89.43597 l
148.62685 89.292775 l
148.844408 88.700015 l
149.061966 89.634351 l
149.279524 89.036056 l
149.497082 91.600733 l
150.367314 107.267031 l
150.584872 106.23882 l
151.019988 101.104136 l
151.455104 97.912844 l
151.672662 98.410663 l
151.89022 98.571417 l
152.107778 98.548866 l
152.325336 97.464725 l
152.760452 93.759518 l
152.97801 94.060138 l
153.195568 91.771005 l
153.848242 81.114589 l
154.0658 81.461388 l
155.15359 90.026524 l
155.371148 90.415831 l
155.588706 90.161806 l
156.24138 87.77624 l
156.676496 86.328143 l
157.111612 85.612498 l
157.32917 85.775976 l
157.546728 84.960583 l
157.764286 85.459682 l
157.981844 85.453491 l
158.199402 86.113598 l
159.069634 95.597952 l
159.287192 97.120068 l
159.722308 97.615235 l
160.59254 90.392184 l
160.810098 90.453885 l
161.027656 90.725158 l
161.245214 90.579481 l
161.68033 91.842826 l
161.897888 91.709637 l
162.115446 92.609018 l
162.333004 92.385174 l
162.76812 89.467219 l
163.203236 86.119074 l
163.420794 86.175073 l
163.638352 85.721815 l
163.85591 85.924336 l
164.291026 85.963605 l
164.508584 87.833439 l
165.161258 87.110544 l
165.378816 85.569267 l
165.596374 86.021615 l
166.466606 77.045732 l
166.684164 77.708424 l
166.901722 78.814178 l
167.11928 71.943397 l
167.554396 51.982559 l
167.771954 45.883636 l
167.989512 48.791585 l
168.424628 62.437086 l
168.859744 68.719038 l
169.29486 72.650462 l
169.512418 76.089205 l
170.38265 99.98456 l
170.600208 100.483245 l
170.817766 99.58374 l
171.035324 97.174309 l
171.47044 95.098509 l
171.905556 91.602709 l
172.123114 91.698365 l
172.340672 92.420102 l
172.55823 92.419602 l
172.993346 93.815445 l
173.210904 92.960885 l
173.428462 94.077669 l
174.298694 96.33377 l
174.516252 96.114763 l
174.951368 93.94624 l
175.168926 93.671342 l
175.386484 93.014914 l
175.604042 93.720401 l
175.8216 92.819795 l
176.039158 92.923502 l
176.474274 85.753466 l
176.691832 85.576566 l
176.90939 82.423838 l
177.344506 88.958988 l
177.562064 90.219628 l
177.779622 92.931506 l
178.214738 94.923239 l
178.649854 97.444013 l
178.867412 96.339125 l
179.08497 95.874324 l
179.302528 97.962677 l
179.520086 102.574701 l
179.955202 116.146702 l
180.17276 120.753173 l
180.390318 121.134788 l
180.825434 115.769603 l
181.26055 109.287733 l
181.695666 105.371256 l
182.565898 98.597113 l
183.001014 90.836209 l
183.218572 87.99824 l
183.43613 82.354284 l
183.653688 81.591841 l
184.088804 81.945803 l
184.306362 84.0178 l
184.52392 84.03848 l
184.959036 82.272765 l
185.394152 85.215456 l
185.61171 86.419252 l
185.829268 86.807446 l
186.481942 75.147176 l
186.917058 71.946359 l
187.134616 71.086287 l
187.569732 72.970867 l
187.78729 72.942012 l
188.222406 70.019331 l
188.439964 69.800961 l
188.657522 75.336341 l
189.092638 89.732763 l
189.527754 93.33638 l
189.745312 91.317224 l
189.96287 90.842458 l
190.180428 89.329506 l
190.397986 89.321113 l
190.833102 99.725679 l
191.268218 112.594684 l
191.703334 102.170692 l
191.920892 97.248151 l
192.13845 88.637191 l
192.356008 88.167472 l
192.573566 88.990765 l
192.791124 88.776481 l
193.008682 92.780212 l
193.22624 91.381787 l
193.443798 90.85307 l
193.878914 87.425632 l
194.31403 77.474817 l
194.531587 74.329725 l
194.749145 73.303817 l
194.966703 78.301508 l
195.836935 65.933018 l
196.489609 76.969201 l
196.707167 80.03944 l
196.924725 79.790423 l
197.577399 75.073944 l
197.794957 75.494042 l
198.447631 78.975695 l
198.665189 79.556022 l
198.882747 81.186188 l
199.100305 81.726115 l
199.535421 75.323563 l
199.970537 70.235184 l
200.188095 70.566764 l
200.405653 68.102643 l
200.623211 68.588478 l
200.840769 68.795112 l
201.058327 71.320867 l
201.275885 76.451443 l
201.928559 81.115154 l
202.363675 82.977238 l
202.798791 83.580271 l
203.233907 84.619572 l
203.451465 87.120712 l
204.104139 98.453601 l
204.321697 101.357316 l
204.539255 101.472543 l
204.974371 100.527519 l
205.191929 102.790419 l
205.627045 118.06786 l
205.844603 127.180655 l
206.062161 131.231196 l
206.279719 132.259337 l
207.149951 119.568565 l
207.367509 119.512785 l
207.585067 117.669966 l
208.455299 97.936197 l
208.672857 99.343569 l
208.890415 99.938555 l
209.325531 103.076121 l
209.543089 102.620291 l
209.760647 103.515001 l
209.978205 102.04329 l
210.195763 102.019764 l
210.413321 105.307939 l
210.630879 111.229022 l
211.283553 140.619304 l
212.153785 163.029591 l
212.588901 173.312058 l
212.806459 175.300195 l
213.024017 175.225353 l
213.241575 172.357973 l
213.676691 160.427572 l
214.546923 132.570684 l
215.417155 112.876114 l
215.634713 109.679087 l
215.852271 108.390394 l
216.504945 106.82747 l
216.722503 105.277752 l
217.592735 94.123841 l
218.027851 93.154017 l
218.245409 93.851534 l
218.462967 93.278287 l
218.898083 89.081348 l
219.115641 87.977 l
219.333199 88.818323 l
219.768315 92.951223 l
219.985873 93.894858 l
220.420989 92.402498 l
220.638547 92.598684 l
221.073663 94.282983 l
221.943895 88.15778 l
223.249243 94.517765 l
223.466801 93.876824 l
223.684359 94.073251 l
223.901917 90.614283 l
224.119475 89.649363 l
224.337033 89.756861 l
224.554591 89.087243 l
224.772149 89.598231 l
224.989707 88.45124 l
225.207265 88.068796 l
225.424823 88.635566 l
226.077497 95.271077 l
226.512613 96.103227 l
226.730171 95.335377 l
227.382845 97.216649 l
227.600403 98.383478 l
227.817961 98.219597 l
228.253077 96.264405 l
228.470635 95.627004 l
228.688193 95.493913 l
229.123309 94.838207 l
229.340867 95.869002 l
229.558425 95.416946 l
229.993541 96.852767 l
230.211099 96.376286 l
230.428657 96.943036 l
230.863773 92.193961 l
231.081331 91.226452 l
231.298889 91.070706 l
231.734005 101.86133 l
232.386679 124.982172 l
232.604237 127.669854 l
232.821795 127.630133 l
233.039353 127.17134 l
233.256911 128.955915 l
233.909585 139.721179 l
234.127143 139.203175 l
234.344701 135.278198 l
234.997375 113.575427 l
235.214933 108.662854 l
235.432491 107.222231 l
235.650049 104.890684 l
236.085165 107.420635 l
236.302723 107.576496 l
236.737839 105.417034 l
236.955397 106.229456 l
237.608071 121.459869 l
237.825629 121.831869 l
238.695861 110.828547 l
239.348535 105.257448 l
240.001209 101.751611 l
240.653883 99.546228 l
241.306557 98.158966 l
241.959231 97.286104 l
242.611905 96.736568 l
243.482137 96.343258 l
243.699695 96.275283 l
244.134811 95.066625 l
244.352369 93.817203 l
244.787485 89.084522 l
245.005043 86.364363 l
245.222601 85.364136 l
245.440159 84.991623 l
245.657717 86.242734 l
245.875275 86.073582 l
246.310391 86.608468 l
246.527949 87.091224 l
246.745507 89.84997 l
246.963065 91.045083 l
247.180623 87.505434 l
247.398181 86.576194 l
247.833297 83.651354 l
248.050855 87.957372 l
248.703528 93.450501 l
248.921086 97.232636 l
249.138644 103.964963 l
250.008876 141.141556 l
250.226434 143.274066 l
250.443992 141.648281 l
251.966898 111.952398 l
252.83713 101.902974 l
253.489804 87.187475 l
253.707362 86.200895 l
253.92492 87.439815 l
254.360036 91.007782 l
254.795152 94.532556 l
255.01271 94.485382 l
255.230268 96.137828 l
255.447826 96.05303 l
255.665384 96.27178 l
256.318058 92.089302 l
256.535616 90.696784 l
256.753174 91.91515 l
256.970732 92.144433 l
257.18829 91.134588 l
258.058522 83.611524 l
258.493638 82.70331 l
258.928754 82.326896 l
259.146312 82.773523 l
259.36387 83.757687 l
260.45166 101.01512 l
260.886776 106.93027 l
261.321892 110.212613 l
261.53945 109.244082 l
261.757008 109.685201 l
262.192124 114.060726 l
262.409682 115.838558 l
262.62724 115.714098 l
263.279914 108.448254 l
263.932588 103.835327 l
264.585262 100.934288 l
265.455494 98.079842 l
265.673052 95.520175 l
266.543284 80.208356 l
266.760842 79.666583 l
266.9784 78.716738 l
267.413516 83.520496 l
267.631074 83.590529 l
267.848632 83.937581 l
268.501306 88.506412 l
269.371538 93.108966 l
269.589096 94.800611 l
270.024212 95.650156 l
270.24177 97.153012 l
270.459328 97.172122 l
271.32956 102.797263 l
271.547118 103.395557 l
271.764676 103.557531 l
271.982234 103.178739 l
272.41735 101.09109 l
272.634908 99.26418 l
273.070024 93.529549 l
273.287582 91.286359 l
273.50514 90.299344 l
273.940256 90.905186 l
274.157814 92.347341 l
274.375372 91.64227 l
274.59293 92.202022 l
274.810488 92.327107 l
275.245604 91.95751 l
275.463162 90.404498 l
275.898278 88.932804 l
276.333394 90.406599 l
276.550952 90.9939 l
276.76851 90.907714 l
276.986068 91.218284 l
277.203626 91.842186 l
277.421184 91.160974 l
277.8563 91.220265 l
278.073858 91.293219 l
278.291416 91.87919 l
278.94409 94.753293 l
279.161648 94.648551 l
279.379206 92.920175 l
279.596764 89.992302 l
280.03188 87.861358 l
280.249438 88.524314 l
280.466996 90.859605 l
280.684554 91.224465 l
281.337228 85.160065 l
281.554786 83.845241 l
282.20746 87.266598 l
282.425018 87.811098 l
282.642576 87.882266 l
282.860134 88.486665 l
283.29525 91.550434 l
283.730366 94.0785 l
283.947924 92.71899 l
284.600598 94.264248 l
284.818156 95.509381 l
285.688388 105.543333 l
285.905946 104.970289 l
286.776178 89.609443 l
286.993736 90.224191 l
287.428852 97.338565 l
288.081526 115.47846 l
288.299084 119.288682 l
288.516642 119.580488 l
288.7342 118.332009 l
289.604432 108.366271 l
290.257106 103.444223 l
290.692222 101.150307 l
291.344896 99.175367 l
291.99757 97.933907 l
292.650244 97.152885 l
293.302918 96.66921 l
294.390708 96.257186 l
295.696056 96.016023 l
297.871636 95.73585 l
298.52431 95.424354 l
300.047216 95.652026 l
301.135006 95.72103 l
301.352564 95.36646 l
301.78768 93.48335 l
302.005238 93.032255 l
302.222796 93.077136 l
302.657911 94.451004 l
303.093027 94.827902 l
303.963259 95.215385 l
305.268607 95.514291 l
306.791513 95.657669 l
307.009071 95.461169 l
307.879303 85.912486 l
308.096861 87.451352 l
309.184651 98.335207 l
309.402209 97.831295 l
310.272441 89.758447 l
310.489999 90.433707 l
311.360231 95.673631 l
311.795347 94.01853 l
312.012905 92.242136 l
313.318253 97.876543 l
313.535811 101.272117 l
314.406043 122.358222 l
314.623601 123.621572 l
314.841159 125.883791 l
315.058717 124.095902 l
315.928949 112.781294 l
316.146507 110.858121 l
316.364065 107.822502 l
316.799181 97.475158 l
317.234297 90.79867 l
317.451855 92.622223 l
317.669413 92.018723 l
317.886971 91.866934 l
318.104529 93.073774 l
318.322087 91.910381 l
318.539645 93.793772 l
318.757203 93.674492 l
319.192319 94.324616 l
319.409877 92.8914 l
319.627435 93.720547 l
320.062551 94.021048 l
320.280109 94.769116 l
320.497667 94.892344 l
320.715225 94.339615 l
320.932783 94.437942 l
321.803015 92.287973 l
322.020573 92.657303 l
322.455689 91.205875 l
322.673247 91.44424 l
322.890805 91.469289 l
323.108363 91.246828 l
323.325921 92.748474 l
323.543479 93.390861 l
323.761037 93.48952 l
323.978595 94.582709 l
324.413711 92.899799 l
324.631269 93.34281 l
324.848827 97.331541 l
325.283943 116.566762 l
325.719059 138.250342 l
325.936617 143.381964 l
326.154175 145.155501 l
326.371733 145.060613 l
326.806849 142.057688 l
327.024407 140.901492 l
327.459523 134.71873 l
327.894639 124.848683 l
328.547313 100.596714 l
328.764871 96.14324 l
328.982429 96.14232 l
329.417545 93.104986 l
329.635103 92.692509 l
329.852661 91.596774 l
330.070219 94.693913 l
330.287777 93.470097 l
330.505335 93.525969 l
330.722893 94.054273 l
330.940451 93.561677 l
331.158009 95.347482 l
331.375567 93.507576 l
332.028241 92.291552 l
332.463357 94.55164 l
332.680915 94.59529 l
332.898473 94.062481 l
333.116031 93.09343 l
333.551147 90.172715 l
333.768705 89.350006 l
333.986263 90.746843 l
334.203821 93.204396 l
334.638937 103.221205 l
335.509169 130.667786 l
335.944285 138.186231 l
336.161843 138.30925 l
336.379401 135.784368 l
337.249633 118.374966 l
338.119865 91.23599 l
338.337423 91.065698 l
338.554981 91.204769 l
338.772539 90.27339 l
338.990097 90.8019 l
339.207655 89.372414 l
339.642771 92.07319 l
339.860329 87.829453 l
340.077887 88.091187 l
340.295445 86.976927 l
340.513003 86.64648 l
340.730561 91.126929 l
340.948119 91.861501 l
341.165677 91.892954 l
341.383235 91.751918 l
341.600793 92.080032 l
341.818351 93.899796 l
342.035909 97.44164 l
342.471025 114.101133 l
343.123699 143.279352 l
343.341257 147.607189 l
343.558815 148.249276 l
343.776373 145.458396 l
345.081721 117.745107 l
345.734395 110.256103 l
346.387069 105.584004 l
347.039743 102.666096 l
347.692417 100.841932 l
348.345091 99.700236 l
348.997765 98.984577 l
349.650439 98.558349 l
350.738229 98.173228 l
352.261135 97.921142 l
354.871831 97.773652 l
359.875664 97.691919 l
360.093222 97.373138 l
360.963454 88.398689 l
361.181012 89.07764 l
361.39857 90.171947 l
361.833686 89.616828 l
362.268802 88.593942 l
362.703918 91.711666 l
363.139034 96.869489 l
363.356592 98.276211 l
363.791708 102.934554 l
364.226824 107.136449 l
364.444382 106.879666 l
364.879498 104.568652 l
365.097056 102.595271 l
365.532172 94.86966 l
365.74973 93.423698 l
365.967288 93.049036 l
366.619962 99.074158 l
367.055078 100.451635 l
367.272636 100.335712 l
367.707752 99.727388 l
368.142868 99.26126 l
368.795542 98.622611 l
369.665774 97.883664 l
370.10089 97.496274 l
370.536006 97.469649 l
373.581818 97.501728 l
373.581818 97.501728 l
stroke
grestore
0.800 setlinewidth
0 setlinejoin
[] 0 setdash
0.000 setgray
gsave
54 36 m
54 253.44 l
stroke
grestore
gsave
388.8 36 m
388.8 253.44 l
stroke
grestore
gsave
54 36 m
388.8 36 l
stroke
grestore
gsave
54 253.44 m
388.8 253.44 l
stroke
grestore

end
showpage
