%!PS-Adobe-3.0 EPSF-3.0
%%Title: ./plots/passive/fixed_init_Ultracapacitor Current [A].eps
%%Creator: matplotlib version 2.0.0, http://matplotlib.org/
%%CreationDate: Mon May 15 21:57:59 2017
%%Orientation: portrait
%%BoundingBox: 90 252 522 540
%%EndComments
%%BeginProlog
/mpldict 8 dict def
mpldict begin
/m { moveto } bind def
/l { lineto } bind def
/r { rlineto } bind def
/c { curveto } bind def
/cl { closepath } bind def
/box {
m
1 index 0 r
0 exch r
neg 0 r
cl
} bind def
/clipbox {
box
clip
newpath
} bind def
%!PS-Adobe-3.0 Resource-Font
%%Title: DejaVu Sans
%%Copyright: Copyright (c) 2003 by Bitstream, Inc. All Rights Reserved. Copyright (c) 2006 by Tavmjong Bah. All Rights Reserved. DejaVu changes are in public domain 
%%Creator: Converted from TrueType to type 3 by PPR
25 dict begin
/_d{bind def}bind def
/_m{moveto}_d
/_l{lineto}_d
/_cl{closepath eofill}_d
/_c{curveto}_d
/_sc{7 -1 roll{setcachedevice}{pop pop pop pop pop pop}ifelse}_d
/_e{exec}_d
/FontName /DejaVuSans def
/PaintType 0 def
/FontMatrix[.001 0 0 .001 0 0]def
/FontBBox[-1021 -463 1793 1232]def
/FontType 3 def
/Encoding [ /space /zero /one /two /four /five /six /eight /A /C /T /U /bracketleft /bracketright /a /c /e /i /l /m /n /o /p /r /s /t /u /minus ] def
/FontInfo 10 dict dup begin
/FamilyName (DejaVu Sans) def
/FullName (DejaVu Sans) def
/Notice (Copyright (c) 2003 by Bitstream, Inc. All Rights Reserved. Copyright (c) 2006 by Tavmjong Bah. All Rights Reserved. DejaVu changes are in public domain ) def
/Weight (Book) def
/Version (Version 2.35) def
/ItalicAngle 0.0 def
/isFixedPitch false def
/UnderlinePosition -130 def
/UnderlineThickness 90 def
end readonly def
/CharStrings 28 dict dup begin
/space{318 0 0 0 0 0 _sc
}_d
/zero{636 0 66 -13 570 742 _sc
318 664 _m
267 664 229 639 203 589 _c
177 539 165 464 165 364 _c
165 264 177 189 203 139 _c
229 89 267 64 318 64 _c
369 64 407 89 433 139 _c
458 189 471 264 471 364 _c
471 464 458 539 433 589 _c
407 639 369 664 318 664 _c
318 742 _m
399 742 461 709 505 645 _c
548 580 570 486 570 364 _c
570 241 548 147 505 83 _c
461 19 399 -13 318 -13 _c
236 -13 173 19 130 83 _c
87 147 66 241 66 364 _c
66 486 87 580 130 645 _c
173 709 236 742 318 742 _c
_cl}_d
/one{636 0 110 0 544 729 _sc
124 83 _m
285 83 _l
285 639 _l
110 604 _l
110 694 _l
284 729 _l
383 729 _l
383 83 _l
544 83 _l
544 0 _l
124 0 _l
124 83 _l
_cl}_d
/two{{636 0 73 0 536 742 _sc
192 83 _m
536 83 _l
536 0 _l
73 0 _l
73 83 _l
110 121 161 173 226 239 _c
290 304 331 346 348 365 _c
380 400 402 430 414 455 _c
426 479 433 504 433 528 _c
433 566 419 598 392 622 _c
365 646 330 659 286 659 _c
255 659 222 653 188 643 _c
154 632 117 616 78 594 _c
78 694 _l
118 710 155 722 189 730 _c
223 738 255 742 284 742 _c
}_e{359 742 419 723 464 685 _c
509 647 532 597 532 534 _c
532 504 526 475 515 449 _c
504 422 484 390 454 354 _c
446 344 420 317 376 272 _c
332 227 271 164 192 83 _c
_cl}_e}_d
/four{636 0 49 0 580 729 _sc
378 643 _m
129 254 _l
378 254 _l
378 643 _l
352 729 _m
476 729 _l
476 254 _l
580 254 _l
580 172 _l
476 172 _l
476 0 _l
378 0 _l
378 172 _l
49 172 _l
49 267 _l
352 729 _l
_cl}_d
/five{{636 0 77 -13 549 729 _sc
108 729 _m
495 729 _l
495 646 _l
198 646 _l
198 467 _l
212 472 227 476 241 478 _c
255 480 270 482 284 482 _c
365 482 429 459 477 415 _c
525 370 549 310 549 234 _c
549 155 524 94 475 51 _c
426 8 357 -13 269 -13 _c
238 -13 207 -10 175 -6 _c
143 -1 111 6 77 17 _c
77 116 _l
106 100 136 88 168 80 _c
199 72 232 69 267 69 _c
}_e{323 69 368 83 401 113 _c
433 143 450 183 450 234 _c
450 284 433 324 401 354 _c
368 384 323 399 267 399 _c
241 399 214 396 188 390 _c
162 384 135 375 108 363 _c
108 729 _l
_cl}_e}_d
/six{{636 0 70 -13 573 742 _sc
330 404 _m
286 404 251 388 225 358 _c
199 328 186 286 186 234 _c
186 181 199 139 225 109 _c
251 79 286 64 330 64 _c
374 64 409 79 435 109 _c
461 139 474 181 474 234 _c
474 286 461 328 435 358 _c
409 388 374 404 330 404 _c
526 713 _m
526 623 _l
501 635 476 644 451 650 _c
425 656 400 659 376 659 _c
310 659 260 637 226 593 _c
}_e{192 549 172 482 168 394 _c
187 422 211 444 240 459 _c
269 474 301 482 336 482 _c
409 482 467 459 509 415 _c
551 371 573 310 573 234 _c
573 159 550 99 506 54 _c
462 9 403 -13 330 -13 _c
246 -13 181 19 137 83 _c
92 147 70 241 70 364 _c
70 479 97 571 152 639 _c
206 707 280 742 372 742 _c
396 742 421 739 447 735 _c
472 730 498 723 526 713 _c
_cl}_e}_d
/eight{{636 0 68 -13 568 742 _sc
318 346 _m
271 346 234 333 207 308 _c
180 283 167 249 167 205 _c
167 161 180 126 207 101 _c
234 76 271 64 318 64 _c
364 64 401 76 428 102 _c
455 127 469 161 469 205 _c
469 249 455 283 429 308 _c
402 333 365 346 318 346 _c
219 388 _m
177 398 144 418 120 447 _c
96 476 85 511 85 553 _c
85 611 105 657 147 691 _c
188 725 245 742 318 742 _c
}_e{390 742 447 725 489 691 _c
530 657 551 611 551 553 _c
551 511 539 476 515 447 _c
491 418 459 398 417 388 _c
464 377 501 355 528 323 _c
554 291 568 251 568 205 _c
568 134 546 80 503 43 _c
459 5 398 -13 318 -13 _c
237 -13 175 5 132 43 _c
89 80 68 134 68 205 _c
68 251 81 291 108 323 _c
134 355 171 377 219 388 _c
183 544 _m
183 506 194 476 218 455 _c
}_e{242 434 275 424 318 424 _c
360 424 393 434 417 455 _c
441 476 453 506 453 544 _c
453 582 441 611 417 632 _c
393 653 360 664 318 664 _c
275 664 242 653 218 632 _c
194 611 183 582 183 544 _c
_cl}_e}_d
/A{684 0 8 0 676 729 _sc
342 632 _m
208 269 _l
476 269 _l
342 632 _l
286 729 _m
398 729 _l
676 0 _l
573 0 _l
507 187 _l
178 187 _l
112 0 _l
8 0 _l
286 729 _l
_cl}_d
/C{{698 0 56 -13 644 742 _sc
644 673 _m
644 569 _l
610 599 575 622 537 638 _c
499 653 460 661 418 661 _c
334 661 270 635 226 584 _c
182 533 160 460 160 364 _c
160 268 182 194 226 143 _c
270 92 334 67 418 67 _c
460 67 499 74 537 90 _c
575 105 610 128 644 159 _c
644 56 _l
609 32 572 15 534 4 _c
496 -7 455 -13 412 -13 _c
302 -13 215 20 151 87 _c
}_e{87 154 56 246 56 364 _c
56 481 87 573 151 641 _c
215 708 302 742 412 742 _c
456 742 497 736 535 725 _c
573 713 610 696 644 673 _c
_cl}_e}_d
/T{611 0 -2 0 614 729 _sc
-2 729 _m
614 729 _l
614 646 _l
355 646 _l
355 0 _l
256 0 _l
256 646 _l
-2 646 _l
-2 729 _l
_cl}_d
/U{732 0 87 -13 645 729 _sc
87 729 _m
186 729 _l
186 286 _l
186 208 200 151 228 117 _c
256 83 302 66 366 66 _c
429 66 475 83 503 117 _c
531 151 546 208 546 286 _c
546 729 _l
645 729 _l
645 274 _l
645 178 621 107 574 59 _c
527 11 458 -13 366 -13 _c
274 -13 204 11 157 59 _c
110 107 87 178 87 274 _c
87 729 _l
_cl}_d
/bracketleft{390 0 86 -131 293 760 _sc
86 760 _m
293 760 _l
293 690 _l
176 690 _l
176 -61 _l
293 -61 _l
293 -131 _l
86 -131 _l
86 760 _l
_cl}_d
/bracketright{390 0 97 -131 304 760 _sc
304 760 _m
304 -131 _l
97 -131 _l
97 -61 _l
214 -61 _l
214 690 _l
97 690 _l
97 760 _l
304 760 _l
_cl}_d
/a{{613 0 60 -13 522 560 _sc
343 275 _m
270 275 220 266 192 250 _c
164 233 150 205 150 165 _c
150 133 160 107 181 89 _c
202 70 231 61 267 61 _c
317 61 357 78 387 114 _c
417 149 432 196 432 255 _c
432 275 _l
343 275 _l
522 312 _m
522 0 _l
432 0 _l
432 83 _l
411 49 385 25 355 10 _c
325 -5 287 -13 243 -13 _c
187 -13 142 2 109 33 _c
76 64 60 106 60 159 _c
}_e{60 220 80 266 122 298 _c
163 329 224 345 306 345 _c
432 345 _l
432 354 _l
432 395 418 427 391 450 _c
364 472 326 484 277 484 _c
245 484 215 480 185 472 _c
155 464 127 453 100 439 _c
100 522 _l
132 534 164 544 195 550 _c
226 556 256 560 286 560 _c
365 560 424 539 463 498 _c
502 457 522 395 522 312 _c
_cl}_e}_d
/c{{550 0 55 -13 488 560 _sc
488 526 _m
488 442 _l
462 456 437 466 411 473 _c
385 480 360 484 334 484 _c
276 484 230 465 198 428 _c
166 391 150 339 150 273 _c
150 206 166 154 198 117 _c
230 80 276 62 334 62 _c
360 62 385 65 411 72 _c
437 79 462 90 488 104 _c
488 21 _l
462 9 436 0 410 -5 _c
383 -10 354 -13 324 -13 _c
242 -13 176 12 128 64 _c
}_e{79 115 55 185 55 273 _c
55 362 79 432 128 483 _c
177 534 244 560 330 560 _c
358 560 385 557 411 551 _c
437 545 463 537 488 526 _c
_cl}_e}_d
/e{{615 0 55 -13 562 560 _sc
562 296 _m
562 252 _l
149 252 _l
153 190 171 142 205 110 _c
238 78 284 62 344 62 _c
378 62 412 66 444 74 _c
476 82 509 95 541 113 _c
541 28 _l
509 14 476 3 442 -3 _c
408 -9 373 -13 339 -13 _c
251 -13 182 12 131 62 _c
80 112 55 181 55 268 _c
55 357 79 428 127 481 _c
175 533 241 560 323 560 _c
397 560 455 536 498 489 _c
}_e{540 441 562 377 562 296 _c
472 322 _m
471 371 457 410 431 440 _c
404 469 368 484 324 484 _c
274 484 234 469 204 441 _c
174 413 156 373 152 322 _c
472 322 _l
_cl}_e}_d
/i{278 0 94 0 184 760 _sc
94 547 _m
184 547 _l
184 0 _l
94 0 _l
94 547 _l
94 760 _m
184 760 _l
184 646 _l
94 646 _l
94 760 _l
_cl}_d
/l{278 0 94 0 184 760 _sc
94 760 _m
184 760 _l
184 0 _l
94 0 _l
94 760 _l
_cl}_d
/m{{974 0 91 0 889 560 _sc
520 442 _m
542 482 569 511 600 531 _c
631 550 668 560 711 560 _c
767 560 811 540 842 500 _c
873 460 889 403 889 330 _c
889 0 _l
799 0 _l
799 327 _l
799 379 789 418 771 444 _c
752 469 724 482 686 482 _c
639 482 602 466 575 435 _c
548 404 535 362 535 309 _c
535 0 _l
445 0 _l
445 327 _l
445 379 435 418 417 444 _c
398 469 369 482 331 482 _c
}_e{285 482 248 466 221 435 _c
194 404 181 362 181 309 _c
181 0 _l
91 0 _l
91 547 _l
181 547 _l
181 462 _l
201 495 226 520 255 536 _c
283 552 317 560 357 560 _c
397 560 430 550 458 530 _c
486 510 506 480 520 442 _c
_cl}_e}_d
/n{634 0 91 0 549 560 _sc
549 330 _m
549 0 _l
459 0 _l
459 327 _l
459 379 448 417 428 443 _c
408 469 378 482 338 482 _c
289 482 251 466 223 435 _c
195 404 181 362 181 309 _c
181 0 _l
91 0 _l
91 547 _l
181 547 _l
181 462 _l
202 494 227 519 257 535 _c
286 551 320 560 358 560 _c
420 560 468 540 500 501 _c
532 462 549 405 549 330 _c
_cl}_d
/o{612 0 55 -13 557 560 _sc
306 484 _m
258 484 220 465 192 427 _c
164 389 150 338 150 273 _c
150 207 163 156 191 118 _c
219 80 257 62 306 62 _c
354 62 392 80 420 118 _c
448 156 462 207 462 273 _c
462 337 448 389 420 427 _c
392 465 354 484 306 484 _c
306 560 _m
384 560 445 534 490 484 _c
534 433 557 363 557 273 _c
557 183 534 113 490 63 _c
445 12 384 -13 306 -13 _c
227 -13 165 12 121 63 _c
77 113 55 183 55 273 _c
55 363 77 433 121 484 _c
165 534 227 560 306 560 _c
_cl}_d
/p{{635 0 91 -207 580 560 _sc
181 82 _m
181 -207 _l
91 -207 _l
91 547 _l
181 547 _l
181 464 _l
199 496 223 520 252 536 _c
281 552 316 560 356 560 _c
422 560 476 533 518 481 _c
559 428 580 359 580 273 _c
580 187 559 117 518 65 _c
476 13 422 -13 356 -13 _c
316 -13 281 -5 252 10 _c
223 25 199 49 181 82 _c
487 273 _m
487 339 473 390 446 428 _c
418 466 381 485 334 485 _c
}_e{286 485 249 466 222 428 _c
194 390 181 339 181 273 _c
181 207 194 155 222 117 _c
249 79 286 61 334 61 _c
381 61 418 79 446 117 _c
473 155 487 207 487 273 _c
_cl}_e}_d
/r{411 0 91 0 411 560 _sc
411 463 _m
401 469 390 473 378 476 _c
366 478 353 480 339 480 _c
288 480 249 463 222 430 _c
194 397 181 350 181 288 _c
181 0 _l
91 0 _l
91 547 _l
181 547 _l
181 462 _l
199 495 224 520 254 536 _c
284 552 321 560 365 560 _c
371 560 378 559 386 559 _c
393 558 401 557 411 555 _c
411 463 _l
_cl}_d
/s{{521 0 54 -13 472 560 _sc
443 531 _m
443 446 _l
417 458 391 468 364 475 _c
336 481 308 485 279 485 _c
234 485 200 478 178 464 _c
156 450 145 430 145 403 _c
145 382 153 366 169 354 _c
185 342 217 330 265 320 _c
296 313 _l
360 299 405 279 432 255 _c
458 230 472 195 472 151 _c
472 100 452 60 412 31 _c
372 1 316 -13 246 -13 _c
216 -13 186 -10 154 -5 _c
}_e{122 0 89 8 54 20 _c
54 113 _l
87 95 120 82 152 74 _c
184 65 216 61 248 61 _c
290 61 323 68 346 82 _c
368 96 380 117 380 144 _c
380 168 371 187 355 200 _c
339 213 303 226 247 238 _c
216 245 _l
160 257 119 275 95 299 _c
70 323 58 356 58 399 _c
58 450 76 490 112 518 _c
148 546 200 560 268 560 _c
301 560 332 557 362 552 _c
391 547 418 540 443 531 _c
}_e{_cl}_e}_d
/t{392 0 27 0 368 702 _sc
183 702 _m
183 547 _l
368 547 _l
368 477 _l
183 477 _l
183 180 _l
183 135 189 106 201 94 _c
213 81 238 75 276 75 _c
368 75 _l
368 0 _l
276 0 _l
206 0 158 13 132 39 _c
106 65 93 112 93 180 _c
93 477 _l
27 477 _l
27 547 _l
93 547 _l
93 702 _l
183 702 _l
_cl}_d
/u{634 0 85 -13 543 560 _sc
85 216 _m
85 547 _l
175 547 _l
175 219 _l
175 167 185 129 205 103 _c
225 77 255 64 296 64 _c
344 64 383 79 411 110 _c
439 141 453 183 453 237 _c
453 547 _l
543 547 _l
543 0 _l
453 0 _l
453 84 _l
431 50 405 26 377 10 _c
348 -5 315 -13 277 -13 _c
214 -13 166 6 134 45 _c
101 83 85 140 85 216 _c
311 560 _m
311 560 _l
_cl}_d
/minus{838 0 106 272 732 355 _sc
106 355 _m
732 355 _l
732 272 _l
106 272 _l
106 355 _l
_cl}_d
end readonly def

/BuildGlyph
 {exch begin
 CharStrings exch
 2 copy known not{pop /.notdef}if
 true 3 1 roll get exec
 end}_d

/BuildChar {
 1 index /Encoding get exch get
 1 index /BuildGlyph get exec
}_d

FontName currentdict end definefont pop
end
%%EndProlog
mpldict begin
90 252 translate
432 288 0 0 clipbox
gsave
0 0 m
432 0 l
432 288 l
0 288 l
cl
1.000 setgray
fill
grestore
gsave
54 36 m
388.8 36 l
388.8 253.44 l
54 253.44 l
cl
1.000 setgray
fill
grestore
0.800 setlinewidth
1 setlinejoin
2 setlinecap
[] 0 setdash
0.690 setgray
gsave
334.8 217.4 54 36 clipbox
69.218182 36 m
69.218182 253.44 l
stroke
grestore
0 setlinecap
0.000 setgray
gsave
/o {
gsave
newpath
translate
0.8 setlinewidth
1 setlinejoin
0 setlinecap
0 0 m
0 -3.5 l

gsave
0.000 setgray
fill
grestore
stroke
grestore
} bind def
69.2182 36 o
grestore
/DejaVuSans findfont
10.000 scalefont
setfont
gsave
66.038494 21.406250 translate
0.000000 rotate
0.000000 0.000000 m /zero glyphshow
grestore
2 setlinecap
0.690 setgray
gsave
334.8 217.4 54 36 clipbox
112.729781 36 m
112.729781 253.44 l
stroke
grestore
0 setlinecap
0.000 setgray
gsave
/o {
gsave
newpath
translate
0.8 setlinewidth
1 setlinejoin
0 setlinecap
0 0 m
0 -3.5 l

gsave
0.000 setgray
fill
grestore
stroke
grestore
} bind def
112.73 36 o
grestore
gsave
103.190719 21.406250 translate
0.000000 rotate
0.000000 0.000000 m /two glyphshow
6.362305 0.000000 m /zero glyphshow
12.724609 0.000000 m /zero glyphshow
grestore
2 setlinecap
0.690 setgray
gsave
334.8 217.4 54 36 clipbox
156.24138 36 m
156.24138 253.44 l
stroke
grestore
0 setlinecap
0.000 setgray
gsave
/o {
gsave
newpath
translate
0.8 setlinewidth
1 setlinejoin
0 setlinecap
0 0 m
0 -3.5 l

gsave
0.000 setgray
fill
grestore
stroke
grestore
} bind def
156.241 36 o
grestore
gsave
146.702318 21.406250 translate
0.000000 rotate
0.000000 0.000000 m /four glyphshow
6.362305 0.000000 m /zero glyphshow
12.724609 0.000000 m /zero glyphshow
grestore
2 setlinecap
0.690 setgray
gsave
334.8 217.4 54 36 clipbox
199.752979 36 m
199.752979 253.44 l
stroke
grestore
0 setlinecap
0.000 setgray
gsave
/o {
gsave
newpath
translate
0.8 setlinewidth
1 setlinejoin
0 setlinecap
0 0 m
0 -3.5 l

gsave
0.000 setgray
fill
grestore
stroke
grestore
} bind def
199.753 36 o
grestore
gsave
190.213917 21.406250 translate
0.000000 rotate
0.000000 0.000000 m /six glyphshow
6.362305 0.000000 m /zero glyphshow
12.724609 0.000000 m /zero glyphshow
grestore
2 setlinecap
0.690 setgray
gsave
334.8 217.4 54 36 clipbox
243.264579 36 m
243.264579 253.44 l
stroke
grestore
0 setlinecap
0.000 setgray
gsave
/o {
gsave
newpath
translate
0.8 setlinewidth
1 setlinejoin
0 setlinecap
0 0 m
0 -3.5 l

gsave
0.000 setgray
fill
grestore
stroke
grestore
} bind def
243.265 36 o
grestore
gsave
233.725516 21.406250 translate
0.000000 rotate
0.000000 0.000000 m /eight glyphshow
6.362305 0.000000 m /zero glyphshow
12.724609 0.000000 m /zero glyphshow
grestore
2 setlinecap
0.690 setgray
gsave
334.8 217.4 54 36 clipbox
286.776178 36 m
286.776178 253.44 l
stroke
grestore
0 setlinecap
0.000 setgray
gsave
/o {
gsave
newpath
translate
0.8 setlinewidth
1 setlinejoin
0 setlinecap
0 0 m
0 -3.5 l

gsave
0.000 setgray
fill
grestore
stroke
grestore
} bind def
286.776 36 o
grestore
gsave
274.057428 21.406250 translate
0.000000 rotate
0.000000 0.000000 m /one glyphshow
6.362305 0.000000 m /zero glyphshow
12.724609 0.000000 m /zero glyphshow
19.086914 0.000000 m /zero glyphshow
grestore
2 setlinecap
0.690 setgray
gsave
334.8 217.4 54 36 clipbox
330.287777 36 m
330.287777 253.44 l
stroke
grestore
0 setlinecap
0.000 setgray
gsave
/o {
gsave
newpath
translate
0.8 setlinewidth
1 setlinejoin
0 setlinecap
0 0 m
0 -3.5 l

gsave
0.000 setgray
fill
grestore
stroke
grestore
} bind def
330.288 36 o
grestore
gsave
317.569027 21.406250 translate
0.000000 rotate
0.000000 0.000000 m /one glyphshow
6.362305 0.000000 m /two glyphshow
12.724609 0.000000 m /zero glyphshow
19.086914 0.000000 m /zero glyphshow
grestore
2 setlinecap
0.690 setgray
gsave
334.8 217.4 54 36 clipbox
373.799376 36 m
373.799376 253.44 l
stroke
grestore
0 setlinecap
0.000 setgray
gsave
/o {
gsave
newpath
translate
0.8 setlinewidth
1 setlinejoin
0 setlinecap
0 0 m
0 -3.5 l

gsave
0.000 setgray
fill
grestore
stroke
grestore
} bind def
373.799 36 o
grestore
gsave
361.080626 21.406250 translate
0.000000 rotate
0.000000 0.000000 m /one glyphshow
6.362305 0.000000 m /four glyphshow
12.724609 0.000000 m /zero glyphshow
19.086914 0.000000 m /zero glyphshow
grestore
gsave
200.892188 7.734375 translate
0.000000 rotate
0.000000 0.000000 m /T glyphshow
6.108398 0.000000 m /i glyphshow
8.886719 0.000000 m /m glyphshow
18.627930 0.000000 m /e glyphshow
24.780273 0.000000 m /space glyphshow
27.958984 0.000000 m /bracketleft glyphshow
31.860352 0.000000 m /s glyphshow
37.070312 0.000000 m /bracketright glyphshow
grestore
2 setlinecap
0.690 setgray
gsave
334.8 217.4 54 36 clipbox
54 62.11015 m
388.8 62.11015 l
stroke
grestore
0 setlinecap
0.000 setgray
gsave
/o {
gsave
newpath
translate
0.8 setlinewidth
1 setlinejoin
0 setlinecap
0 0 m
-3.5 0 l

gsave
0.000 setgray
fill
grestore
stroke
grestore
} bind def
54 62.1102 o
grestore
gsave
19.546875 58.313275 translate
0.000000 rotate
0.000000 0.000000 m /minus glyphshow
8.378906 0.000000 m /one glyphshow
14.741211 0.000000 m /five glyphshow
21.103516 0.000000 m /zero glyphshow
grestore
2 setlinecap
0.690 setgray
gsave
334.8 217.4 54 36 clipbox
54 100.327228 m
388.8 100.327228 l
stroke
grestore
0 setlinecap
0.000 setgray
gsave
/o {
gsave
newpath
translate
0.8 setlinewidth
1 setlinejoin
0 setlinecap
0 0 m
-3.5 0 l

gsave
0.000 setgray
fill
grestore
stroke
grestore
} bind def
54 100.327 o
grestore
gsave
19.546875 96.530353 translate
0.000000 rotate
0.000000 0.000000 m /minus glyphshow
8.378906 0.000000 m /one glyphshow
14.741211 0.000000 m /zero glyphshow
21.103516 0.000000 m /zero glyphshow
grestore
2 setlinecap
0.690 setgray
gsave
334.8 217.4 54 36 clipbox
54 138.544307 m
388.8 138.544307 l
stroke
grestore
0 setlinecap
0.000 setgray
gsave
/o {
gsave
newpath
translate
0.8 setlinewidth
1 setlinejoin
0 setlinecap
0 0 m
-3.5 0 l

gsave
0.000 setgray
fill
grestore
stroke
grestore
} bind def
54 138.544 o
grestore
gsave
25.906250 134.747432 translate
0.000000 rotate
0.000000 0.000000 m /minus glyphshow
8.378906 0.000000 m /five glyphshow
14.741211 0.000000 m /zero glyphshow
grestore
2 setlinecap
0.690 setgray
gsave
334.8 217.4 54 36 clipbox
54 176.761385 m
388.8 176.761385 l
stroke
grestore
0 setlinecap
0.000 setgray
gsave
/o {
gsave
newpath
translate
0.8 setlinewidth
1 setlinejoin
0 setlinecap
0 0 m
-3.5 0 l

gsave
0.000 setgray
fill
grestore
stroke
grestore
} bind def
54 176.761 o
grestore
gsave
40.640625 172.964510 translate
0.000000 rotate
0.000000 0.000000 m /zero glyphshow
grestore
2 setlinecap
0.690 setgray
gsave
334.8 217.4 54 36 clipbox
54 214.978463 m
388.8 214.978463 l
stroke
grestore
0 setlinecap
0.000 setgray
gsave
/o {
gsave
newpath
translate
0.8 setlinewidth
1 setlinejoin
0 setlinecap
0 0 m
-3.5 0 l

gsave
0.000 setgray
fill
grestore
stroke
grestore
} bind def
54 214.978 o
grestore
gsave
34.281250 211.181588 translate
0.000000 rotate
0.000000 0.000000 m /five glyphshow
6.362305 0.000000 m /zero glyphshow
grestore
2 setlinecap
0.690 setgray
gsave
334.8 217.4 54 36 clipbox
54 253.195542 m
388.8 253.195542 l
stroke
grestore
0 setlinecap
0.000 setgray
gsave
/o {
gsave
newpath
translate
0.8 setlinewidth
1 setlinejoin
0 setlinecap
0 0 m
-3.5 0 l

gsave
0.000 setgray
fill
grestore
stroke
grestore
} bind def
54 253.196 o
grestore
gsave
27.921875 249.398667 translate
0.000000 rotate
0.000000 0.000000 m /one glyphshow
6.362305 0.000000 m /zero glyphshow
12.724609 0.000000 m /zero glyphshow
grestore
gsave
13.468750 79.821562 translate
90.000000 rotate
0.000000 0.000000 m /U glyphshow
7.319336 0.000000 m /l glyphshow
10.097656 0.000000 m /t glyphshow
14.018555 0.000000 m /r glyphshow
18.129883 0.000000 m /a glyphshow
24.257812 0.000000 m /c glyphshow
29.755859 0.000000 m /a glyphshow
35.883789 0.000000 m /p glyphshow
42.231445 0.000000 m /a glyphshow
48.359375 0.000000 m /c glyphshow
53.857422 0.000000 m /i glyphshow
56.635742 0.000000 m /t glyphshow
60.556641 0.000000 m /o glyphshow
66.674805 0.000000 m /r glyphshow
70.786133 0.000000 m /space glyphshow
73.964844 0.000000 m /C glyphshow
80.947266 0.000000 m /u glyphshow
87.285156 0.000000 m /r glyphshow
91.396484 0.000000 m /r glyphshow
95.507812 0.000000 m /e glyphshow
101.660156 0.000000 m /n glyphshow
107.998047 0.000000 m /t glyphshow
111.918945 0.000000 m /space glyphshow
115.097656 0.000000 m /bracketleft glyphshow
118.999023 0.000000 m /A glyphshow
125.839844 0.000000 m /bracketright glyphshow
grestore
1.500 setlinewidth
2 setlinecap
0.122 0.467 0.706 setrgbcolor
gsave
334.8 217.4 54 36 clipbox
69.218182 45.883636 m
69.43574 48.645871 l
69.653298 140.732725 l
69.870856 112.207147 l
70.088414 127.798562 l
70.305972 130.277636 l
70.52353 140.89259 l
70.741088 142.242152 l
70.958646 152.92283 l
71.176204 147.635463 l
71.393762 150.958211 l
71.61132 143.964397 l
71.828878 143.166729 l
72.046436 137.383327 l
72.263994 136.344161 l
72.481552 161.778365 l
72.69911 157.165879 l
72.916668 182.660809 l
73.134226 180.66583 l
73.351784 182.192232 l
73.569342 180.691307 l
73.7869 167.185525 l
74.004458 175.75403 l
74.222016 108.688989 l
74.439574 204.717551 l
74.657132 131.32792 l
74.87469 209.829703 l
75.309806 177.858832 l
75.527364 173.746674 l
75.744922 179.268643 l
75.96248 174.517829 l
76.180038 185.528864 l
76.397596 181.697892 l
76.615154 153.641819 l
76.832712 201.120466 l
77.05027 154.676511 l
77.267828 204.131109 l
77.485386 184.901306 l
77.702944 180.513476 l
77.920502 184.779575 l
78.13806 170.274871 l
78.355618 186.407427 l
78.573176 172.079015 l
78.790734 179.019552 l
79.008292 181.612175 l
79.22585 179.240696 l
79.443408 182.820008 l
79.660966 198.999537 l
80.096082 183.506612 l
80.31364 191.920193 l
80.531198 158.049609 l
80.748756 171.535128 l
80.966314 173.280652 l
81.183872 167.395888 l
81.40143 179.492363 l
81.836546 175.230392 l
82.054104 164.833855 l
82.271662 168.850611 l
82.48922 167.798783 l
82.706778 163.319752 l
82.924336 177.602982 l
83.141894 166.785619 l
83.359452 169.651175 l
83.57701 181.652909 l
83.794568 173.331804 l
84.012126 185.373639 l
84.229684 212.331658 l
84.447242 206.91648 l
84.6648 243.556364 l
84.882358 230.824743 l
85.099916 208.784684 l
85.317474 199.201267 l
85.75259 165.86699 l
85.970148 167.513385 l
86.187706 156.113988 l
86.405263 162.944593 l
86.622821 155.85732 l
86.840379 159.075974 l
87.057937 141.166207 l
87.275495 132.971951 l
87.493053 157.760005 l
87.710611 138.259551 l
87.928169 190.881894 l
88.145727 168.430965 l
88.363285 191.399305 l
88.580843 171.449315 l
88.798401 178.378882 l
89.015959 169.740801 l
89.233517 184.457266 l
89.451075 155.159183 l
89.668633 198.455217 l
89.886191 151.251166 l
90.103749 196.439939 l
90.321307 157.693697 l
90.538865 191.196758 l
90.756423 166.615991 l
90.973981 186.11169 l
91.191539 177.031535 l
91.409097 188.978476 l
91.626655 168.799328 l
91.844213 181.121249 l
92.279329 166.23295 l
92.496887 186.296382 l
92.714445 171.974368 l
92.932003 183.190931 l
93.367119 168.285739 l
93.584677 151.089331 l
93.802235 182.054191 l
94.019793 131.593652 l
94.237351 206.447921 l
94.454909 159.009354 l
94.672467 191.206639 l
94.890025 186.898756 l
95.107583 164.045729 l
95.325141 188.878496 l
95.542699 177.167969 l
95.760257 176.44183 l
95.977815 186.721647 l
96.195373 184.756151 l
96.412931 180.134215 l
96.630489 189.733905 l
96.848047 184.290635 l
97.065605 185.387163 l
97.283163 172.89074 l
97.500721 176.246489 l
97.718279 172.736211 l
97.935837 172.825638 l
98.153395 176.483377 l
98.370953 177.449331 l
98.588511 177.103387 l
98.806069 155.402153 l
99.241185 170.62113 l
99.458743 165.085908 l
99.676301 186.903378 l
99.893859 183.668274 l
100.111417 182.663729 l
100.981649 236.567801 l
101.199207 204.970626 l
101.416765 195.036217 l
101.851881 151.445088 l
102.069439 160.840428 l
102.286997 152.721362 l
102.504555 158.780349 l
102.722113 169.057479 l
102.939671 148.178459 l
103.157229 166.503182 l
103.374787 94.200766 l
103.592345 193.928502 l
103.809903 123.140356 l
104.027461 201.240758 l
104.245019 168.148609 l
104.462577 183.069438 l
104.680135 160.236609 l
104.897693 160.502134 l
105.115251 169.760381 l
105.332809 161.111319 l
105.550367 173.43708 l
105.767925 192.29359 l
105.985483 181.840313 l
106.203041 182.400037 l
106.420599 196.963619 l
106.638157 174.286655 l
106.855715 186.847117 l
107.073273 181.187413 l
107.725947 191.95797 l
107.943505 167.337743 l
108.161063 168.499611 l
108.378621 166.116583 l
108.596179 167.31252 l
108.813737 140.733611 l
109.031295 210.803524 l
109.248853 132.39817 l
109.466411 199.207343 l
109.683969 209.763975 l
109.901527 163.063215 l
110.119085 242.761385 l
110.336643 178.548979 l
110.554201 214.924399 l
110.771759 173.843138 l
110.989317 177.064529 l
111.424433 162.545904 l
111.641991 185.192507 l
111.859549 136.77848 l
112.077107 174.554996 l
112.294665 174.130395 l
112.512223 167.1264 l
112.729781 188.737277 l
112.947339 165.510429 l
113.164897 178.605373 l
113.382455 168.513566 l
113.600013 171.547039 l
113.817571 162.437832 l
114.035129 189.082779 l
114.252687 163.390968 l
114.470245 202.413584 l
114.687803 161.716942 l
114.905361 176.250877 l
115.122919 163.575062 l
115.340477 185.819555 l
115.558035 183.862777 l
115.775593 191.272761 l
115.993151 179.368744 l
116.210709 179.679674 l
116.645825 169.339623 l
116.863383 176.672252 l
117.080941 191.439861 l
117.298499 148.852196 l
117.516057 186.436769 l
117.733615 152.837447 l
118.168731 184.307896 l
118.386289 176.682553 l
118.603847 175.290209 l
118.821405 181.082322 l
119.038963 169.361894 l
119.256521 181.331354 l
119.474079 175.95363 l
119.691637 194.188406 l
119.909195 186.063874 l
120.126753 140.424317 l
120.344311 138.247095 l
120.561869 81.962581 l
120.779427 178.60718 l
120.996985 179.531823 l
121.214543 228.226918 l
121.432101 220.233028 l
121.649659 186.67623 l
121.867217 177.647783 l
122.084775 185.338477 l
122.302333 181.505816 l
122.519891 181.760943 l
122.737449 181.670552 l
122.955007 177.781716 l
123.172565 178.114699 l
123.390123 175.090468 l
123.607681 182.791615 l
123.825239 175.221308 l
124.042797 181.710475 l
124.260355 173.850152 l
124.477913 185.498479 l
124.695471 185.873397 l
124.913029 179.598968 l
125.130587 185.312266 l
125.348145 163.500405 l
125.565703 181.534539 l
125.783261 170.057369 l
126.000819 183.740949 l
126.218377 174.641035 l
126.435935 173.941309 l
126.653493 176.355075 l
126.871051 180.209695 l
127.088609 179.475342 l
127.306167 175.386729 l
127.523725 178.276539 l
127.741283 171.278245 l
127.958841 182.894971 l
128.176399 174.928192 l
128.393957 184.558607 l
128.611515 167.889566 l
128.829073 183.551723 l
129.046631 168.580063 l
129.264189 186.102013 l
129.481747 170.964365 l
129.699305 182.162245 l
129.916863 169.768653 l
130.134421 179.156123 l
130.351979 169.804174 l
130.569537 176.60061 l
130.787095 171.023094 l
131.004653 179.290372 l
131.222211 180.894815 l
131.439769 181.087785 l
131.657327 191.751242 l
131.874885 196.393309 l
132.092443 213.831807 l
132.310001 216.381546 l
132.527559 208.163098 l
132.745117 174.760063 l
132.962675 178.268362 l
133.180233 113.893734 l
133.397791 180.006629 l
133.615349 149.338371 l
133.832907 156.108376 l
134.050465 197.557567 l
134.268023 163.211723 l
134.485581 173.649681 l
134.920697 181.031465 l
135.138255 166.971404 l
135.355813 182.141308 l
135.790929 164.594436 l
136.008487 180.546446 l
136.226045 167.140964 l
136.443603 179.500116 l
136.661161 171.748557 l
136.878719 156.07817 l
137.096277 184.912008 l
137.313835 158.698639 l
137.531393 189.467338 l
137.748951 171.525448 l
137.966509 177.338072 l
138.184067 148.696145 l
138.401625 195.560595 l
138.619183 147.802387 l
138.836741 205.32922 l
139.054299 181.280602 l
139.271857 184.442803 l
139.489415 183.70873 l
139.924531 169.348018 l
140.359647 198.595792 l
140.577204 197.001564 l
140.794762 201.883052 l
141.01232 203.141661 l
141.229878 168.867023 l
141.447436 200.217303 l
141.664994 143.612509 l
141.882552 184.3965 l
142.10011 151.059643 l
142.317668 178.318005 l
142.535226 175.401727 l
142.752784 180.054047 l
142.970342 147.779669 l
143.1879 173.387266 l
143.405458 155.790985 l
143.840574 180.270392 l
144.058132 174.103036 l
144.27569 186.208035 l
144.493248 161.927139 l
144.710806 185.164132 l
144.928364 161.939587 l
145.145922 178.156845 l
145.36348 178.772397 l
145.581038 175.967964 l
145.798596 178.268947 l
146.016154 178.34895 l
146.233712 183.703499 l
146.45127 181.07166 l
146.668828 186.200518 l
147.103944 177.453636 l
147.321502 178.306791 l
147.53906 171.752142 l
147.756618 175.513841 l
148.191734 167.996857 l
148.409292 181.1816 l
148.62685 170.990643 l
149.061966 185.393196 l
149.279524 162.486848 l
149.497082 215.224254 l
149.71464 179.837803 l
149.932198 220.882565 l
150.149756 181.762041 l
150.367314 181.656176 l
150.584872 162.169181 l
150.80243 163.143865 l
151.019988 170.161686 l
151.237546 166.507106 l
151.672662 184.446383 l
151.89022 170.59251 l
152.107778 182.717569 l
152.325336 160.580302 l
152.542894 175.680145 l
152.760452 160.159885 l
152.97801 196.198134 l
153.195568 135.735055 l
153.413126 181.62223 l
153.630684 142.978823 l
153.848242 175.126874 l
154.283358 187.853911 l
154.500916 186.512649 l
154.718474 182.92312 l
154.936032 185.855398 l
155.371148 176.756745 l
155.806264 172.750852 l
156.023822 172.789358 l
156.24138 172.618566 l
156.458938 171.844184 l
156.676496 177.081119 l
156.894054 172.827566 l
157.111612 177.5598 l
157.32917 177.504786 l
157.546728 168.327731 l
157.764286 189.902218 l
157.981844 163.562155 l
158.199402 196.18631 l
158.41696 182.521364 l
158.634518 195.086283 l
158.852076 177.267613 l
159.069634 197.604407 l
159.287192 170.273955 l
159.50475 185.037958 l
159.939866 164.296864 l
160.157424 167.180191 l
160.374982 165.114577 l
160.59254 181.419023 l
160.810098 172.685671 l
161.027656 183.395565 l
161.245214 168.753276 l
161.462772 191.10772 l
161.68033 167.991857 l
161.897888 184.274767 l
162.550562 161.770666 l
162.76812 182.30272 l
162.985678 154.940432 l
163.203236 183.284465 l
163.420794 170.766452 l
163.638352 178.481488 l
163.85591 176.951328 l
164.073468 176.317716 l
164.291026 177.829145 l
164.508584 193.328662 l
164.726142 157.767129 l
164.9437 192.774792 l
165.161258 159.33794 l
165.378816 179.648526 l
165.596374 178.14049 l
165.813932 153.775884 l
166.03149 171.613214 l
166.249048 162.933848 l
166.684164 185.12274 l
166.901722 178.828773 l
167.11928 109.893332 l
167.336838 138.817008 l
167.554396 131.260777 l
167.771954 164.740985 l
167.989512 216.207636 l
168.20707 207.54118 l
168.424628 204.450884 l
168.642186 187.181489 l
168.859744 187.478888 l
169.077302 185.737638 l
169.29486 185.169975 l
169.729976 212.980206 l
169.947534 205.740852 l
170.165092 219.321436 l
170.38265 162.586538 l
170.600208 195.639503 l
170.817766 149.399736 l
171.035324 181.398873 l
171.252882 161.801607 l
171.47044 182.465879 l
171.687998 150.430883 l
171.905556 190.747822 l
172.123114 163.677114 l
172.340672 196.652599 l
172.55823 156.865455 l
172.775788 204.666552 l
172.993346 154.011646 l
173.210904 191.45148 l
173.428462 172.604065 l
173.64602 185.720683 l
173.863578 175.153008 l
174.081136 182.042398 l
174.298694 176.932887 l
174.516252 174.524351 l
174.73381 168.565376 l
174.951368 174.938365 l
175.168926 175.991751 l
175.386484 171.340021 l
175.604042 188.836433 l
175.8216 156.192423 l
176.039158 198.308435 l
176.256716 119.831686 l
176.474274 201.4507 l
176.691832 150.403666 l
176.90939 173.384663 l
177.126948 212.306215 l
177.344506 170.683652 l
177.562064 194.728646 l
177.99718 176.971448 l
178.214738 187.516583 l
178.432296 176.329239 l
178.649854 190.644755 l
178.867412 152.457445 l
179.08497 196.681628 l
179.302528 176.537108 l
179.520086 220.483221 l
179.737644 206.862179 l
180.17276 196.127859 l
180.390318 160.994051 l
180.607876 169.882145 l
180.825434 155.686323 l
181.26055 165.585607 l
181.478108 166.01791 l
181.695666 172.48649 l
181.913224 163.623055 l
182.130782 173.093949 l
182.34834 169.874165 l
182.565898 164.533017 l
182.783456 148.793688 l
183.001014 171.729438 l
183.43613 145.265226 l
183.653688 201.066679 l
183.871246 154.902566 l
184.088804 199.512073 l
184.306362 173.552402 l
184.52392 180.165406 l
184.741478 162.232735 l
184.959036 185.761609 l
185.394152 181.722132 l
185.61171 183.154044 l
185.829268 174.02992 l
186.046826 141.661227 l
186.264384 174.11568 l
186.481942 145.012613 l
186.6995 191.571121 l
186.917058 148.702704 l
187.134616 196.708433 l
187.352174 164.070556 l
187.569732 199.970105 l
187.78729 153.280525 l
188.004848 185.042293 l
188.222406 156.115638 l
188.439964 195.347609 l
188.87508 222.665053 l
189.092638 187.111758 l
189.310196 187.660506 l
189.527754 178.599702 l
189.745312 155.879723 l
189.96287 193.16537 l
190.180428 146.088241 l
190.397986 207.355371 l
190.615544 193.225952 l
190.833102 211.367248 l
191.05066 213.891963 l
191.268218 189.266312 l
191.485776 124.725433 l
191.703334 170.016164 l
191.920892 137.08045 l
192.13845 135.229444 l
192.356008 213.863245 l
192.573566 147.424285 l
192.791124 204.077499 l
193.008682 187.205812 l
193.22624 153.127944 l
193.443798 195.408313 l
193.661356 144.396519 l
193.878914 190.51886 l
194.096472 110.840198 l
194.31403 200.996782 l
194.531587 122.86356 l
194.749145 220.983526 l
195.184261 144.468719 l
195.401819 177.496721 l
195.619377 147.948375 l
196.054493 213.873928 l
196.272051 178.89243 l
196.489609 201.183699 l
196.924725 169.878675 l
197.142283 168.954439 l
197.359841 170.404286 l
197.577399 167.489482 l
197.794957 189.995375 l
198.012515 176.33123 l
198.230073 184.339513 l
198.447631 182.068092 l
198.665189 176.927941 l
198.882747 191.969471 l
199.317863 150.347904 l
199.535421 179.319556 l
199.752979 145.85545 l
199.970537 188.024863 l
200.188095 168.625149 l
200.405653 161.657662 l
200.623211 196.447176 l
200.840769 159.024429 l
201.058327 218.319595 l
201.275885 183.591377 l
201.493443 185.152493 l
201.711001 189.197279 l
201.928559 172.262427 l
202.146117 189.399096 l
202.363675 173.546866 l
202.581233 182.116843 l
202.798791 174.952389 l
203.016349 183.370099 l
203.233907 175.154959 l
203.451465 201.956904 l
203.669023 190.78665 l
203.886581 196.960599 l
204.104139 190.001226 l
204.321697 190.907461 l
204.539255 163.70205 l
204.756813 185.195253 l
204.974371 164.040142 l
205.191929 210.824804 l
205.409487 200.118185 l
205.627045 240.07109 l
205.844603 199.397529 l
206.062161 192.327267 l
206.497277 149.06462 l
206.714835 165.2913 l
206.932393 166.780794 l
207.149951 161.234426 l
207.367509 191.76227 l
207.585067 144.380247 l
207.802625 157.292386 l
208.020183 148.94517 l
208.237741 145.714327 l
208.455299 179.691208 l
208.672857 187.104963 l
208.890415 172.029325 l
209.107973 195.135903 l
209.325531 174.335855 l
209.543089 174.887829 l
209.760647 187.073258 l
209.978205 152.569299 l
210.195763 200.731588 l
210.413321 183.803075 l
210.630879 225.56344 l
210.848437 227.569879 l
211.065995 227.092782 l
211.283553 202.869245 l
211.501111 210.384066 l
211.718669 194.172908 l
211.936227 203.069293 l
212.153785 207.328311 l
212.588901 193.978499 l
212.806459 178.295064 l
213.024017 174.521841 l
213.241575 151.957699 l
213.459133 150.468701 l
213.676691 141.630785 l
213.894249 139.500932 l
214.111807 144.053178 l
214.329365 145.913614 l
214.764481 153.746222 l
214.982039 144.441379 l
215.199597 165.384664 l
215.417155 150.403274 l
215.634713 172.967256 l
215.852271 168.401413 l
216.069829 179.422353 l
216.287387 170.754599 l
216.504945 177.07253 l
216.722503 161.834325 l
216.940061 164.375423 l
217.157619 165.33248 l
217.375177 154.689117 l
217.592735 178.266398 l
217.810293 169.757622 l
218.027851 180.117162 l
218.245409 179.984127 l
218.462967 168.132159 l
218.680525 163.686984 l
218.898083 171.956663 l
219.115641 171.150624 l
219.333199 190.306954 l
219.985873 178.616431 l
220.203431 166.72242 l
220.420989 180.909318 l
220.638547 174.463743 l
220.856105 187.446122 l
221.291221 164.578829 l
221.508779 170.075813 l
221.726337 167.58129 l
222.161453 184.553648 l
222.379011 177.304728 l
222.596569 181.988359 l
222.814127 182.633128 l
223.031685 186.434349 l
223.466801 170.462095 l
223.684359 184.913238 l
223.901917 135.986833 l
224.119475 208.435454 l
224.337033 146.101165 l
224.554591 201.10621 l
224.772149 157.23586 l
224.989707 185.469258 l
225.207265 164.44655 l
225.424823 194.421616 l
225.642381 184.139239 l
225.859939 193.274281 l
226.077497 173.901404 l
226.295055 184.268487 l
226.512613 172.455452 l
226.730171 173.825469 l
226.947729 186.023912 l
227.165287 172.558659 l
227.382845 187.320614 l
227.600403 177.206911 l
227.817961 174.770242 l
228.035519 168.694646 l
228.253077 176.445934 l
228.470635 171.065289 l
228.688193 181.202256 l
228.905751 168.69769 l
229.123309 182.263713 l
229.340867 180.980834 l
229.558425 168.278443 l
229.775983 191.394027 l
229.993541 169.520757 l
230.211099 179.508155 l
230.428657 179.35983 l
230.646215 146.166767 l
230.863773 190.56204 l
231.081331 153.835827 l
231.298889 198.218054 l
231.516447 198.5133 l
231.734005 213.570913 l
231.951563 214.804304 l
232.169121 223.689269 l
232.386679 188.070737 l
232.604237 190.800471 l
232.821795 162.347678 l
233.039353 186.848065 l
233.256911 183.505636 l
233.474469 203.902066 l
233.692027 191.200396 l
233.909585 188.388598 l
234.127143 160.248699 l
234.344701 156.25629 l
234.562259 119.930125 l
234.779817 178.721848 l
234.997375 102.321891 l
235.214933 204.868736 l
235.432491 135.067033 l
235.650049 196.466132 l
235.867607 167.558072 l
236.085165 199.324089 l
236.302723 155.668657 l
236.520281 188.272501 l
236.737839 154.465263 l
236.955397 206.719731 l
237.172955 200.225897 l
237.390513 200.324844 l
237.608071 196.390284 l
237.825629 160.640943 l
238.043187 163.440126 l
238.260745 164.433512 l
238.478303 164.041229 l
239.130977 168.742019 l
239.783651 171.715556 l
240.436325 173.587408 l
241.088999 174.764815 l
241.741673 175.505049 l
242.611905 176.08317 l
243.047021 176.315804 l
243.699695 176.462013 l
243.917253 172.126497 l
244.134811 174.931274 l
244.352369 166.807774 l
244.569927 168.094714 l
244.787485 159.41282 l
245.222601 175.634084 l
245.440159 174.375385 l
245.657717 190.947042 l
245.875275 160.980399 l
246.092833 194.538245 l
246.310391 162.033338 l
246.527949 196.042466 l
246.745507 183.498969 l
246.963065 181.295319 l
247.180623 138.843825 l
247.398181 205.914969 l
247.615739 129.718666 l
247.833297 214.108084 l
248.050855 180.026197 l
248.268413 190.03029 l
248.48597 177.676178 l
248.703528 196.936733 l
248.921086 192.256632 l
249.138644 224.76099 l
249.356202 227.462785 l
249.57376 228.271263 l
249.791318 216.815788 l
250.443992 159.409708 l
250.879108 149.494019 l
251.096666 154.427263 l
251.314224 156.26546 l
252.184456 166.916815 l
252.402014 168.349003 l
252.619572 165.361929 l
253.054688 144.831428 l
253.272246 161.055972 l
253.489804 155.632849 l
253.707362 188.585156 l
253.92492 176.622287 l
254.142478 198.521035 l
254.360036 167.03189 l
254.577594 203.910839 l
254.795152 165.435311 l
255.01271 187.642546 l
255.230268 181.464998 l
255.447826 171.25801 l
255.665384 184.327867 l
255.882942 153.449024 l
256.1005 186.416513 l
256.318058 157.063005 l
256.535616 183.326456 l
256.753174 181.687135 l
257.18829 170.000494 l
257.405848 165.637759 l
257.623406 171.851553 l
257.840964 159.058022 l
258.058522 180.043353 l
258.27608 168.944792 l
258.493638 180.546935 l
258.711196 171.204119 l
258.928754 180.54028 l
259.146312 177.194774 l
259.581428 198.119338 l
259.798986 187.705333 l
260.016544 206.925378 l
260.234102 177.708599 l
260.45166 203.847268 l
260.669218 186.154504 l
261.104334 187.194921 l
261.53945 167.452699 l
261.757008 190.230407 l
261.974566 189.077924 l
262.192124 179.926343 l
262.409682 190.363762 l
262.62724 161.985183 l
263.062356 166.489847 l
263.932588 171.068356 l
264.585262 173.188543 l
265.020378 174.142537 l
265.237936 173.410342 l
265.455494 171.470504 l
265.673052 157.911178 l
265.89061 158.338199 l
266.108168 172.091532 l
266.325726 130.454006 l
266.543284 190.001478 l
266.760842 158.41165 l
266.9784 186.152808 l
267.413516 190.418194 l
267.631074 163.765089 l
267.848632 193.030841 l
268.06619 176.393791 l
268.283748 189.014562 l
268.501306 179.810951 l
268.718864 184.297539 l
268.936422 179.123402 l
269.15398 180.601307 l
269.371538 189.64388 l
269.589096 179.833368 l
269.806654 178.036891 l
270.024212 179.15074 l
270.24177 188.545967 l
270.459328 165.157039 l
270.676886 201.682265 l
270.894444 164.951792 l
271.112002 195.881888 l
271.32956 176.954763 l
271.547118 182.210721 l
271.764676 172.839684 l
271.982234 177.110568 l
272.199792 167.584758 l
272.41735 175.076129 l
272.634908 161.216438 l
272.852466 159.962305 l
273.070024 171.81924 l
273.287582 160.547249 l
273.50514 183.666651 l
273.722698 172.336501 l
273.940256 184.419785 l
274.157814 182.704439 l
274.375372 164.168572 l
274.59293 194.633409 l
274.810488 160.069082 l
275.028046 192.024011 l
275.245604 159.44264 l
275.463162 179.433143 l
275.68072 167.8827 l
276.115836 183.466152 l
276.333394 176.046135 l
276.550952 183.015662 l
276.76851 169.694266 l
276.986068 186.757593 l
277.203626 172.649407 l
277.421184 174.44862 l
277.638742 178.868833 l
277.8563 175.418451 l
278.073858 178.792373 l
278.291416 180.256882 l
278.508974 182.753698 l
278.94409 179.854341 l
279.596764 161.367699 l
279.814322 180.038908 l
280.03188 165.502367 l
280.249438 194.272971 l
280.466996 181.274719 l
280.684554 175.689166 l
280.902112 157.444081 l
281.11967 180.184975 l
281.337228 152.425624 l
281.554786 188.696596 l
281.772344 176.492799 l
281.989902 186.668439 l
282.20746 177.817216 l
282.425018 180.840915 l
282.642576 173.353069 l
282.860134 185.869987 l
283.077692 185.643236 l
283.29525 178.784526 l
283.512808 187.708715 l
283.947924 164.014133 l
284.165482 195.224578 l
284.38304 163.891882 l
284.600598 192.895113 l
284.818156 172.370926 l
285.035714 202.214206 l
285.253272 174.432176 l
285.47083 204.178881 l
285.688388 174.703228 l
285.905946 173.414973 l
286.123504 143.288535 l
286.341062 177.719603 l
286.55862 135.279579 l
286.776178 183.227338 l
286.993736 176.093329 l
287.211294 209.017757 l
287.428852 180.014762 l
287.64641 240.371217 l
287.863968 180.869991 l
288.081526 209.154623 l
288.299084 180.303643 l
288.516642 175.971247 l
288.7342 165.776698 l
288.951758 162.882096 l
289.82199 168.93365 l
290.039548 168.713122 l
290.257106 171.208577 l
290.474664 170.662889 l
290.692222 172.876487 l
291.344896 174.327498 l
291.99757 175.230512 l
292.650244 175.797987 l
293.520476 176.296482 l
294.825824 176.55118 l
296.783846 176.695439 l
297.654078 176.72364 l
297.871636 175.54284 l
298.089194 176.867512 l
298.306752 175.682605 l
298.52431 176.987412 l
301.135006 176.805635 l
301.570122 170.733711 l
301.78768 174.444813 l
302.005238 174.823526 l
302.440353 181.258204 l
302.657911 178.36401 l
302.875469 177.442032 l
303.963259 177.104921 l
305.486165 176.892982 l
306.791513 176.817745 l
307.009071 174.851767 l
307.226629 155.690124 l
307.444187 174.043567 l
307.661745 154.765555 l
307.879303 180.183958 l
308.096861 187.852374 l
308.314419 188.39058 l
308.531977 191.189388 l
308.749535 185.028468 l
308.967093 186.630807 l
309.184651 179.932316 l
309.619767 163.188416 l
309.837325 163.553439 l
310.054883 168.299825 l
310.272441 179.032068 l
310.489999 180.859308 l
310.707557 186.143455 l
310.925115 185.51425 l
311.142673 183.690038 l
311.360231 171.95578 l
311.577789 174.664827 l
312.012905 166.618705 l
312.230463 196.362827 l
312.448021 167.184698 l
312.665579 191.561012 l
312.883137 177.393712 l
313.100695 180.408235 l
313.318253 181.836942 l
313.535811 203.710639 l
313.753369 206.681142 l
313.970927 184.078663 l
314.188485 232.018186 l
314.406043 163.694656 l
314.623601 201.743198 l
314.841159 173.115323 l
315.058717 163.545261 l
315.276275 159.420838 l
315.928949 168.605813 l
316.146507 166.778862 l
316.364065 158.113954 l
316.581623 139.411384 l
316.799181 172.519515 l
317.016739 147.458305 l
317.451855 194.080111 l
317.669413 153.750854 l
317.886971 198.340339 l
318.104529 166.56455 l
318.322087 175.985865 l
318.539645 195.299805 l
318.757203 157.097996 l
318.974761 200.415789 l
319.192319 155.247507 l
319.409877 184.758117 l
319.627435 176.584621 l
319.844993 177.811908 l
320.062551 177.671228 l
320.280109 182.906827 l
320.497667 171.778147 l
320.715225 176.53165 l
320.932783 177.918474 l
321.150341 169.906074 l
321.367899 177.024004 l
321.585457 171.933277 l
321.803015 178.168809 l
322.020573 178.837243 l
322.238131 167.636136 l
322.455689 179.247118 l
322.673247 176.523748 l
322.890805 177.235273 l
323.108363 174.189392 l
323.325921 193.495906 l
323.543479 166.085436 l
323.761037 188.367819 l
323.978595 175.465181 l
324.196153 170.62634 l
324.413711 174.455591 l
324.631269 183.245363 l
325.066385 220.654607 l
325.283943 239.253725 l
325.719059 215.232715 l
325.936617 186.688117 l
326.154175 183.56148 l
326.371733 169.066372 l
326.589291 167.91652 l
326.806849 173.824525 l
327.024407 168.793774 l
327.241965 159.628895 l
327.459523 160.682251 l
327.677081 154.525653 l
327.894639 144.224228 l
328.112197 123.344622 l
328.547313 156.055911 l
328.764871 155.464644 l
328.982429 198.049448 l
329.199987 140.833797 l
329.417545 198.682374 l
329.635103 150.950188 l
329.852661 192.238333 l
330.070219 190.494602 l
330.287777 151.485947 l
330.505335 202.563769 l
330.722893 155.941613 l
330.940451 192.935318 l
331.375567 158.740008 l
331.593125 190.924867 l
331.810683 158.634108 l
332.028241 191.241617 l
332.245799 174.093464 l
332.463357 188.932657 l
332.680915 165.001791 l
332.898473 183.495876 l
333.116031 160.887447 l
333.333589 174.402858 l
333.551147 169.806122 l
333.768705 175.957399 l
333.986263 190.73942 l
334.203821 185.961364 l
334.421379 207.605524 l
334.638937 200.345046 l
334.856495 225.15731 l
335.074053 191.144083 l
335.291611 222.676346 l
335.509169 194.648554 l
335.726727 199.408339 l
336.379401 159.51606 l
336.596959 153.83562 l
336.814517 154.594803 l
337.032075 157.840025 l
337.249633 157.840154 l
337.467191 126.535536 l
337.684749 156.140049 l
337.902307 135.464532 l
338.337423 187.902857 l
338.554981 166.931541 l
338.772539 177.807079 l
338.990097 180.700242 l
339.207655 159.340561 l
339.425213 208.429403 l
339.642771 156.318106 l
339.860329 157.180543 l
340.077887 198.810734 l
340.295445 144.203073 l
340.513003 206.203134 l
340.948119 170.874498 l
341.165677 182.944916 l
341.383235 169.24769 l
341.600793 187.369637 l
341.818351 183.315938 l
342.253467 217.847488 l
342.688583 231.747636 l
342.906141 221.298746 l
343.776373 157.158124 l
343.993931 151.274943 l
344.211489 149.885607 l
345.081721 162.019886 l
345.734395 167.569914 l
346.387069 171.023571 l
347.039743 173.17596 l
347.692417 174.518622 l
348.345091 175.356652 l
348.997765 175.879893 l
349.867997 176.32744 l
351.173345 176.563117 l
353.348925 176.702192 l
358.787874 176.748715 l
359.875664 176.749509 l
360.093222 173.766727 l
360.31078 157.962858 l
360.528338 171.49875 l
360.745896 160.750919 l
361.181012 184.66796 l
361.616128 172.036067 l
361.833686 178.562309 l
362.051244 169.856442 l
362.48636 187.65549 l
362.703918 182.015708 l
362.921476 198.177047 l
363.139034 177.320911 l
363.356592 189.469133 l
363.57415 191.626729 l
363.791708 178.257358 l
364.009266 196.259874 l
364.226824 175.897924 l
364.444382 175.203039 l
364.66194 168.223435 l
364.879498 173.599679 l
365.314614 149.371662 l
365.532172 174.127908 l
365.74973 165.757501 l
365.967288 184.231703 l
366.184846 191.793843 l
366.402404 183.48219 l
366.619962 182.609514 l
367.272636 174.355086 l
367.490194 175.212552 l
367.707752 176.528049 l
367.92531 175.305836 l
368.795542 175.974539 l
369.230658 176.256017 l
369.448216 175.350134 l
369.665774 175.760205 l
369.883332 175.814189 l
370.10089 176.003354 l
370.318448 176.995118 l
370.536006 176.800837 l
373.581818 176.757534 l
373.581818 176.757534 l
stroke
grestore
0.800 setlinewidth
0 setlinejoin
[] 0 setdash
0.000 setgray
gsave
54 36 m
54 253.44 l
stroke
grestore
gsave
388.8 36 m
388.8 253.44 l
stroke
grestore
gsave
54 36 m
388.8 36 l
stroke
grestore
gsave
54 253.44 m
388.8 253.44 l
stroke
grestore

end
showpage
