%!PS-Adobe-3.0 EPSF-3.0
%%Title: ./plots/passive/fixed_init_Battery Current [A].eps
%%Creator: matplotlib version 2.0.0, http://matplotlib.org/
%%CreationDate: Mon May 15 21:32:15 2017
%%Orientation: portrait
%%BoundingBox: 90 252 522 540
%%EndComments
%%BeginProlog
/mpldict 8 dict def
mpldict begin
/m { moveto } bind def
/l { lineto } bind def
/r { rlineto } bind def
/c { curveto } bind def
/cl { closepath } bind def
/box {
m
1 index 0 r
0 exch r
neg 0 r
cl
} bind def
/clipbox {
box
clip
newpath
} bind def
%!PS-Adobe-3.0 Resource-Font
%%Title: DejaVu Sans
%%Copyright: Copyright (c) 2003 by Bitstream, Inc. All Rights Reserved. Copyright (c) 2006 by Tavmjong Bah. All Rights Reserved. DejaVu changes are in public domain 
%%Creator: Converted from TrueType to type 3 by PPR
25 dict begin
/_d{bind def}bind def
/_m{moveto}_d
/_l{lineto}_d
/_cl{closepath eofill}_d
/_c{curveto}_d
/_sc{7 -1 roll{setcachedevice}{pop pop pop pop pop pop}ifelse}_d
/_e{exec}_d
/FontName /DejaVuSans def
/PaintType 0 def
/FontMatrix[.001 0 0 .001 0 0]def
/FontBBox[-1021 -463 1793 1232]def
/FontType 3 def
/Encoding [ /space /zero /one /two /four /five /six /seven /eight /A /B /C /T /bracketleft /bracketright /a /e /i /m /n /r /s /t /u /y /minus ] def
/FontInfo 10 dict dup begin
/FamilyName (DejaVu Sans) def
/FullName (DejaVu Sans) def
/Notice (Copyright (c) 2003 by Bitstream, Inc. All Rights Reserved. Copyright (c) 2006 by Tavmjong Bah. All Rights Reserved. DejaVu changes are in public domain ) def
/Weight (Book) def
/Version (Version 2.35) def
/ItalicAngle 0.0 def
/isFixedPitch false def
/UnderlinePosition -130 def
/UnderlineThickness 90 def
end readonly def
/CharStrings 26 dict dup begin
/space{318 0 0 0 0 0 _sc
}_d
/zero{636 0 66 -13 570 742 _sc
318 664 _m
267 664 229 639 203 589 _c
177 539 165 464 165 364 _c
165 264 177 189 203 139 _c
229 89 267 64 318 64 _c
369 64 407 89 433 139 _c
458 189 471 264 471 364 _c
471 464 458 539 433 589 _c
407 639 369 664 318 664 _c
318 742 _m
399 742 461 709 505 645 _c
548 580 570 486 570 364 _c
570 241 548 147 505 83 _c
461 19 399 -13 318 -13 _c
236 -13 173 19 130 83 _c
87 147 66 241 66 364 _c
66 486 87 580 130 645 _c
173 709 236 742 318 742 _c
_cl}_d
/one{636 0 110 0 544 729 _sc
124 83 _m
285 83 _l
285 639 _l
110 604 _l
110 694 _l
284 729 _l
383 729 _l
383 83 _l
544 83 _l
544 0 _l
124 0 _l
124 83 _l
_cl}_d
/two{{636 0 73 0 536 742 _sc
192 83 _m
536 83 _l
536 0 _l
73 0 _l
73 83 _l
110 121 161 173 226 239 _c
290 304 331 346 348 365 _c
380 400 402 430 414 455 _c
426 479 433 504 433 528 _c
433 566 419 598 392 622 _c
365 646 330 659 286 659 _c
255 659 222 653 188 643 _c
154 632 117 616 78 594 _c
78 694 _l
118 710 155 722 189 730 _c
223 738 255 742 284 742 _c
}_e{359 742 419 723 464 685 _c
509 647 532 597 532 534 _c
532 504 526 475 515 449 _c
504 422 484 390 454 354 _c
446 344 420 317 376 272 _c
332 227 271 164 192 83 _c
_cl}_e}_d
/four{636 0 49 0 580 729 _sc
378 643 _m
129 254 _l
378 254 _l
378 643 _l
352 729 _m
476 729 _l
476 254 _l
580 254 _l
580 172 _l
476 172 _l
476 0 _l
378 0 _l
378 172 _l
49 172 _l
49 267 _l
352 729 _l
_cl}_d
/five{{636 0 77 -13 549 729 _sc
108 729 _m
495 729 _l
495 646 _l
198 646 _l
198 467 _l
212 472 227 476 241 478 _c
255 480 270 482 284 482 _c
365 482 429 459 477 415 _c
525 370 549 310 549 234 _c
549 155 524 94 475 51 _c
426 8 357 -13 269 -13 _c
238 -13 207 -10 175 -6 _c
143 -1 111 6 77 17 _c
77 116 _l
106 100 136 88 168 80 _c
199 72 232 69 267 69 _c
}_e{323 69 368 83 401 113 _c
433 143 450 183 450 234 _c
450 284 433 324 401 354 _c
368 384 323 399 267 399 _c
241 399 214 396 188 390 _c
162 384 135 375 108 363 _c
108 729 _l
_cl}_e}_d
/six{{636 0 70 -13 573 742 _sc
330 404 _m
286 404 251 388 225 358 _c
199 328 186 286 186 234 _c
186 181 199 139 225 109 _c
251 79 286 64 330 64 _c
374 64 409 79 435 109 _c
461 139 474 181 474 234 _c
474 286 461 328 435 358 _c
409 388 374 404 330 404 _c
526 713 _m
526 623 _l
501 635 476 644 451 650 _c
425 656 400 659 376 659 _c
310 659 260 637 226 593 _c
}_e{192 549 172 482 168 394 _c
187 422 211 444 240 459 _c
269 474 301 482 336 482 _c
409 482 467 459 509 415 _c
551 371 573 310 573 234 _c
573 159 550 99 506 54 _c
462 9 403 -13 330 -13 _c
246 -13 181 19 137 83 _c
92 147 70 241 70 364 _c
70 479 97 571 152 639 _c
206 707 280 742 372 742 _c
396 742 421 739 447 735 _c
472 730 498 723 526 713 _c
_cl}_e}_d
/seven{636 0 82 0 551 729 _sc
82 729 _m
551 729 _l
551 687 _l
286 0 _l
183 0 _l
432 646 _l
82 646 _l
82 729 _l
_cl}_d
/eight{{636 0 68 -13 568 742 _sc
318 346 _m
271 346 234 333 207 308 _c
180 283 167 249 167 205 _c
167 161 180 126 207 101 _c
234 76 271 64 318 64 _c
364 64 401 76 428 102 _c
455 127 469 161 469 205 _c
469 249 455 283 429 308 _c
402 333 365 346 318 346 _c
219 388 _m
177 398 144 418 120 447 _c
96 476 85 511 85 553 _c
85 611 105 657 147 691 _c
188 725 245 742 318 742 _c
}_e{390 742 447 725 489 691 _c
530 657 551 611 551 553 _c
551 511 539 476 515 447 _c
491 418 459 398 417 388 _c
464 377 501 355 528 323 _c
554 291 568 251 568 205 _c
568 134 546 80 503 43 _c
459 5 398 -13 318 -13 _c
237 -13 175 5 132 43 _c
89 80 68 134 68 205 _c
68 251 81 291 108 323 _c
134 355 171 377 219 388 _c
183 544 _m
183 506 194 476 218 455 _c
}_e{242 434 275 424 318 424 _c
360 424 393 434 417 455 _c
441 476 453 506 453 544 _c
453 582 441 611 417 632 _c
393 653 360 664 318 664 _c
275 664 242 653 218 632 _c
194 611 183 582 183 544 _c
_cl}_e}_d
/A{684 0 8 0 676 729 _sc
342 632 _m
208 269 _l
476 269 _l
342 632 _l
286 729 _m
398 729 _l
676 0 _l
573 0 _l
507 187 _l
178 187 _l
112 0 _l
8 0 _l
286 729 _l
_cl}_d
/B{{686 0 98 0 615 729 _sc
197 348 _m
197 81 _l
355 81 _l
408 81 447 92 473 114 _c
498 136 511 169 511 215 _c
511 260 498 293 473 315 _c
447 337 408 348 355 348 _c
197 348 _l
197 648 _m
197 428 _l
343 428 _l
391 428 426 437 450 455 _c
474 473 486 500 486 538 _c
486 574 474 602 450 620 _c
426 638 391 648 343 648 _c
197 648 _l
98 729 _m
350 729 _l
}_e{425 729 483 713 524 682 _c
564 650 585 606 585 549 _c
585 504 574 468 553 442 _c
532 416 502 399 462 393 _c
510 382 548 360 575 327 _c
601 294 615 253 615 204 _c
615 138 592 88 548 53 _c
504 17 441 0 360 0 _c
98 0 _l
98 729 _l
_cl}_e}_d
/C{{698 0 56 -13 644 742 _sc
644 673 _m
644 569 _l
610 599 575 622 537 638 _c
499 653 460 661 418 661 _c
334 661 270 635 226 584 _c
182 533 160 460 160 364 _c
160 268 182 194 226 143 _c
270 92 334 67 418 67 _c
460 67 499 74 537 90 _c
575 105 610 128 644 159 _c
644 56 _l
609 32 572 15 534 4 _c
496 -7 455 -13 412 -13 _c
302 -13 215 20 151 87 _c
}_e{87 154 56 246 56 364 _c
56 481 87 573 151 641 _c
215 708 302 742 412 742 _c
456 742 497 736 535 725 _c
573 713 610 696 644 673 _c
_cl}_e}_d
/T{611 0 -2 0 614 729 _sc
-2 729 _m
614 729 _l
614 646 _l
355 646 _l
355 0 _l
256 0 _l
256 646 _l
-2 646 _l
-2 729 _l
_cl}_d
/bracketleft{390 0 86 -131 293 760 _sc
86 760 _m
293 760 _l
293 690 _l
176 690 _l
176 -61 _l
293 -61 _l
293 -131 _l
86 -131 _l
86 760 _l
_cl}_d
/bracketright{390 0 97 -131 304 760 _sc
304 760 _m
304 -131 _l
97 -131 _l
97 -61 _l
214 -61 _l
214 690 _l
97 690 _l
97 760 _l
304 760 _l
_cl}_d
/a{{613 0 60 -13 522 560 _sc
343 275 _m
270 275 220 266 192 250 _c
164 233 150 205 150 165 _c
150 133 160 107 181 89 _c
202 70 231 61 267 61 _c
317 61 357 78 387 114 _c
417 149 432 196 432 255 _c
432 275 _l
343 275 _l
522 312 _m
522 0 _l
432 0 _l
432 83 _l
411 49 385 25 355 10 _c
325 -5 287 -13 243 -13 _c
187 -13 142 2 109 33 _c
76 64 60 106 60 159 _c
}_e{60 220 80 266 122 298 _c
163 329 224 345 306 345 _c
432 345 _l
432 354 _l
432 395 418 427 391 450 _c
364 472 326 484 277 484 _c
245 484 215 480 185 472 _c
155 464 127 453 100 439 _c
100 522 _l
132 534 164 544 195 550 _c
226 556 256 560 286 560 _c
365 560 424 539 463 498 _c
502 457 522 395 522 312 _c
_cl}_e}_d
/e{{615 0 55 -13 562 560 _sc
562 296 _m
562 252 _l
149 252 _l
153 190 171 142 205 110 _c
238 78 284 62 344 62 _c
378 62 412 66 444 74 _c
476 82 509 95 541 113 _c
541 28 _l
509 14 476 3 442 -3 _c
408 -9 373 -13 339 -13 _c
251 -13 182 12 131 62 _c
80 112 55 181 55 268 _c
55 357 79 428 127 481 _c
175 533 241 560 323 560 _c
397 560 455 536 498 489 _c
}_e{540 441 562 377 562 296 _c
472 322 _m
471 371 457 410 431 440 _c
404 469 368 484 324 484 _c
274 484 234 469 204 441 _c
174 413 156 373 152 322 _c
472 322 _l
_cl}_e}_d
/i{278 0 94 0 184 760 _sc
94 547 _m
184 547 _l
184 0 _l
94 0 _l
94 547 _l
94 760 _m
184 760 _l
184 646 _l
94 646 _l
94 760 _l
_cl}_d
/m{{974 0 91 0 889 560 _sc
520 442 _m
542 482 569 511 600 531 _c
631 550 668 560 711 560 _c
767 560 811 540 842 500 _c
873 460 889 403 889 330 _c
889 0 _l
799 0 _l
799 327 _l
799 379 789 418 771 444 _c
752 469 724 482 686 482 _c
639 482 602 466 575 435 _c
548 404 535 362 535 309 _c
535 0 _l
445 0 _l
445 327 _l
445 379 435 418 417 444 _c
398 469 369 482 331 482 _c
}_e{285 482 248 466 221 435 _c
194 404 181 362 181 309 _c
181 0 _l
91 0 _l
91 547 _l
181 547 _l
181 462 _l
201 495 226 520 255 536 _c
283 552 317 560 357 560 _c
397 560 430 550 458 530 _c
486 510 506 480 520 442 _c
_cl}_e}_d
/n{634 0 91 0 549 560 _sc
549 330 _m
549 0 _l
459 0 _l
459 327 _l
459 379 448 417 428 443 _c
408 469 378 482 338 482 _c
289 482 251 466 223 435 _c
195 404 181 362 181 309 _c
181 0 _l
91 0 _l
91 547 _l
181 547 _l
181 462 _l
202 494 227 519 257 535 _c
286 551 320 560 358 560 _c
420 560 468 540 500 501 _c
532 462 549 405 549 330 _c
_cl}_d
/r{411 0 91 0 411 560 _sc
411 463 _m
401 469 390 473 378 476 _c
366 478 353 480 339 480 _c
288 480 249 463 222 430 _c
194 397 181 350 181 288 _c
181 0 _l
91 0 _l
91 547 _l
181 547 _l
181 462 _l
199 495 224 520 254 536 _c
284 552 321 560 365 560 _c
371 560 378 559 386 559 _c
393 558 401 557 411 555 _c
411 463 _l
_cl}_d
/s{{521 0 54 -13 472 560 _sc
443 531 _m
443 446 _l
417 458 391 468 364 475 _c
336 481 308 485 279 485 _c
234 485 200 478 178 464 _c
156 450 145 430 145 403 _c
145 382 153 366 169 354 _c
185 342 217 330 265 320 _c
296 313 _l
360 299 405 279 432 255 _c
458 230 472 195 472 151 _c
472 100 452 60 412 31 _c
372 1 316 -13 246 -13 _c
216 -13 186 -10 154 -5 _c
}_e{122 0 89 8 54 20 _c
54 113 _l
87 95 120 82 152 74 _c
184 65 216 61 248 61 _c
290 61 323 68 346 82 _c
368 96 380 117 380 144 _c
380 168 371 187 355 200 _c
339 213 303 226 247 238 _c
216 245 _l
160 257 119 275 95 299 _c
70 323 58 356 58 399 _c
58 450 76 490 112 518 _c
148 546 200 560 268 560 _c
301 560 332 557 362 552 _c
391 547 418 540 443 531 _c
}_e{_cl}_e}_d
/t{392 0 27 0 368 702 _sc
183 702 _m
183 547 _l
368 547 _l
368 477 _l
183 477 _l
183 180 _l
183 135 189 106 201 94 _c
213 81 238 75 276 75 _c
368 75 _l
368 0 _l
276 0 _l
206 0 158 13 132 39 _c
106 65 93 112 93 180 _c
93 477 _l
27 477 _l
27 547 _l
93 547 _l
93 702 _l
183 702 _l
_cl}_d
/u{634 0 85 -13 543 560 _sc
85 216 _m
85 547 _l
175 547 _l
175 219 _l
175 167 185 129 205 103 _c
225 77 255 64 296 64 _c
344 64 383 79 411 110 _c
439 141 453 183 453 237 _c
453 547 _l
543 547 _l
543 0 _l
453 0 _l
453 84 _l
431 50 405 26 377 10 _c
348 -5 315 -13 277 -13 _c
214 -13 166 6 134 45 _c
101 83 85 140 85 216 _c
311 560 _m
311 560 _l
_cl}_d
/y{592 0 30 -207 562 547 _sc
322 -50 _m
296 -114 271 -157 247 -177 _c
223 -197 191 -207 151 -207 _c
79 -207 _l
79 -132 _l
132 -132 _l
156 -132 175 -126 189 -114 _c
203 -102 218 -75 235 -31 _c
251 9 _l
30 547 _l
125 547 _l
296 119 _l
467 547 _l
562 547 _l
322 -50 _l
_cl}_d
/minus{838 0 106 272 732 355 _sc
106 355 _m
732 355 _l
732 272 _l
106 272 _l
106 355 _l
_cl}_d
end readonly def

/BuildGlyph
 {exch begin
 CharStrings exch
 2 copy known not{pop /.notdef}if
 true 3 1 roll get exec
 end}_d

/BuildChar {
 1 index /Encoding get exch get
 1 index /BuildGlyph get exec
}_d

FontName currentdict end definefont pop
end
%%EndProlog
mpldict begin
90 252 translate
432 288 0 0 clipbox
gsave
0 0 m
432 0 l
432 288 l
0 288 l
cl
1.000 setgray
fill
grestore
gsave
54 36 m
388.8 36 l
388.8 253.44 l
54 253.44 l
cl
1.000 setgray
fill
grestore
0.800 setlinewidth
1 setlinejoin
2 setlinecap
[] 0 setdash
0.690 setgray
gsave
334.8 217.4 54 36 clipbox
69.218182 36 m
69.218182 253.44 l
stroke
grestore
0 setlinecap
0.000 setgray
gsave
/o {
gsave
newpath
translate
0.8 setlinewidth
1 setlinejoin
0 setlinecap
0 0 m
0 -3.5 l

gsave
0.000 setgray
fill
grestore
stroke
grestore
} bind def
69.2182 36 o
grestore
/DejaVuSans findfont
10.000 scalefont
setfont
gsave
66.038494 21.406250 translate
0.000000 rotate
0.000000 0.000000 m /zero glyphshow
grestore
2 setlinecap
0.690 setgray
gsave
334.8 217.4 54 36 clipbox
112.729781 36 m
112.729781 253.44 l
stroke
grestore
0 setlinecap
0.000 setgray
gsave
/o {
gsave
newpath
translate
0.8 setlinewidth
1 setlinejoin
0 setlinecap
0 0 m
0 -3.5 l

gsave
0.000 setgray
fill
grestore
stroke
grestore
} bind def
112.73 36 o
grestore
gsave
103.190719 21.406250 translate
0.000000 rotate
0.000000 0.000000 m /two glyphshow
6.362305 0.000000 m /zero glyphshow
12.724609 0.000000 m /zero glyphshow
grestore
2 setlinecap
0.690 setgray
gsave
334.8 217.4 54 36 clipbox
156.24138 36 m
156.24138 253.44 l
stroke
grestore
0 setlinecap
0.000 setgray
gsave
/o {
gsave
newpath
translate
0.8 setlinewidth
1 setlinejoin
0 setlinecap
0 0 m
0 -3.5 l

gsave
0.000 setgray
fill
grestore
stroke
grestore
} bind def
156.241 36 o
grestore
gsave
146.702318 21.406250 translate
0.000000 rotate
0.000000 0.000000 m /four glyphshow
6.362305 0.000000 m /zero glyphshow
12.724609 0.000000 m /zero glyphshow
grestore
2 setlinecap
0.690 setgray
gsave
334.8 217.4 54 36 clipbox
199.752979 36 m
199.752979 253.44 l
stroke
grestore
0 setlinecap
0.000 setgray
gsave
/o {
gsave
newpath
translate
0.8 setlinewidth
1 setlinejoin
0 setlinecap
0 0 m
0 -3.5 l

gsave
0.000 setgray
fill
grestore
stroke
grestore
} bind def
199.753 36 o
grestore
gsave
190.213917 21.406250 translate
0.000000 rotate
0.000000 0.000000 m /six glyphshow
6.362305 0.000000 m /zero glyphshow
12.724609 0.000000 m /zero glyphshow
grestore
2 setlinecap
0.690 setgray
gsave
334.8 217.4 54 36 clipbox
243.264579 36 m
243.264579 253.44 l
stroke
grestore
0 setlinecap
0.000 setgray
gsave
/o {
gsave
newpath
translate
0.8 setlinewidth
1 setlinejoin
0 setlinecap
0 0 m
0 -3.5 l

gsave
0.000 setgray
fill
grestore
stroke
grestore
} bind def
243.265 36 o
grestore
gsave
233.725516 21.406250 translate
0.000000 rotate
0.000000 0.000000 m /eight glyphshow
6.362305 0.000000 m /zero glyphshow
12.724609 0.000000 m /zero glyphshow
grestore
2 setlinecap
0.690 setgray
gsave
334.8 217.4 54 36 clipbox
286.776178 36 m
286.776178 253.44 l
stroke
grestore
0 setlinecap
0.000 setgray
gsave
/o {
gsave
newpath
translate
0.8 setlinewidth
1 setlinejoin
0 setlinecap
0 0 m
0 -3.5 l

gsave
0.000 setgray
fill
grestore
stroke
grestore
} bind def
286.776 36 o
grestore
gsave
274.057428 21.406250 translate
0.000000 rotate
0.000000 0.000000 m /one glyphshow
6.362305 0.000000 m /zero glyphshow
12.724609 0.000000 m /zero glyphshow
19.086914 0.000000 m /zero glyphshow
grestore
2 setlinecap
0.690 setgray
gsave
334.8 217.4 54 36 clipbox
330.287777 36 m
330.287777 253.44 l
stroke
grestore
0 setlinecap
0.000 setgray
gsave
/o {
gsave
newpath
translate
0.8 setlinewidth
1 setlinejoin
0 setlinecap
0 0 m
0 -3.5 l

gsave
0.000 setgray
fill
grestore
stroke
grestore
} bind def
330.288 36 o
grestore
gsave
317.569027 21.406250 translate
0.000000 rotate
0.000000 0.000000 m /one glyphshow
6.362305 0.000000 m /two glyphshow
12.724609 0.000000 m /zero glyphshow
19.086914 0.000000 m /zero glyphshow
grestore
2 setlinecap
0.690 setgray
gsave
334.8 217.4 54 36 clipbox
373.799376 36 m
373.799376 253.44 l
stroke
grestore
0 setlinecap
0.000 setgray
gsave
/o {
gsave
newpath
translate
0.8 setlinewidth
1 setlinejoin
0 setlinecap
0 0 m
0 -3.5 l

gsave
0.000 setgray
fill
grestore
stroke
grestore
} bind def
373.799 36 o
grestore
gsave
361.080626 21.406250 translate
0.000000 rotate
0.000000 0.000000 m /one glyphshow
6.362305 0.000000 m /four glyphshow
12.724609 0.000000 m /zero glyphshow
19.086914 0.000000 m /zero glyphshow
grestore
gsave
200.892188 7.734375 translate
0.000000 rotate
0.000000 0.000000 m /T glyphshow
6.108398 0.000000 m /i glyphshow
8.886719 0.000000 m /m glyphshow
18.627930 0.000000 m /e glyphshow
24.780273 0.000000 m /space glyphshow
27.958984 0.000000 m /bracketleft glyphshow
31.860352 0.000000 m /s glyphshow
37.070312 0.000000 m /bracketright glyphshow
grestore
2 setlinecap
0.690 setgray
gsave
334.8 217.4 54 36 clipbox
54 58.128159 m
388.8 58.128159 l
stroke
grestore
0 setlinecap
0.000 setgray
gsave
/o {
gsave
newpath
translate
0.8 setlinewidth
1 setlinejoin
0 setlinecap
0 0 m
-3.5 0 l

gsave
0.000 setgray
fill
grestore
stroke
grestore
} bind def
54 58.1282 o
grestore
gsave
19.546875 54.331284 translate
0.000000 rotate
0.000000 0.000000 m /minus glyphshow
8.378906 0.000000 m /one glyphshow
14.741211 0.000000 m /zero glyphshow
21.103516 0.000000 m /zero glyphshow
grestore
2 setlinecap
0.690 setgray
gsave
334.8 217.4 54 36 clipbox
54 87.994887 m
388.8 87.994887 l
stroke
grestore
0 setlinecap
0.000 setgray
gsave
/o {
gsave
newpath
translate
0.8 setlinewidth
1 setlinejoin
0 setlinecap
0 0 m
-3.5 0 l

gsave
0.000 setgray
fill
grestore
stroke
grestore
} bind def
54 87.9949 o
grestore
gsave
25.906250 84.198012 translate
0.000000 rotate
0.000000 0.000000 m /minus glyphshow
8.378906 0.000000 m /seven glyphshow
14.741211 0.000000 m /five glyphshow
grestore
2 setlinecap
0.690 setgray
gsave
334.8 217.4 54 36 clipbox
54 117.861616 m
388.8 117.861616 l
stroke
grestore
0 setlinecap
0.000 setgray
gsave
/o {
gsave
newpath
translate
0.8 setlinewidth
1 setlinejoin
0 setlinecap
0 0 m
-3.5 0 l

gsave
0.000 setgray
fill
grestore
stroke
grestore
} bind def
54 117.862 o
grestore
gsave
25.906250 114.064741 translate
0.000000 rotate
0.000000 0.000000 m /minus glyphshow
8.378906 0.000000 m /five glyphshow
14.741211 0.000000 m /zero glyphshow
grestore
2 setlinecap
0.690 setgray
gsave
334.8 217.4 54 36 clipbox
54 147.728344 m
388.8 147.728344 l
stroke
grestore
0 setlinecap
0.000 setgray
gsave
/o {
gsave
newpath
translate
0.8 setlinewidth
1 setlinejoin
0 setlinecap
0 0 m
-3.5 0 l

gsave
0.000 setgray
fill
grestore
stroke
grestore
} bind def
54 147.728 o
grestore
gsave
25.906250 143.931469 translate
0.000000 rotate
0.000000 0.000000 m /minus glyphshow
8.378906 0.000000 m /two glyphshow
14.741211 0.000000 m /five glyphshow
grestore
2 setlinecap
0.690 setgray
gsave
334.8 217.4 54 36 clipbox
54 177.595073 m
388.8 177.595073 l
stroke
grestore
0 setlinecap
0.000 setgray
gsave
/o {
gsave
newpath
translate
0.8 setlinewidth
1 setlinejoin
0 setlinecap
0 0 m
-3.5 0 l

gsave
0.000 setgray
fill
grestore
stroke
grestore
} bind def
54 177.595 o
grestore
gsave
40.640625 173.798198 translate
0.000000 rotate
0.000000 0.000000 m /zero glyphshow
grestore
2 setlinecap
0.690 setgray
gsave
334.8 217.4 54 36 clipbox
54 207.461802 m
388.8 207.461802 l
stroke
grestore
0 setlinecap
0.000 setgray
gsave
/o {
gsave
newpath
translate
0.8 setlinewidth
1 setlinejoin
0 setlinecap
0 0 m
-3.5 0 l

gsave
0.000 setgray
fill
grestore
stroke
grestore
} bind def
54 207.462 o
grestore
gsave
34.281250 203.664927 translate
0.000000 rotate
0.000000 0.000000 m /two glyphshow
6.362305 0.000000 m /five glyphshow
grestore
2 setlinecap
0.690 setgray
gsave
334.8 217.4 54 36 clipbox
54 237.32853 m
388.8 237.32853 l
stroke
grestore
0 setlinecap
0.000 setgray
gsave
/o {
gsave
newpath
translate
0.8 setlinewidth
1 setlinejoin
0 setlinecap
0 0 m
-3.5 0 l

gsave
0.000 setgray
fill
grestore
stroke
grestore
} bind def
54 237.329 o
grestore
gsave
34.281250 233.531655 translate
0.000000 rotate
0.000000 0.000000 m /five glyphshow
6.362305 0.000000 m /zero glyphshow
grestore
gsave
13.468750 96.712187 translate
90.000000 rotate
0.000000 0.000000 m /B glyphshow
6.860352 0.000000 m /a glyphshow
12.988281 0.000000 m /t glyphshow
16.909180 0.000000 m /t glyphshow
20.830078 0.000000 m /e glyphshow
26.982422 0.000000 m /r glyphshow
31.093750 0.000000 m /y glyphshow
37.011719 0.000000 m /space glyphshow
40.190430 0.000000 m /C glyphshow
47.172852 0.000000 m /u glyphshow
53.510742 0.000000 m /r glyphshow
57.622070 0.000000 m /r glyphshow
61.733398 0.000000 m /e glyphshow
67.885742 0.000000 m /n glyphshow
74.223633 0.000000 m /t glyphshow
78.144531 0.000000 m /space glyphshow
81.323242 0.000000 m /bracketleft glyphshow
85.224609 0.000000 m /A glyphshow
92.065430 0.000000 m /bracketright glyphshow
grestore
1.500 setlinewidth
2 setlinecap
0.122 0.467 0.706 setrgbcolor
gsave
334.8 217.4 54 36 clipbox
69.218182 110.699883 m
69.43574 45.883636 l
70.305972 100.436908 l
70.958646 126.454967 l
71.828878 156.052561 l
72.69911 190.284001 l
72.916668 184.731461 l
73.134226 184.078401 l
73.351784 182.479728 l
73.569342 181.743085 l
73.7869 186.254889 l
74.004458 185.111789 l
74.222016 212.601524 l
74.439574 190.253708 l
74.657132 213.191386 l
74.87469 192.372432 l
75.092248 191.572262 l
75.527364 194.865242 l
75.744922 193.327666 l
75.96248 194.613666 l
76.180038 190.645371 l
76.397596 190.016633 l
76.615154 200.211075 l
76.832712 186.513603 l
77.05027 199.426754 l
77.267828 184.654519 l
77.485386 185.728551 l
77.702944 185.483587 l
77.920502 182.800754 l
78.13806 186.730659 l
78.355618 181.726597 l
78.573176 185.185805 l
79.008292 181.861837 l
79.22585 181.61984 l
79.443408 179.534515 l
79.660966 171.418713 l
79.878524 168.875387 l
80.096082 170.221878 l
80.31364 167.213066 l
81.183872 174.288628 l
81.40143 174.651243 l
81.618988 174.408041 l
81.836546 174.651595 l
82.271662 179.014604 l
82.706778 187.38271 l
82.924336 184.855577 l
83.141894 189.048634 l
83.359452 190.31936 l
83.57701 187.150626 l
83.794568 189.31864 l
84.012126 185.220776 l
84.447242 165.472197 l
84.6648 159.531172 l
85.099916 135.423519 l
85.317474 129.157434 l
85.535032 126.866863 l
85.75259 128.504135 l
85.970148 131.070641 l
86.840379 148.826452 l
87.710611 180.877447 l
87.928169 178.40094 l
88.145727 184.050303 l
88.363285 176.771058 l
88.580843 181.27053 l
88.798401 179.754264 l
89.015959 182.858345 l
89.233517 178.601916 l
89.451075 188.592837 l
89.668633 176.312972 l
89.886191 190.136792 l
90.103749 178.040201 l
90.321307 188.929391 l
90.538865 179.990886 l
90.756423 186.417588 l
90.973981 180.975683 l
91.191539 182.358502 l
91.409097 177.429403 l
91.626655 182.618987 l
91.844213 179.562353 l
92.279329 185.645121 l
92.496887 180.07166 l
92.714445 183.536903 l
92.932003 180.14358 l
93.149561 181.277638 l
93.367119 184.668096 l
93.584677 193.724254 l
93.802235 187.428446 l
94.019793 206.609024 l
94.237351 187.243233 l
94.454909 199.204471 l
94.672467 190.43108 l
94.890025 188.605351 l
95.107583 195.378953 l
95.325141 188.372417 l
95.542699 190.132704 l
95.760257 190.299174 l
95.977815 186.167417 l
96.195373 184.49281 l
96.412931 184.387308 l
96.630489 179.629825 l
96.848047 178.642401 l
97.065605 176.333809 l
97.283163 179.301615 l
97.500721 178.886234 l
97.935837 181.39325 l
98.370953 180.533309 l
98.588511 180.497263 l
98.806069 189.252548 l
99.023627 190.60549 l
99.241185 191.186083 l
99.458743 194.929353 l
99.676301 188.878087 l
100.111417 186.347585 l
100.764091 165.271045 l
101.199207 141.949846 l
101.416765 136.66579 l
101.634323 136.319436 l
103.157229 168.520968 l
103.374787 182.717331 l
103.592345 182.710193 l
103.809903 207.252457 l
104.027461 188.668134 l
104.245019 196.073699 l
104.462577 192.082977 l
104.897693 203.702203 l
105.115251 203.894222 l
105.332809 209.088399 l
105.550367 207.870361 l
105.767925 200.957541 l
105.985483 201.339678 l
106.203041 199.812048 l
106.420599 192.44075 l
106.638157 196.671846 l
106.855715 192.119525 l
107.073273 191.910908 l
107.508389 185.908131 l
107.725947 181.562179 l
107.943505 187.852118 l
108.161063 189.688377 l
108.596179 194.799666 l
108.813737 207.970655 l
109.031295 188.178788 l
109.248853 211.800833 l
109.683969 185.468916 l
109.901527 196.383654 l
110.119085 167.09442 l
110.336643 177.052579 l
110.554201 171.132583 l
110.771759 168.382839 l
110.989317 168.589622 l
111.206875 169.978476 l
111.424433 173.037641 l
111.641991 172.893227 l
112.077107 182.442923 l
112.294665 183.711235 l
112.512223 187.223125 l
112.729781 180.742433 l
112.947339 187.278165 l
113.164897 184.681929 l
113.382455 188.346606 l
113.600013 189.125619 l
113.817571 194.129603 l
114.035129 186.729281 l
114.252687 194.183945 l
114.470245 181.465369 l
114.687803 191.779158 l
114.905361 189.520695 l
115.122919 194.829084 l
115.340477 188.940256 l
115.558035 187.469108 l
115.775593 182.636916 l
115.993151 183.905703 l
116.210709 183.115528 l
116.428267 184.577864 l
116.645825 187.21749 l
116.863383 186.031907 l
117.080941 179.968429 l
117.298499 193.809208 l
117.516057 185.273905 l
117.733615 196.664819 l
117.951173 195.652338 l
118.168731 191.368113 l
118.386289 192.59334 l
118.603847 193.153512 l
118.821405 191.105983 l
119.038963 194.826076 l
119.256521 191.707156 l
119.474079 192.754725 l
119.691637 185.411069 l
119.909195 184.393495 l
120.344311 210.789962 l
120.561869 243.556364 l
120.779427 227.250478 l
120.996985 226.324213 l
121.214543 205.496278 l
121.432101 195.944303 l
121.649659 198.906675 l
121.867217 200.128296 l
122.084775 196.725242 l
122.302333 196.146959 l
122.737449 193.619189 l
122.955007 193.978099 l
123.172565 193.56964 l
123.390123 194.455503 l
123.607681 191.694144 l
123.825239 193.285799 l
124.042797 190.99105 l
124.260355 192.969655 l
124.695471 186.577467 l
124.913029 186.880726 l
125.130587 183.832554 l
125.348145 190.633648 l
125.565703 186.522941 l
125.783261 190.02774 l
126.000819 186.07582 l
126.218377 188.062468 l
126.435935 188.860147 l
126.653493 188.559046 l
126.871051 187.07288 l
127.088609 186.511159 l
127.306167 187.501288 l
127.523725 186.650382 l
127.741283 189.124187 l
127.958841 185.723004 l
128.176399 187.453009 l
128.393957 183.964568 l
128.611515 188.836244 l
128.829073 184.62275 l
129.046631 189.048684 l
129.264189 183.907002 l
129.481747 187.771389 l
129.699305 184.623223 l
129.916863 188.338042 l
130.134421 186.222899 l
130.351979 189.435572 l
130.569537 188.366652 l
130.787095 190.66721 l
131.222211 187.410447 l
131.439769 186.30361 l
131.874885 175.310076 l
132.092443 163.387464 l
132.310001 162.975745 l
132.527559 154.575961 l
132.745117 152.26012 l
132.962675 152.194216 l
133.180233 162.232981 l
133.832907 176.866051 l
134.050465 175.254182 l
134.268023 175.692652 l
134.485581 177.341195 l
134.703139 177.625911 l
134.920697 175.895627 l
135.138255 178.169661 l
135.355813 176.802561 l
135.790929 183.913884 l
136.008487 180.401464 l
136.226045 184.933491 l
136.443603 182.256196 l
136.661161 184.738377 l
136.878719 192.35572 l
137.096277 185.682102 l
137.313835 194.351517 l
137.531393 186.240599 l
137.748951 190.414174 l
137.966509 189.319419 l
138.184067 200.832544 l
138.401625 188.629334 l
138.619183 203.434975 l
138.836741 187.111803 l
139.054299 189.862461 l
139.489415 185.849297 l
139.924531 190.586997 l
140.794762 165.965915 l
141.01232 165.764751 l
141.229878 164.82325 l
141.447436 161.715171 l
141.664994 165.092299 l
141.882552 166.661285 l
142.317668 172.095654 l
142.535226 172.191205 l
142.752784 171.77963 l
143.1879 179.174121 l
143.405458 187.997214 l
143.623016 188.401128 l
143.840574 185.464688 l
144.058132 187.101723 l
144.27569 182.819752 l
144.493248 190.369342 l
144.710806 184.551157 l
144.928364 191.924718 l
145.145922 188.956599 l
145.36348 188.352508 l
145.581038 188.985362 l
146.016154 187.818998 l
146.233712 185.242997 l
146.45127 184.599734 l
146.668828 181.451631 l
146.886386 181.383748 l
147.103944 181.72417 l
147.321502 181.204548 l
147.53906 183.483056 l
147.756618 183.17942 l
148.191734 187.967238 l
148.409292 184.756164 l
148.62685 187.799617 l
148.844408 186.788985 l
149.061966 183.307639 l
149.279524 190.475373 l
149.497082 172.574899 l
149.71464 177.503419 l
149.932198 160.106798 l
150.149756 166.397188 l
150.367314 165.19659 l
150.584872 167.142053 l
151.019988 172.780504 l
151.455104 176.339513 l
151.672662 175.357171 l
151.89022 175.705911 l
152.107778 175.267134 l
152.542894 178.908255 l
152.760452 185.7395 l
152.97801 175.176762 l
153.195568 194.953735 l
153.413126 186.374905 l
153.630684 200.859501 l
153.848242 196.071148 l
154.0658 193.799343 l
154.500916 187.876914 l
154.718474 186.931495 l
154.936032 184.224693 l
155.15359 184.186344 l
155.371148 184.770756 l
156.24138 188.952095 l
156.458938 190.267111 l
156.676496 189.336716 l
156.894054 190.966897 l
157.111612 189.999326 l
157.32917 189.812985 l
157.546728 193.32878 l
157.764286 186.649538 l
157.981844 194.076726 l
158.199402 184.096855 l
158.41696 184.868883 l
158.634518 178.377092 l
158.852076 181.101348 l
159.069634 172.760015 l
159.287192 178.716373 l
159.50475 176.352597 l
159.722308 176.526306 l
159.939866 178.973672 l
160.374982 187.056613 l
160.59254 183.30631 l
160.810098 185.690322 l
161.027656 182.351299 l
161.245214 186.639867 l
161.462772 179.55986 l
161.68033 185.389451 l
161.897888 180.947986 l
162.115446 181.754637 l
162.333004 183.147339 l
162.550562 188.699885 l
162.76812 184.060634 l
162.985678 193.741971 l
163.203236 187.610713 l
163.420794 191.059663 l
163.638352 189.393244 l
164.073468 189.774509 l
164.291026 189.260483 l
164.508584 182.743439 l
164.726142 193.028802 l
164.9437 183.536782 l
165.161258 193.099426 l
165.378816 189.143555 l
165.596374 189.037736 l
165.813932 198.493664 l
166.03149 196.883965 l
166.249048 201.605694 l
166.466606 200.22435 l
166.684164 196.499629 l
166.901722 196.973281 l
167.11928 224.137482 l
167.336838 228.696201 l
167.554396 240.862388 l
167.771954 238.354153 l
167.989512 220.533716 l
168.424628 208.107364 l
168.642186 208.275806 l
169.077302 203.671359 l
169.29486 201.698232 l
170.165092 164.508622 l
170.38265 173.470297 l
170.600208 171.662317 l
171.035324 175.96403 l
171.252882 177.949577 l
171.47044 178.284468 l
171.687998 188.310388 l
171.905556 178.572854 l
172.123114 185.99343 l
172.340672 175.992285 l
172.55823 187.060266 l
172.775788 172.793073 l
172.993346 186.263871 l
173.210904 176.814011 l
173.428462 180.789575 l
173.64602 176.559671 l
173.863578 178.61472 l
174.081136 176.255734 l
174.73381 178.882271 l
174.951368 180.284859 l
175.168926 180.303007 l
175.386484 182.339454 l
175.604042 176.670143 l
175.8216 186.767859 l
176.039158 174.934174 l
176.256716 201.009523 l
176.474274 182.18143 l
176.691832 196.566209 l
176.90939 193.733247 l
177.126948 179.038164 l
177.344506 187.049433 l
177.562064 178.932755 l
177.779622 178.734801 l
177.99718 179.84669 l
178.214738 175.60025 l
178.432296 177.467095 l
178.649854 175.209082 l
178.867412 177.900127 l
179.302528 175.156421 l
180.17276 148.624323 l
180.390318 149.525356 l
180.607876 151.922315 l
181.26055 162.840111 l
181.913224 169.490852 l
182.565898 175.076728 l
183.218572 192.727941 l
183.43613 201.858077 l
183.653688 187.154284 l
183.871246 199.70444 l
184.088804 187.147808 l
184.306362 192.0099 l
184.52392 190.127443 l
184.741478 196.445479 l
184.959036 190.545504 l
185.61171 186.522658 l
185.829268 188.60865 l
186.046826 202.144027 l
186.264384 197.643738 l
186.481942 209.841549 l
186.6995 198.909351 l
186.917058 212.371866 l
187.134616 199.981196 l
187.352174 208.131814 l
187.569732 196.876679 l
187.78729 209.82015 l
188.004848 202.804838 l
188.222406 212.263566 l
188.87508 178.234104 l
189.092638 181.326149 l
189.310196 178.629225 l
189.527754 179.610402 l
189.745312 188.16365 l
189.96287 178.390357 l
190.180428 193.101057 l
190.397986 176.171849 l
190.615544 174.449795 l
190.833102 163.33364 l
191.05066 162.938947 l
191.268218 157.940109 l
192.13845 187.009272 l
192.356008 175.72035 l
192.573566 193.165847 l
192.791124 177.733521 l
193.008682 177.880627 l
193.22624 188.873191 l
193.443798 177.77741 l
193.661356 193.516065 l
193.878914 182.981343 l
194.096472 211.231055 l
194.31403 191.277013 l
194.531587 216.385537 l
194.749145 190.405184 l
194.966703 196.157968 l
195.184261 209.346722 l
195.401819 203.975531 l
195.619377 215.437779 l
195.836935 210.420483 l
196.054493 195.916812 l
196.272051 200.838075 l
196.489609 191.513087 l
196.707167 193.519471 l
197.142283 198.900259 l
197.359841 200.163118 l
197.577399 202.800972 l
197.794957 196.120182 l
198.012515 198.333352 l
198.230073 195.257565 l
198.447631 194.329759 l
198.665189 195.074095 l
198.882747 189.082004 l
199.317863 204.263964 l
199.535421 199.105674 l
199.752979 211.692797 l
199.970537 202.381423 l
200.405653 212.011799 l
200.623211 201.831874 l
200.840769 211.91485 l
201.058327 192.64589 l
201.275885 196.437879 l
201.493443 194.159948 l
201.711001 190.530026 l
201.928559 194.250999 l
202.146117 188.513537 l
202.363675 191.761048 l
202.581233 189.114239 l
202.798791 190.661387 l
203.016349 187.737889 l
203.233907 189.402594 l
203.451465 179.126871 l
203.669023 177.509255 l
203.886581 171.68333 l
204.104139 172.778879 l
204.321697 169.465144 l
204.539255 170.366873 l
204.756813 170.121622 l
204.974371 171.442892 l
205.409487 160.666296 l
205.844603 140.049708 l
206.062161 135.784938 l
206.279719 135.496368 l
206.714835 144.563957 l
207.149951 150.460679 l
207.367509 149.435439 l
207.802625 159.07882 l
208.455299 174.33263 l
208.672857 172.48716 l
208.890415 172.388663 l
209.107973 169.9065 l
209.325531 168.792767 l
209.543089 169.293243 l
209.760647 167.845481 l
209.978205 170.799066 l
210.195763 169.038923 l
210.413321 165.993909 l
210.848437 145.897549 l
211.283553 125.789347 l
211.936227 107.469726 l
212.588901 89.384279 l
212.806459 87.684917 l
213.024017 87.859156 l
213.241575 91.897053 l
213.676691 105.720873 l
214.546923 137.023937 l
215.417155 159.573401 l
215.852271 164.043745 l
216.069829 164.32603 l
216.504945 165.530737 l
216.940061 171.120689 l
217.157619 173.983569 l
217.375177 178.463316 l
217.592735 179.700714 l
217.810293 182.760373 l
218.027851 180.291203 l
218.245409 179.526508 l
218.680525 187.39017 l
218.898083 187.233506 l
219.115641 188.715929 l
219.333199 182.363198 l
219.768315 179.441786 l
219.985873 179.815327 l
220.203431 184.144458 l
220.420989 180.874876 l
220.638547 182.455461 l
220.856105 177.790025 l
221.726337 188.517918 l
222.161453 183.539637 l
222.379011 184.552737 l
223.031685 178.046168 l
223.249243 179.480237 l
223.466801 182.048066 l
223.684359 177.771388 l
223.901917 195.435499 l
224.119475 176.227268 l
224.337033 193.566957 l
224.554591 178.908427 l
224.772149 190.610515 l
224.989707 184.001074 l
225.207265 190.319565 l
225.424823 181.266759 l
225.642381 181.107177 l
225.859939 175.651007 l
226.077497 179.420025 l
226.295055 175.954557 l
226.512613 178.874625 l
226.730171 179.367171 l
226.947729 175.186634 l
227.165287 178.342999 l
227.382845 175.99644 l
227.600403 175.049906 l
227.817961 175.329838 l
228.253077 177.501174 l
228.470635 178.434375 l
228.688193 177.126782 l
228.905751 181.066133 l
229.123309 177.577394 l
229.340867 176.758944 l
229.558425 180.829814 l
229.775983 173.61403 l
229.993541 178.842792 l
230.211099 177.255246 l
230.428657 176.615308 l
230.646215 181.263497 l
230.863773 178.2697 l
231.081331 189.65538 l
231.298889 177.404852 l
231.516447 172.089311 l
231.734005 160.785748 l
231.951563 160.591391 l
232.386679 144.29168 l
232.604237 141.126102 l
232.821795 142.262003 l
233.039353 141.864162 l
233.256911 139.960445 l
233.909585 127.466201 l
234.127143 129.136686 l
234.344701 133.797608 l
234.562259 144.613295 l
234.779817 149.066511 l
234.997375 160.847874 l
235.214933 162.590971 l
235.432491 166.93948 l
235.650049 167.281622 l
235.867607 167.116795 l
236.085165 164.273905 l
236.302723 165.775933 l
236.520281 165.703941 l
236.737839 168.328226 l
236.955397 165.394325 l
237.608071 148.245016 l
237.825629 149.197717 l
238.695861 161.762149 l
239.348535 168.085306 l
240.001209 172.06893 l
240.653883 174.575863 l
241.306557 176.152431 l
241.959231 177.143495 l
242.829463 178.030786 l
243.699695 178.358441 l
243.917253 180.196142 l
244.134811 180.192358 l
244.787485 191.522793 l
245.005043 192.095469 l
245.222601 191.201618 l
245.440159 191.974459 l
245.657717 185.8051 l
245.875275 194.493541 l
246.092833 184.710746 l
246.310391 193.548178 l
246.527949 183.32721 l
246.745507 183.684478 l
246.963065 182.917271 l
247.180623 199.041013 l
247.398181 181.089648 l
247.615739 204.869381 l
247.833297 182.121805 l
248.050855 186.79132 l
248.268413 181.916755 l
248.48597 183.673286 l
248.703528 175.63044 l
248.921086 172.58594 l
249.138644 167.357457 l
249.791318 131.873481 l
250.008876 125.598806 l
250.226434 123.752835 l
250.443992 126.379206 l
251.966898 160.748555 l
252.83713 172.849116 l
253.489804 195.167518 l
253.707362 186.89494 l
253.92492 188.854028 l
254.142478 179.919218 l
254.360036 187.414748 l
254.577594 174.732106 l
254.795152 183.756578 l
255.01271 177.470217 l
255.230268 177.309663 l
255.447826 180.318376 l
255.665384 176.334388 l
255.882942 187.086853 l
256.1005 179.362645 l
256.318058 188.973061 l
256.535616 183.092947 l
256.753174 182.137493 l
257.18829 186.365086 l
257.405848 189.807775 l
257.623406 190.00333 l
257.840964 196.425406 l
258.058522 192.205228 l
258.27608 195.908661 l
258.493638 193.079559 l
258.711196 195.939603 l
258.928754 193.479876 l
259.146312 193.894431 l
259.36387 190.338358 l
259.581428 183.048136 l
259.798986 182.025526 l
260.016544 171.499115 l
260.234102 175.980041 l
260.669218 167.962872 l
261.104334 163.056409 l
261.321892 162.155332 l
261.53945 163.653091 l
261.757008 162.271494 l
262.192124 157.609919 l
262.409682 155.151897 l
262.62724 156.403513 l
263.279914 164.659883 l
263.932588 169.927491 l
264.585262 173.241243 l
265.455494 176.645673 l
265.673052 180.153607 l
265.89061 189.288639 l
266.108168 188.20978 l
266.325726 206.3873 l
266.543284 193.447607 l
266.760842 203.073338 l
266.9784 196.232069 l
267.413516 189.380943 l
267.631074 196.87926 l
267.848632 188.118211 l
268.06619 190.884086 l
268.283748 185.808975 l
268.501306 186.534533 l
268.718864 183.943044 l
268.936422 184.189778 l
269.15398 182.998382 l
269.371538 178.360948 l
269.589096 179.185426 l
269.806654 179.159175 l
270.024212 178.39034 l
270.24177 173.971824 l
270.459328 177.750601 l
270.676886 174.703511 l
270.894444 174.510896 l
271.32956 170.776053 l
271.547118 169.882127 l
271.982234 170.340851 l
272.41735 172.854161 l
272.634908 175.515843 l
273.287582 188.803449 l
273.50514 183.360057 l
273.722698 186.273389 l
273.940256 182.425874 l
274.157814 181.233683 l
274.375372 187.322359 l
274.59293 177.996011 l
274.810488 187.683231 l
275.028046 178.758892 l
275.245604 188.279288 l
275.463162 184.385934 l
275.68072 188.429688 l
276.115836 183.949012 l
276.333394 185.31331 l
276.550952 182.642956 l
276.76851 186.523681 l
276.986068 181.306045 l
277.203626 184.587045 l
277.421184 184.858457 l
277.638742 183.621986 l
277.8563 184.501565 l
278.291416 182.350691 l
278.508974 180.470404 l
278.94409 179.122702 l
279.161648 181.279248 l
279.596764 189.877866 l
279.814322 186.056141 l
280.03188 191.15244 l
280.249438 182.206316 l
280.684554 184.337641 l
280.902112 192.010161 l
281.11967 187.499668 l
281.337228 197.927103 l
281.554786 189.144728 l
281.772344 191.159216 l
281.989902 187.076127 l
282.20746 188.228868 l
282.425018 186.730943 l
282.642576 188.759736 l
283.077692 182.357807 l
283.29525 182.956809 l
283.512808 178.837118 l
283.730366 180.622869 l
283.947924 185.776223 l
284.165482 176.239059 l
284.38304 184.419401 l
284.600598 175.807121 l
284.818156 180.177623 l
285.035714 169.152466 l
285.253272 173.617252 l
285.47083 169.408385 l
285.688388 167.443015 l
285.905946 168.158068 l
286.123504 173.827534 l
286.341062 176.491687 l
286.55862 183.088398 l
286.993736 185.259767 l
287.211294 172.06375 l
287.428852 175.925468 l
287.863968 160.221611 l
288.299084 151.388184 l
288.516642 151.226755 l
288.7342 153.072363 l
289.604432 164.578316 l
290.257106 170.169911 l
290.692222 172.776886 l
291.344896 175.022725 l
291.99757 176.434084 l
292.650244 177.321016 l
293.520476 178.100124 l
294.608266 178.451973 l
296.131172 178.675962 l
297.654078 178.768463 l
297.871636 179.257441 l
298.089194 179.016449 l
298.306752 179.471488 l
298.52431 179.20391 l
299.829658 178.990018 l
301.135006 178.895692 l
301.570122 182.18579 l
301.78768 182.153994 l
302.005238 182.565293 l
302.440353 179.834159 l
302.875469 179.882388 l
303.745701 179.441564 l
304.833491 179.137572 l
306.573955 178.928229 l
306.791513 178.914572 l
307.009071 179.698897 l
307.226629 187.957285 l
307.444187 185.663586 l
307.661745 194.161319 l
308.096861 185.245197 l
308.967093 174.575862 l
309.402209 176.665389 l
309.619767 179.519816 l
309.837325 186.027604 l
310.054883 187.336947 l
310.925115 178.530697 l
311.142673 177.122669 l
311.360231 180.187078 l
311.577789 180.264456 l
312.012905 185.6604 l
312.230463 176.067756 l
312.448021 183.103276 l
312.665579 175.552775 l
312.883137 177.67587 l
313.100695 176.296134 l
313.318253 176.067092 l
313.970927 160.538925 l
314.188485 151.03638 l
314.841159 144.082246 l
315.058717 146.529579 l
315.711391 157.222906 l
316.146507 161.810209 l
316.364065 165.67888 l
316.799181 177.154719 l
317.234297 184.785759 l
317.451855 177.699078 l
317.669413 189.880936 l
317.886971 177.353942 l
318.104529 184.996582 l
318.322087 183.657986 l
318.539645 175.969604 l
318.757203 186.978035 l
318.974761 174.152844 l
319.192319 186.74412 l
319.409877 180.003578 l
319.627435 181.365496 l
320.062551 180.699235 l
320.280109 178.338301 l
320.497667 181.359289 l
320.932783 180.135109 l
321.150341 183.112312 l
321.367899 181.895014 l
321.585457 183.900717 l
321.803015 182.542529 l
322.020573 181.919062 l
322.238131 185.965891 l
322.455689 183.475017 l
322.673247 183.96691 l
322.890805 183.728474 l
323.108363 184.846121 l
323.325921 177.611659 l
323.543479 184.652648 l
323.761037 178.201549 l
324.196153 182.883251 l
324.413711 182.829901 l
324.631269 179.815082 l
324.848827 168.186797 l
325.066385 166.125749 l
325.719059 128.165108 l
325.936617 123.319826 l
326.154175 121.382044 l
326.371733 122.049639 l
326.806849 125.353628 l
327.024407 126.895463 l
327.459523 134.426038 l
327.894639 146.612759 l
328.329755 168.25428 l
328.764871 179.819191 l
328.982429 172.881364 l
329.199987 191.133189 l
329.417545 176.256797 l
329.635103 190.445389 l
329.852661 179.863644 l
330.070219 176.734083 l
330.287777 189.359915 l
330.505335 174.628249 l
330.722893 187.3904 l
330.940451 177.342189 l
331.158009 179.700693 l
331.375567 187.213351 l
331.593125 178.452931 l
331.810683 188.206649 l
332.028241 179.29578 l
332.245799 182.74629 l
332.463357 177.304285 l
332.680915 184.115947 l
332.898473 179.430776 l
333.116031 187.046669 l
333.333589 185.42549 l
333.551147 187.8926 l
333.768705 187.080894 l
333.986263 181.20027 l
334.203821 179.689004 l
334.421379 168.517738 l
334.638937 169.697416 l
335.291611 144.674794 l
335.726727 132.656867 l
335.944285 129.473404 l
336.161843 129.890216 l
336.379401 133.27087 l
337.249633 154.050442 l
338.119865 188.953856 l
338.337423 182.299213 l
338.554981 188.141702 l
338.990097 184.626413 l
339.207655 192.413846 l
339.425213 176.528877 l
339.642771 190.081668 l
339.860329 194.789476 l
340.077887 182.508622 l
340.295445 199.477418 l
340.513003 182.019163 l
340.730561 181.519541 l
340.948119 186.008184 l
341.165677 182.49044 l
341.383235 186.582464 l
341.600793 180.969798 l
341.818351 179.986587 l
342.253467 157.425593 l
342.471025 156.286454 l
343.123699 123.048267 l
343.341257 118.705779 l
343.558815 118.879297 l
343.776373 122.828177 l
345.081721 155.782169 l
345.734395 164.456896 l
346.387069 169.854984 l
347.039743 173.219184 l
347.692417 175.317777 l
348.345091 176.627629 l
348.997765 177.445465 l
349.867997 178.144993 l
350.955787 178.470807 l
352.478693 178.676471 l
355.306947 178.78389 l
359.875664 178.80484 l
360.093222 180.021657 l
360.31078 187.202297 l
360.528338 186.304778 l
360.745896 191.972108 l
360.963454 189.976807 l
361.181012 186.483309 l
361.39857 186.749176 l
361.616128 189.046588 l
361.833686 187.527537 l
362.051244 190.617346 l
362.268802 188.512496 l
362.48636 184.420539 l
362.703918 184.012775 l
362.921476 176.092934 l
363.139034 179.319629 l
363.57415 170.193813 l
363.791708 172.362481 l
364.009266 169.088942 l
364.226824 167.594687 l
364.444382 167.936939 l
364.879498 170.731902 l
365.097056 173.522285 l
365.532172 182.68323 l
365.74973 186.752541 l
366.184846 176.968286 l
366.402404 176.642341 l
366.619962 175.337902 l
366.83752 175.814707 l
367.055078 175.359304 l
369.883332 178.930604 l
370.10089 179.084492 l
370.318448 178.863559 l
371.406238 178.850175 l
373.581818 178.817543 l
373.581818 178.817543 l
stroke
grestore
0.800 setlinewidth
0 setlinejoin
[] 0 setdash
0.000 setgray
gsave
54 36 m
54 253.44 l
stroke
grestore
gsave
388.8 36 m
388.8 253.44 l
stroke
grestore
gsave
54 36 m
388.8 36 l
stroke
grestore
gsave
54 253.44 m
388.8 253.44 l
stroke
grestore

end
showpage
