%!PS-Adobe-3.0 EPSF-3.0
%%Title: ./plots/passive/fixed_init_Ultracapacitor Voltage [V].eps
%%Creator: matplotlib version 2.0.0, http://matplotlib.org/
%%CreationDate: Mon May 15 21:32:14 2017
%%Orientation: portrait
%%BoundingBox: 90 252 522 540
%%EndComments
%%BeginProlog
/mpldict 8 dict def
mpldict begin
/m { moveto } bind def
/l { lineto } bind def
/r { rlineto } bind def
/c { curveto } bind def
/cl { closepath } bind def
/box {
m
1 index 0 r
0 exch r
neg 0 r
cl
} bind def
/clipbox {
box
clip
newpath
} bind def
%!PS-Adobe-3.0 Resource-Font
%%Title: DejaVu Sans
%%Copyright: Copyright (c) 2003 by Bitstream, Inc. All Rights Reserved. Copyright (c) 2006 by Tavmjong Bah. All Rights Reserved. DejaVu changes are in public domain 
%%Creator: Converted from TrueType to type 3 by PPR
25 dict begin
/_d{bind def}bind def
/_m{moveto}_d
/_l{lineto}_d
/_cl{closepath eofill}_d
/_c{curveto}_d
/_sc{7 -1 roll{setcachedevice}{pop pop pop pop pop pop}ifelse}_d
/_e{exec}_d
/FontName /DejaVuSans def
/PaintType 0 def
/FontMatrix[.001 0 0 .001 0 0]def
/FontBBox[-1021 -463 1793 1232]def
/FontType 3 def
/Encoding [ /space /zero /one /two /three /four /five /six /eight /T /U /V /bracketleft /bracketright /a /c /e /g /i /l /m /o /p /r /s /t ] def
/FontInfo 10 dict dup begin
/FamilyName (DejaVu Sans) def
/FullName (DejaVu Sans) def
/Notice (Copyright (c) 2003 by Bitstream, Inc. All Rights Reserved. Copyright (c) 2006 by Tavmjong Bah. All Rights Reserved. DejaVu changes are in public domain ) def
/Weight (Book) def
/Version (Version 2.35) def
/ItalicAngle 0.0 def
/isFixedPitch false def
/UnderlinePosition -130 def
/UnderlineThickness 90 def
end readonly def
/CharStrings 26 dict dup begin
/space{318 0 0 0 0 0 _sc
}_d
/zero{636 0 66 -13 570 742 _sc
318 664 _m
267 664 229 639 203 589 _c
177 539 165 464 165 364 _c
165 264 177 189 203 139 _c
229 89 267 64 318 64 _c
369 64 407 89 433 139 _c
458 189 471 264 471 364 _c
471 464 458 539 433 589 _c
407 639 369 664 318 664 _c
318 742 _m
399 742 461 709 505 645 _c
548 580 570 486 570 364 _c
570 241 548 147 505 83 _c
461 19 399 -13 318 -13 _c
236 -13 173 19 130 83 _c
87 147 66 241 66 364 _c
66 486 87 580 130 645 _c
173 709 236 742 318 742 _c
_cl}_d
/one{636 0 110 0 544 729 _sc
124 83 _m
285 83 _l
285 639 _l
110 604 _l
110 694 _l
284 729 _l
383 729 _l
383 83 _l
544 83 _l
544 0 _l
124 0 _l
124 83 _l
_cl}_d
/two{{636 0 73 0 536 742 _sc
192 83 _m
536 83 _l
536 0 _l
73 0 _l
73 83 _l
110 121 161 173 226 239 _c
290 304 331 346 348 365 _c
380 400 402 430 414 455 _c
426 479 433 504 433 528 _c
433 566 419 598 392 622 _c
365 646 330 659 286 659 _c
255 659 222 653 188 643 _c
154 632 117 616 78 594 _c
78 694 _l
118 710 155 722 189 730 _c
223 738 255 742 284 742 _c
}_e{359 742 419 723 464 685 _c
509 647 532 597 532 534 _c
532 504 526 475 515 449 _c
504 422 484 390 454 354 _c
446 344 420 317 376 272 _c
332 227 271 164 192 83 _c
_cl}_e}_d
/three{{636 0 76 -13 556 742 _sc
406 393 _m
453 383 490 362 516 330 _c
542 298 556 258 556 212 _c
556 140 531 84 482 45 _c
432 6 362 -13 271 -13 _c
240 -13 208 -10 176 -4 _c
144 1 110 10 76 22 _c
76 117 _l
103 101 133 89 166 81 _c
198 73 232 69 268 69 _c
330 69 377 81 409 105 _c
441 129 458 165 458 212 _c
458 254 443 288 413 312 _c
383 336 341 349 287 349 _c
}_e{202 349 _l
202 430 _l
291 430 _l
339 430 376 439 402 459 _c
428 478 441 506 441 543 _c
441 580 427 609 401 629 _c
374 649 336 659 287 659 _c
260 659 231 656 200 650 _c
169 644 135 635 98 623 _c
98 711 _l
135 721 170 729 203 734 _c
235 739 266 742 296 742 _c
370 742 429 725 473 691 _c
517 657 539 611 539 553 _c
539 513 527 479 504 451 _c
481 423 448 403 406 393 _c
_cl}_e}_d
/four{636 0 49 0 580 729 _sc
378 643 _m
129 254 _l
378 254 _l
378 643 _l
352 729 _m
476 729 _l
476 254 _l
580 254 _l
580 172 _l
476 172 _l
476 0 _l
378 0 _l
378 172 _l
49 172 _l
49 267 _l
352 729 _l
_cl}_d
/five{{636 0 77 -13 549 729 _sc
108 729 _m
495 729 _l
495 646 _l
198 646 _l
198 467 _l
212 472 227 476 241 478 _c
255 480 270 482 284 482 _c
365 482 429 459 477 415 _c
525 370 549 310 549 234 _c
549 155 524 94 475 51 _c
426 8 357 -13 269 -13 _c
238 -13 207 -10 175 -6 _c
143 -1 111 6 77 17 _c
77 116 _l
106 100 136 88 168 80 _c
199 72 232 69 267 69 _c
}_e{323 69 368 83 401 113 _c
433 143 450 183 450 234 _c
450 284 433 324 401 354 _c
368 384 323 399 267 399 _c
241 399 214 396 188 390 _c
162 384 135 375 108 363 _c
108 729 _l
_cl}_e}_d
/six{{636 0 70 -13 573 742 _sc
330 404 _m
286 404 251 388 225 358 _c
199 328 186 286 186 234 _c
186 181 199 139 225 109 _c
251 79 286 64 330 64 _c
374 64 409 79 435 109 _c
461 139 474 181 474 234 _c
474 286 461 328 435 358 _c
409 388 374 404 330 404 _c
526 713 _m
526 623 _l
501 635 476 644 451 650 _c
425 656 400 659 376 659 _c
310 659 260 637 226 593 _c
}_e{192 549 172 482 168 394 _c
187 422 211 444 240 459 _c
269 474 301 482 336 482 _c
409 482 467 459 509 415 _c
551 371 573 310 573 234 _c
573 159 550 99 506 54 _c
462 9 403 -13 330 -13 _c
246 -13 181 19 137 83 _c
92 147 70 241 70 364 _c
70 479 97 571 152 639 _c
206 707 280 742 372 742 _c
396 742 421 739 447 735 _c
472 730 498 723 526 713 _c
_cl}_e}_d
/eight{{636 0 68 -13 568 742 _sc
318 346 _m
271 346 234 333 207 308 _c
180 283 167 249 167 205 _c
167 161 180 126 207 101 _c
234 76 271 64 318 64 _c
364 64 401 76 428 102 _c
455 127 469 161 469 205 _c
469 249 455 283 429 308 _c
402 333 365 346 318 346 _c
219 388 _m
177 398 144 418 120 447 _c
96 476 85 511 85 553 _c
85 611 105 657 147 691 _c
188 725 245 742 318 742 _c
}_e{390 742 447 725 489 691 _c
530 657 551 611 551 553 _c
551 511 539 476 515 447 _c
491 418 459 398 417 388 _c
464 377 501 355 528 323 _c
554 291 568 251 568 205 _c
568 134 546 80 503 43 _c
459 5 398 -13 318 -13 _c
237 -13 175 5 132 43 _c
89 80 68 134 68 205 _c
68 251 81 291 108 323 _c
134 355 171 377 219 388 _c
183 544 _m
183 506 194 476 218 455 _c
}_e{242 434 275 424 318 424 _c
360 424 393 434 417 455 _c
441 476 453 506 453 544 _c
453 582 441 611 417 632 _c
393 653 360 664 318 664 _c
275 664 242 653 218 632 _c
194 611 183 582 183 544 _c
_cl}_e}_d
/T{611 0 -2 0 614 729 _sc
-2 729 _m
614 729 _l
614 646 _l
355 646 _l
355 0 _l
256 0 _l
256 646 _l
-2 646 _l
-2 729 _l
_cl}_d
/U{732 0 87 -13 645 729 _sc
87 729 _m
186 729 _l
186 286 _l
186 208 200 151 228 117 _c
256 83 302 66 366 66 _c
429 66 475 83 503 117 _c
531 151 546 208 546 286 _c
546 729 _l
645 729 _l
645 274 _l
645 178 621 107 574 59 _c
527 11 458 -13 366 -13 _c
274 -13 204 11 157 59 _c
110 107 87 178 87 274 _c
87 729 _l
_cl}_d
/V{684 0 8 0 676 729 _sc
286 0 _m
8 729 _l
111 729 _l
342 115 _l
573 729 _l
676 729 _l
398 0 _l
286 0 _l
_cl}_d
/bracketleft{390 0 86 -131 293 760 _sc
86 760 _m
293 760 _l
293 690 _l
176 690 _l
176 -61 _l
293 -61 _l
293 -131 _l
86 -131 _l
86 760 _l
_cl}_d
/bracketright{390 0 97 -131 304 760 _sc
304 760 _m
304 -131 _l
97 -131 _l
97 -61 _l
214 -61 _l
214 690 _l
97 690 _l
97 760 _l
304 760 _l
_cl}_d
/a{{613 0 60 -13 522 560 _sc
343 275 _m
270 275 220 266 192 250 _c
164 233 150 205 150 165 _c
150 133 160 107 181 89 _c
202 70 231 61 267 61 _c
317 61 357 78 387 114 _c
417 149 432 196 432 255 _c
432 275 _l
343 275 _l
522 312 _m
522 0 _l
432 0 _l
432 83 _l
411 49 385 25 355 10 _c
325 -5 287 -13 243 -13 _c
187 -13 142 2 109 33 _c
76 64 60 106 60 159 _c
}_e{60 220 80 266 122 298 _c
163 329 224 345 306 345 _c
432 345 _l
432 354 _l
432 395 418 427 391 450 _c
364 472 326 484 277 484 _c
245 484 215 480 185 472 _c
155 464 127 453 100 439 _c
100 522 _l
132 534 164 544 195 550 _c
226 556 256 560 286 560 _c
365 560 424 539 463 498 _c
502 457 522 395 522 312 _c
_cl}_e}_d
/c{{550 0 55 -13 488 560 _sc
488 526 _m
488 442 _l
462 456 437 466 411 473 _c
385 480 360 484 334 484 _c
276 484 230 465 198 428 _c
166 391 150 339 150 273 _c
150 206 166 154 198 117 _c
230 80 276 62 334 62 _c
360 62 385 65 411 72 _c
437 79 462 90 488 104 _c
488 21 _l
462 9 436 0 410 -5 _c
383 -10 354 -13 324 -13 _c
242 -13 176 12 128 64 _c
}_e{79 115 55 185 55 273 _c
55 362 79 432 128 483 _c
177 534 244 560 330 560 _c
358 560 385 557 411 551 _c
437 545 463 537 488 526 _c
_cl}_e}_d
/e{{615 0 55 -13 562 560 _sc
562 296 _m
562 252 _l
149 252 _l
153 190 171 142 205 110 _c
238 78 284 62 344 62 _c
378 62 412 66 444 74 _c
476 82 509 95 541 113 _c
541 28 _l
509 14 476 3 442 -3 _c
408 -9 373 -13 339 -13 _c
251 -13 182 12 131 62 _c
80 112 55 181 55 268 _c
55 357 79 428 127 481 _c
175 533 241 560 323 560 _c
397 560 455 536 498 489 _c
}_e{540 441 562 377 562 296 _c
472 322 _m
471 371 457 410 431 440 _c
404 469 368 484 324 484 _c
274 484 234 469 204 441 _c
174 413 156 373 152 322 _c
472 322 _l
_cl}_e}_d
/g{{635 0 55 -207 544 560 _sc
454 280 _m
454 344 440 395 414 431 _c
387 467 349 485 301 485 _c
253 485 215 467 188 431 _c
161 395 148 344 148 280 _c
148 215 161 165 188 129 _c
215 93 253 75 301 75 _c
349 75 387 93 414 129 _c
440 165 454 215 454 280 _c
544 68 _m
544 -24 523 -93 482 -139 _c
440 -184 377 -207 292 -207 _c
260 -207 231 -204 203 -200 _c
175 -195 147 -188 121 -178 _c
}_e{121 -91 _l
147 -105 173 -115 199 -122 _c
225 -129 251 -133 278 -133 _c
336 -133 380 -117 410 -87 _c
439 -56 454 -10 454 52 _c
454 96 _l
435 64 411 40 382 24 _c
353 8 319 0 279 0 _c
211 0 157 25 116 76 _c
75 127 55 195 55 280 _c
55 364 75 432 116 483 _c
157 534 211 560 279 560 _c
319 560 353 552 382 536 _c
411 520 435 496 454 464 _c
454 547 _l
544 547 _l
}_e{544 68 _l
_cl}_e}_d
/i{278 0 94 0 184 760 _sc
94 547 _m
184 547 _l
184 0 _l
94 0 _l
94 547 _l
94 760 _m
184 760 _l
184 646 _l
94 646 _l
94 760 _l
_cl}_d
/l{278 0 94 0 184 760 _sc
94 760 _m
184 760 _l
184 0 _l
94 0 _l
94 760 _l
_cl}_d
/m{{974 0 91 0 889 560 _sc
520 442 _m
542 482 569 511 600 531 _c
631 550 668 560 711 560 _c
767 560 811 540 842 500 _c
873 460 889 403 889 330 _c
889 0 _l
799 0 _l
799 327 _l
799 379 789 418 771 444 _c
752 469 724 482 686 482 _c
639 482 602 466 575 435 _c
548 404 535 362 535 309 _c
535 0 _l
445 0 _l
445 327 _l
445 379 435 418 417 444 _c
398 469 369 482 331 482 _c
}_e{285 482 248 466 221 435 _c
194 404 181 362 181 309 _c
181 0 _l
91 0 _l
91 547 _l
181 547 _l
181 462 _l
201 495 226 520 255 536 _c
283 552 317 560 357 560 _c
397 560 430 550 458 530 _c
486 510 506 480 520 442 _c
_cl}_e}_d
/o{612 0 55 -13 557 560 _sc
306 484 _m
258 484 220 465 192 427 _c
164 389 150 338 150 273 _c
150 207 163 156 191 118 _c
219 80 257 62 306 62 _c
354 62 392 80 420 118 _c
448 156 462 207 462 273 _c
462 337 448 389 420 427 _c
392 465 354 484 306 484 _c
306 560 _m
384 560 445 534 490 484 _c
534 433 557 363 557 273 _c
557 183 534 113 490 63 _c
445 12 384 -13 306 -13 _c
227 -13 165 12 121 63 _c
77 113 55 183 55 273 _c
55 363 77 433 121 484 _c
165 534 227 560 306 560 _c
_cl}_d
/p{{635 0 91 -207 580 560 _sc
181 82 _m
181 -207 _l
91 -207 _l
91 547 _l
181 547 _l
181 464 _l
199 496 223 520 252 536 _c
281 552 316 560 356 560 _c
422 560 476 533 518 481 _c
559 428 580 359 580 273 _c
580 187 559 117 518 65 _c
476 13 422 -13 356 -13 _c
316 -13 281 -5 252 10 _c
223 25 199 49 181 82 _c
487 273 _m
487 339 473 390 446 428 _c
418 466 381 485 334 485 _c
}_e{286 485 249 466 222 428 _c
194 390 181 339 181 273 _c
181 207 194 155 222 117 _c
249 79 286 61 334 61 _c
381 61 418 79 446 117 _c
473 155 487 207 487 273 _c
_cl}_e}_d
/r{411 0 91 0 411 560 _sc
411 463 _m
401 469 390 473 378 476 _c
366 478 353 480 339 480 _c
288 480 249 463 222 430 _c
194 397 181 350 181 288 _c
181 0 _l
91 0 _l
91 547 _l
181 547 _l
181 462 _l
199 495 224 520 254 536 _c
284 552 321 560 365 560 _c
371 560 378 559 386 559 _c
393 558 401 557 411 555 _c
411 463 _l
_cl}_d
/s{{521 0 54 -13 472 560 _sc
443 531 _m
443 446 _l
417 458 391 468 364 475 _c
336 481 308 485 279 485 _c
234 485 200 478 178 464 _c
156 450 145 430 145 403 _c
145 382 153 366 169 354 _c
185 342 217 330 265 320 _c
296 313 _l
360 299 405 279 432 255 _c
458 230 472 195 472 151 _c
472 100 452 60 412 31 _c
372 1 316 -13 246 -13 _c
216 -13 186 -10 154 -5 _c
}_e{122 0 89 8 54 20 _c
54 113 _l
87 95 120 82 152 74 _c
184 65 216 61 248 61 _c
290 61 323 68 346 82 _c
368 96 380 117 380 144 _c
380 168 371 187 355 200 _c
339 213 303 226 247 238 _c
216 245 _l
160 257 119 275 95 299 _c
70 323 58 356 58 399 _c
58 450 76 490 112 518 _c
148 546 200 560 268 560 _c
301 560 332 557 362 552 _c
391 547 418 540 443 531 _c
}_e{_cl}_e}_d
/t{392 0 27 0 368 702 _sc
183 702 _m
183 547 _l
368 547 _l
368 477 _l
183 477 _l
183 180 _l
183 135 189 106 201 94 _c
213 81 238 75 276 75 _c
368 75 _l
368 0 _l
276 0 _l
206 0 158 13 132 39 _c
106 65 93 112 93 180 _c
93 477 _l
27 477 _l
27 547 _l
93 547 _l
93 702 _l
183 702 _l
_cl}_d
end readonly def

/BuildGlyph
 {exch begin
 CharStrings exch
 2 copy known not{pop /.notdef}if
 true 3 1 roll get exec
 end}_d

/BuildChar {
 1 index /Encoding get exch get
 1 index /BuildGlyph get exec
}_d

FontName currentdict end definefont pop
end
%%EndProlog
mpldict begin
90 252 translate
432 288 0 0 clipbox
gsave
0 0 m
432 0 l
432 288 l
0 288 l
cl
1.000 setgray
fill
grestore
gsave
54 36 m
388.8 36 l
388.8 253.44 l
54 253.44 l
cl
1.000 setgray
fill
grestore
0.800 setlinewidth
1 setlinejoin
2 setlinecap
[] 0 setdash
0.690 setgray
gsave
334.8 217.4 54 36 clipbox
69.218182 36 m
69.218182 253.44 l
stroke
grestore
0 setlinecap
0.000 setgray
gsave
/o {
gsave
newpath
translate
0.8 setlinewidth
1 setlinejoin
0 setlinecap
0 0 m
0 -3.5 l

gsave
0.000 setgray
fill
grestore
stroke
grestore
} bind def
69.2182 36 o
grestore
/DejaVuSans findfont
10.000 scalefont
setfont
gsave
66.038494 21.406250 translate
0.000000 rotate
0.000000 0.000000 m /zero glyphshow
grestore
2 setlinecap
0.690 setgray
gsave
334.8 217.4 54 36 clipbox
112.729781 36 m
112.729781 253.44 l
stroke
grestore
0 setlinecap
0.000 setgray
gsave
/o {
gsave
newpath
translate
0.8 setlinewidth
1 setlinejoin
0 setlinecap
0 0 m
0 -3.5 l

gsave
0.000 setgray
fill
grestore
stroke
grestore
} bind def
112.73 36 o
grestore
gsave
103.190719 21.406250 translate
0.000000 rotate
0.000000 0.000000 m /two glyphshow
6.362305 0.000000 m /zero glyphshow
12.724609 0.000000 m /zero glyphshow
grestore
2 setlinecap
0.690 setgray
gsave
334.8 217.4 54 36 clipbox
156.24138 36 m
156.24138 253.44 l
stroke
grestore
0 setlinecap
0.000 setgray
gsave
/o {
gsave
newpath
translate
0.8 setlinewidth
1 setlinejoin
0 setlinecap
0 0 m
0 -3.5 l

gsave
0.000 setgray
fill
grestore
stroke
grestore
} bind def
156.241 36 o
grestore
gsave
146.702318 21.406250 translate
0.000000 rotate
0.000000 0.000000 m /four glyphshow
6.362305 0.000000 m /zero glyphshow
12.724609 0.000000 m /zero glyphshow
grestore
2 setlinecap
0.690 setgray
gsave
334.8 217.4 54 36 clipbox
199.752979 36 m
199.752979 253.44 l
stroke
grestore
0 setlinecap
0.000 setgray
gsave
/o {
gsave
newpath
translate
0.8 setlinewidth
1 setlinejoin
0 setlinecap
0 0 m
0 -3.5 l

gsave
0.000 setgray
fill
grestore
stroke
grestore
} bind def
199.753 36 o
grestore
gsave
190.213917 21.406250 translate
0.000000 rotate
0.000000 0.000000 m /six glyphshow
6.362305 0.000000 m /zero glyphshow
12.724609 0.000000 m /zero glyphshow
grestore
2 setlinecap
0.690 setgray
gsave
334.8 217.4 54 36 clipbox
243.264579 36 m
243.264579 253.44 l
stroke
grestore
0 setlinecap
0.000 setgray
gsave
/o {
gsave
newpath
translate
0.8 setlinewidth
1 setlinejoin
0 setlinecap
0 0 m
0 -3.5 l

gsave
0.000 setgray
fill
grestore
stroke
grestore
} bind def
243.265 36 o
grestore
gsave
233.725516 21.406250 translate
0.000000 rotate
0.000000 0.000000 m /eight glyphshow
6.362305 0.000000 m /zero glyphshow
12.724609 0.000000 m /zero glyphshow
grestore
2 setlinecap
0.690 setgray
gsave
334.8 217.4 54 36 clipbox
286.776178 36 m
286.776178 253.44 l
stroke
grestore
0 setlinecap
0.000 setgray
gsave
/o {
gsave
newpath
translate
0.8 setlinewidth
1 setlinejoin
0 setlinecap
0 0 m
0 -3.5 l

gsave
0.000 setgray
fill
grestore
stroke
grestore
} bind def
286.776 36 o
grestore
gsave
274.057428 21.406250 translate
0.000000 rotate
0.000000 0.000000 m /one glyphshow
6.362305 0.000000 m /zero glyphshow
12.724609 0.000000 m /zero glyphshow
19.086914 0.000000 m /zero glyphshow
grestore
2 setlinecap
0.690 setgray
gsave
334.8 217.4 54 36 clipbox
330.287777 36 m
330.287777 253.44 l
stroke
grestore
0 setlinecap
0.000 setgray
gsave
/o {
gsave
newpath
translate
0.8 setlinewidth
1 setlinejoin
0 setlinecap
0 0 m
0 -3.5 l

gsave
0.000 setgray
fill
grestore
stroke
grestore
} bind def
330.288 36 o
grestore
gsave
317.569027 21.406250 translate
0.000000 rotate
0.000000 0.000000 m /one glyphshow
6.362305 0.000000 m /two glyphshow
12.724609 0.000000 m /zero glyphshow
19.086914 0.000000 m /zero glyphshow
grestore
2 setlinecap
0.690 setgray
gsave
334.8 217.4 54 36 clipbox
373.799376 36 m
373.799376 253.44 l
stroke
grestore
0 setlinecap
0.000 setgray
gsave
/o {
gsave
newpath
translate
0.8 setlinewidth
1 setlinejoin
0 setlinecap
0 0 m
0 -3.5 l

gsave
0.000 setgray
fill
grestore
stroke
grestore
} bind def
373.799 36 o
grestore
gsave
361.080626 21.406250 translate
0.000000 rotate
0.000000 0.000000 m /one glyphshow
6.362305 0.000000 m /four glyphshow
12.724609 0.000000 m /zero glyphshow
19.086914 0.000000 m /zero glyphshow
grestore
gsave
200.892188 7.734375 translate
0.000000 rotate
0.000000 0.000000 m /T glyphshow
6.108398 0.000000 m /i glyphshow
8.886719 0.000000 m /m glyphshow
18.627930 0.000000 m /e glyphshow
24.780273 0.000000 m /space glyphshow
27.958984 0.000000 m /bracketleft glyphshow
31.860352 0.000000 m /s glyphshow
37.070312 0.000000 m /bracketright glyphshow
grestore
2 setlinecap
0.690 setgray
gsave
334.8 217.4 54 36 clipbox
54 36.758722 m
388.8 36.758722 l
stroke
grestore
0 setlinecap
0.000 setgray
gsave
/o {
gsave
newpath
translate
0.8 setlinewidth
1 setlinejoin
0 setlinecap
0 0 m
-3.5 0 l

gsave
0.000 setgray
fill
grestore
stroke
grestore
} bind def
54 36.7587 o
grestore
gsave
27.921875 32.961847 translate
0.000000 rotate
0.000000 0.000000 m /two glyphshow
6.362305 0.000000 m /zero glyphshow
12.724609 0.000000 m /zero glyphshow
grestore
2 setlinecap
0.690 setgray
gsave
334.8 217.4 54 36 clipbox
54 70.183216 m
388.8 70.183216 l
stroke
grestore
0 setlinecap
0.000 setgray
gsave
/o {
gsave
newpath
translate
0.8 setlinewidth
1 setlinejoin
0 setlinecap
0 0 m
-3.5 0 l

gsave
0.000 setgray
fill
grestore
stroke
grestore
} bind def
54 70.1832 o
grestore
gsave
27.921875 66.386341 translate
0.000000 rotate
0.000000 0.000000 m /two glyphshow
6.362305 0.000000 m /one glyphshow
12.724609 0.000000 m /zero glyphshow
grestore
2 setlinecap
0.690 setgray
gsave
334.8 217.4 54 36 clipbox
54 103.60771 m
388.8 103.60771 l
stroke
grestore
0 setlinecap
0.000 setgray
gsave
/o {
gsave
newpath
translate
0.8 setlinewidth
1 setlinejoin
0 setlinecap
0 0 m
-3.5 0 l

gsave
0.000 setgray
fill
grestore
stroke
grestore
} bind def
54 103.608 o
grestore
gsave
27.921875 99.810835 translate
0.000000 rotate
0.000000 0.000000 m /two glyphshow
6.362305 0.000000 m /two glyphshow
12.724609 0.000000 m /zero glyphshow
grestore
2 setlinecap
0.690 setgray
gsave
334.8 217.4 54 36 clipbox
54 137.032204 m
388.8 137.032204 l
stroke
grestore
0 setlinecap
0.000 setgray
gsave
/o {
gsave
newpath
translate
0.8 setlinewidth
1 setlinejoin
0 setlinecap
0 0 m
-3.5 0 l

gsave
0.000 setgray
fill
grestore
stroke
grestore
} bind def
54 137.032 o
grestore
gsave
27.921875 133.235329 translate
0.000000 rotate
0.000000 0.000000 m /two glyphshow
6.362305 0.000000 m /three glyphshow
12.724609 0.000000 m /zero glyphshow
grestore
2 setlinecap
0.690 setgray
gsave
334.8 217.4 54 36 clipbox
54 170.456698 m
388.8 170.456698 l
stroke
grestore
0 setlinecap
0.000 setgray
gsave
/o {
gsave
newpath
translate
0.8 setlinewidth
1 setlinejoin
0 setlinecap
0 0 m
-3.5 0 l

gsave
0.000 setgray
fill
grestore
stroke
grestore
} bind def
54 170.457 o
grestore
gsave
27.921875 166.659823 translate
0.000000 rotate
0.000000 0.000000 m /two glyphshow
6.362305 0.000000 m /four glyphshow
12.724609 0.000000 m /zero glyphshow
grestore
2 setlinecap
0.690 setgray
gsave
334.8 217.4 54 36 clipbox
54 203.881192 m
388.8 203.881192 l
stroke
grestore
0 setlinecap
0.000 setgray
gsave
/o {
gsave
newpath
translate
0.8 setlinewidth
1 setlinejoin
0 setlinecap
0 0 m
-3.5 0 l

gsave
0.000 setgray
fill
grestore
stroke
grestore
} bind def
54 203.881 o
grestore
gsave
27.921875 200.084317 translate
0.000000 rotate
0.000000 0.000000 m /two glyphshow
6.362305 0.000000 m /five glyphshow
12.724609 0.000000 m /zero glyphshow
grestore
2 setlinecap
0.690 setgray
gsave
334.8 217.4 54 36 clipbox
54 237.305686 m
388.8 237.305686 l
stroke
grestore
0 setlinecap
0.000 setgray
gsave
/o {
gsave
newpath
translate
0.8 setlinewidth
1 setlinejoin
0 setlinecap
0 0 m
-3.5 0 l

gsave
0.000 setgray
fill
grestore
stroke
grestore
} bind def
54 237.306 o
grestore
gsave
27.921875 233.508811 translate
0.000000 rotate
0.000000 0.000000 m /two glyphshow
6.362305 0.000000 m /six glyphshow
12.724609 0.000000 m /zero glyphshow
grestore
gsave
21.843750 79.657500 translate
90.000000 rotate
0.000000 0.000000 m /U glyphshow
7.319336 0.000000 m /l glyphshow
10.097656 0.000000 m /t glyphshow
14.018555 0.000000 m /r glyphshow
18.129883 0.000000 m /a glyphshow
24.257812 0.000000 m /c glyphshow
29.755859 0.000000 m /a glyphshow
35.883789 0.000000 m /p glyphshow
42.231445 0.000000 m /a glyphshow
48.359375 0.000000 m /c glyphshow
53.857422 0.000000 m /i glyphshow
56.635742 0.000000 m /t glyphshow
60.556641 0.000000 m /o glyphshow
66.674805 0.000000 m /r glyphshow
70.786133 0.000000 m /space glyphshow
73.964844 0.000000 m /V glyphshow
80.805664 0.000000 m /o glyphshow
86.923828 0.000000 m /l glyphshow
89.702148 0.000000 m /t glyphshow
93.623047 0.000000 m /a glyphshow
99.750977 0.000000 m /g glyphshow
106.098633 0.000000 m /e glyphshow
112.250977 0.000000 m /space glyphshow
115.429688 0.000000 m /bracketleft glyphshow
119.331055 0.000000 m /V glyphshow
126.171875 0.000000 m /bracketright glyphshow
grestore
1.500 setlinewidth
2 setlinecap
0.122 0.467 0.706 setrgbcolor
gsave
334.8 217.4 54 36 clipbox
69.218182 243.556364 m
69.43574 212.52769 l
69.653298 218.539898 l
69.870856 198.076435 l
70.741088 162.183222 l
70.958646 158.050671 l
72.263994 105.965987 l
72.481552 106.390326 l
72.69911 100.831752 l
72.916668 106.396145 l
73.134226 107.033358 l
73.351784 108.613942 l
73.569342 109.337157 l
73.7869 104.804698 l
74.004458 105.940236 l
74.222016 78.391912 l
74.439574 100.759682 l
74.657132 77.752298 l
74.87469 98.547037 l
75.092248 99.29892 l
75.527364 95.926881 l
75.744922 97.434132 l
75.96248 96.116135 l
76.180038 100.047327 l
76.397596 100.641747 l
76.615154 90.433445 l
76.832712 104.081205 l
77.05027 91.159162 l
77.267828 105.865489 l
77.485386 104.76142 l
77.702944 104.97498 l
77.920502 107.633411 l
78.13806 103.698687 l
78.355618 108.672369 l
78.573176 105.209329 l
79.008292 108.494527 l
79.22585 108.720853 l
79.443408 110.78702 l
79.660966 118.861823 l
79.878524 121.388017 l
80.096082 121.709035 l
80.31364 126.791156 l
80.531198 116.727225 l
80.748756 117.619934 l
80.966314 117.046552 l
81.183872 113.79586 l
81.40143 116.419245 l
81.618988 116.034129 l
81.836546 115.388814 l
82.054104 110.780467 l
82.271662 109.485337 l
82.48922 107.113695 l
82.706778 103.088502 l
82.924336 105.600675 l
83.141894 101.403899 l
83.359452 100.119634 l
83.57701 103.258515 l
83.794568 101.072874 l
84.012126 105.13231 l
84.882358 158.307014 l
85.317474 166.58289 l
85.535032 164.24285 l
85.75259 159.299679 l
85.970148 157.293435 l
86.187706 150.380984 l
86.405263 148.08908 l
87.057937 126.34873 l
87.275495 114.268239 l
87.493053 113.601082 l
87.710611 100.99471 l
87.928169 112.957359 l
88.145727 107.28706 l
88.363285 114.590455 l
88.580843 110.065352 l
88.798401 111.581209 l
89.015959 108.462194 l
89.233517 112.728206 l
89.451075 102.692209 l
89.668633 115.010086 l
89.886191 101.123844 l
90.103749 113.252123 l
90.321307 102.313788 l
90.538865 111.267802 l
90.756423 104.807842 l
90.973981 110.251704 l
91.191539 108.85247 l
91.409097 113.782201 l
91.626655 108.56908 l
91.844213 111.629027 l
92.279329 105.517118 l
92.496887 111.09799 l
92.714445 107.610274 l
92.932003 111.000273 l
93.149561 109.854269 l
93.367119 106.446915 l
93.584677 97.364363 l
93.802235 103.662611 l
94.019793 84.421429 l
94.237351 103.796622 l
94.454909 91.778505 l
94.672467 100.524184 l
94.890025 102.319339 l
95.107583 95.506805 l
95.325141 102.491837 l
95.542699 100.701561 l
95.760257 100.505851 l
95.977815 104.612054 l
96.195373 106.258907 l
96.412931 106.341506 l
96.630489 111.077962 l
96.848047 112.049113 l
97.065605 114.345221 l
97.283163 111.377296 l
97.500721 111.792442 l
97.935837 109.284509 l
98.370953 110.131516 l
98.588511 110.159699 l
98.806069 101.409579 l
99.023627 100.052534 l
99.241185 99.457972 l
99.458743 95.696199 l
99.676301 101.709308 l
100.111417 104.17188 l
100.546533 123.268263 l
100.981649 153.534019 l
101.199207 155.364258 l
101.416765 158.250405 l
101.634323 152.518303 l
101.851881 143.315769 l
102.069439 140.920895 l
102.286997 133.704436 l
102.504555 130.264946 l
102.722113 130.031107 l
102.939671 119.639031 l
103.157229 120.076609 l
103.374787 88.123572 l
103.592345 108.437836 l
103.809903 83.838888 l
104.027461 102.45877 l
104.245019 95.001534 l
104.462577 98.959581 l
104.897693 87.262908 l
105.115251 87.037298 l
105.332809 81.796479 l
105.550367 82.969253 l
105.767925 89.828671 l
105.985483 89.389193 l
106.203041 90.864801 l
106.420599 98.178609 l
106.638157 93.910411 l
106.855715 98.415551 l
107.073273 98.58939 l
107.508389 104.509427 l
107.725947 108.812416 l
107.943505 102.523401 l
108.161063 100.681241 l
108.596179 95.553165 l
108.813737 82.41209 l
109.031295 102.085106 l
109.248853 78.531081 l
109.683969 104.640682 l
109.901527 93.737577 l
110.119085 122.815845 l
110.336643 112.890668 l
110.554201 128.137541 l
110.771759 120.789798 l
110.989317 121.384228 l
111.424433 113.437867 l
111.641991 119.164489 l
111.859549 101.527401 l
112.077107 107.08275 l
112.294665 106.367853 l
112.512223 102.870303 l
112.729781 109.300606 l
112.947339 102.787571 l
113.164897 105.354206 l
113.382455 101.699051 l
113.600013 100.907651 l
113.817571 95.91845 l
114.035129 103.246168 l
114.252687 95.814577 l
114.470245 108.415157 l
114.687803 98.150416 l
114.905361 100.370879 l
115.122919 95.085388 l
115.340477 100.901156 l
115.558035 102.329938 l
115.775593 107.091015 l
115.993151 105.810179 l
116.210709 106.57731 l
116.428267 105.115715 l
116.645825 102.487221 l
116.863383 103.648862 l
117.080941 109.638564 l
117.298499 95.908078 l
117.516057 104.351476 l
117.733615 93.050842 l
117.951173 94.030155 l
118.168731 98.244973 l
118.386289 96.994821 l
118.603847 96.408659 l
118.821405 98.405085 l
119.038963 94.695469 l
119.256521 97.750143 l
119.474079 96.683696 l
119.691637 103.908267 l
119.909195 104.88228 l
120.344311 78.775356 l
120.561869 46.401131 l
120.779427 62.453721 l
120.996985 63.283586 l
121.214543 83.787012 l
121.432101 93.176548 l
121.649659 90.196051 l
121.867217 88.956559 l
122.084775 92.305052 l
122.302333 92.852011 l
122.737449 95.312906 l
122.955007 94.935888 l
123.172565 95.322107 l
123.390123 94.423475 l
123.607681 97.14796 l
123.825239 95.547703 l
124.042797 97.810958 l
124.260355 95.827035 l
124.695471 102.152715 l
124.913029 101.837095 l
125.130587 104.859982 l
125.348145 98.081528 l
125.565703 102.165001 l
125.783261 98.665508 l
126.000819 102.588826 l
126.218377 100.599122 l
126.435935 99.793365 l
126.653493 100.083145 l
126.871051 101.552464 l
127.088609 102.10068 l
127.306167 101.103033 l
127.523725 101.941701 l
127.741283 99.465068 l
127.958841 102.846946 l
128.176399 101.110685 l
128.393957 104.58067 l
128.611515 99.710602 l
128.829073 103.906788 l
129.046631 99.480325 l
129.264189 104.603233 l
129.481747 100.735737 l
129.699305 103.870001 l
129.916863 100.151661 l
130.134421 102.255188 l
130.351979 99.036518 l
130.569537 100.094013 l
130.787095 97.784019 l
131.222211 101.014161 l
131.439769 102.108187 l
131.874885 113.084244 l
132.310001 135.15129 l
132.527559 141.539326 l
132.745117 135.656167 l
132.962675 136.592655 l
133.180233 110.757249 l
133.397791 122.22561 l
133.615349 110.538442 l
133.832907 106.557283 l
134.050465 118.356538 l
134.268023 109.484088 l
134.920697 112.614362 l
135.138255 107.939834 l
135.355813 111.710066 l
135.790929 104.613722 l
136.008487 108.118377 l
136.226045 103.591159 l
136.443603 106.258847 l
136.661161 103.776173 l
136.878719 96.165555 l
137.096277 102.821929 l
137.313835 94.153376 l
137.531393 102.241173 l
137.748951 98.058896 l
137.966509 99.138771 l
138.184067 87.620889 l
138.401625 99.803603 l
138.619183 84.980645 l
138.836741 101.284231 l
139.054299 98.512862 l
139.489415 102.49867 l
139.924531 97.734058 l
141.01232 129.047685 l
141.229878 121.576083 l
141.447436 132.398727 l
141.664994 115.118526 l
141.882552 123.577095 l
142.10011 111.882065 l
142.317668 116.664179 l
142.535226 115.85944 l
142.752784 117.419275 l
142.970342 105.089936 l
143.1879 108.394255 l
143.405458 100.402229 l
143.623016 99.998172 l
143.840574 102.928889 l
144.058132 101.280349 l
144.27569 105.554969 l
144.493248 97.991486 l
144.710806 103.80643 l
144.928364 96.416508 l
145.145922 99.376916 l
145.36348 99.970321 l
145.581038 99.322744 l
146.016154 100.467441 l
146.233712 103.037193 l
146.45127 103.671313 l
146.668828 106.818087 l
146.886386 106.879157 l
147.103944 106.53266 l
147.321502 107.050029 l
147.53906 104.761427 l
147.756618 105.062104 l
148.191734 100.249515 l
148.409292 103.463554 l
148.62685 100.400945 l
148.844408 101.405752 l
149.061966 104.8905 l
149.279524 97.686384 l
149.497082 115.647865 l
149.71464 110.692032 l
149.932198 128.15633 l
150.149756 123.070524 l
150.367314 124.255955 l
150.584872 117.525705 l
150.80243 114.337569 l
151.019988 113.848928 l
151.237546 110.739854 l
151.455104 111.177841 l
151.672662 114.788841 l
151.89022 111.037201 l
152.107778 114.457546 l
152.325336 106.909178 l
152.542894 109.080769 l
152.760452 102.497149 l
152.97801 113.089063 l
153.195568 93.250831 l
153.413126 101.851527 l
153.630684 87.314743 l
153.848242 92.102112 l
154.0658 94.362781 l
154.500916 100.265711 l
154.718474 101.200107 l
154.936032 103.907551 l
155.15359 103.936272 l
155.371148 103.340997 l
156.24138 99.106748 l
156.458938 97.773733 l
156.676496 98.697562 l
156.894054 97.044575 l
157.111612 98.004541 l
157.32917 98.178294 l
157.546728 94.625131 l
157.764286 101.335755 l
157.981844 93.841587 l
158.199402 103.879537 l
158.41696 103.088988 l
158.634518 109.618988 l
158.852076 106.867294 l
159.069634 115.270364 l
159.287192 109.265248 l
159.50475 113.681594 l
160.374982 100.862915 l
160.59254 104.638825 l
160.810098 102.227907 l
161.027656 105.586399 l
161.245214 101.255653 l
161.462772 108.388326 l
161.68033 102.502825 l
161.897888 106.976838 l
162.115446 106.158577 l
162.333004 104.74832 l
162.550562 99.143051 l
162.76812 103.818427 l
162.985678 94.04114 l
163.203236 100.218614 l
163.420794 96.725324 l
163.638352 98.393169 l
164.073468 97.981587 l
164.291026 98.487862 l
164.508584 105.059727 l
164.726142 94.653466 l
164.9437 104.238014 l
165.161258 94.560598 l
165.378816 98.548164 l
165.596374 98.643565 l
165.813932 89.064028 l
166.03149 90.678333 l
166.249048 85.88037 l
166.466606 87.252772 l
166.684164 90.997289 l
166.901722 90.489299 l
167.11928 62.934955 l
167.336838 58.281535 l
167.554396 45.883636 l
167.771954 48.334493 l
167.989512 66.332455 l
168.424628 78.799156 l
168.642186 78.571691 l
169.077302 83.176866 l
169.29486 85.151004 l
170.165092 123.038492 l
170.38265 110.398698 l
170.600208 120.371525 l
170.817766 106.18608 l
171.035324 112.490274 l
171.252882 105.651923 l
171.47044 110.388723 l
171.687998 98.749354 l
171.905556 108.692885 l
172.123114 101.109028 l
172.340672 111.31824 l
172.55823 100.008419 l
172.775788 114.579402 l
172.993346 100.814343 l
173.210904 110.466359 l
173.428462 106.40291 l
173.64602 110.721083 l
173.863578 108.62025 l
174.081136 111.029649 l
174.516252 109.308738 l
174.73381 106.333379 l
174.951368 106.914158 l
175.168926 106.895104 l
175.386484 104.812399 l
175.604042 110.602957 l
175.8216 100.280743 l
176.039158 112.372096 l
176.256716 85.719301 l
176.474274 104.958689 l
176.691832 90.243954 l
176.90939 93.123682 l
177.126948 108.138302 l
177.344506 99.926989 l
177.562064 108.222093 l
177.779622 108.419675 l
177.99718 107.276979 l
178.214738 111.621301 l
178.432296 109.709417 l
178.649854 115.430812 l
178.867412 103.296287 l
179.08497 115.328251 l
179.302528 112.021683 l
179.520086 129.856172 l
180.17276 143.993302 l
180.390318 134.448847 l
180.607876 134.193405 l
180.825434 126.724525 l
181.478108 119.459402 l
181.695666 119.453251 l
181.913224 114.794897 l
182.130782 115.422577 l
182.34834 113.210877 l
182.565898 109.344598 l
182.783456 99.933251 l
183.001014 102.399031 l
183.43613 85.050332 l
183.653688 100.028239 l
183.871246 87.206901 l
184.088804 99.996422 l
184.306362 95.017986 l
184.52392 96.921648 l
184.741478 90.45789 l
184.959036 96.46673 l
185.61171 100.529303 l
185.829268 98.385557 l
186.046826 84.537859 l
186.264384 89.126261 l
186.481942 76.629004 l
186.6995 87.782231 l
186.917058 73.969703 l
187.134616 86.618621 l
187.352174 78.232841 l
187.569732 89.729039 l
187.78729 76.424396 l
188.004848 83.585367 l
188.222406 73.844296 l
188.87508 108.68875 l
189.092638 105.493001 l
189.310196 108.259193 l
189.527754 107.248339 l
189.745312 98.451113 l
189.96287 108.499298 l
190.180428 93.365151 l
190.397986 110.770218 l
190.615544 112.534528 l
191.05066 133.493873 l
191.268218 132.59124 l
191.485776 109.390055 l
191.703334 115.043183 l
192.13845 89.476551 l
192.356008 111.283531 l
192.573566 93.352477 l
192.791124 109.20754 l
193.008682 109.050243 l
193.22624 97.743735 l
193.443798 109.149134 l
193.661356 92.964294 l
193.878914 103.788608 l
194.096472 74.73285 l
194.31403 95.238748 l
194.531587 69.38625 l
194.749145 96.087697 l
194.966703 90.135661 l
195.184261 76.519816 l
195.401819 82.031424 l
195.619377 70.183532 l
195.836935 75.313083 l
196.054493 90.230967 l
196.272051 85.108244 l
196.489609 94.706116 l
196.707167 92.60994 l
197.142283 87.009149 l
197.359841 85.681397 l
197.577399 82.933071 l
197.794957 89.816916 l
198.012515 87.505748 l
198.230073 90.660083 l
198.447631 91.597174 l
198.665189 90.808436 l
198.882747 96.972461 l
199.317863 81.280176 l
199.535421 86.58488 l
199.752979 73.590782 l
199.970537 83.164359 l
200.405653 73.199075 l
200.623211 83.650617 l
200.840769 73.252828 l
201.058327 93.033219 l
201.275885 89.105782 l
201.493443 91.419225 l
201.711001 95.127245 l
201.928559 91.288567 l
202.146117 97.159292 l
202.363675 93.810908 l
202.581233 96.509855 l
202.798791 94.909039 l
203.016349 97.8913 l
203.233907 96.170662 l
203.451465 106.686545 l
203.669023 108.329215 l
203.886581 114.288135 l
204.104139 116.417514 l
204.321697 120.039095 l
204.539255 112.439622 l
204.756813 117.980752 l
204.974371 111.440901 l
205.191929 127.36074 l
205.409487 131.370749 l
205.627045 153.372916 l
205.844603 152.369001 l
206.062161 155.051927 l
206.279719 150.150276 l
206.497277 139.822794 l
206.714835 139.624006 l
206.932393 137.41246 l
207.149951 132.702683 l
207.367509 141.315406 l
207.585067 125.712439 l
207.802625 123.013544 l
208.237741 106.683648 l
208.672857 116.625308 l
208.890415 113.029453 l
209.107973 121.273142 l
209.325531 117.319979 l
209.543089 116.948789 l
209.760647 121.448953 l
209.978205 109.936426 l
210.195763 123.598994 l
210.413321 122.596564 l
210.848437 154.132457 l
211.065995 166.420513 l
211.283553 168.924657 l
211.501111 178.397786 l
211.718669 180.05873 l
212.371343 201.233819 l
212.588901 204.272482 l
213.024017 200.958626 l
213.894249 164.968481 l
214.546923 144.79906 l
214.764481 139.620864 l
214.982039 130.178844 l
215.199597 130.764287 l
215.417155 121.870709 l
215.634713 124.580582 l
215.852271 121.789803 l
216.069829 124.222389 l
216.287387 121.347647 l
216.504945 122.443846 l
216.722503 116.317116 l
217.157619 111.031074 l
217.375177 103.8906 l
217.592735 108.065882 l
217.810293 104.97187 l
218.027851 107.468397 l
218.245409 108.238665 l
218.680525 100.276195 l
218.898083 100.43059 l
219.115641 98.922077 l
219.333199 105.341826 l
219.768315 108.282009 l
219.985873 107.900098 l
220.203431 103.514017 l
220.420989 106.822919 l
220.638547 105.218089 l
220.856105 109.938488 l
221.726337 99.058602 l
222.161453 104.084414 l
222.379011 103.047871 l
223.031685 109.624498 l
223.249243 108.16676 l
223.466801 105.561388 l
223.684359 109.896595 l
223.901917 91.982319 l
224.119475 111.457506 l
224.337033 93.86392 l
224.554591 108.722992 l
224.772149 96.845111 l
224.989707 103.541471 l
225.207265 97.122834 l
225.424823 106.299665 l
225.642381 106.452555 l
225.859939 111.983788 l
226.077497 108.154248 l
226.295055 111.671861 l
226.512613 108.707301 l
226.730171 108.207157 l
226.947729 112.451625 l
227.165287 109.245741 l
227.382845 114.222543 l
227.817961 111.817107 l
228.035519 108.854683 l
228.253077 110.028298 l
228.470635 107.760447 l
228.688193 110.487628 l
228.905751 106.48827 l
229.123309 110.029696 l
229.340867 110.859235 l
229.558425 106.724949 l
229.775983 114.050813 l
229.993541 108.741485 l
230.211099 111.028329 l
230.428657 111.642756 l
230.646215 98.768889 l
230.863773 109.32505 l
231.081331 97.764988 l
231.298889 110.199919 l
231.516447 115.591431 l
232.169121 149.573147 l
232.386679 146.602464 l
232.604237 150.492086 l
232.821795 142.358544 l
233.039353 148.791106 l
233.256911 149.908494 l
233.474469 159.868355 l
233.692027 161.365489 l
233.909585 163.768137 l
234.344701 149.487485 l
234.562259 129.662279 l
234.779817 139.633315 l
234.997375 109.014046 l
235.214933 132.471054 l
235.432491 110.961387 l
235.650049 125.712563 l
235.867607 118.78559 l
236.085165 129.455898 l
236.302723 117.227687 l
236.520281 125.31815 l
236.737839 114.383867 l
236.955397 130.178066 l
237.608071 144.88661 l
237.825629 135.156055 l
238.913419 121.84044 l
239.566093 117.295175 l
240.218767 114.435893 l
240.871441 112.637387 l
241.524115 111.505895 l
242.176789 110.793671 l
242.829463 110.374448 l
243.699695 110.04547 l
243.917253 108.20702 l
244.134811 108.210122 l
244.787485 96.86876 l
245.005043 96.287664 l
245.222601 97.169438 l
245.440159 96.380099 l
245.657717 102.539915 l
245.875275 93.826123 l
246.092833 103.609893 l
246.310391 94.745086 l
246.527949 104.971242 l
246.745507 104.601875 l
246.963065 105.360055 l
247.180623 89.192762 l
247.398181 107.18077 l
247.615739 83.325019 l
247.833297 106.121147 l
248.050855 101.422164 l
248.268413 106.296707 l
248.48597 104.527405 l
248.703528 112.592733 l
248.921086 115.644095 l
249.57376 158.359866 l
249.791318 166.351154 l
250.008876 167.251825 l
250.226434 165.152942 l
251.096666 139.010678 l
251.531782 130.423338 l
252.619572 117.560373 l
253.054688 100.902253 l
253.272246 99.662615 l
253.489804 93.596574 l
253.707362 101.820093 l
253.92492 99.855027 l
254.142478 108.735399 l
254.360036 101.262552 l
254.577594 113.884965 l
254.795152 104.89223 l
255.01271 111.149843 l
255.230268 111.308293 l
255.447826 108.308782 l
255.665384 112.27723 l
255.882942 101.565948 l
256.1005 109.25914 l
256.318058 99.681915 l
256.535616 105.533884 l
256.753174 106.479409 l
257.18829 102.253265 l
257.405848 98.816315 l
257.623406 98.613052 l
257.840964 92.198848 l
258.058522 96.392321 l
258.27608 92.680608 l
258.493638 95.483284 l
258.711196 92.610017 l
258.928754 95.045312 l
259.146312 94.611795 l
259.36387 98.143931 l
259.581428 105.410101 l
259.798986 106.417839 l
260.016544 116.930569 l
260.234102 112.447477 l
260.45166 123.320714 l
260.669218 122.772611 l
261.104334 127.93979 l
261.321892 126.326635 l
261.53945 122.509146 l
261.757008 129.494605 l
261.974566 132.334426 l
262.192124 131.63484 l
262.409682 136.661251 l
262.62724 128.450632 l
263.279914 121.677594 l
263.932588 117.270762 l
264.585262 114.512522 l
265.237936 112.3302 l
265.455494 110.71727 l
265.89061 99.440557 l
266.108168 100.513187 l
266.325726 82.416122 l
266.543284 95.280242 l
266.760842 85.673384 l
266.9784 92.458223 l
267.413516 99.235846 l
267.631074 91.741006 l
267.848632 100.461673 l
268.06619 97.686026 l
268.283748 102.733383 l
268.501306 101.99705 l
268.718864 104.572647 l
268.936422 104.317788 l
269.15398 105.499697 l
269.371538 110.124114 l
269.589096 109.295331 l
269.806654 109.318724 l
270.024212 110.085506 l
270.24177 114.497117 l
270.459328 107.871103 l
270.676886 119.888921 l
270.894444 111.059063 l
271.112002 120.748792 l
271.32956 117.741326 l
271.547118 119.92843 l
271.764676 117.452422 l
271.982234 118.227558 l
272.199792 114.435575 l
272.41735 115.230713 l
272.852466 104.845182 l
273.070024 105.544824 l
273.287582 99.742069 l
273.50514 105.170143 l
273.722698 102.254302 l
273.940256 106.086091 l
274.157814 107.26927 l
274.375372 101.183735 l
274.59293 110.49165 l
274.810488 100.811874 l
275.028046 109.719242 l
275.245604 100.205629 l
275.463162 104.088617 l
275.68072 100.04304 l
276.115836 104.501678 l
276.333394 103.128317 l
276.550952 105.789755 l
276.76851 101.903386 l
276.986068 107.113327 l
277.203626 103.825963 l
277.421184 103.548185 l
277.638742 104.779382 l
277.8563 103.892543 l
278.291416 106.031209 l
278.508974 107.906362 l
278.94409 109.246473 l
279.161648 107.086029 l
279.596764 98.476096 l
279.814322 102.294961 l
280.03188 97.182624 l
280.249438 106.128528 l
280.684554 103.974358 l
280.902112 96.283731 l
281.11967 100.795357 l
281.337228 90.336162 l
281.554786 99.122714 l
281.772344 97.08695 l
281.989902 101.163266 l
282.20746 99.994004 l
282.425018 101.484281 l
282.642576 99.438359 l
283.077692 105.841847 l
283.29525 105.231833 l
283.512808 109.361724 l
283.730366 107.564317 l
283.947924 102.387229 l
284.165482 111.960725 l
284.38304 103.741716 l
284.600598 112.386665 l
284.818156 107.995298 l
285.035714 119.065286 l
285.253272 114.008844 l
285.47083 125.545912 l
285.688388 120.282698 l
285.905946 119.252641 l
286.123504 106.166645 l
286.341062 111.959473 l
286.55862 94.918392 l
286.776178 104.246012 l
286.993736 102.930409 l
287.211294 116.169165 l
287.428852 112.287141 l
287.64641 137.65632 l
287.863968 129.061771 l
288.081526 141.585255 l
288.299084 137.798738 l
288.516642 136.905342 l
289.169316 125.873017 l
289.82199 119.831746 l
290.039548 117.818911 l
290.257106 116.85752 l
290.474664 115.271207 l
291.780012 111.951769 l
292.432686 111.084176 l
293.08536 110.53793 l
294.390708 110.031839 l
295.913614 109.770261 l
297.654078 109.649214 l
297.871636 109.159261 l
298.089194 109.399145 l
298.306752 108.942866 l
298.52431 109.209 l
299.829658 109.41423 l
301.135006 109.501033 l
301.570122 106.207726 l
301.78768 106.237605 l
302.005238 105.822653 l
302.440353 108.546073 l
302.875469 108.491053 l
303.745701 108.923975 l
304.833491 109.219887 l
306.573955 109.418636 l
306.791513 109.431072 l
307.009071 108.644607 l
307.226629 100.375142 l
307.444187 102.669824 l
307.661745 94.154435 l
308.096861 103.060473 l
308.967093 113.720501 l
309.184651 113.418329 l
309.837325 102.248727 l
310.054883 100.936051 l
310.925115 109.734439 l
311.142673 111.142181 l
311.360231 108.067581 l
311.577789 107.989773 l
312.012905 102.575122 l
312.230463 112.19158 l
312.448021 105.129289 l
312.665579 112.699668 l
312.883137 110.56831 l
313.318253 113.428339 l
313.753369 131.409548 l
313.970927 129.559004 l
314.188485 150.871887 l
314.406043 136.63384 l
314.623601 148.912502 l
315.276275 133.678685 l
315.711391 128.451459 l
315.928949 126.934814 l
316.146507 124.187495 l
316.364065 118.207748 l
316.581623 106.013134 l
316.799181 110.31491 l
317.016739 99.070877 l
317.451855 110.821186 l
317.669413 98.658691 l
317.886971 111.157117 l
318.104529 103.523192 l
318.322087 104.853335 l
318.539645 112.525131 l
318.757203 101.528323 l
318.974761 114.331372 l
319.192319 101.75551 l
319.409877 108.483314 l
319.627435 107.120627 l
320.062551 107.777622 l
320.280109 110.132455 l
320.497667 107.111959 l
320.932783 108.330878 l
321.150341 105.353454 l
321.367899 106.566857 l
321.585457 104.559042 l
321.803015 105.911267 l
322.020573 106.52914 l
322.238131 102.479374 l
322.455689 104.964147 l
322.673247 104.466194 l
322.890805 104.697461 l
323.108363 103.573965 l
323.325921 110.801394 l
323.543479 103.754356 l
323.761037 110.202279 l
324.196153 105.51302 l
324.413711 105.564618 l
324.631269 108.576287 l
325.066385 133.046836 l
325.501501 162.389679 l
325.719059 169.694422 l
325.936617 167.52585 l
326.154175 168.691788 l
326.589291 162.103179 l
326.806849 162.335266 l
327.024407 159.565841 l
327.894639 133.984725 l
328.112197 117.491553 l
328.764871 103.924129 l
328.982429 116.027522 l
329.199987 97.96607 l
329.417545 112.688638 l
329.635103 98.643209 l
329.852661 109.109678 l
330.070219 112.202107 l
330.287777 99.69634 l
330.505335 114.279613 l
330.722893 101.63961 l
330.940451 111.584156 l
331.158009 109.245741 l
331.375567 101.80168 l
331.593125 110.476131 l
331.810683 100.81079 l
332.028241 109.631276 l
332.245799 106.208006 l
332.463357 111.59331 l
332.680915 104.841683 l
332.898473 109.481242 l
333.116031 101.932283 l
333.333589 103.534341 l
333.551147 101.083675 l
333.768705 101.879017 l
333.986263 107.698966 l
334.203821 109.18794 l
334.421379 120.259032 l
334.638937 124.881007 l
334.856495 140.775454 l
335.074053 138.818916 l
335.291611 155.188513 l
335.509169 155.059021 l
335.726727 161.391028 l
335.944285 160.881533 l
336.161843 156.960614 l
337.032075 135.003497 l
337.249633 130.355083 l
337.467191 112.963161 l
337.684749 112.675436 l
337.902307 99.19274 l
338.119865 100.66907 l
338.337423 107.262088 l
338.554981 101.462241 l
338.990097 104.909177 l
339.207655 97.181747 l
339.425213 112.885012 l
339.642771 99.451516 l
339.860329 94.780236 l
340.077887 106.916575 l
340.295445 90.103812 l
340.513003 107.344106 l
340.730561 107.808682 l
340.948119 103.343834 l
341.165677 106.811212 l
341.383235 102.75447 l
341.600793 108.285642 l
341.818351 109.241623 l
342.253467 131.505272 l
342.906141 168.329295 l
343.123699 172.556435 l
343.341257 173.230202 l
343.776373 161.537711 l
344.429047 142.200241 l
345.081721 130.813445 l
345.734395 123.714901 l
346.387069 119.283897 l
347.039743 116.515267 l
347.692417 114.783594 l
348.345091 113.699129 l
348.997765 113.018757 l
349.650439 112.634662 l
350.738229 112.256394 l
352.261135 112.007186 l
354.871831 111.858013 l
359.875664 111.76838 l
360.093222 110.551231 l
360.31078 103.382084 l
360.528338 104.273986 l
360.745896 98.605871 l
360.963454 100.578171 l
361.181012 104.0394 l
361.39857 103.745995 l
361.616128 101.432743 l
361.833686 102.928563 l
362.051244 99.827017 l
362.268802 101.902956 l
362.48636 105.956522 l
362.703918 106.337066 l
362.921476 114.20687 l
363.139034 110.978001 l
363.57415 120.061026 l
363.791708 118.270634 l
364.009266 125.96662 l
364.226824 122.467927 l
364.444382 121.972924 l
364.66194 118.748823 l
364.879498 118.839841 l
365.314614 104.404724 l
365.532172 107.753584 l
365.74973 103.699184 l
366.184846 113.429959 l
366.402404 113.739519 l
366.619962 115.03539 l
366.83752 115.278168 l
367.055078 115.342128 l
367.272636 114.150647 l
367.490194 113.908541 l
367.707752 114.063547 l
368.142868 113.234046 l
368.795542 112.626318 l
369.230658 112.382012 l
369.448216 111.88909 l
370.10089 111.329633 l
370.318448 111.547133 l
371.406238 111.545638 l
373.581818 111.550322 l
373.581818 111.550322 l
stroke
grestore
0.800 setlinewidth
0 setlinejoin
[] 0 setdash
0.000 setgray
gsave
54 36 m
54 253.44 l
stroke
grestore
gsave
388.8 36 m
388.8 253.44 l
stroke
grestore
gsave
54 36 m
388.8 36 l
stroke
grestore
gsave
54 253.44 m
388.8 253.44 l
stroke
grestore

end
showpage
