%!PS-Adobe-3.0 EPSF-3.0
%%Creator: (MATLAB, The Mathworks, Inc. Version 8.4.0.150421 \(R2014b\). Operating System: Mac OS X)
%%Title: /Users/jaszhang/Google_Drive/thesis/thesis/thesis/chapters/3/images/battery_soc.eps
%%CreationDate: 2017-05-15T17:22:10
%%Pages: (atend)
%%BoundingBox: 0 0 1301 688
%%LanguageLevel: 2
%%EndComments
%%BeginProlog
%%BeginResource: procset (Apache XML Graphics Std ProcSet) 1.2 0
%%Version: 1.2 0
%%Copyright: (Copyright 2001-2003,2010 The Apache Software Foundation. License terms: http://www.apache.org/licenses/LICENSE-2.0)
/bd{bind def}bind def
/ld{load def}bd
/GR/grestore ld
/M/moveto ld
/LJ/setlinejoin ld
/C/curveto ld
/f/fill ld
/LW/setlinewidth ld
/GC/setgray ld
/t/show ld
/N/newpath ld
/CT/concat ld
/cp/closepath ld
/S/stroke ld
/L/lineto ld
/CC/setcmykcolor ld
/A/ashow ld
/GS/gsave ld
/RC/setrgbcolor ld
/RM/rmoveto ld
/ML/setmiterlimit ld
/re {4 2 roll M
1 index 0 rlineto
0 exch rlineto
neg 0 rlineto
cp } bd
/_ctm matrix def
/_tm matrix def
/BT { _ctm currentmatrix pop matrix _tm copy pop 0 0 moveto } bd
/ET { _ctm setmatrix } bd
/iTm { _ctm setmatrix _tm concat } bd
/Tm { _tm astore pop iTm 0 0 moveto } bd
/ux 0.0 def
/uy 0.0 def
/F {
  /Tp exch def
  /Tf exch def
  Tf findfont Tp scalefont setfont
  /cf Tf def  /cs Tp def
} bd
/ULS {currentpoint /uy exch def /ux exch def} bd
/ULE {
  /Tcx currentpoint pop def
  gsave
  newpath
  cf findfont cs scalefont dup
  /FontMatrix get 0 get /Ts exch def /FontInfo get dup
  /UnderlinePosition get Ts mul /To exch def
  /UnderlineThickness get Ts mul /Tt exch def
  ux uy To add moveto  Tcx uy To add lineto
  Tt setlinewidth stroke
  grestore
} bd
/OLE {
  /Tcx currentpoint pop def
  gsave
  newpath
  cf findfont cs scalefont dup
  /FontMatrix get 0 get /Ts exch def /FontInfo get dup
  /UnderlinePosition get Ts mul /To exch def
  /UnderlineThickness get Ts mul /Tt exch def
  ux uy To add cs add moveto Tcx uy To add cs add lineto
  Tt setlinewidth stroke
  grestore
} bd
/SOE {
  /Tcx currentpoint pop def
  gsave
  newpath
  cf findfont cs scalefont dup
  /FontMatrix get 0 get /Ts exch def /FontInfo get dup
  /UnderlinePosition get Ts mul /To exch def
  /UnderlineThickness get Ts mul /Tt exch def
  ux uy To add cs 10 mul 26 idiv add moveto Tcx uy To add cs 10 mul 26 idiv add lineto
  Tt setlinewidth stroke
  grestore
} bd
/QT {
/Y22 exch store
/X22 exch store
/Y21 exch store
/X21 exch store
currentpoint
/Y21 load 2 mul add 3 div exch
/X21 load 2 mul add 3 div exch
/X21 load 2 mul /X22 load add 3 div
/Y21 load 2 mul /Y22 load add 3 div
/X22 load /Y22 load curveto
} bd
/SSPD {
dup length /d exch dict def
{
/v exch def
/k exch def
currentpagedevice k known {
/cpdv currentpagedevice k get def
v cpdv ne {
/upd false def
/nullv v type /nulltype eq def
/nullcpdv cpdv type /nulltype eq def
nullv nullcpdv or
{
/upd true def
} {
/sametype v type cpdv type eq def
sametype {
v type /arraytype eq {
/vlen v length def
/cpdvlen cpdv length def
vlen cpdvlen eq {
0 1 vlen 1 sub {
/i exch def
/obj v i get def
/cpdobj cpdv i get def
obj cpdobj ne {
/upd true def
exit
} if
} for
} {
/upd true def
} ifelse
} {
v type /dicttype eq {
v {
/dv exch def
/dk exch def
/cpddv cpdv dk get def
dv cpddv ne {
/upd true def
exit
} if
} forall
} {
/upd true def
} ifelse
} ifelse
} if
} ifelse
upd true eq {
d k v put
} if
} if
} if
} forall
d length 0 gt {
d setpagedevice
} if
} bd
%%EndResource
%%BeginResource: procset (Apache XML Graphics EPS ProcSet) 1.0 0
%%Version: 1.0 0
%%Copyright: (Copyright 2002-2003 The Apache Software Foundation. License terms: http://www.apache.org/licenses/LICENSE-2.0)
/BeginEPSF { %def
/b4_Inc_state save def         % Save state for cleanup
/dict_count countdictstack def % Count objects on dict stack
/op_count count 1 sub def      % Count objects on operand stack
userdict begin                 % Push userdict on dict stack
/showpage { } def              % Redefine showpage, { } = null proc
0 setgray 0 setlinecap         % Prepare graphics state
1 setlinewidth 0 setlinejoin
10 setmiterlimit [ ] 0 setdash newpath
/languagelevel where           % If level not equal to 1 then
{pop languagelevel             % set strokeadjust and
1 ne                           % overprint to their defaults.
{false setstrokeadjust false setoverprint
} if
} if
} bd
/EndEPSF { %def
count op_count sub {pop} repeat            % Clean up stacks
countdictstack dict_count sub {end} repeat
b4_Inc_state restore
} bd
%%EndResource
%FOPBeginFontDict
%%IncludeResource: font Courier-Bold
%%IncludeResource: font Helvetica
%%IncludeResource: font Courier-BoldOblique
%%IncludeResource: font Courier-Oblique
%%IncludeResource: font Times-Roman
%%IncludeResource: font Helvetica-BoldOblique
%%IncludeResource: font Helvetica-Bold
%%IncludeResource: font Helvetica-Oblique
%%IncludeResource: font Times-BoldItalic
%%IncludeResource: font Courier
%%IncludeResource: font Times-Italic
%%IncludeResource: font Times-Bold
%%IncludeResource: font Symbol
%%IncludeResource: font ZapfDingbats
%FOPEndFontDict
%%BeginResource: encoding WinAnsiEncoding
/WinAnsiEncoding [
/.notdef /.notdef /.notdef /.notdef /.notdef
/.notdef /.notdef /.notdef /.notdef /.notdef
/.notdef /.notdef /.notdef /.notdef /.notdef
/.notdef /.notdef /.notdef /.notdef /.notdef
/.notdef /.notdef /.notdef /.notdef /.notdef
/.notdef /.notdef /.notdef /.notdef /.notdef
/.notdef /.notdef /space /exclam /quotedbl
/numbersign /dollar /percent /ampersand /quotesingle
/parenleft /parenright /asterisk /plus /comma
/hyphen /period /slash /zero /one
/two /three /four /five /six
/seven /eight /nine /colon /semicolon
/less /equal /greater /question /at
/A /B /C /D /E
/F /G /H /I /J
/K /L /M /N /O
/P /Q /R /S /T
/U /V /W /X /Y
/Z /bracketleft /backslash /bracketright /asciicircum
/underscore /quoteleft /a /b /c
/d /e /f /g /h
/i /j /k /l /m
/n /o /p /q /r
/s /t /u /v /w
/x /y /z /braceleft /bar
/braceright /asciitilde /bullet /Euro /bullet
/quotesinglbase /florin /quotedblbase /ellipsis /dagger
/daggerdbl /circumflex /perthousand /Scaron /guilsinglleft
/OE /bullet /Zcaron /bullet /bullet
/quoteleft /quoteright /quotedblleft /quotedblright /bullet
/endash /emdash /asciitilde /trademark /scaron
/guilsinglright /oe /bullet /zcaron /Ydieresis
/space /exclamdown /cent /sterling /currency
/yen /brokenbar /section /dieresis /copyright
/ordfeminine /guillemotleft /logicalnot /sfthyphen /registered
/macron /degree /plusminus /twosuperior /threesuperior
/acute /mu /paragraph /middot /cedilla
/onesuperior /ordmasculine /guillemotright /onequarter /onehalf
/threequarters /questiondown /Agrave /Aacute /Acircumflex
/Atilde /Adieresis /Aring /AE /Ccedilla
/Egrave /Eacute /Ecircumflex /Edieresis /Igrave
/Iacute /Icircumflex /Idieresis /Eth /Ntilde
/Ograve /Oacute /Ocircumflex /Otilde /Odieresis
/multiply /Oslash /Ugrave /Uacute /Ucircumflex
/Udieresis /Yacute /Thorn /germandbls /agrave
/aacute /acircumflex /atilde /adieresis /aring
/ae /ccedilla /egrave /eacute /ecircumflex
/edieresis /igrave /iacute /icircumflex /idieresis
/eth /ntilde /ograve /oacute /ocircumflex
/otilde /odieresis /divide /oslash /ugrave
/uacute /ucircumflex /udieresis /yacute /thorn
/ydieresis
] def
%%EndResource
%FOPBeginFontReencode
/Courier-Bold findfont
dup length dict begin
  {1 index /FID ne {def} {pop pop} ifelse} forall
  /Encoding WinAnsiEncoding def
  currentdict
end
/Courier-Bold exch definefont pop
/Helvetica findfont
dup length dict begin
  {1 index /FID ne {def} {pop pop} ifelse} forall
  /Encoding WinAnsiEncoding def
  currentdict
end
/Helvetica exch definefont pop
/Courier-BoldOblique findfont
dup length dict begin
  {1 index /FID ne {def} {pop pop} ifelse} forall
  /Encoding WinAnsiEncoding def
  currentdict
end
/Courier-BoldOblique exch definefont pop
/Courier-Oblique findfont
dup length dict begin
  {1 index /FID ne {def} {pop pop} ifelse} forall
  /Encoding WinAnsiEncoding def
  currentdict
end
/Courier-Oblique exch definefont pop
/Times-Roman findfont
dup length dict begin
  {1 index /FID ne {def} {pop pop} ifelse} forall
  /Encoding WinAnsiEncoding def
  currentdict
end
/Times-Roman exch definefont pop
/Helvetica-BoldOblique findfont
dup length dict begin
  {1 index /FID ne {def} {pop pop} ifelse} forall
  /Encoding WinAnsiEncoding def
  currentdict
end
/Helvetica-BoldOblique exch definefont pop
/Helvetica-Bold findfont
dup length dict begin
  {1 index /FID ne {def} {pop pop} ifelse} forall
  /Encoding WinAnsiEncoding def
  currentdict
end
/Helvetica-Bold exch definefont pop
/Helvetica-Oblique findfont
dup length dict begin
  {1 index /FID ne {def} {pop pop} ifelse} forall
  /Encoding WinAnsiEncoding def
  currentdict
end
/Helvetica-Oblique exch definefont pop
/Times-BoldItalic findfont
dup length dict begin
  {1 index /FID ne {def} {pop pop} ifelse} forall
  /Encoding WinAnsiEncoding def
  currentdict
end
/Times-BoldItalic exch definefont pop
/Courier findfont
dup length dict begin
  {1 index /FID ne {def} {pop pop} ifelse} forall
  /Encoding WinAnsiEncoding def
  currentdict
end
/Courier exch definefont pop
/Times-Italic findfont
dup length dict begin
  {1 index /FID ne {def} {pop pop} ifelse} forall
  /Encoding WinAnsiEncoding def
  currentdict
end
/Times-Italic exch definefont pop
/Times-Bold findfont
dup length dict begin
  {1 index /FID ne {def} {pop pop} ifelse} forall
  /Encoding WinAnsiEncoding def
  currentdict
end
/Times-Bold exch definefont pop
%FOPEndFontReencode
%%EndProlog
%%Page: 1 1
%%PageBoundingBox: 0 0 1301 688
%%BeginPageSetup
[1 0 0 -1 0 688] CT
%%EndPageSetup
GS
1 GC
N
0 0 1301 688 re
f
GR
GS
1 GC
N
0 0 1301 688 re
f
GR
GS
1 GC
N
169 612 M
1177 612 L
1177 52 L
169 52 L
cp
f
GR
GS
0.873 GC
2 setlinecap
10.0 ML
N
169 612 M
169 52 L
S
GR
GS
0.873 GC
2 setlinecap
10.0 ML
N
269.8 612 M
269.8 52 L
S
GR
GS
0.873 GC
2 setlinecap
10.0 ML
N
370.6 612 M
370.6 52 L
S
GR
GS
0.873 GC
2 setlinecap
10.0 ML
N
471.4 612 M
471.4 52 L
S
GR
GS
0.873 GC
2 setlinecap
10.0 ML
N
572.2 612 M
572.2 52 L
S
GR
GS
0.873 GC
2 setlinecap
10.0 ML
N
673 612 M
673 52 L
S
GR
GS
0.873 GC
2 setlinecap
10.0 ML
N
773.8 612 M
773.8 52 L
S
GR
GS
0.873 GC
2 setlinecap
10.0 ML
N
874.6 612 M
874.6 52 L
S
GR
GS
0.873 GC
2 setlinecap
10.0 ML
N
975.4 612 M
975.4 52 L
S
GR
GS
0.873 GC
2 setlinecap
10.0 ML
N
1076.2 612 M
1076.2 52 L
S
GR
GS
0.873 GC
2 setlinecap
10.0 ML
N
1177 612 M
1177 52 L
S
GR
GS
0.873 GC
2 setlinecap
10.0 ML
N
1177 612 M
169 612 L
S
GR
GS
0.873 GC
2 setlinecap
10.0 ML
N
1177 500 M
169 500 L
S
GR
GS
0.873 GC
2 setlinecap
10.0 ML
N
1177 388 M
169 388 L
S
GR
GS
0.873 GC
2 setlinecap
10.0 ML
N
1177 276 M
169 276 L
S
GR
GS
0.873 GC
2 setlinecap
10.0 ML
N
1177 164 M
169 164 L
S
GR
GS
0.873 GC
2 setlinecap
10.0 ML
N
1177 52 M
169 52 L
S
GR
GS
[1 0 0 1 673 625.99994] CT
0.149 GC
/Helvetica 30 F
GS
[1 0 0 1 0 0] CT
-83.372 23.101 moveto 
1 -1 scale
(SOC [100%]) t 
GR
GR
GS
0.149 GC
2 setlinecap
10.0 ML
N
169 612 M
1177 612 L
S
GR
GS
0.149 GC
2 setlinecap
10.0 ML
N
169 52 M
1177 52 L
S
GR
GS
0.149 GC
2 setlinecap
10.0 ML
N
169 612 M
169 601.92 L
S
GR
GS
0.149 GC
2 setlinecap
10.0 ML
N
169 52 M
169 62.08 L
S
GR
GS
0.149 GC
2 setlinecap
10.0 ML
N
269.8 612 M
269.8 601.92 L
S
GR
GS
0.149 GC
2 setlinecap
10.0 ML
N
269.8 52 M
269.8 62.08 L
S
GR
GS
0.149 GC
2 setlinecap
10.0 ML
N
370.6 612 M
370.6 601.92 L
S
GR
GS
0.149 GC
2 setlinecap
10.0 ML
N
370.6 52 M
370.6 62.08 L
S
GR
GS
0.149 GC
2 setlinecap
10.0 ML
N
471.4 612 M
471.4 601.92 L
S
GR
GS
0.149 GC
2 setlinecap
10.0 ML
N
471.4 52 M
471.4 62.08 L
S
GR
GS
0.149 GC
2 setlinecap
10.0 ML
N
572.2 612 M
572.2 601.92 L
S
GR
GS
0.149 GC
2 setlinecap
10.0 ML
N
572.2 52 M
572.2 62.08 L
S
GR
GS
0.149 GC
2 setlinecap
10.0 ML
N
673 612 M
673 601.92 L
S
GR
GS
0.149 GC
2 setlinecap
10.0 ML
N
673 52 M
673 62.08 L
S
GR
GS
0.149 GC
2 setlinecap
10.0 ML
N
773.8 612 M
773.8 601.92 L
S
GR
GS
0.149 GC
2 setlinecap
10.0 ML
N
773.8 52 M
773.8 62.08 L
S
GR
GS
0.149 GC
2 setlinecap
10.0 ML
N
874.6 612 M
874.6 601.92 L
S
GR
GS
0.149 GC
2 setlinecap
10.0 ML
N
874.6 52 M
874.6 62.08 L
S
GR
GS
0.149 GC
2 setlinecap
10.0 ML
N
975.4 612 M
975.4 601.92 L
S
GR
GS
0.149 GC
2 setlinecap
10.0 ML
N
975.4 52 M
975.4 62.08 L
S
GR
GS
0.149 GC
2 setlinecap
10.0 ML
N
1076.2 612 M
1076.2 601.92 L
S
GR
GS
0.149 GC
2 setlinecap
10.0 ML
N
1076.2 52 M
1076.2 62.08 L
S
GR
GS
0.149 GC
2 setlinecap
10.0 ML
N
1177 612 M
1177 601.92 L
S
GR
GS
0.149 GC
2 setlinecap
10.0 ML
N
1177 52 M
1177 62.08 L
S
GR
GS
[1 0 0 1 169 616] CT
0.149 GC
/Helvetica 10 F
GS
[1 0 0 1 0 0] CT
-2.781 7.7 moveto 
1 -1 scale
(0) t 
GR
GR
GS
[1 0 0 1 269.79999 616] CT
0.149 GC
/Helvetica 10 F
GS
[1 0 0 1 0 0] CT
-6.951 7.7 moveto 
1 -1 scale
(0.1) t 
GR
GR
GS
[1 0 0 1 370.60001 616] CT
0.149 GC
/Helvetica 10 F
GS
[1 0 0 1 0 0] CT
-6.951 7.7 moveto 
1 -1 scale
(0.2) t 
GR
GR
GS
[1 0 0 1 471.40002 616] CT
0.149 GC
/Helvetica 10 F
GS
[1 0 0 1 0 0] CT
-6.951 7.7 moveto 
1 -1 scale
(0.3) t 
GR
GR
GS
[1 0 0 1 572.20001 616] CT
0.149 GC
/Helvetica 10 F
GS
[1 0 0 1 0 0] CT
-6.951 7.7 moveto 
1 -1 scale
(0.4) t 
GR
GR
GS
[1 0 0 1 673 616] CT
0.149 GC
/Helvetica 10 F
GS
[1 0 0 1 0 0] CT
-6.951 7.7 moveto 
1 -1 scale
(0.5) t 
GR
GR
GS
[1 0 0 1 773.80005 616] CT
0.149 GC
/Helvetica 10 F
GS
[1 0 0 1 0 0] CT
-6.951 7.7 moveto 
1 -1 scale
(0.6) t 
GR
GR
GS
[1 0 0 1 874.59998 616] CT
0.149 GC
/Helvetica 10 F
GS
[1 0 0 1 0 0] CT
-6.951 7.7 moveto 
1 -1 scale
(0.7) t 
GR
GR
GS
[1 0 0 1 975.40002 616] CT
0.149 GC
/Helvetica 10 F
GS
[1 0 0 1 0 0] CT
-6.951 7.7 moveto 
1 -1 scale
(0.8) t 
GR
GR
GS
[1 0 0 1 1076.19995 616] CT
0.149 GC
/Helvetica 10 F
GS
[1 0 0 1 0 0] CT
-6.951 7.7 moveto 
1 -1 scale
(0.9) t 
GR
GR
GS
[1 0 0 1 1177 616] CT
0.149 GC
/Helvetica 10 F
GS
[1 0 0 1 0 0] CT
-2.781 7.7 moveto 
1 -1 scale
(1) t 
GR
GR
GS
[0 -1 1 0 142.53711 331.99991] CT
0.149 GC
/Helvetica 30 F
GS
[1 0 0 1 0 0] CT
-103.389 -5.899 moveto 
1 -1 scale
(Cell Voltage [V]) t 
GR
GR
GS
0.149 GC
2 setlinecap
10.0 ML
N
169 612 M
169 52 L
S
GR
GS
0.149 GC
2 setlinecap
10.0 ML
N
1177 612 M
1177 52 L
S
GR
GS
0.149 GC
2 setlinecap
10.0 ML
N
169 612 M
179.08 612 L
S
GR
GS
0.149 GC
2 setlinecap
10.0 ML
N
1177 612 M
1166.92 612 L
S
GR
GS
0.149 GC
2 setlinecap
10.0 ML
N
169 500 M
179.08 500 L
S
GR
GS
0.149 GC
2 setlinecap
10.0 ML
N
1177 500 M
1166.92 500 L
S
GR
GS
0.149 GC
2 setlinecap
10.0 ML
N
169 388 M
179.08 388 L
S
GR
GS
0.149 GC
2 setlinecap
10.0 ML
N
1177 388 M
1166.92 388 L
S
GR
GS
0.149 GC
2 setlinecap
10.0 ML
N
169 276 M
179.08 276 L
S
GR
GS
0.149 GC
2 setlinecap
10.0 ML
N
1177 276 M
1166.92 276 L
S
GR
GS
0.149 GC
2 setlinecap
10.0 ML
N
169 164 M
179.08 164 L
S
GR
GS
0.149 GC
2 setlinecap
10.0 ML
N
1177 164 M
1166.92 164 L
S
GR
GS
0.149 GC
2 setlinecap
10.0 ML
N
169 52 M
179.08 52 L
S
GR
GS
0.149 GC
2 setlinecap
10.0 ML
N
1177 52 M
1166.92 52 L
S
GR
GS
[1 0 0 1 165 611.99988] CT
0.149 GC
/Helvetica 10 F
GS
[1 0 0 1 0 0] CT
-13.901 3.2 moveto 
1 -1 scale
(1.2) t 
GR
GR
GS
[1 0 0 1 165 500] CT
0.149 GC
/Helvetica 10 F
GS
[1 0 0 1 0 0] CT
-19.463 3.2 moveto 
1 -1 scale
(1.25) t 
GR
GR
GS
[1 0 0 1 165 388.00012] CT
0.149 GC
/Helvetica 10 F
GS
[1 0 0 1 0 0] CT
-13.901 3.2 moveto 
1 -1 scale
(1.3) t 
GR
GR
GS
[1 0 0 1 165 275.99994] CT
0.149 GC
/Helvetica 10 F
GS
[1 0 0 1 0 0] CT
-19.463 3.2 moveto 
1 -1 scale
(1.35) t 
GR
GR
GS
[1 0 0 1 165 164.00006] CT
0.149 GC
/Helvetica 10 F
GS
[1 0 0 1 0 0] CT
-13.901 3.2 moveto 
1 -1 scale
(1.4) t 
GR
GR
GS
[1 0 0 1 165 51.99989] CT
0.149 GC
/Helvetica 10 F
GS
[1 0 0 1 0 0] CT
-19.463 3.2 moveto 
1 -1 scale
(1.45) t 
GR
GR
GS
0 0.447 0.741 RC
2 setlinecap
10.0 ML
1.5 LW
N
169 606.667 M
269.8 508.233 L
370.6 453.715 L
471.4 416.436 L
572.2 381.312 L
673 360.193 L
773.8 345.109 L
874.6 335.197 L
975.4 309.985 L
1076.2 262.579 L
1177 136.088 L
S
GR
GS
0 0.447 0.741 RC
2 setlinecap
10.0 ML
1.5 LW
N
165 606.5 M
172 606.5 L
S
GR
GS
0 0.447 0.741 RC
2 setlinecap
10.0 ML
1.5 LW
N
168.5 610 M
168.5 603 L
S
GR
GS
0 0.447 0.741 RC
2 setlinecap
10.0 ML
1.5 LW
N
166 609 M
171 604 L
S
GR
GS
0 0.447 0.741 RC
2 setlinecap
10.0 ML
1.5 LW
N
166 604 M
171 609 L
S
GR
GS
0 0.447 0.741 RC
2 setlinecap
10.0 ML
1.5 LW
N
266 508.5 M
273 508.5 L
S
GR
GS
0 0.447 0.741 RC
2 setlinecap
10.0 ML
1.5 LW
N
269.5 512 M
269.5 505 L
S
GR
GS
0 0.447 0.741 RC
2 setlinecap
10.0 ML
1.5 LW
N
267 511 M
272 506 L
S
GR
GS
0 0.447 0.741 RC
2 setlinecap
10.0 ML
1.5 LW
N
267 506 M
272 511 L
S
GR
GS
0 0.447 0.741 RC
2 setlinecap
10.0 ML
1.5 LW
N
367 453.5 M
374 453.5 L
S
GR
GS
0 0.447 0.741 RC
2 setlinecap
10.0 ML
1.5 LW
N
370.5 457 M
370.5 450 L
S
GR
GS
0 0.447 0.741 RC
2 setlinecap
10.0 ML
1.5 LW
N
368 456 M
373 451 L
S
GR
GS
0 0.447 0.741 RC
2 setlinecap
10.0 ML
1.5 LW
N
368 451 M
373 456 L
S
GR
GS
0 0.447 0.741 RC
2 setlinecap
10.0 ML
1.5 LW
N
468 416.5 M
475 416.5 L
S
GR
GS
0 0.447 0.741 RC
2 setlinecap
10.0 ML
1.5 LW
N
471.5 420 M
471.5 413 L
S
GR
GS
0 0.447 0.741 RC
2 setlinecap
10.0 ML
1.5 LW
N
469 419 M
474 414 L
S
GR
GS
0 0.447 0.741 RC
2 setlinecap
10.0 ML
1.5 LW
N
469 414 M
474 419 L
S
GR
GS
0 0.447 0.741 RC
2 setlinecap
10.0 ML
1.5 LW
N
569 381.5 M
576 381.5 L
S
GR
GS
0 0.447 0.741 RC
2 setlinecap
10.0 ML
1.5 LW
N
572.5 385 M
572.5 378 L
S
GR
GS
0 0.447 0.741 RC
2 setlinecap
10.0 ML
1.5 LW
N
570 384 M
575 379 L
S
GR
GS
0 0.447 0.741 RC
2 setlinecap
10.0 ML
1.5 LW
N
570 379 M
575 384 L
S
GR
GS
0 0.447 0.741 RC
2 setlinecap
10.0 ML
1.5 LW
N
670 360.5 M
677 360.5 L
S
GR
GS
0 0.447 0.741 RC
2 setlinecap
10.0 ML
1.5 LW
N
673.5 364 M
673.5 357 L
S
GR
GS
0 0.447 0.741 RC
2 setlinecap
10.0 ML
1.5 LW
N
671 363 M
676 358 L
S
GR
GS
0 0.447 0.741 RC
2 setlinecap
10.0 ML
1.5 LW
N
671 358 M
676 363 L
S
GR
GS
0 0.447 0.741 RC
2 setlinecap
10.0 ML
1.5 LW
N
770 345.5 M
777 345.5 L
S
GR
GS
0 0.447 0.741 RC
2 setlinecap
10.0 ML
1.5 LW
N
773.5 349 M
773.5 342 L
S
GR
GS
0 0.447 0.741 RC
2 setlinecap
10.0 ML
1.5 LW
N
771 348 M
776 343 L
S
GR
GS
0 0.447 0.741 RC
2 setlinecap
10.0 ML
1.5 LW
N
771 343 M
776 348 L
S
GR
GS
0 0.447 0.741 RC
2 setlinecap
10.0 ML
1.5 LW
N
871 335.5 M
878 335.5 L
S
GR
GS
0 0.447 0.741 RC
2 setlinecap
10.0 ML
1.5 LW
N
874.5 339 M
874.5 332 L
S
GR
GS
0 0.447 0.741 RC
2 setlinecap
10.0 ML
1.5 LW
N
872 338 M
877 333 L
S
GR
GS
0 0.447 0.741 RC
2 setlinecap
10.0 ML
1.5 LW
N
872 333 M
877 338 L
S
GR
GS
0 0.447 0.741 RC
2 setlinecap
10.0 ML
1.5 LW
N
972 309.5 M
979 309.5 L
S
GR
GS
0 0.447 0.741 RC
2 setlinecap
10.0 ML
1.5 LW
N
975.5 313 M
975.5 306 L
S
GR
GS
0 0.447 0.741 RC
2 setlinecap
10.0 ML
1.5 LW
N
973 312 M
978 307 L
S
GR
GS
0 0.447 0.741 RC
2 setlinecap
10.0 ML
1.5 LW
N
973 307 M
978 312 L
S
GR
GS
0 0.447 0.741 RC
2 setlinecap
10.0 ML
1.5 LW
N
1073 262.5 M
1080 262.5 L
S
GR
GS
0 0.447 0.741 RC
2 setlinecap
10.0 ML
1.5 LW
N
1076.5 266 M
1076.5 259 L
S
GR
GS
0 0.447 0.741 RC
2 setlinecap
10.0 ML
1.5 LW
N
1074 265 M
1079 260 L
S
GR
GS
0 0.447 0.741 RC
2 setlinecap
10.0 ML
1.5 LW
N
1074 260 M
1079 265 L
S
GR
GS
0 0.447 0.741 RC
2 setlinecap
10.0 ML
1.5 LW
N
1174 136.5 M
1181 136.5 L
S
GR
GS
0 0.447 0.741 RC
2 setlinecap
10.0 ML
1.5 LW
N
1177.5 140 M
1177.5 133 L
S
GR
GS
0 0.447 0.741 RC
2 setlinecap
10.0 ML
1.5 LW
N
1175 139 M
1180 134 L
S
GR
GS
0 0.447 0.741 RC
2 setlinecap
10.0 ML
1.5 LW
N
1175 134 M
1180 139 L
S
GR
%%Trailer
%%Pages: 1
%%EOF
