%!PS-Adobe-3.0 EPSF-3.0
%%Title: bcom_temp.eps
%%Creator: matplotlib version 2.0.0, http://matplotlib.org/
%%CreationDate: Sun May 14 16:30:53 2017
%%Orientation: portrait
%%BoundingBox: 90 252 522 540
%%EndComments
%%BeginProlog
/mpldict 8 dict def
mpldict begin
/m { moveto } bind def
/l { lineto } bind def
/r { rlineto } bind def
/c { curveto } bind def
/cl { closepath } bind def
/box {
m
1 index 0 r
0 exch r
neg 0 r
cl
} bind def
/clipbox {
box
clip
newpath
} bind def
%!PS-Adobe-3.0 Resource-Font
%%Title: DejaVu Sans
%%Copyright: Copyright (c) 2003 by Bitstream, Inc. All Rights Reserved. Copyright (c) 2006 by Tavmjong Bah. All Rights Reserved. DejaVu changes are in public domain 
%%Creator: Converted from TrueType to type 3 by PPR
25 dict begin
/_d{bind def}bind def
/_m{moveto}_d
/_l{lineto}_d
/_cl{closepath eofill}_d
/_c{curveto}_d
/_sc{7 -1 roll{setcachedevice}{pop pop pop pop pop pop}ifelse}_d
/_e{exec}_d
/FontName /DejaVuSans def
/PaintType 0 def
/FontMatrix[.001 0 0 .001 0 0]def
/FontBBox[-1021 -463 1793 1232]def
/FontType 3 def
/Encoding [ /space /zero /one /two /three /four /six /eight /A /S /T /bracketleft /bracketright /a /c /e /i /l /m /n /o /p /r /s /t /u ] def
/FontInfo 10 dict dup begin
/FamilyName (DejaVu Sans) def
/FullName (DejaVu Sans) def
/Notice (Copyright (c) 2003 by Bitstream, Inc. All Rights Reserved. Copyright (c) 2006 by Tavmjong Bah. All Rights Reserved. DejaVu changes are in public domain ) def
/Weight (Book) def
/Version (Version 2.35) def
/ItalicAngle 0.0 def
/isFixedPitch false def
/UnderlinePosition -130 def
/UnderlineThickness 90 def
end readonly def
/CharStrings 26 dict dup begin
/space{318 0 0 0 0 0 _sc
}_d
/zero{636 0 66 -13 570 742 _sc
318 664 _m
267 664 229 639 203 589 _c
177 539 165 464 165 364 _c
165 264 177 189 203 139 _c
229 89 267 64 318 64 _c
369 64 407 89 433 139 _c
458 189 471 264 471 364 _c
471 464 458 539 433 589 _c
407 639 369 664 318 664 _c
318 742 _m
399 742 461 709 505 645 _c
548 580 570 486 570 364 _c
570 241 548 147 505 83 _c
461 19 399 -13 318 -13 _c
236 -13 173 19 130 83 _c
87 147 66 241 66 364 _c
66 486 87 580 130 645 _c
173 709 236 742 318 742 _c
_cl}_d
/one{636 0 110 0 544 729 _sc
124 83 _m
285 83 _l
285 639 _l
110 604 _l
110 694 _l
284 729 _l
383 729 _l
383 83 _l
544 83 _l
544 0 _l
124 0 _l
124 83 _l
_cl}_d
/two{{636 0 73 0 536 742 _sc
192 83 _m
536 83 _l
536 0 _l
73 0 _l
73 83 _l
110 121 161 173 226 239 _c
290 304 331 346 348 365 _c
380 400 402 430 414 455 _c
426 479 433 504 433 528 _c
433 566 419 598 392 622 _c
365 646 330 659 286 659 _c
255 659 222 653 188 643 _c
154 632 117 616 78 594 _c
78 694 _l
118 710 155 722 189 730 _c
223 738 255 742 284 742 _c
}_e{359 742 419 723 464 685 _c
509 647 532 597 532 534 _c
532 504 526 475 515 449 _c
504 422 484 390 454 354 _c
446 344 420 317 376 272 _c
332 227 271 164 192 83 _c
_cl}_e}_d
/three{{636 0 76 -13 556 742 _sc
406 393 _m
453 383 490 362 516 330 _c
542 298 556 258 556 212 _c
556 140 531 84 482 45 _c
432 6 362 -13 271 -13 _c
240 -13 208 -10 176 -4 _c
144 1 110 10 76 22 _c
76 117 _l
103 101 133 89 166 81 _c
198 73 232 69 268 69 _c
330 69 377 81 409 105 _c
441 129 458 165 458 212 _c
458 254 443 288 413 312 _c
383 336 341 349 287 349 _c
}_e{202 349 _l
202 430 _l
291 430 _l
339 430 376 439 402 459 _c
428 478 441 506 441 543 _c
441 580 427 609 401 629 _c
374 649 336 659 287 659 _c
260 659 231 656 200 650 _c
169 644 135 635 98 623 _c
98 711 _l
135 721 170 729 203 734 _c
235 739 266 742 296 742 _c
370 742 429 725 473 691 _c
517 657 539 611 539 553 _c
539 513 527 479 504 451 _c
481 423 448 403 406 393 _c
_cl}_e}_d
/four{636 0 49 0 580 729 _sc
378 643 _m
129 254 _l
378 254 _l
378 643 _l
352 729 _m
476 729 _l
476 254 _l
580 254 _l
580 172 _l
476 172 _l
476 0 _l
378 0 _l
378 172 _l
49 172 _l
49 267 _l
352 729 _l
_cl}_d
/six{{636 0 70 -13 573 742 _sc
330 404 _m
286 404 251 388 225 358 _c
199 328 186 286 186 234 _c
186 181 199 139 225 109 _c
251 79 286 64 330 64 _c
374 64 409 79 435 109 _c
461 139 474 181 474 234 _c
474 286 461 328 435 358 _c
409 388 374 404 330 404 _c
526 713 _m
526 623 _l
501 635 476 644 451 650 _c
425 656 400 659 376 659 _c
310 659 260 637 226 593 _c
}_e{192 549 172 482 168 394 _c
187 422 211 444 240 459 _c
269 474 301 482 336 482 _c
409 482 467 459 509 415 _c
551 371 573 310 573 234 _c
573 159 550 99 506 54 _c
462 9 403 -13 330 -13 _c
246 -13 181 19 137 83 _c
92 147 70 241 70 364 _c
70 479 97 571 152 639 _c
206 707 280 742 372 742 _c
396 742 421 739 447 735 _c
472 730 498 723 526 713 _c
_cl}_e}_d
/eight{{636 0 68 -13 568 742 _sc
318 346 _m
271 346 234 333 207 308 _c
180 283 167 249 167 205 _c
167 161 180 126 207 101 _c
234 76 271 64 318 64 _c
364 64 401 76 428 102 _c
455 127 469 161 469 205 _c
469 249 455 283 429 308 _c
402 333 365 346 318 346 _c
219 388 _m
177 398 144 418 120 447 _c
96 476 85 511 85 553 _c
85 611 105 657 147 691 _c
188 725 245 742 318 742 _c
}_e{390 742 447 725 489 691 _c
530 657 551 611 551 553 _c
551 511 539 476 515 447 _c
491 418 459 398 417 388 _c
464 377 501 355 528 323 _c
554 291 568 251 568 205 _c
568 134 546 80 503 43 _c
459 5 398 -13 318 -13 _c
237 -13 175 5 132 43 _c
89 80 68 134 68 205 _c
68 251 81 291 108 323 _c
134 355 171 377 219 388 _c
183 544 _m
183 506 194 476 218 455 _c
}_e{242 434 275 424 318 424 _c
360 424 393 434 417 455 _c
441 476 453 506 453 544 _c
453 582 441 611 417 632 _c
393 653 360 664 318 664 _c
275 664 242 653 218 632 _c
194 611 183 582 183 544 _c
_cl}_e}_d
/A{684 0 8 0 676 729 _sc
342 632 _m
208 269 _l
476 269 _l
342 632 _l
286 729 _m
398 729 _l
676 0 _l
573 0 _l
507 187 _l
178 187 _l
112 0 _l
8 0 _l
286 729 _l
_cl}_d
/S{{635 0 66 -13 579 742 _sc
535 705 _m
535 609 _l
497 627 462 640 429 649 _c
395 657 363 662 333 662 _c
279 662 237 651 208 631 _c
179 610 165 580 165 542 _c
165 510 174 485 194 469 _c
213 452 250 439 304 429 _c
364 417 _l
437 403 491 378 526 343 _c
561 307 579 260 579 201 _c
579 130 555 77 508 41 _c
460 5 391 -13 300 -13 _c
265 -13 228 -9 189 -2 _c
}_e{150 5 110 16 69 32 _c
69 134 _l
109 111 148 94 186 83 _c
224 71 262 66 300 66 _c
356 66 399 77 430 99 _c
460 121 476 152 476 194 _c
476 230 465 258 443 278 _c
421 298 385 313 335 323 _c
275 335 _l
201 349 148 372 115 404 _c
82 435 66 478 66 534 _c
66 598 88 649 134 686 _c
179 723 242 742 322 742 _c
356 742 390 739 426 733 _c
461 727 497 717 535 705 _c
}_e{_cl}_e}_d
/T{611 0 -2 0 614 729 _sc
-2 729 _m
614 729 _l
614 646 _l
355 646 _l
355 0 _l
256 0 _l
256 646 _l
-2 646 _l
-2 729 _l
_cl}_d
/bracketleft{390 0 86 -131 293 760 _sc
86 760 _m
293 760 _l
293 690 _l
176 690 _l
176 -61 _l
293 -61 _l
293 -131 _l
86 -131 _l
86 760 _l
_cl}_d
/bracketright{390 0 97 -131 304 760 _sc
304 760 _m
304 -131 _l
97 -131 _l
97 -61 _l
214 -61 _l
214 690 _l
97 690 _l
97 760 _l
304 760 _l
_cl}_d
/a{{613 0 60 -13 522 560 _sc
343 275 _m
270 275 220 266 192 250 _c
164 233 150 205 150 165 _c
150 133 160 107 181 89 _c
202 70 231 61 267 61 _c
317 61 357 78 387 114 _c
417 149 432 196 432 255 _c
432 275 _l
343 275 _l
522 312 _m
522 0 _l
432 0 _l
432 83 _l
411 49 385 25 355 10 _c
325 -5 287 -13 243 -13 _c
187 -13 142 2 109 33 _c
76 64 60 106 60 159 _c
}_e{60 220 80 266 122 298 _c
163 329 224 345 306 345 _c
432 345 _l
432 354 _l
432 395 418 427 391 450 _c
364 472 326 484 277 484 _c
245 484 215 480 185 472 _c
155 464 127 453 100 439 _c
100 522 _l
132 534 164 544 195 550 _c
226 556 256 560 286 560 _c
365 560 424 539 463 498 _c
502 457 522 395 522 312 _c
_cl}_e}_d
/c{{550 0 55 -13 488 560 _sc
488 526 _m
488 442 _l
462 456 437 466 411 473 _c
385 480 360 484 334 484 _c
276 484 230 465 198 428 _c
166 391 150 339 150 273 _c
150 206 166 154 198 117 _c
230 80 276 62 334 62 _c
360 62 385 65 411 72 _c
437 79 462 90 488 104 _c
488 21 _l
462 9 436 0 410 -5 _c
383 -10 354 -13 324 -13 _c
242 -13 176 12 128 64 _c
}_e{79 115 55 185 55 273 _c
55 362 79 432 128 483 _c
177 534 244 560 330 560 _c
358 560 385 557 411 551 _c
437 545 463 537 488 526 _c
_cl}_e}_d
/e{{615 0 55 -13 562 560 _sc
562 296 _m
562 252 _l
149 252 _l
153 190 171 142 205 110 _c
238 78 284 62 344 62 _c
378 62 412 66 444 74 _c
476 82 509 95 541 113 _c
541 28 _l
509 14 476 3 442 -3 _c
408 -9 373 -13 339 -13 _c
251 -13 182 12 131 62 _c
80 112 55 181 55 268 _c
55 357 79 428 127 481 _c
175 533 241 560 323 560 _c
397 560 455 536 498 489 _c
}_e{540 441 562 377 562 296 _c
472 322 _m
471 371 457 410 431 440 _c
404 469 368 484 324 484 _c
274 484 234 469 204 441 _c
174 413 156 373 152 322 _c
472 322 _l
_cl}_e}_d
/i{278 0 94 0 184 760 _sc
94 547 _m
184 547 _l
184 0 _l
94 0 _l
94 547 _l
94 760 _m
184 760 _l
184 646 _l
94 646 _l
94 760 _l
_cl}_d
/l{278 0 94 0 184 760 _sc
94 760 _m
184 760 _l
184 0 _l
94 0 _l
94 760 _l
_cl}_d
/m{{974 0 91 0 889 560 _sc
520 442 _m
542 482 569 511 600 531 _c
631 550 668 560 711 560 _c
767 560 811 540 842 500 _c
873 460 889 403 889 330 _c
889 0 _l
799 0 _l
799 327 _l
799 379 789 418 771 444 _c
752 469 724 482 686 482 _c
639 482 602 466 575 435 _c
548 404 535 362 535 309 _c
535 0 _l
445 0 _l
445 327 _l
445 379 435 418 417 444 _c
398 469 369 482 331 482 _c
}_e{285 482 248 466 221 435 _c
194 404 181 362 181 309 _c
181 0 _l
91 0 _l
91 547 _l
181 547 _l
181 462 _l
201 495 226 520 255 536 _c
283 552 317 560 357 560 _c
397 560 430 550 458 530 _c
486 510 506 480 520 442 _c
_cl}_e}_d
/n{634 0 91 0 549 560 _sc
549 330 _m
549 0 _l
459 0 _l
459 327 _l
459 379 448 417 428 443 _c
408 469 378 482 338 482 _c
289 482 251 466 223 435 _c
195 404 181 362 181 309 _c
181 0 _l
91 0 _l
91 547 _l
181 547 _l
181 462 _l
202 494 227 519 257 535 _c
286 551 320 560 358 560 _c
420 560 468 540 500 501 _c
532 462 549 405 549 330 _c
_cl}_d
/o{612 0 55 -13 557 560 _sc
306 484 _m
258 484 220 465 192 427 _c
164 389 150 338 150 273 _c
150 207 163 156 191 118 _c
219 80 257 62 306 62 _c
354 62 392 80 420 118 _c
448 156 462 207 462 273 _c
462 337 448 389 420 427 _c
392 465 354 484 306 484 _c
306 560 _m
384 560 445 534 490 484 _c
534 433 557 363 557 273 _c
557 183 534 113 490 63 _c
445 12 384 -13 306 -13 _c
227 -13 165 12 121 63 _c
77 113 55 183 55 273 _c
55 363 77 433 121 484 _c
165 534 227 560 306 560 _c
_cl}_d
/p{{635 0 91 -207 580 560 _sc
181 82 _m
181 -207 _l
91 -207 _l
91 547 _l
181 547 _l
181 464 _l
199 496 223 520 252 536 _c
281 552 316 560 356 560 _c
422 560 476 533 518 481 _c
559 428 580 359 580 273 _c
580 187 559 117 518 65 _c
476 13 422 -13 356 -13 _c
316 -13 281 -5 252 10 _c
223 25 199 49 181 82 _c
487 273 _m
487 339 473 390 446 428 _c
418 466 381 485 334 485 _c
}_e{286 485 249 466 222 428 _c
194 390 181 339 181 273 _c
181 207 194 155 222 117 _c
249 79 286 61 334 61 _c
381 61 418 79 446 117 _c
473 155 487 207 487 273 _c
_cl}_e}_d
/r{411 0 91 0 411 560 _sc
411 463 _m
401 469 390 473 378 476 _c
366 478 353 480 339 480 _c
288 480 249 463 222 430 _c
194 397 181 350 181 288 _c
181 0 _l
91 0 _l
91 547 _l
181 547 _l
181 462 _l
199 495 224 520 254 536 _c
284 552 321 560 365 560 _c
371 560 378 559 386 559 _c
393 558 401 557 411 555 _c
411 463 _l
_cl}_d
/s{{521 0 54 -13 472 560 _sc
443 531 _m
443 446 _l
417 458 391 468 364 475 _c
336 481 308 485 279 485 _c
234 485 200 478 178 464 _c
156 450 145 430 145 403 _c
145 382 153 366 169 354 _c
185 342 217 330 265 320 _c
296 313 _l
360 299 405 279 432 255 _c
458 230 472 195 472 151 _c
472 100 452 60 412 31 _c
372 1 316 -13 246 -13 _c
216 -13 186 -10 154 -5 _c
}_e{122 0 89 8 54 20 _c
54 113 _l
87 95 120 82 152 74 _c
184 65 216 61 248 61 _c
290 61 323 68 346 82 _c
368 96 380 117 380 144 _c
380 168 371 187 355 200 _c
339 213 303 226 247 238 _c
216 245 _l
160 257 119 275 95 299 _c
70 323 58 356 58 399 _c
58 450 76 490 112 518 _c
148 546 200 560 268 560 _c
301 560 332 557 362 552 _c
391 547 418 540 443 531 _c
}_e{_cl}_e}_d
/t{392 0 27 0 368 702 _sc
183 702 _m
183 547 _l
368 547 _l
368 477 _l
183 477 _l
183 180 _l
183 135 189 106 201 94 _c
213 81 238 75 276 75 _c
368 75 _l
368 0 _l
276 0 _l
206 0 158 13 132 39 _c
106 65 93 112 93 180 _c
93 477 _l
27 477 _l
27 547 _l
93 547 _l
93 702 _l
183 702 _l
_cl}_d
/u{634 0 85 -13 543 560 _sc
85 216 _m
85 547 _l
175 547 _l
175 219 _l
175 167 185 129 205 103 _c
225 77 255 64 296 64 _c
344 64 383 79 411 110 _c
439 141 453 183 453 237 _c
453 547 _l
543 547 _l
543 0 _l
453 0 _l
453 84 _l
431 50 405 26 377 10 _c
348 -5 315 -13 277 -13 _c
214 -13 166 6 134 45 _c
101 83 85 140 85 216 _c
311 560 _m
311 560 _l
_cl}_d
end readonly def

/BuildGlyph
 {exch begin
 CharStrings exch
 2 copy known not{pop /.notdef}if
 true 3 1 roll get exec
 end}_d

/BuildChar {
 1 index /Encoding get exch get
 1 index /BuildGlyph get exec
}_d

FontName currentdict end definefont pop
end
%%EndProlog
mpldict begin
90 252 translate
432 288 0 0 clipbox
gsave
0 0 m
432 0 l
432 288 l
0 288 l
cl
1.000 setgray
fill
grestore
gsave
54 36 m
388.8 36 l
388.8 253.44 l
54 253.44 l
cl
1.000 setgray
fill
grestore
0.800 setlinewidth
1 setlinejoin
2 setlinecap
[] 0 setdash
0.690 setgray
gsave
334.8 217.4 54 36 clipbox
54 36 m
54 253.44 l
stroke
grestore
0 setlinecap
0.000 setgray
gsave
/o {
gsave
newpath
translate
0.8 setlinewidth
1 setlinejoin
0 setlinecap
0 0 m
0 -3.5 l

gsave
0.000 setgray
fill
grestore
stroke
grestore
} bind def
54 36 o
grestore
/DejaVuSans findfont
10.000 scalefont
setfont
gsave
50.820312 21.406250 translate
0.000000 rotate
0.000000 0.000000 m /zero glyphshow
grestore
2 setlinecap
0.690 setgray
gsave
334.8 217.4 54 36 clipbox
101.828571 36 m
101.828571 253.44 l
stroke
grestore
0 setlinecap
0.000 setgray
gsave
/o {
gsave
newpath
translate
0.8 setlinewidth
1 setlinejoin
0 setlinecap
0 0 m
0 -3.5 l

gsave
0.000 setgray
fill
grestore
stroke
grestore
} bind def
101.829 36 o
grestore
gsave
92.289509 21.406250 translate
0.000000 rotate
0.000000 0.000000 m /two glyphshow
6.362305 0.000000 m /zero glyphshow
12.724609 0.000000 m /zero glyphshow
grestore
2 setlinecap
0.690 setgray
gsave
334.8 217.4 54 36 clipbox
149.657143 36 m
149.657143 253.44 l
stroke
grestore
0 setlinecap
0.000 setgray
gsave
/o {
gsave
newpath
translate
0.8 setlinewidth
1 setlinejoin
0 setlinecap
0 0 m
0 -3.5 l

gsave
0.000 setgray
fill
grestore
stroke
grestore
} bind def
149.657 36 o
grestore
gsave
140.118080 21.406250 translate
0.000000 rotate
0.000000 0.000000 m /four glyphshow
6.362305 0.000000 m /zero glyphshow
12.724609 0.000000 m /zero glyphshow
grestore
2 setlinecap
0.690 setgray
gsave
334.8 217.4 54 36 clipbox
197.485714 36 m
197.485714 253.44 l
stroke
grestore
0 setlinecap
0.000 setgray
gsave
/o {
gsave
newpath
translate
0.8 setlinewidth
1 setlinejoin
0 setlinecap
0 0 m
0 -3.5 l

gsave
0.000 setgray
fill
grestore
stroke
grestore
} bind def
197.486 36 o
grestore
gsave
187.946652 21.406250 translate
0.000000 rotate
0.000000 0.000000 m /six glyphshow
6.362305 0.000000 m /zero glyphshow
12.724609 0.000000 m /zero glyphshow
grestore
2 setlinecap
0.690 setgray
gsave
334.8 217.4 54 36 clipbox
245.314286 36 m
245.314286 253.44 l
stroke
grestore
0 setlinecap
0.000 setgray
gsave
/o {
gsave
newpath
translate
0.8 setlinewidth
1 setlinejoin
0 setlinecap
0 0 m
0 -3.5 l

gsave
0.000 setgray
fill
grestore
stroke
grestore
} bind def
245.314 36 o
grestore
gsave
235.775223 21.406250 translate
0.000000 rotate
0.000000 0.000000 m /eight glyphshow
6.362305 0.000000 m /zero glyphshow
12.724609 0.000000 m /zero glyphshow
grestore
2 setlinecap
0.690 setgray
gsave
334.8 217.4 54 36 clipbox
293.142857 36 m
293.142857 253.44 l
stroke
grestore
0 setlinecap
0.000 setgray
gsave
/o {
gsave
newpath
translate
0.8 setlinewidth
1 setlinejoin
0 setlinecap
0 0 m
0 -3.5 l

gsave
0.000 setgray
fill
grestore
stroke
grestore
} bind def
293.143 36 o
grestore
gsave
280.424107 21.406250 translate
0.000000 rotate
0.000000 0.000000 m /one glyphshow
6.362305 0.000000 m /zero glyphshow
12.724609 0.000000 m /zero glyphshow
19.086914 0.000000 m /zero glyphshow
grestore
2 setlinecap
0.690 setgray
gsave
334.8 217.4 54 36 clipbox
340.971429 36 m
340.971429 253.44 l
stroke
grestore
0 setlinecap
0.000 setgray
gsave
/o {
gsave
newpath
translate
0.8 setlinewidth
1 setlinejoin
0 setlinecap
0 0 m
0 -3.5 l

gsave
0.000 setgray
fill
grestore
stroke
grestore
} bind def
340.971 36 o
grestore
gsave
328.252679 21.406250 translate
0.000000 rotate
0.000000 0.000000 m /one glyphshow
6.362305 0.000000 m /two glyphshow
12.724609 0.000000 m /zero glyphshow
19.086914 0.000000 m /zero glyphshow
grestore
2 setlinecap
0.690 setgray
gsave
334.8 217.4 54 36 clipbox
388.8 36 m
388.8 253.44 l
stroke
grestore
0 setlinecap
0.000 setgray
gsave
/o {
gsave
newpath
translate
0.8 setlinewidth
1 setlinejoin
0 setlinecap
0 0 m
0 -3.5 l

gsave
0.000 setgray
fill
grestore
stroke
grestore
} bind def
388.8 36 o
grestore
gsave
376.081250 21.406250 translate
0.000000 rotate
0.000000 0.000000 m /one glyphshow
6.362305 0.000000 m /four glyphshow
12.724609 0.000000 m /zero glyphshow
19.086914 0.000000 m /zero glyphshow
grestore
gsave
200.892188 7.734375 translate
0.000000 rotate
0.000000 0.000000 m /T glyphshow
6.108398 0.000000 m /i glyphshow
8.886719 0.000000 m /m glyphshow
18.627930 0.000000 m /e glyphshow
24.780273 0.000000 m /space glyphshow
27.958984 0.000000 m /bracketleft glyphshow
31.860352 0.000000 m /s glyphshow
37.070312 0.000000 m /bracketright glyphshow
grestore
2 setlinecap
0.690 setgray
gsave
334.8 217.4 54 36 clipbox
54 36 m
388.8 36 l
stroke
grestore
0 setlinecap
0.000 setgray
gsave
/o {
gsave
newpath
translate
0.8 setlinewidth
1 setlinejoin
0 setlinecap
0 0 m
-3.5 0 l

gsave
0.000 setgray
fill
grestore
stroke
grestore
} bind def
54 36 o
grestore
gsave
34.281250 32.203125 translate
0.000000 rotate
0.000000 0.000000 m /two glyphshow
6.362305 0.000000 m /zero glyphshow
grestore
2 setlinecap
0.690 setgray
gsave
334.8 217.4 54 36 clipbox
54 79.488 m
388.8 79.488 l
stroke
grestore
0 setlinecap
0.000 setgray
gsave
/o {
gsave
newpath
translate
0.8 setlinewidth
1 setlinejoin
0 setlinecap
0 0 m
-3.5 0 l

gsave
0.000 setgray
fill
grestore
stroke
grestore
} bind def
54 79.488 o
grestore
gsave
34.281250 75.691125 translate
0.000000 rotate
0.000000 0.000000 m /two glyphshow
6.362305 0.000000 m /two glyphshow
grestore
2 setlinecap
0.690 setgray
gsave
334.8 217.4 54 36 clipbox
54 122.976 m
388.8 122.976 l
stroke
grestore
0 setlinecap
0.000 setgray
gsave
/o {
gsave
newpath
translate
0.8 setlinewidth
1 setlinejoin
0 setlinecap
0 0 m
-3.5 0 l

gsave
0.000 setgray
fill
grestore
stroke
grestore
} bind def
54 122.976 o
grestore
gsave
34.281250 119.179125 translate
0.000000 rotate
0.000000 0.000000 m /two glyphshow
6.362305 0.000000 m /four glyphshow
grestore
2 setlinecap
0.690 setgray
gsave
334.8 217.4 54 36 clipbox
54 166.464 m
388.8 166.464 l
stroke
grestore
0 setlinecap
0.000 setgray
gsave
/o {
gsave
newpath
translate
0.8 setlinewidth
1 setlinejoin
0 setlinecap
0 0 m
-3.5 0 l

gsave
0.000 setgray
fill
grestore
stroke
grestore
} bind def
54 166.464 o
grestore
gsave
34.281250 162.667125 translate
0.000000 rotate
0.000000 0.000000 m /two glyphshow
6.362305 0.000000 m /six glyphshow
grestore
2 setlinecap
0.690 setgray
gsave
334.8 217.4 54 36 clipbox
54 209.952 m
388.8 209.952 l
stroke
grestore
0 setlinecap
0.000 setgray
gsave
/o {
gsave
newpath
translate
0.8 setlinewidth
1 setlinejoin
0 setlinecap
0 0 m
-3.5 0 l

gsave
0.000 setgray
fill
grestore
stroke
grestore
} bind def
54 209.952 o
grestore
gsave
34.281250 206.155125 translate
0.000000 rotate
0.000000 0.000000 m /two glyphshow
6.362305 0.000000 m /eight glyphshow
grestore
2 setlinecap
0.690 setgray
gsave
334.8 217.4 54 36 clipbox
54 253.44 m
388.8 253.44 l
stroke
grestore
0 setlinecap
0.000 setgray
gsave
/o {
gsave
newpath
translate
0.8 setlinewidth
1 setlinejoin
0 setlinecap
0 0 m
-3.5 0 l

gsave
0.000 setgray
fill
grestore
stroke
grestore
} bind def
54 253.44 o
grestore
gsave
34.281250 249.643125 translate
0.000000 rotate
0.000000 0.000000 m /three glyphshow
6.362305 0.000000 m /zero glyphshow
grestore
gsave
28.203125 103.837187 translate
90.000000 rotate
0.000000 0.000000 m /T glyphshow
6.092773 0.000000 m /e glyphshow
12.245117 0.000000 m /m glyphshow
21.986328 0.000000 m /p glyphshow
28.333984 0.000000 m /e glyphshow
34.486328 0.000000 m /r glyphshow
38.597656 0.000000 m /a glyphshow
44.725586 0.000000 m /t glyphshow
48.646484 0.000000 m /u glyphshow
54.984375 0.000000 m /r glyphshow
59.095703 0.000000 m /e glyphshow
65.248047 0.000000 m /space glyphshow
68.426758 0.000000 m /bracketleft glyphshow
72.328125 0.000000 m /c glyphshow
77.826172 0.000000 m /bracketright glyphshow
grestore
1.500 setlinewidth
2 setlinecap
gsave
334.8 217.4 54 36 clipbox
54 36.000273 m
65.478857 36.085775 l
66.674571 36.492455 l
67.152857 36.591911 l
68.109429 36.998364 l
68.587714 37.610787 l
69.066 38.475924 l
69.305143 38.511379 l
69.544286 39.052278 l
70.022571 41.25175 l
70.500857 43.210374 l
70.74 43.475804 l
71.218286 43.57248 l
71.457429 43.861122 l
71.935714 44.894958 l
72.414 45.243884 l
73.370571 45.458717 l
76.718571 45.469788 l
77.675143 47.50241 l
78.153429 47.534007 l
78.631714 47.897837 l
79.588286 49.057404 l
82.218857 49.162031 l
82.458 49.192405 l
82.936286 49.647971 l
83.414571 50.355948 l
84.132 50.630397 l
88.436571 50.795863 l
88.675714 50.894948 l
89.393143 52.04756 l
89.632286 52.412701 l
90.828 52.604118 l
91.306286 53.151424 l
91.784571 53.810946 l
92.980286 54.017625 l
94.176 54.122349 l
95.371714 54.522138 l
95.85 55.281212 l
96.328286 55.443456 l
98.002286 55.684253 l
98.719714 56.176396 l
99.915429 56.210825 l
100.632857 56.228275 l
101.589429 62.865352 l
102.785143 63.74909 l
103.741714 65.769283 l
104.22 67.454919 l
104.698286 67.861357 l
105.654857 70.821438 l
105.894 70.99383 l
106.611429 71.0624 l
107.089714 71.215058 l
107.568 71.298339 l
108.046286 71.77199 l
109.002857 72.988719 l
109.720286 73.157281 l
109.959429 73.390085 l
110.198571 74.045075 l
111.155143 78.227435 l
111.633429 78.453329 l
115.220571 78.557588 l
116.177143 78.878742 l
119.764286 78.984588 l
120.720857 83.058182 l
122.155714 83.403534 l
123.351429 84.71117 l
124.547143 84.899932 l
125.025429 85.07124 l
126.938571 86.477313 l
127.177714 86.733375 l
127.656 86.898984 l
128.134286 87.234676 l
128.851714 87.336689 l
131.243143 87.440426 l
131.960571 87.641635 l
132.199714 87.661415 l
133.156286 88.465842 l
134.352 88.596597 l
134.830286 88.79947 l
146.309143 88.930023 l
149.657143 88.975149 l
149.896286 89.129688 l
150.852857 90.387599 l
153.244286 90.808929 l
153.961714 91.764638 l
155.157429 92.10248 l
155.874857 92.597301 l
157.788 93.056041 l
158.505429 93.168115 l
159.222857 93.255289 l
161.136 93.301423 l
172.375714 93.347636 l
172.614857 93.506522 l
173.093143 94.462003 l
173.571429 94.958477 l
176.441143 95.322432 l
177.397714 98.557151 l
177.636857 98.739214 l
179.310857 98.783402 l
180.984857 98.846304 l
181.463143 99.255246 l
181.941429 99.814484 l
182.419714 99.931192 l
183.137143 100.05744 l
183.376286 100.386862 l
184.093714 106.454294 l
184.332857 107.58192 l
185.289429 108.269093 l
186.006857 108.400131 l
186.246 108.600977 l
186.485143 109.263056 l
187.441714 114.12173 l
187.92 115.036794 l
188.398286 115.164286 l
197.724857 115.225754 l
197.964 115.425319 l
198.681429 116.857739 l
198.920571 117.051919 l
204.420857 117.250717 l
204.66 117.335846 l
205.377429 118.180156 l
206.094857 118.25601 l
213.747429 118.437141 l
218.291143 118.737518 l
218.530286 118.822822 l
218.769429 119.079682 l
219.247714 119.90642 l
219.726 120.135057 l
222.356571 120.238749 l
225.465429 120.42389 l
228.813429 120.560321 l
229.530857 121.382055 l
229.77 122.417552 l
230.248286 126.955999 l
230.487429 127.462003 l
231.444 128.024797 l
231.922286 128.170679 l
238.857429 128.699667 l
239.335714 129.116079 l
240.053143 129.42881 l
240.292286 129.737054 l
240.770571 129.867989 l
242.444571 130.231182 l
242.922857 130.683684 l
243.401143 130.856371 l
245.075143 130.914649 l
245.553429 131.266104 l
246.031714 131.941498 l
246.51 132.843526 l
247.227429 133.142693 l
247.705714 133.362499 l
248.184 133.794313 l
248.662286 133.930819 l
249.140571 134.019899 l
257.749714 134.313486 l
260.141143 134.44638 l
260.858571 135.167357 l
261.097714 135.502579 l
262.293429 135.681189 l
263.489143 136.344819 l
263.967429 136.439724 l
264.445714 136.53027 l
264.924 137.804206 l
265.880571 141.599158 l
266.358857 142.244115 l
266.837143 142.597259 l
267.554571 143.298769 l
268.032857 143.393905 l
268.989429 144.677056 l
269.467714 144.74463 l
270.424286 145.049063 l
273.294 145.108956 l
281.903143 145.479873 l
285.968571 145.904594 l
292.903714 146.357185 l
295.295143 146.470237 l
297.686571 146.621216 l
299.599714 146.746593 l
304.382571 147.09938 l
310.361143 147.391547 l
310.600286 147.528856 l
311.556857 148.599588 l
315.144 148.71465 l
332.601429 149.038681 l
337.145143 149.165946 l
338.101714 149.485013 l
342.884571 149.613868 l
345.276 150.075556 l
345.993429 150.344487 l
346.710857 150.470697 l
349.102286 150.585411 l
349.341429 151.486997 l
349.819714 155.641779 l
350.058857 157.649085 l
350.298 158.14638 l
351.254571 159.095232 l
351.972 159.153791 l
354.602571 159.312985 l
355.32 159.631587 l
358.907143 159.680592 l
360.820286 161.329014 l
362.494286 161.36169 l
370.864286 161.503461 l
371.820857 163.094325 l
372.777429 163.224265 l
373.255714 163.264754 l
373.734 163.656309 l
374.451429 164.721399 l
374.690571 165.273895 l
374.929714 166.220283 l
375.168857 168.445871 l
375.647143 176.552674 l
376.125429 186.524182 l
376.603714 192.345066 l
377.082 195.238663 l
377.560286 196.945141 l
378.038571 198.01817 l
378.516857 198.468995 l
379.234286 198.537466 l
380.190857 198.539484 l
380.190857 198.539484 l
stroke
grestore
1.000 0.000 0.000 setrgbcolor
gsave
334.8 217.4 54 36 clipbox
54 36.000294 m
65.478857 36.080536 l
66.674571 36.517863 l
67.152857 36.616174 l
68.109429 37.048086 l
68.348571 37.37482 l
69.066 38.715402 l
69.305143 38.786539 l
69.544286 39.322569 l
70.022571 41.629665 l
70.500857 43.618361 l
70.74 43.880221 l
71.218286 43.968836 l
71.457429 44.238464 l
71.935714 45.385496 l
72.414 45.720932 l
73.131429 45.940754 l
76.479429 45.950623 l
76.718571 45.954249 l
77.196857 46.951643 l
77.436 47.991044 l
77.675143 48.420988 l
78.153429 48.47525 l
78.631714 48.818366 l
79.349143 50.010441 l
80.305714 50.093774 l
82.697143 50.386018 l
83.653714 51.559964 l
84.371143 51.718782 l
88.675714 51.968132 l
88.914857 52.379282 l
89.393143 53.420915 l
89.632286 53.756463 l
90.828 53.944798 l
91.306286 54.512962 l
91.784571 55.364713 l
92.741143 55.581651 l
93.936857 55.62891 l
95.371714 56.075347 l
95.85 56.894102 l
96.328286 57.103139 l
97.284857 57.184178 l
97.763143 57.214682 l
98.241429 57.558766 l
98.719714 57.856852 l
99.915429 57.883761 l
100.632857 57.896535 l
101.111143 61.670362 l
101.350286 64.080792 l
101.589429 65.178779 l
102.306857 65.81514 l
102.546 65.889795 l
102.785143 66.10757 l
103.741714 68.231415 l
103.980857 70.313934 l
104.22 71.084403 l
104.698286 71.602647 l
105.176571 73.164083 l
105.654857 74.771895 l
105.894 74.931195 l
106.611429 75.022786 l
107.089714 75.179942 l
107.568 75.259808 l
108.046286 75.748148 l
108.524571 76.57039 l
108.763714 77.052927 l
109.481143 77.244638 l
109.720286 77.314171 l
109.959429 77.539772 l
110.198571 78.196326 l
111.155143 82.502851 l
111.633429 82.715041 l
115.220571 82.779718 l
115.938 83.102301 l
119.764286 83.183322 l
120.242571 85.456166 l
120.720857 87.408015 l
122.155714 87.755618 l
123.351429 89.0852 l
124.547143 89.265301 l
125.264571 89.643525 l
125.742857 90.057198 l
126.221143 90.36003 l
126.460286 90.402008 l
126.699429 90.566384 l
127.177714 91.256381 l
127.656 91.442974 l
128.134286 91.773997 l
128.851714 91.87064 l
131.243143 91.937393 l
131.960571 92.182497 l
132.199714 92.198958 l
132.438857 92.381217 l
132.917143 93.002754 l
133.395429 93.110159 l
134.352 93.216453 l
134.830286 93.431736 l
139.613143 93.506369 l
149.657143 93.450336 l
149.896286 93.590365 l
150.852857 94.930805 l
153.005143 95.158898 l
153.244286 95.334188 l
153.961714 96.337536 l
154.918286 96.468665 l
155.874857 97.18099 l
158.744571 97.947205 l
162.092571 97.989107 l
172.375714 97.904577 l
172.614857 98.04767 l
173.332286 99.385329 l
173.571429 99.579825 l
175.723714 99.802635 l
176.441143 99.987575 l
177.397714 103.298956 l
177.636857 103.465895 l
179.55 103.485208 l
180.984857 103.527365 l
181.224 103.657023 l
182.180571 104.618302 l
183.137143 104.76987 l
183.376286 105.133621 l
184.093714 111.352114 l
184.332857 112.390888 l
185.528571 113.085695 l
186.006857 113.189011 l
186.246 113.391534 l
186.485143 114.096307 l
187.441714 119.00072 l
187.92 119.927648 l
188.398286 120.042117 l
197.724857 119.958712 l
197.964 120.143215 l
198.681429 121.736106 l
198.920571 121.90798 l
204.420857 122.039172 l
204.66 122.11873 l
205.377429 123.018278 l
205.855714 123.132224 l
215.899714 123.297989 l
218.291143 123.429967 l
218.530286 123.555628 l
218.769429 123.814279 l
219.247714 124.66114 l
219.726 124.870075 l
222.595714 124.95155 l
225.704571 125.070176 l
228.335143 125.134296 l
228.813429 125.157477 l
229.530857 125.948157 l
229.77 127.143105 l
230.248286 131.923657 l
230.487429 132.453643 l
231.683143 133.206732 l
235.031143 133.338381 l
237.661714 133.427944 l
238.857429 133.688114 l
239.335714 134.10905 l
240.053143 134.459876 l
240.292286 134.764739 l
240.770571 134.907622 l
241.966286 135.215338 l
242.444571 135.401477 l
242.922857 135.866042 l
243.401143 136.048846 l
245.075143 136.106044 l
245.553429 136.47301 l
246.031714 137.122873 l
246.51 138.01886 l
246.988286 138.247589 l
247.466571 138.39772 l
248.901429 139.29221 l
253.445143 139.352321 l
260.141143 139.535799 l
260.858571 140.19834 l
261.097714 140.50313 l
262.532571 140.835539 l
263.489143 141.329183 l
263.967429 141.419764 l
264.445714 141.510695 l
264.684857 141.992707 l
265.163143 143.815599 l
265.641429 146.03234 l
266.119714 147.067407 l
267.793714 148.361157 l
268.032857 148.399653 l
268.272 148.714651 l
268.750286 149.555978 l
268.989429 149.786128 l
269.467714 149.847725 l
270.424286 150.143409 l
272.815714 150.141724 l
281.185714 150.286855 l
286.446857 150.743195 l
293.142857 151.035568 l
295.295143 151.107784 l
297.925714 151.217557 l
299.599714 151.308707 l
304.382571 151.572688 l
310.361143 151.75662 l
310.600286 151.877049 l
311.317714 152.963975 l
311.556857 153.10321 l
315.622286 153.152721 l
335.232 153.139589 l
336.906 153.157329 l
338.340857 153.554022 l
342.884571 153.607581 l
345.276 154.131348 l
345.754286 154.356545 l
347.906571 154.524399 l
348.863143 154.53334 l
349.102286 154.643079 l
349.341429 155.484626 l
349.580571 157.217086 l
350.058857 161.929333 l
350.298 162.46508 l
351.254571 163.403186 l
352.211143 163.45214 l
354.602571 163.617878 l
355.080857 163.908344 l
355.798286 163.942713 l
358.907143 163.925524 l
359.624571 164.616199 l
360.102857 164.970789 l
361.059429 165.500229 l
370.864286 165.482517 l
371.820857 166.960146 l
372.777429 167.079134 l
373.255714 167.110462 l
373.494857 167.23753 l
374.212286 168.157871 l
374.690571 169.076337 l
374.929714 170.024704 l
375.168857 172.172893 l
375.647143 180.436324 l
376.125429 190.496077 l
376.603714 196.257817 l
377.082 199.194192 l
377.560286 200.855143 l
378.038571 201.930555 l
378.516857 202.372391 l
379.234286 202.420889 l
380.190857 202.400047 l
380.190857 202.400047 l
stroke
grestore
0.800 setlinewidth
0 setlinejoin
[] 0 setdash
0.000 setgray
gsave
54 36 m
54 253.44 l
stroke
grestore
gsave
388.8 36 m
388.8 253.44 l
stroke
grestore
gsave
54 36 m
388.8 36 l
stroke
grestore
gsave
54 253.44 m
388.8 253.44 l
stroke
grestore
1.000 setlinewidth
0 setlinecap
0.800 setgray
gsave
295.409375 216.09625 m
381.8 216.09625 l
383.133333 216.09625 383.8 216.762917 383.8 218.09625 c
383.8 246.44 l
383.8 247.773333 383.133333 248.44 381.8 248.44 c
295.409375 248.44 l
294.076042 248.44 293.409375 247.773333 293.409375 246.44 c
293.409375 218.09625 l
293.409375 216.762917 294.076042 216.09625 295.409375 216.09625 c
cl
gsave
1.000 setgray
fill
grestore
stroke
grestore
1.500 setlinewidth
1 setlinejoin
2 setlinecap
[] 0 setdash
0.000 setgray
gsave
297.409375 240.34625 m
317.409375 240.34625 l
stroke
grestore
gsave
325.409375 236.846250 translate
0.000000 rotate
0.000000 0.000000 m /S glyphshow
6.347656 0.000000 m /i glyphshow
9.125977 0.000000 m /m glyphshow
18.867188 0.000000 m /u glyphshow
25.205078 0.000000 m /l glyphshow
27.983398 0.000000 m /a glyphshow
34.111328 0.000000 m /t glyphshow
38.032227 0.000000 m /o glyphshow
44.150391 0.000000 m /r glyphshow
grestore
1.000 0.000 0.000 setrgbcolor
gsave
297.409375 225.674375 m
317.409375 225.674375 l
stroke
grestore
0.000 setgray
gsave
325.409375 222.174375 translate
0.000000 rotate
0.000000 0.000000 m /A glyphshow
6.840820 0.000000 m /u glyphshow
13.178711 0.000000 m /t glyphshow
17.099609 0.000000 m /o glyphshow
23.217773 0.000000 m /n glyphshow
29.555664 0.000000 m /o glyphshow
35.673828 0.000000 m /m glyphshow
45.415039 0.000000 m /i glyphshow
48.193359 0.000000 m /e glyphshow
grestore

end
showpage
