%!PS-Adobe-3.0 EPSF-3.0
%%Title: bcom_soc.eps
%%Creator: matplotlib version 2.0.0, http://matplotlib.org/
%%CreationDate: Sun May 14 16:30:54 2017
%%Orientation: portrait
%%BoundingBox: 90 252 522 540
%%EndComments
%%BeginProlog
/mpldict 8 dict def
mpldict begin
/m { moveto } bind def
/l { lineto } bind def
/r { rlineto } bind def
/c { curveto } bind def
/cl { closepath } bind def
/box {
m
1 index 0 r
0 exch r
neg 0 r
cl
} bind def
/clipbox {
box
clip
newpath
} bind def
%!PS-Adobe-3.0 Resource-Font
%%Title: DejaVu Sans
%%Copyright: Copyright (c) 2003 by Bitstream, Inc. All Rights Reserved. Copyright (c) 2006 by Tavmjong Bah. All Rights Reserved. DejaVu changes are in public domain 
%%Creator: Converted from TrueType to type 3 by PPR
25 dict begin
/_d{bind def}bind def
/_m{moveto}_d
/_l{lineto}_d
/_cl{closepath eofill}_d
/_c{curveto}_d
/_sc{7 -1 roll{setcachedevice}{pop pop pop pop pop pop}ifelse}_d
/_e{exec}_d
/FontName /DejaVuSans def
/PaintType 0 def
/FontMatrix[.001 0 0 .001 0 0]def
/FontBBox[-1021 -463 1793 1232]def
/FontType 3 def
/Encoding [ /space /period /zero /one /two /four /five /six /seven /eight /A /C /O /S /T /bracketleft /bracketright /a /e /i /l /m /n /o /r /s /t /u ] def
/FontInfo 10 dict dup begin
/FamilyName (DejaVu Sans) def
/FullName (DejaVu Sans) def
/Notice (Copyright (c) 2003 by Bitstream, Inc. All Rights Reserved. Copyright (c) 2006 by Tavmjong Bah. All Rights Reserved. DejaVu changes are in public domain ) def
/Weight (Book) def
/Version (Version 2.35) def
/ItalicAngle 0.0 def
/isFixedPitch false def
/UnderlinePosition -130 def
/UnderlineThickness 90 def
end readonly def
/CharStrings 28 dict dup begin
/space{318 0 0 0 0 0 _sc
}_d
/period{318 0 107 0 210 124 _sc
107 124 _m
210 124 _l
210 0 _l
107 0 _l
107 124 _l
_cl}_d
/zero{636 0 66 -13 570 742 _sc
318 664 _m
267 664 229 639 203 589 _c
177 539 165 464 165 364 _c
165 264 177 189 203 139 _c
229 89 267 64 318 64 _c
369 64 407 89 433 139 _c
458 189 471 264 471 364 _c
471 464 458 539 433 589 _c
407 639 369 664 318 664 _c
318 742 _m
399 742 461 709 505 645 _c
548 580 570 486 570 364 _c
570 241 548 147 505 83 _c
461 19 399 -13 318 -13 _c
236 -13 173 19 130 83 _c
87 147 66 241 66 364 _c
66 486 87 580 130 645 _c
173 709 236 742 318 742 _c
_cl}_d
/one{636 0 110 0 544 729 _sc
124 83 _m
285 83 _l
285 639 _l
110 604 _l
110 694 _l
284 729 _l
383 729 _l
383 83 _l
544 83 _l
544 0 _l
124 0 _l
124 83 _l
_cl}_d
/two{{636 0 73 0 536 742 _sc
192 83 _m
536 83 _l
536 0 _l
73 0 _l
73 83 _l
110 121 161 173 226 239 _c
290 304 331 346 348 365 _c
380 400 402 430 414 455 _c
426 479 433 504 433 528 _c
433 566 419 598 392 622 _c
365 646 330 659 286 659 _c
255 659 222 653 188 643 _c
154 632 117 616 78 594 _c
78 694 _l
118 710 155 722 189 730 _c
223 738 255 742 284 742 _c
}_e{359 742 419 723 464 685 _c
509 647 532 597 532 534 _c
532 504 526 475 515 449 _c
504 422 484 390 454 354 _c
446 344 420 317 376 272 _c
332 227 271 164 192 83 _c
_cl}_e}_d
/four{636 0 49 0 580 729 _sc
378 643 _m
129 254 _l
378 254 _l
378 643 _l
352 729 _m
476 729 _l
476 254 _l
580 254 _l
580 172 _l
476 172 _l
476 0 _l
378 0 _l
378 172 _l
49 172 _l
49 267 _l
352 729 _l
_cl}_d
/five{{636 0 77 -13 549 729 _sc
108 729 _m
495 729 _l
495 646 _l
198 646 _l
198 467 _l
212 472 227 476 241 478 _c
255 480 270 482 284 482 _c
365 482 429 459 477 415 _c
525 370 549 310 549 234 _c
549 155 524 94 475 51 _c
426 8 357 -13 269 -13 _c
238 -13 207 -10 175 -6 _c
143 -1 111 6 77 17 _c
77 116 _l
106 100 136 88 168 80 _c
199 72 232 69 267 69 _c
}_e{323 69 368 83 401 113 _c
433 143 450 183 450 234 _c
450 284 433 324 401 354 _c
368 384 323 399 267 399 _c
241 399 214 396 188 390 _c
162 384 135 375 108 363 _c
108 729 _l
_cl}_e}_d
/six{{636 0 70 -13 573 742 _sc
330 404 _m
286 404 251 388 225 358 _c
199 328 186 286 186 234 _c
186 181 199 139 225 109 _c
251 79 286 64 330 64 _c
374 64 409 79 435 109 _c
461 139 474 181 474 234 _c
474 286 461 328 435 358 _c
409 388 374 404 330 404 _c
526 713 _m
526 623 _l
501 635 476 644 451 650 _c
425 656 400 659 376 659 _c
310 659 260 637 226 593 _c
}_e{192 549 172 482 168 394 _c
187 422 211 444 240 459 _c
269 474 301 482 336 482 _c
409 482 467 459 509 415 _c
551 371 573 310 573 234 _c
573 159 550 99 506 54 _c
462 9 403 -13 330 -13 _c
246 -13 181 19 137 83 _c
92 147 70 241 70 364 _c
70 479 97 571 152 639 _c
206 707 280 742 372 742 _c
396 742 421 739 447 735 _c
472 730 498 723 526 713 _c
_cl}_e}_d
/seven{636 0 82 0 551 729 _sc
82 729 _m
551 729 _l
551 687 _l
286 0 _l
183 0 _l
432 646 _l
82 646 _l
82 729 _l
_cl}_d
/eight{{636 0 68 -13 568 742 _sc
318 346 _m
271 346 234 333 207 308 _c
180 283 167 249 167 205 _c
167 161 180 126 207 101 _c
234 76 271 64 318 64 _c
364 64 401 76 428 102 _c
455 127 469 161 469 205 _c
469 249 455 283 429 308 _c
402 333 365 346 318 346 _c
219 388 _m
177 398 144 418 120 447 _c
96 476 85 511 85 553 _c
85 611 105 657 147 691 _c
188 725 245 742 318 742 _c
}_e{390 742 447 725 489 691 _c
530 657 551 611 551 553 _c
551 511 539 476 515 447 _c
491 418 459 398 417 388 _c
464 377 501 355 528 323 _c
554 291 568 251 568 205 _c
568 134 546 80 503 43 _c
459 5 398 -13 318 -13 _c
237 -13 175 5 132 43 _c
89 80 68 134 68 205 _c
68 251 81 291 108 323 _c
134 355 171 377 219 388 _c
183 544 _m
183 506 194 476 218 455 _c
}_e{242 434 275 424 318 424 _c
360 424 393 434 417 455 _c
441 476 453 506 453 544 _c
453 582 441 611 417 632 _c
393 653 360 664 318 664 _c
275 664 242 653 218 632 _c
194 611 183 582 183 544 _c
_cl}_e}_d
/A{684 0 8 0 676 729 _sc
342 632 _m
208 269 _l
476 269 _l
342 632 _l
286 729 _m
398 729 _l
676 0 _l
573 0 _l
507 187 _l
178 187 _l
112 0 _l
8 0 _l
286 729 _l
_cl}_d
/C{{698 0 56 -13 644 742 _sc
644 673 _m
644 569 _l
610 599 575 622 537 638 _c
499 653 460 661 418 661 _c
334 661 270 635 226 584 _c
182 533 160 460 160 364 _c
160 268 182 194 226 143 _c
270 92 334 67 418 67 _c
460 67 499 74 537 90 _c
575 105 610 128 644 159 _c
644 56 _l
609 32 572 15 534 4 _c
496 -7 455 -13 412 -13 _c
302 -13 215 20 151 87 _c
}_e{87 154 56 246 56 364 _c
56 481 87 573 151 641 _c
215 708 302 742 412 742 _c
456 742 497 736 535 725 _c
573 713 610 696 644 673 _c
_cl}_e}_d
/O{787 0 56 -13 731 742 _sc
394 662 _m
322 662 265 635 223 582 _c
181 528 160 456 160 364 _c
160 272 181 199 223 146 _c
265 92 322 66 394 66 _c
465 66 522 92 564 146 _c
606 199 627 272 627 364 _c
627 456 606 528 564 582 _c
522 635 465 662 394 662 _c
394 742 _m
496 742 577 707 639 639 _c
700 571 731 479 731 364 _c
731 248 700 157 639 89 _c
577 21 496 -13 394 -13 _c
291 -13 209 21 148 89 _c
86 157 56 248 56 364 _c
56 479 86 571 148 639 _c
209 707 291 742 394 742 _c
_cl}_d
/S{{635 0 66 -13 579 742 _sc
535 705 _m
535 609 _l
497 627 462 640 429 649 _c
395 657 363 662 333 662 _c
279 662 237 651 208 631 _c
179 610 165 580 165 542 _c
165 510 174 485 194 469 _c
213 452 250 439 304 429 _c
364 417 _l
437 403 491 378 526 343 _c
561 307 579 260 579 201 _c
579 130 555 77 508 41 _c
460 5 391 -13 300 -13 _c
265 -13 228 -9 189 -2 _c
}_e{150 5 110 16 69 32 _c
69 134 _l
109 111 148 94 186 83 _c
224 71 262 66 300 66 _c
356 66 399 77 430 99 _c
460 121 476 152 476 194 _c
476 230 465 258 443 278 _c
421 298 385 313 335 323 _c
275 335 _l
201 349 148 372 115 404 _c
82 435 66 478 66 534 _c
66 598 88 649 134 686 _c
179 723 242 742 322 742 _c
356 742 390 739 426 733 _c
461 727 497 717 535 705 _c
}_e{_cl}_e}_d
/T{611 0 -2 0 614 729 _sc
-2 729 _m
614 729 _l
614 646 _l
355 646 _l
355 0 _l
256 0 _l
256 646 _l
-2 646 _l
-2 729 _l
_cl}_d
/bracketleft{390 0 86 -131 293 760 _sc
86 760 _m
293 760 _l
293 690 _l
176 690 _l
176 -61 _l
293 -61 _l
293 -131 _l
86 -131 _l
86 760 _l
_cl}_d
/bracketright{390 0 97 -131 304 760 _sc
304 760 _m
304 -131 _l
97 -131 _l
97 -61 _l
214 -61 _l
214 690 _l
97 690 _l
97 760 _l
304 760 _l
_cl}_d
/a{{613 0 60 -13 522 560 _sc
343 275 _m
270 275 220 266 192 250 _c
164 233 150 205 150 165 _c
150 133 160 107 181 89 _c
202 70 231 61 267 61 _c
317 61 357 78 387 114 _c
417 149 432 196 432 255 _c
432 275 _l
343 275 _l
522 312 _m
522 0 _l
432 0 _l
432 83 _l
411 49 385 25 355 10 _c
325 -5 287 -13 243 -13 _c
187 -13 142 2 109 33 _c
76 64 60 106 60 159 _c
}_e{60 220 80 266 122 298 _c
163 329 224 345 306 345 _c
432 345 _l
432 354 _l
432 395 418 427 391 450 _c
364 472 326 484 277 484 _c
245 484 215 480 185 472 _c
155 464 127 453 100 439 _c
100 522 _l
132 534 164 544 195 550 _c
226 556 256 560 286 560 _c
365 560 424 539 463 498 _c
502 457 522 395 522 312 _c
_cl}_e}_d
/e{{615 0 55 -13 562 560 _sc
562 296 _m
562 252 _l
149 252 _l
153 190 171 142 205 110 _c
238 78 284 62 344 62 _c
378 62 412 66 444 74 _c
476 82 509 95 541 113 _c
541 28 _l
509 14 476 3 442 -3 _c
408 -9 373 -13 339 -13 _c
251 -13 182 12 131 62 _c
80 112 55 181 55 268 _c
55 357 79 428 127 481 _c
175 533 241 560 323 560 _c
397 560 455 536 498 489 _c
}_e{540 441 562 377 562 296 _c
472 322 _m
471 371 457 410 431 440 _c
404 469 368 484 324 484 _c
274 484 234 469 204 441 _c
174 413 156 373 152 322 _c
472 322 _l
_cl}_e}_d
/i{278 0 94 0 184 760 _sc
94 547 _m
184 547 _l
184 0 _l
94 0 _l
94 547 _l
94 760 _m
184 760 _l
184 646 _l
94 646 _l
94 760 _l
_cl}_d
/l{278 0 94 0 184 760 _sc
94 760 _m
184 760 _l
184 0 _l
94 0 _l
94 760 _l
_cl}_d
/m{{974 0 91 0 889 560 _sc
520 442 _m
542 482 569 511 600 531 _c
631 550 668 560 711 560 _c
767 560 811 540 842 500 _c
873 460 889 403 889 330 _c
889 0 _l
799 0 _l
799 327 _l
799 379 789 418 771 444 _c
752 469 724 482 686 482 _c
639 482 602 466 575 435 _c
548 404 535 362 535 309 _c
535 0 _l
445 0 _l
445 327 _l
445 379 435 418 417 444 _c
398 469 369 482 331 482 _c
}_e{285 482 248 466 221 435 _c
194 404 181 362 181 309 _c
181 0 _l
91 0 _l
91 547 _l
181 547 _l
181 462 _l
201 495 226 520 255 536 _c
283 552 317 560 357 560 _c
397 560 430 550 458 530 _c
486 510 506 480 520 442 _c
_cl}_e}_d
/n{634 0 91 0 549 560 _sc
549 330 _m
549 0 _l
459 0 _l
459 327 _l
459 379 448 417 428 443 _c
408 469 378 482 338 482 _c
289 482 251 466 223 435 _c
195 404 181 362 181 309 _c
181 0 _l
91 0 _l
91 547 _l
181 547 _l
181 462 _l
202 494 227 519 257 535 _c
286 551 320 560 358 560 _c
420 560 468 540 500 501 _c
532 462 549 405 549 330 _c
_cl}_d
/o{612 0 55 -13 557 560 _sc
306 484 _m
258 484 220 465 192 427 _c
164 389 150 338 150 273 _c
150 207 163 156 191 118 _c
219 80 257 62 306 62 _c
354 62 392 80 420 118 _c
448 156 462 207 462 273 _c
462 337 448 389 420 427 _c
392 465 354 484 306 484 _c
306 560 _m
384 560 445 534 490 484 _c
534 433 557 363 557 273 _c
557 183 534 113 490 63 _c
445 12 384 -13 306 -13 _c
227 -13 165 12 121 63 _c
77 113 55 183 55 273 _c
55 363 77 433 121 484 _c
165 534 227 560 306 560 _c
_cl}_d
/r{411 0 91 0 411 560 _sc
411 463 _m
401 469 390 473 378 476 _c
366 478 353 480 339 480 _c
288 480 249 463 222 430 _c
194 397 181 350 181 288 _c
181 0 _l
91 0 _l
91 547 _l
181 547 _l
181 462 _l
199 495 224 520 254 536 _c
284 552 321 560 365 560 _c
371 560 378 559 386 559 _c
393 558 401 557 411 555 _c
411 463 _l
_cl}_d
/s{{521 0 54 -13 472 560 _sc
443 531 _m
443 446 _l
417 458 391 468 364 475 _c
336 481 308 485 279 485 _c
234 485 200 478 178 464 _c
156 450 145 430 145 403 _c
145 382 153 366 169 354 _c
185 342 217 330 265 320 _c
296 313 _l
360 299 405 279 432 255 _c
458 230 472 195 472 151 _c
472 100 452 60 412 31 _c
372 1 316 -13 246 -13 _c
216 -13 186 -10 154 -5 _c
}_e{122 0 89 8 54 20 _c
54 113 _l
87 95 120 82 152 74 _c
184 65 216 61 248 61 _c
290 61 323 68 346 82 _c
368 96 380 117 380 144 _c
380 168 371 187 355 200 _c
339 213 303 226 247 238 _c
216 245 _l
160 257 119 275 95 299 _c
70 323 58 356 58 399 _c
58 450 76 490 112 518 _c
148 546 200 560 268 560 _c
301 560 332 557 362 552 _c
391 547 418 540 443 531 _c
}_e{_cl}_e}_d
/t{392 0 27 0 368 702 _sc
183 702 _m
183 547 _l
368 547 _l
368 477 _l
183 477 _l
183 180 _l
183 135 189 106 201 94 _c
213 81 238 75 276 75 _c
368 75 _l
368 0 _l
276 0 _l
206 0 158 13 132 39 _c
106 65 93 112 93 180 _c
93 477 _l
27 477 _l
27 547 _l
93 547 _l
93 702 _l
183 702 _l
_cl}_d
/u{634 0 85 -13 543 560 _sc
85 216 _m
85 547 _l
175 547 _l
175 219 _l
175 167 185 129 205 103 _c
225 77 255 64 296 64 _c
344 64 383 79 411 110 _c
439 141 453 183 453 237 _c
453 547 _l
543 547 _l
543 0 _l
453 0 _l
453 84 _l
431 50 405 26 377 10 _c
348 -5 315 -13 277 -13 _c
214 -13 166 6 134 45 _c
101 83 85 140 85 216 _c
311 560 _m
311 560 _l
_cl}_d
end readonly def

/BuildGlyph
 {exch begin
 CharStrings exch
 2 copy known not{pop /.notdef}if
 true 3 1 roll get exec
 end}_d

/BuildChar {
 1 index /Encoding get exch get
 1 index /BuildGlyph get exec
}_d

FontName currentdict end definefont pop
end
%%EndProlog
mpldict begin
90 252 translate
432 288 0 0 clipbox
gsave
0 0 m
432 0 l
432 288 l
0 288 l
cl
1.000 setgray
fill
grestore
gsave
54 36 m
388.8 36 l
388.8 253.44 l
54 253.44 l
cl
1.000 setgray
fill
grestore
0.800 setlinewidth
1 setlinejoin
2 setlinecap
[] 0 setdash
0.690 setgray
gsave
334.8 217.4 54 36 clipbox
54 36 m
54 253.44 l
stroke
grestore
0 setlinecap
0.000 setgray
gsave
/o {
gsave
newpath
translate
0.8 setlinewidth
1 setlinejoin
0 setlinecap
0 0 m
0 -3.5 l

gsave
0.000 setgray
fill
grestore
stroke
grestore
} bind def
54 36 o
grestore
/DejaVuSans findfont
10.000 scalefont
setfont
gsave
50.820312 21.406250 translate
0.000000 rotate
0.000000 0.000000 m /zero glyphshow
grestore
2 setlinecap
0.690 setgray
gsave
334.8 217.4 54 36 clipbox
101.828571 36 m
101.828571 253.44 l
stroke
grestore
0 setlinecap
0.000 setgray
gsave
/o {
gsave
newpath
translate
0.8 setlinewidth
1 setlinejoin
0 setlinecap
0 0 m
0 -3.5 l

gsave
0.000 setgray
fill
grestore
stroke
grestore
} bind def
101.829 36 o
grestore
gsave
92.289509 21.406250 translate
0.000000 rotate
0.000000 0.000000 m /two glyphshow
6.362305 0.000000 m /zero glyphshow
12.724609 0.000000 m /zero glyphshow
grestore
2 setlinecap
0.690 setgray
gsave
334.8 217.4 54 36 clipbox
149.657143 36 m
149.657143 253.44 l
stroke
grestore
0 setlinecap
0.000 setgray
gsave
/o {
gsave
newpath
translate
0.8 setlinewidth
1 setlinejoin
0 setlinecap
0 0 m
0 -3.5 l

gsave
0.000 setgray
fill
grestore
stroke
grestore
} bind def
149.657 36 o
grestore
gsave
140.118080 21.406250 translate
0.000000 rotate
0.000000 0.000000 m /four glyphshow
6.362305 0.000000 m /zero glyphshow
12.724609 0.000000 m /zero glyphshow
grestore
2 setlinecap
0.690 setgray
gsave
334.8 217.4 54 36 clipbox
197.485714 36 m
197.485714 253.44 l
stroke
grestore
0 setlinecap
0.000 setgray
gsave
/o {
gsave
newpath
translate
0.8 setlinewidth
1 setlinejoin
0 setlinecap
0 0 m
0 -3.5 l

gsave
0.000 setgray
fill
grestore
stroke
grestore
} bind def
197.486 36 o
grestore
gsave
187.946652 21.406250 translate
0.000000 rotate
0.000000 0.000000 m /six glyphshow
6.362305 0.000000 m /zero glyphshow
12.724609 0.000000 m /zero glyphshow
grestore
2 setlinecap
0.690 setgray
gsave
334.8 217.4 54 36 clipbox
245.314286 36 m
245.314286 253.44 l
stroke
grestore
0 setlinecap
0.000 setgray
gsave
/o {
gsave
newpath
translate
0.8 setlinewidth
1 setlinejoin
0 setlinecap
0 0 m
0 -3.5 l

gsave
0.000 setgray
fill
grestore
stroke
grestore
} bind def
245.314 36 o
grestore
gsave
235.775223 21.406250 translate
0.000000 rotate
0.000000 0.000000 m /eight glyphshow
6.362305 0.000000 m /zero glyphshow
12.724609 0.000000 m /zero glyphshow
grestore
2 setlinecap
0.690 setgray
gsave
334.8 217.4 54 36 clipbox
293.142857 36 m
293.142857 253.44 l
stroke
grestore
0 setlinecap
0.000 setgray
gsave
/o {
gsave
newpath
translate
0.8 setlinewidth
1 setlinejoin
0 setlinecap
0 0 m
0 -3.5 l

gsave
0.000 setgray
fill
grestore
stroke
grestore
} bind def
293.143 36 o
grestore
gsave
280.424107 21.406250 translate
0.000000 rotate
0.000000 0.000000 m /one glyphshow
6.362305 0.000000 m /zero glyphshow
12.724609 0.000000 m /zero glyphshow
19.086914 0.000000 m /zero glyphshow
grestore
2 setlinecap
0.690 setgray
gsave
334.8 217.4 54 36 clipbox
340.971429 36 m
340.971429 253.44 l
stroke
grestore
0 setlinecap
0.000 setgray
gsave
/o {
gsave
newpath
translate
0.8 setlinewidth
1 setlinejoin
0 setlinecap
0 0 m
0 -3.5 l

gsave
0.000 setgray
fill
grestore
stroke
grestore
} bind def
340.971 36 o
grestore
gsave
328.252679 21.406250 translate
0.000000 rotate
0.000000 0.000000 m /one glyphshow
6.362305 0.000000 m /two glyphshow
12.724609 0.000000 m /zero glyphshow
19.086914 0.000000 m /zero glyphshow
grestore
2 setlinecap
0.690 setgray
gsave
334.8 217.4 54 36 clipbox
388.8 36 m
388.8 253.44 l
stroke
grestore
0 setlinecap
0.000 setgray
gsave
/o {
gsave
newpath
translate
0.8 setlinewidth
1 setlinejoin
0 setlinecap
0 0 m
0 -3.5 l

gsave
0.000 setgray
fill
grestore
stroke
grestore
} bind def
388.8 36 o
grestore
gsave
376.081250 21.406250 translate
0.000000 rotate
0.000000 0.000000 m /one glyphshow
6.362305 0.000000 m /four glyphshow
12.724609 0.000000 m /zero glyphshow
19.086914 0.000000 m /zero glyphshow
grestore
gsave
200.892188 7.734375 translate
0.000000 rotate
0.000000 0.000000 m /T glyphshow
6.108398 0.000000 m /i glyphshow
8.886719 0.000000 m /m glyphshow
18.627930 0.000000 m /e glyphshow
24.780273 0.000000 m /space glyphshow
27.958984 0.000000 m /bracketleft glyphshow
31.860352 0.000000 m /s glyphshow
37.070312 0.000000 m /bracketright glyphshow
grestore
2 setlinecap
0.690 setgray
gsave
334.8 217.4 54 36 clipbox
54 36 m
388.8 36 l
stroke
grestore
0 setlinecap
0.000 setgray
gsave
/o {
gsave
newpath
translate
0.8 setlinewidth
1 setlinejoin
0 setlinecap
0 0 m
-3.5 0 l

gsave
0.000 setgray
fill
grestore
stroke
grestore
} bind def
54 36 o
grestore
gsave
24.734375 32.203125 translate
0.000000 rotate
0.000000 0.000000 m /zero glyphshow
6.362305 0.000000 m /period glyphshow
9.541016 0.000000 m /five glyphshow
15.903320 0.000000 m /zero glyphshow
grestore
2 setlinecap
0.690 setgray
gsave
334.8 217.4 54 36 clipbox
54 72.24 m
388.8 72.24 l
stroke
grestore
0 setlinecap
0.000 setgray
gsave
/o {
gsave
newpath
translate
0.8 setlinewidth
1 setlinejoin
0 setlinecap
0 0 m
-3.5 0 l

gsave
0.000 setgray
fill
grestore
stroke
grestore
} bind def
54 72.24 o
grestore
gsave
24.734375 68.443125 translate
0.000000 rotate
0.000000 0.000000 m /zero glyphshow
6.362305 0.000000 m /period glyphshow
9.541016 0.000000 m /five glyphshow
15.903320 0.000000 m /five glyphshow
grestore
2 setlinecap
0.690 setgray
gsave
334.8 217.4 54 36 clipbox
54 108.48 m
388.8 108.48 l
stroke
grestore
0 setlinecap
0.000 setgray
gsave
/o {
gsave
newpath
translate
0.8 setlinewidth
1 setlinejoin
0 setlinecap
0 0 m
-3.5 0 l

gsave
0.000 setgray
fill
grestore
stroke
grestore
} bind def
54 108.48 o
grestore
gsave
24.734375 104.683125 translate
0.000000 rotate
0.000000 0.000000 m /zero glyphshow
6.362305 0.000000 m /period glyphshow
9.541016 0.000000 m /six glyphshow
15.903320 0.000000 m /zero glyphshow
grestore
2 setlinecap
0.690 setgray
gsave
334.8 217.4 54 36 clipbox
54 144.72 m
388.8 144.72 l
stroke
grestore
0 setlinecap
0.000 setgray
gsave
/o {
gsave
newpath
translate
0.8 setlinewidth
1 setlinejoin
0 setlinecap
0 0 m
-3.5 0 l

gsave
0.000 setgray
fill
grestore
stroke
grestore
} bind def
54 144.72 o
grestore
gsave
24.734375 140.923125 translate
0.000000 rotate
0.000000 0.000000 m /zero glyphshow
6.362305 0.000000 m /period glyphshow
9.541016 0.000000 m /six glyphshow
15.903320 0.000000 m /five glyphshow
grestore
2 setlinecap
0.690 setgray
gsave
334.8 217.4 54 36 clipbox
54 180.96 m
388.8 180.96 l
stroke
grestore
0 setlinecap
0.000 setgray
gsave
/o {
gsave
newpath
translate
0.8 setlinewidth
1 setlinejoin
0 setlinecap
0 0 m
-3.5 0 l

gsave
0.000 setgray
fill
grestore
stroke
grestore
} bind def
54 180.96 o
grestore
gsave
24.734375 177.163125 translate
0.000000 rotate
0.000000 0.000000 m /zero glyphshow
6.362305 0.000000 m /period glyphshow
9.541016 0.000000 m /seven glyphshow
15.903320 0.000000 m /zero glyphshow
grestore
2 setlinecap
0.690 setgray
gsave
334.8 217.4 54 36 clipbox
54 217.2 m
388.8 217.2 l
stroke
grestore
0 setlinecap
0.000 setgray
gsave
/o {
gsave
newpath
translate
0.8 setlinewidth
1 setlinejoin
0 setlinecap
0 0 m
-3.5 0 l

gsave
0.000 setgray
fill
grestore
stroke
grestore
} bind def
54 217.2 o
grestore
gsave
24.734375 213.403125 translate
0.000000 rotate
0.000000 0.000000 m /zero glyphshow
6.362305 0.000000 m /period glyphshow
9.541016 0.000000 m /seven glyphshow
15.903320 0.000000 m /five glyphshow
grestore
2 setlinecap
0.690 setgray
gsave
334.8 217.4 54 36 clipbox
54 253.44 m
388.8 253.44 l
stroke
grestore
0 setlinecap
0.000 setgray
gsave
/o {
gsave
newpath
translate
0.8 setlinewidth
1 setlinejoin
0 setlinecap
0 0 m
-3.5 0 l

gsave
0.000 setgray
fill
grestore
stroke
grestore
} bind def
54 253.44 o
grestore
gsave
24.734375 249.643125 translate
0.000000 rotate
0.000000 0.000000 m /zero glyphshow
6.362305 0.000000 m /period glyphshow
9.541016 0.000000 m /eight glyphshow
15.903320 0.000000 m /zero glyphshow
grestore
gsave
18.656250 134.118437 translate
90.000000 rotate
0.000000 0.000000 m /S glyphshow
6.347656 0.000000 m /O glyphshow
14.218750 0.000000 m /C glyphshow
grestore
1.500 setlinewidth
2 setlinecap
gsave
334.8 217.4 54 36 clipbox
54 180.944064 m
65.239714 179.37522 l
65.718 178.66189 l
66.196286 177.683881 l
66.674571 177.403791 l
66.913714 177.274258 l
67.870286 175.778676 l
68.109429 175.307613 l
69.066 172.422856 l
69.305143 172.439918 l
69.544286 173.017975 l
70.74 179.140357 l
70.979143 179.395388 l
71.218286 179.231781 l
71.457429 178.558879 l
72.174857 175.96402 l
72.414 175.918002 l
73.131429 176.963885 l
73.609714 177.080892 l
75.522857 176.835295 l
76.718571 176.629569 l
77.675143 173.399971 l
77.914286 173.43226 l
78.153429 173.638165 l
78.631714 174.756317 l
79.349143 177.168784 l
79.588286 177.361715 l
80.066571 177.234812 l
81.262286 176.359251 l
82.218857 176.201922 l
82.458 176.01336 l
82.936286 174.759912 l
83.414571 173.177649 l
84.132 172.00791 l
84.610286 172.044836 l
86.284286 173.333982 l
86.762571 173.464905 l
87.719143 173.385951 l
88.436571 173.277981 l
88.675714 172.949351 l
89.393143 170.708618 l
89.632286 170.337919 l
90.110571 170.551208 l
90.349714 170.559601 l
90.588857 170.328149 l
91.067143 169.245158 l
91.784571 167.159311 l
92.023714 166.947417 l
92.262857 166.905989 l
92.502 167.184342 l
92.980286 167.312425 l
93.458571 167.309758 l
93.936857 167.666834 l
95.132571 169.114716 l
95.371714 169.697472 l
95.85 171.322862 l
96.089143 171.772466 l
96.328286 171.888024 l
96.806571 171.405763 l
97.284857 171.225561 l
97.524 171.249373 l
97.763143 171.449625 l
98.241429 172.502755 l
98.719714 173.505406 l
99.198 173.787096 l
100.154571 173.724915 l
100.632857 173.536666 l
101.111143 170.208719 l
101.589429 167.287763 l
101.828571 167.354138 l
102.306857 168.516538 l
102.546 168.902799 l
102.785143 169.513358 l
103.263429 171.544542 l
103.502571 171.66613 l
103.980857 169.407144 l
104.22 168.30473 l
104.459143 168.129295 l
104.698286 168.726927 l
105.654857 173.312924 l
105.894 173.694353 l
106.372286 173.603706 l
106.611429 173.870849 l
107.089714 174.588399 l
107.328857 174.62536 l
107.568 174.321464 l
108.046286 173.009799 l
109.002857 170.192217 l
109.242 170.031292 l
109.481143 170.234204 l
109.720286 170.599919 l
109.959429 171.235716 l
110.437714 173.750591 l
110.916 176.774412 l
111.394286 178.303833 l
111.633429 178.522783 l
112.59 178.425091 l
114.742286 178.110669 l
114.981429 177.92363 l
115.459714 177.115502 l
115.938 176.294129 l
116.416286 176.098997 l
117.133714 176.192292 l
117.612 176.195348 l
118.090286 176.181128 l
119.525143 176.084885 l
119.764286 175.89466 l
120.720857 171.199356 l
120.96 171.247927 l
121.677429 171.866433 l
121.916571 171.681304 l
122.155714 171.248685 l
123.351429 167.930764 l
123.590571 167.866311 l
124.068857 168.143985 l
124.308 168.302823 l
125.025429 169.428204 l
126.221143 172.151286 l
126.460286 172.124166 l
126.938571 170.800318 l
127.177714 170.131385 l
127.416857 169.807479 l
127.656 170.018004 l
128.134286 171.109261 l
128.612571 171.678473 l
129.090857 171.727685 l
131.004 171.433493 l
131.960571 170.234178 l
132.199714 170.074355 l
132.678 168.804374 l
133.156286 167.835647 l
133.395429 167.903788 l
133.873714 168.178396 l
134.112857 168.025082 l
135.069429 166.799049 l
135.308571 166.936039 l
135.786857 167.376851 l
136.265143 167.417328 l
148.461429 165.743603 l
149.657143 165.194595 l
149.896286 164.71772 l
150.852857 161.802711 l
151.809429 160.832416 l
152.048571 160.744353 l
152.287714 160.79691 l
152.766 161.079679 l
153.005143 160.879345 l
153.483429 159.51372 l
153.961714 158.091762 l
154.200857 157.878101 l
154.679143 157.83546 l
154.918286 157.502645 l
155.874857 155.28495 l
156.592286 154.266443 l
156.831429 154.411686 l
157.309714 155.018206 l
157.548857 154.94664 l
157.788 154.708355 l
158.027143 154.634683 l
158.266286 154.793225 l
158.744571 155.398047 l
160.179429 155.973195 l
164.244857 155.436322 l
172.136571 154.376298 l
172.375714 154.219216 l
172.614857 153.728247 l
173.332286 151.256494 l
173.571429 150.917535 l
174.049714 150.837358 l
174.528 150.712439 l
175.484571 151.174824 l
175.962857 150.672256 l
176.202 150.735018 l
176.441143 150.956098 l
176.919429 153.313512 l
177.397714 155.478565 l
177.636857 156.002023 l
177.876 156.145435 l
178.593429 156.00355 l
179.789143 155.62161 l
180.267429 155.572681 l
180.745714 155.308979 l
180.984857 155.054479 l
181.463143 153.871781 l
181.941429 152.450636 l
182.180571 152.093424 l
182.419714 152.14338 l
182.658857 152.312118 l
182.898 152.249913 l
183.137143 151.871783 l
183.376286 151.12521 l
184.332857 144.646196 l
184.572 144.861789 l
185.289429 146.452625 l
185.528571 146.580997 l
185.767714 146.535577 l
186.006857 146.740615 l
186.246 147.345182 l
186.485143 148.363808 l
187.680857 155.327953 l
188.159143 156.484838 l
188.637429 156.670711 l
197.485714 155.46583 l
197.724857 155.246771 l
197.964 154.680123 l
198.681429 151.915295 l
198.920571 151.466032 l
199.638 151.276089 l
199.877143 151.305823 l
201.312 152.128448 l
202.746857 152.173187 l
204.181714 151.681906 l
204.66 151.022569 l
205.377429 148.974813 l
205.616571 148.679367 l
205.855714 148.635627 l
206.094857 148.709947 l
208.247143 148.260098 l
209.442857 147.815329 l
211.116857 148.230105 l
211.595143 148.141741 l
212.312571 147.716642 l
213.269143 147.088044 l
214.943143 146.038047 l
218.291143 143.678806 l
218.530286 143.306656 l
219.008571 141.728429 l
219.486857 140.418961 l
219.726 140.175294 l
220.204286 140.057583 l
222.356571 138.843544 l
224.508857 137.217064 l
225.226286 136.910119 l
226.900286 136.372458 l
228.813429 135.140968 l
229.052571 134.586154 l
229.291714 134.3885 l
229.530857 135.012063 l
229.77 136.258184 l
230.248286 140.169944 l
230.487429 141.099956 l
230.726571 141.280864 l
231.444 139.929927 l
231.683143 139.671905 l
232.400571 139.62026 l
233.357143 140.030013 l
233.835429 139.833357 l
235.031143 139.165404 l
235.509429 139.053733 l
235.987714 138.851512 l
236.705143 138.533127 l
237.183429 138.373988 l
237.661714 138.057202 l
238.379143 137.780453 l
238.618286 137.466156 l
239.574857 135.511347 l
239.814 135.679229 l
240.531429 137.272415 l
240.770571 137.120322 l
241.488 136.409756 l
241.727143 136.578518 l
241.966286 136.586883 l
242.205429 136.443522 l
242.683714 135.274902 l
243.162 134.269493 l
243.401143 134.08419 l
243.879429 134.1216 l
244.836 134.00963 l
245.075143 133.748231 l
245.553429 132.651807 l
246.749143 128.872404 l
246.988286 128.514211 l
247.227429 128.667076 l
247.705714 129.475549 l
247.944857 130.184219 l
248.184 130.526261 l
248.423143 130.644794 l
248.662286 130.508111 l
248.901429 130.240603 l
249.379714 130.30937 l
249.858 130.671021 l
250.336286 130.630564 l
251.053714 130.498863 l
252.249429 130.184236 l
252.727714 130.16249 l
253.684286 129.664874 l
256.554 128.246013 l
257.032286 128.035484 l
258.945429 126.855409 l
259.423714 126.721867 l
260.141143 126.2924 l
261.336857 123.954599 l
262.054286 123.398806 l
262.532571 122.5062 l
263.489143 120.609152 l
263.728286 120.252427 l
263.967429 120.139242 l
264.206571 120.207643 l
264.445714 120.538774 l
264.924 122.593512 l
266.119714 128.5712 l
267.554571 132.210826 l
267.793714 132.385697 l
268.032857 132.156403 l
268.989429 129.416074 l
269.228571 129.341627 l
269.467714 129.521278 l
270.424286 130.944864 l
270.902571 131.113908 l
272.337429 131.178938 l
274.728857 130.222679 l
277.120286 130.686985 l
277.837714 130.985616 l
278.316 130.862459 l
279.511714 130.071297 l
280.946571 129.217534 l
281.903143 128.304238 l
284.055429 126.311036 l
286.207714 124.541229 l
289.316571 122.240484 l
291.468857 121.114931 l
293.142857 120.070583 l
293.621143 120.027409 l
294.338571 119.621828 l
297.208286 117.599522 l
297.925714 117.430696 l
298.643143 117.111958 l
302.947714 113.648598 l
303.904286 113.021539 l
304.860857 112.543538 l
307.730571 110.69962 l
308.687143 110.277521 l
310.361143 109.28441 l
310.600286 108.885129 l
311.317714 108.874348 l
311.556857 109.140422 l
312.513429 108.635824 l
315.144 107.428165 l
317.774571 106.21639 l
319.926857 105.275119 l
321.361714 104.767441 l
322.557429 104.61385 l
324.231429 104.181295 l
325.427143 103.869248 l
332.123143 101.523871 l
333.558 101.096821 l
334.992857 100.68291 l
335.710286 100.590217 l
336.666857 100.607168 l
336.906 100.612834 l
337.384286 101.100177 l
337.862571 101.453079 l
338.340857 101.280029 l
339.058286 101.37499 l
339.536571 101.413605 l
340.493143 101.346496 l
341.210571 101.354718 l
342.167143 101.136119 l
343.602 101.583346 l
344.080286 101.40083 l
344.797714 100.335692 l
345.276 100.202389 l
345.515143 100.353138 l
345.993429 100.982504 l
346.471714 101.549158 l
347.428286 102.001543 l
348.863143 102.129908 l
349.102286 102.422662 l
349.341429 103.468103 l
350.298 109.959753 l
350.537143 110.607794 l
351.015429 110.688327 l
351.254571 110.89039 l
351.493714 110.780963 l
353.646 111.768671 l
354.363429 111.725554 l
354.602571 111.710169 l
355.080857 111.941338 l
355.32 111.782283 l
357.472286 111.647682 l
358.668 111.237962 l
358.907143 111.229559 l
359.863714 109.304652 l
360.342 109.628946 l
360.820286 110.019429 l
361.298571 109.793599 l
362.255143 109.667817 l
362.733429 109.759495 l
363.211714 109.853695 l
364.168286 109.684625 l
364.885714 109.895493 l
366.559714 109.947581 l
367.755429 109.620792 l
367.994571 109.516622 l
368.712 109.734083 l
368.951143 109.805697 l
369.668571 109.54092 l
370.864286 109.166003 l
371.342571 108.058834 l
371.820857 107.099444 l
372.06 107.158486 l
373.016571 106.352706 l
373.255714 106.511268 l
373.734 107.637041 l
374.690571 110.997329 l
374.929714 112.270297 l
375.408 116.675355 l
376.603714 130.060298 l
377.321143 134.596146 l
378.038571 137.668572 l
378.516857 138.904651 l
378.995143 139.332175 l
379.473429 139.366016 l
380.190857 139.270605 l
380.190857 139.270605 l
stroke
grestore
1.000 0.000 0.000 setrgbcolor
gsave
334.8 217.4 54 36 clipbox
54 180.931954 m
65.478857 179.324535 l
65.718 178.811901 l
66.196286 177.499818 l
66.435429 177.263564 l
66.913714 177.445425 l
67.152857 177.106111 l
67.631143 175.747249 l
67.870286 175.854718 l
68.109429 175.64165 l
68.348571 174.551779 l
68.587714 172.604104 l
69.305143 171.495435 l
69.544286 172.368064 l
70.022571 175.659051 l
70.500857 178.44268 l
70.74 179.049701 l
70.979143 179.181892 l
71.218286 179.090442 l
71.457429 178.692928 l
72.174857 175.68491 l
72.414 176.004388 l
72.892286 177.066037 l
73.131429 177.274849 l
73.609714 177.312627 l
76.957714 176.822783 l
77.196857 175.850165 l
77.436 172.929531 l
77.675143 172.773321 l
77.914286 173.04341 l
78.153429 173.556619 l
78.392571 173.602714 l
78.631714 173.958262 l
79.11 176.327443 l
79.349143 176.957185 l
79.588286 177.263539 l
79.827429 177.060634 l
80.066571 176.602408 l
80.544857 176.812713 l
81.023143 175.915991 l
81.501429 176.03118 l
81.979714 175.837143 l
82.458 175.795672 l
82.697143 175.51644 l
83.414571 172.696658 l
84.132 171.526573 l
84.371143 171.241938 l
85.088571 172.031387 l
85.566857 172.267679 l
86.045143 172.76108 l
86.762571 173.034372 l
88.675714 172.772648 l
88.914857 172.388941 l
89.154 169.980533 l
89.393143 169.562206 l
89.632286 169.860751 l
90.110571 169.8828 l
90.588857 169.966644 l
90.828 169.430581 l
91.545429 166.73035 l
91.784571 164.939637 l
92.023714 164.845101 l
92.262857 165.323459 l
92.741143 165.503285 l
93.458571 165.521718 l
93.936857 165.882883 l
94.415143 166.639335 l
95.132571 167.333141 l
95.371714 167.819714 l
95.610857 168.670007 l
96.089143 170.699761 l
96.567429 169.74642 l
97.284857 169.493435 l
97.763143 169.489253 l
98.002286 169.988831 l
98.480571 171.509398 l
98.719714 171.881633 l
99.198 172.039088 l
100.393714 171.905411 l
100.632857 171.864138 l
100.872 171.656272 l
101.111143 170.094825 l
101.350286 165.923907 l
101.589429 165.475826 l
102.067714 167.372011 l
102.546 167.649931 l
102.785143 168.286809 l
103.263429 170.64425 l
103.502571 171.802177 l
103.741714 171.373007 l
103.980857 166.714031 l
104.22 165.661359 l
105.176571 168.719085 l
105.654857 172.461185 l
105.894 172.296504 l
106.133143 171.727001 l
106.372286 171.73338 l
107.089714 173.134355 l
107.328857 173.258189 l
107.568 172.91351 l
108.046286 171.378158 l
108.524571 169.54911 l
108.763714 167.75013 l
109.002857 167.442621 l
109.959429 168.734256 l
110.198571 169.80434 l
111.155143 175.930426 l
111.394286 176.366176 l
112.829143 176.193935 l
114.981429 175.877458 l
115.220571 175.566441 l
115.698857 174.279476 l
115.938 173.95052 l
116.177143 173.815089 l
117.372857 173.987905 l
117.612 173.878872 l
117.851143 174.008473 l
118.329429 173.879006 l
119.286 173.823373 l
119.764286 173.758308 l
120.003429 173.581811 l
120.481714 169.567177 l
120.96 169.665102 l
121.199143 169.898516 l
121.438286 170.342519 l
121.916571 170.625233 l
122.634 168.352397 l
123.351429 166.164904 l
123.829714 166.678131 l
124.068857 166.896982 l
124.547143 166.832857 l
125.025429 168.381265 l
125.264571 168.3219 l
125.503714 168.871921 l
125.982 170.614703 l
126.460286 170.948218 l
126.699429 170.825936 l
127.177714 168.444758 l
127.416857 168.460791 l
127.895143 169.77804 l
128.373429 170.756195 l
128.612571 170.899335 l
129.33 170.847552 l
131.243143 170.559878 l
131.721429 169.182898 l
132.199714 169.47296 l
132.438857 169.080574 l
132.917143 166.701321 l
133.156286 166.599303 l
133.634571 167.230832 l
133.873714 167.285436 l
134.112857 167.202408 l
134.352 166.863258 l
134.830286 165.680111 l
135.069429 165.55263 l
135.547714 166.326026 l
135.786857 166.497713 l
140.330571 165.871591 l
148.700571 164.729617 l
149.178857 164.363416 l
149.657143 164.346946 l
149.896286 164.122573 l
150.135429 163.22229 l
150.613714 160.841863 l
150.852857 160.567411 l
151.092 160.625555 l
151.331143 160.402346 l
151.809429 159.709522 l
152.048571 159.451021 l
152.287714 159.607865 l
152.766 160.134166 l
153.005143 160.088345 l
153.244286 159.54564 l
153.961714 156.722534 l
154.200857 156.584501 l
154.679143 157.010278 l
154.918286 156.667126 l
155.635714 154.505673 l
155.874857 154.30526 l
156.592286 152.958394 l
156.831429 152.845981 l
157.309714 154.309492 l
157.548857 154.267801 l
157.788 153.433177 l
158.027143 153.023824 l
158.505429 154.388619 l
158.744571 154.479095 l
158.983714 154.321062 l
159.222857 154.38973 l
159.462 154.775675 l
159.940286 154.927063 l
166.636286 154.03636 l
172.375714 153.263889 l
172.614857 153.068543 l
172.854 152.112891 l
173.093143 150.460858 l
173.332286 150.220214 l
173.810571 150.455741 l
174.528 150.089625 l
175.245429 150.557128 l
175.723714 150.69093 l
176.202 149.388782 l
176.441143 149.953787 l
176.919429 152.222334 l
177.397714 155.033595 l
177.636857 155.323656 l
178.593429 155.170589 l
179.55 154.741169 l
180.267429 154.712296 l
180.745714 154.465692 l
181.224 153.913484 l
181.463143 153.229857 l
181.941429 151.256757 l
182.180571 150.984957 l
182.419714 151.036736 l
182.898 151.714743 l
183.137143 151.320377 l
183.854571 147.472244 l
184.093714 144.658757 l
184.332857 144.296214 l
184.572 144.725534 l
185.050286 146.161304 l
185.767714 146.507142 l
186.006857 146.531696 l
186.246 146.877368 l
187.92 156.369012 l
188.159143 156.693683 l
188.637429 156.744705 l
197.724857 155.510927 l
197.964 155.152031 l
198.203143 154.094559 l
198.442286 152.190837 l
198.681429 151.447751 l
199.159714 151.34336 l
199.398857 151.331273 l
199.638 151.119293 l
199.877143 151.102459 l
200.594571 151.866777 l
200.833714 151.854833 l
201.312 152.138443 l
201.790286 152.100104 l
202.268571 152.251775 l
202.986 152.278578 l
203.464286 152.110504 l
203.703429 152.112953 l
203.942571 151.926307 l
204.420857 151.992042 l
204.66 151.79539 l
205.616571 148.473164 l
205.855714 148.789472 l
206.573143 148.628085 l
207.529714 148.422046 l
208.486286 148.222562 l
209.203714 147.789005 l
209.921143 147.9837 l
210.638571 148.173933 l
211.356 148.337968 l
212.551714 147.602837 l
213.269143 147.156691 l
213.986571 146.795408 l
214.704 146.300873 l
217.573714 144.221029 l
218.291143 143.818866 l
219.008571 141.233213 l
220.921714 140.403196 l
221.4 140.114973 l
221.878286 139.93482 l
223.313143 138.807431 l
224.748 137.755067 l
225.465429 137.57228 l
225.943714 137.461345 l
226.422 137.45324 l
227.139429 136.964794 l
227.856857 136.581114 l
229.291714 135.451176 l
229.530857 135.831278 l
230.487429 143.818144 l
230.965714 143.040525 l
231.683143 140.848647 l
231.922286 140.970949 l
232.161429 140.759731 l
232.400571 140.743338 l
233.118 141.42253 l
233.596286 141.265176 l
234.313714 140.840132 l
234.552857 140.636391 l
235.031143 140.575701 l
235.270286 140.375918 l
235.748571 140.431201 l
236.466 139.888542 l
236.705143 139.937549 l
237.422571 139.529178 l
237.661714 139.40209 l
237.900857 139.007303 l
238.14 139.132462 l
238.379143 139.088327 l
238.857429 138.15817 l
239.574857 136.198698 l
239.814 136.445562 l
240.292286 138.125261 l
240.531429 138.770671 l
240.770571 138.792348 l
241.009714 138.41776 l
241.248857 137.302664 l
241.727143 137.887318 l
241.966286 138.018358 l
242.205429 137.449286 l
242.444571 137.214092 l
242.683714 136.60537 l
242.922857 136.40954 l
243.162 135.860669 l
243.401143 136.082906 l
244.118571 136.051825 l
244.357714 135.9922 l
244.596857 135.529971 l
244.836 135.609026 l
245.075143 135.551521 l
246.031714 132.774501 l
246.270857 131.810875 l
246.51 131.673646 l
246.749143 131.272064 l
246.988286 131.565428 l
247.466571 131.562794 l
248.184 133.801387 l
248.423143 133.857547 l
248.662286 133.494507 l
248.901429 132.64088 l
249.379714 132.871094 l
249.858 133.402718 l
250.097143 133.372003 l
250.575429 133.110669 l
251.053714 133.10182 l
251.532 133.032894 l
251.771143 132.835841 l
252.010286 132.857512 l
252.249429 133.02509 l
252.966857 132.877737 l
254.640857 131.947717 l
255.597429 131.435913 l
256.075714 131.111228 l
256.554 131.136883 l
258.228 130.152646 l
258.706286 129.734773 l
259.184571 129.780922 l
259.902 129.357498 l
260.380286 129.066688 l
260.619429 128.745464 l
260.858571 128.764973 l
261.097714 128.486229 l
261.336857 127.93042 l
261.576 127.798234 l
261.815143 127.94023 l
262.054286 127.834967 l
263.25 125.20356 l
263.967429 124.117202 l
264.206571 124.193523 l
264.684857 125.220793 l
264.924 126.434983 l
265.402286 129.563431 l
266.119714 132.883222 l
266.837143 134.373558 l
267.793714 136.888508 l
268.032857 136.696971 l
268.272 136.082447 l
268.511143 134.281135 l
268.989429 133.365283 l
269.228571 133.200711 l
269.467714 133.478773 l
270.185143 134.778295 l
270.663429 135.182283 l
272.337429 135.243947 l
273.294 134.86491 l
273.772286 134.588082 l
274.011429 134.563754 l
274.489714 134.23641 l
274.968 134.22474 l
275.446286 134.357536 l
276.881143 134.52846 l
277.359429 134.856415 l
278.076857 135.08663 l
278.794286 134.515971 l
279.511714 134.120378 l
279.750857 133.90975 l
280.229143 133.768063 l
281.424857 132.841786 l
283.098857 131.242951 l
286.207714 128.686851 l
289.316571 126.332486 l
290.512286 125.991868 l
291.229714 125.474589 l
291.708 125.128289 l
292.186286 124.788278 l
292.664571 124.392511 l
293.142857 124.306569 l
293.621143 124.329676 l
294.099429 124.044462 l
296.969143 121.87819 l
297.447429 121.901445 l
297.686571 121.72352 l
298.164857 121.769399 l
298.882286 121.229357 l
301.273714 119.233274 l
304.382571 117.141967 l
305.1 116.716928 l
307.252286 115.214965 l
307.730571 115.026462 l
308.208857 114.834075 l
308.926286 114.43507 l
309.882857 113.796841 l
310.122 113.765355 l
310.600286 113.450107 l
311.078571 110.948972 l
311.317714 111.46436 l
312.035143 111.241185 l
315.383143 109.720986 l
316.100571 109.432622 l
321.361714 107.089868 l
321.84 107.173394 l
324.470571 106.506978 l
324.948857 106.447739 l
331.405714 104.077805 l
331.644857 104.120315 l
332.362286 103.878425 l
332.840571 103.791551 l
335.232 103.039463 l
336.427714 103.14256 l
336.666857 102.55723 l
337.145143 102.762135 l
337.384286 102.574572 l
337.623429 102.895603 l
338.101714 103.007042 l
338.58 102.79963 l
339.058286 103.081137 l
341.688857 102.85745 l
342.167143 102.574407 l
342.645429 103.068847 l
342.884571 103.039619 l
343.123714 102.776168 l
343.602 104.029669 l
344.080286 104.479267 l
344.319429 104.512942 l
344.558571 104.423987 l
345.036857 103.812881 l
346.471714 105.501158 l
346.95 105.530889 l
347.189143 105.800978 l
348.863143 105.791357 l
349.102286 105.325744 l
349.341429 106.103107 l
349.580571 107.928433 l
350.058857 112.899161 l
350.298 113.965872 l
350.776286 112.95723 l
351.015429 112.720821 l
351.493714 112.811279 l
351.732857 112.857649 l
352.211143 113.16907 l
352.689429 113.487766 l
352.928571 113.690592 l
353.406857 113.699847 l
353.885143 114.088615 l
354.124286 113.390808 l
354.363429 113.296819 l
354.602571 112.936398 l
354.841714 113.17929 l
355.080857 113.247322 l
355.798286 113.095745 l
356.276571 113.12957 l
356.515714 113.097252 l
356.754857 113.24488 l
357.472286 113.077635 l
358.189714 112.725312 l
359.146286 112.655528 l
359.385429 112.322184 l
360.102857 111.905079 l
360.342 111.433078 l
360.581143 111.706842 l
360.820286 111.8088 l
361.298571 111.645261 l
361.537714 111.507299 l
362.016 111.485277 l
362.494286 111.432645 l
363.211714 111.772519 l
363.929143 111.515355 l
364.885714 111.779477 l
365.124857 111.808427 l
365.603143 111.665864 l
366.081429 111.876487 l
366.798857 111.784336 l
368.233714 111.295565 l
368.712 111.803607 l
368.951143 111.866453 l
371.581714 110.768246 l
371.820857 111.091093 l
372.538286 110.506892 l
372.777429 110.047969 l
373.016571 109.917003 l
373.255714 110.105581 l
373.734 111.266091 l
374.929714 115.796014 l
375.168857 117.429885 l
375.647143 123.248095 l
376.364571 131.981696 l
377.082 137.249831 l
378.277714 142.29287 l
378.516857 142.77876 l
378.995143 143.125984 l
379.712571 143.082585 l
380.190857 143.018731 l
380.190857 143.018731 l
stroke
grestore
0.800 setlinewidth
0 setlinejoin
[] 0 setdash
0.000 setgray
gsave
54 36 m
54 253.44 l
stroke
grestore
gsave
388.8 36 m
388.8 253.44 l
stroke
grestore
gsave
54 36 m
388.8 36 l
stroke
grestore
gsave
54 253.44 m
388.8 253.44 l
stroke
grestore
1.000 setlinewidth
0 setlinecap
0.800 setgray
gsave
295.409375 216.09625 m
381.8 216.09625 l
383.133333 216.09625 383.8 216.762917 383.8 218.09625 c
383.8 246.44 l
383.8 247.773333 383.133333 248.44 381.8 248.44 c
295.409375 248.44 l
294.076042 248.44 293.409375 247.773333 293.409375 246.44 c
293.409375 218.09625 l
293.409375 216.762917 294.076042 216.09625 295.409375 216.09625 c
cl
gsave
1.000 setgray
fill
grestore
stroke
grestore
1.500 setlinewidth
1 setlinejoin
2 setlinecap
[] 0 setdash
0.000 setgray
gsave
297.409375 240.34625 m
317.409375 240.34625 l
stroke
grestore
gsave
325.409375 236.846250 translate
0.000000 rotate
0.000000 0.000000 m /S glyphshow
6.347656 0.000000 m /i glyphshow
9.125977 0.000000 m /m glyphshow
18.867188 0.000000 m /u glyphshow
25.205078 0.000000 m /l glyphshow
27.983398 0.000000 m /a glyphshow
34.111328 0.000000 m /t glyphshow
38.032227 0.000000 m /o glyphshow
44.150391 0.000000 m /r glyphshow
grestore
1.000 0.000 0.000 setrgbcolor
gsave
297.409375 225.674375 m
317.409375 225.674375 l
stroke
grestore
0.000 setgray
gsave
325.409375 222.174375 translate
0.000000 rotate
0.000000 0.000000 m /A glyphshow
6.840820 0.000000 m /u glyphshow
13.178711 0.000000 m /t glyphshow
17.099609 0.000000 m /o glyphshow
23.217773 0.000000 m /n glyphshow
29.555664 0.000000 m /o glyphshow
35.673828 0.000000 m /m glyphshow
45.415039 0.000000 m /i glyphshow
48.193359 0.000000 m /e glyphshow
grestore

end
showpage
