%!PS-Adobe-3.0 EPSF-3.0
%%Title: bcom_source.eps
%%Creator: matplotlib version 2.0.0, http://matplotlib.org/
%%CreationDate: Mon May 15 23:27:42 2017
%%Orientation: portrait
%%BoundingBox: 90 252 522 540
%%EndComments
%%BeginProlog
/mpldict 8 dict def
mpldict begin
/m { moveto } bind def
/l { lineto } bind def
/r { rlineto } bind def
/c { curveto } bind def
/cl { closepath } bind def
/box {
m
1 index 0 r
0 exch r
neg 0 r
cl
} bind def
/clipbox {
box
clip
newpath
} bind def
%!PS-Adobe-3.0 Resource-Font
%%Title: DejaVu Sans
%%Copyright: Copyright (c) 2003 by Bitstream, Inc. All Rights Reserved. Copyright (c) 2006 by Tavmjong Bah. All Rights Reserved. DejaVu changes are in public domain 
%%Creator: Converted from TrueType to type 3 by PPR
25 dict begin
/_d{bind def}bind def
/_m{moveto}_d
/_l{lineto}_d
/_cl{closepath eofill}_d
/_c{curveto}_d
/_sc{7 -1 roll{setcachedevice}{pop pop pop pop pop pop}ifelse}_d
/_e{exec}_d
/FontName /DejaVuSans def
/PaintType 0 def
/FontMatrix[.001 0 0 .001 0 0]def
/FontBBox[-1021 -463 1793 1232]def
/FontType 3 def
/Encoding [ /space /zero /one /two /four /five /six /eight /A /C /T /bracketleft /bracketright /e /i /m /n /r /s /t /u /minus ] def
/FontInfo 10 dict dup begin
/FamilyName (DejaVu Sans) def
/FullName (DejaVu Sans) def
/Notice (Copyright (c) 2003 by Bitstream, Inc. All Rights Reserved. Copyright (c) 2006 by Tavmjong Bah. All Rights Reserved. DejaVu changes are in public domain ) def
/Weight (Book) def
/Version (Version 2.35) def
/ItalicAngle 0.0 def
/isFixedPitch false def
/UnderlinePosition -130 def
/UnderlineThickness 90 def
end readonly def
/CharStrings 22 dict dup begin
/space{318 0 0 0 0 0 _sc
}_d
/zero{636 0 66 -13 570 742 _sc
318 664 _m
267 664 229 639 203 589 _c
177 539 165 464 165 364 _c
165 264 177 189 203 139 _c
229 89 267 64 318 64 _c
369 64 407 89 433 139 _c
458 189 471 264 471 364 _c
471 464 458 539 433 589 _c
407 639 369 664 318 664 _c
318 742 _m
399 742 461 709 505 645 _c
548 580 570 486 570 364 _c
570 241 548 147 505 83 _c
461 19 399 -13 318 -13 _c
236 -13 173 19 130 83 _c
87 147 66 241 66 364 _c
66 486 87 580 130 645 _c
173 709 236 742 318 742 _c
_cl}_d
/one{636 0 110 0 544 729 _sc
124 83 _m
285 83 _l
285 639 _l
110 604 _l
110 694 _l
284 729 _l
383 729 _l
383 83 _l
544 83 _l
544 0 _l
124 0 _l
124 83 _l
_cl}_d
/two{{636 0 73 0 536 742 _sc
192 83 _m
536 83 _l
536 0 _l
73 0 _l
73 83 _l
110 121 161 173 226 239 _c
290 304 331 346 348 365 _c
380 400 402 430 414 455 _c
426 479 433 504 433 528 _c
433 566 419 598 392 622 _c
365 646 330 659 286 659 _c
255 659 222 653 188 643 _c
154 632 117 616 78 594 _c
78 694 _l
118 710 155 722 189 730 _c
223 738 255 742 284 742 _c
}_e{359 742 419 723 464 685 _c
509 647 532 597 532 534 _c
532 504 526 475 515 449 _c
504 422 484 390 454 354 _c
446 344 420 317 376 272 _c
332 227 271 164 192 83 _c
_cl}_e}_d
/four{636 0 49 0 580 729 _sc
378 643 _m
129 254 _l
378 254 _l
378 643 _l
352 729 _m
476 729 _l
476 254 _l
580 254 _l
580 172 _l
476 172 _l
476 0 _l
378 0 _l
378 172 _l
49 172 _l
49 267 _l
352 729 _l
_cl}_d
/five{{636 0 77 -13 549 729 _sc
108 729 _m
495 729 _l
495 646 _l
198 646 _l
198 467 _l
212 472 227 476 241 478 _c
255 480 270 482 284 482 _c
365 482 429 459 477 415 _c
525 370 549 310 549 234 _c
549 155 524 94 475 51 _c
426 8 357 -13 269 -13 _c
238 -13 207 -10 175 -6 _c
143 -1 111 6 77 17 _c
77 116 _l
106 100 136 88 168 80 _c
199 72 232 69 267 69 _c
}_e{323 69 368 83 401 113 _c
433 143 450 183 450 234 _c
450 284 433 324 401 354 _c
368 384 323 399 267 399 _c
241 399 214 396 188 390 _c
162 384 135 375 108 363 _c
108 729 _l
_cl}_e}_d
/six{{636 0 70 -13 573 742 _sc
330 404 _m
286 404 251 388 225 358 _c
199 328 186 286 186 234 _c
186 181 199 139 225 109 _c
251 79 286 64 330 64 _c
374 64 409 79 435 109 _c
461 139 474 181 474 234 _c
474 286 461 328 435 358 _c
409 388 374 404 330 404 _c
526 713 _m
526 623 _l
501 635 476 644 451 650 _c
425 656 400 659 376 659 _c
310 659 260 637 226 593 _c
}_e{192 549 172 482 168 394 _c
187 422 211 444 240 459 _c
269 474 301 482 336 482 _c
409 482 467 459 509 415 _c
551 371 573 310 573 234 _c
573 159 550 99 506 54 _c
462 9 403 -13 330 -13 _c
246 -13 181 19 137 83 _c
92 147 70 241 70 364 _c
70 479 97 571 152 639 _c
206 707 280 742 372 742 _c
396 742 421 739 447 735 _c
472 730 498 723 526 713 _c
_cl}_e}_d
/eight{{636 0 68 -13 568 742 _sc
318 346 _m
271 346 234 333 207 308 _c
180 283 167 249 167 205 _c
167 161 180 126 207 101 _c
234 76 271 64 318 64 _c
364 64 401 76 428 102 _c
455 127 469 161 469 205 _c
469 249 455 283 429 308 _c
402 333 365 346 318 346 _c
219 388 _m
177 398 144 418 120 447 _c
96 476 85 511 85 553 _c
85 611 105 657 147 691 _c
188 725 245 742 318 742 _c
}_e{390 742 447 725 489 691 _c
530 657 551 611 551 553 _c
551 511 539 476 515 447 _c
491 418 459 398 417 388 _c
464 377 501 355 528 323 _c
554 291 568 251 568 205 _c
568 134 546 80 503 43 _c
459 5 398 -13 318 -13 _c
237 -13 175 5 132 43 _c
89 80 68 134 68 205 _c
68 251 81 291 108 323 _c
134 355 171 377 219 388 _c
183 544 _m
183 506 194 476 218 455 _c
}_e{242 434 275 424 318 424 _c
360 424 393 434 417 455 _c
441 476 453 506 453 544 _c
453 582 441 611 417 632 _c
393 653 360 664 318 664 _c
275 664 242 653 218 632 _c
194 611 183 582 183 544 _c
_cl}_e}_d
/A{684 0 8 0 676 729 _sc
342 632 _m
208 269 _l
476 269 _l
342 632 _l
286 729 _m
398 729 _l
676 0 _l
573 0 _l
507 187 _l
178 187 _l
112 0 _l
8 0 _l
286 729 _l
_cl}_d
/C{{698 0 56 -13 644 742 _sc
644 673 _m
644 569 _l
610 599 575 622 537 638 _c
499 653 460 661 418 661 _c
334 661 270 635 226 584 _c
182 533 160 460 160 364 _c
160 268 182 194 226 143 _c
270 92 334 67 418 67 _c
460 67 499 74 537 90 _c
575 105 610 128 644 159 _c
644 56 _l
609 32 572 15 534 4 _c
496 -7 455 -13 412 -13 _c
302 -13 215 20 151 87 _c
}_e{87 154 56 246 56 364 _c
56 481 87 573 151 641 _c
215 708 302 742 412 742 _c
456 742 497 736 535 725 _c
573 713 610 696 644 673 _c
_cl}_e}_d
/T{611 0 -2 0 614 729 _sc
-2 729 _m
614 729 _l
614 646 _l
355 646 _l
355 0 _l
256 0 _l
256 646 _l
-2 646 _l
-2 729 _l
_cl}_d
/bracketleft{390 0 86 -131 293 760 _sc
86 760 _m
293 760 _l
293 690 _l
176 690 _l
176 -61 _l
293 -61 _l
293 -131 _l
86 -131 _l
86 760 _l
_cl}_d
/bracketright{390 0 97 -131 304 760 _sc
304 760 _m
304 -131 _l
97 -131 _l
97 -61 _l
214 -61 _l
214 690 _l
97 690 _l
97 760 _l
304 760 _l
_cl}_d
/e{{615 0 55 -13 562 560 _sc
562 296 _m
562 252 _l
149 252 _l
153 190 171 142 205 110 _c
238 78 284 62 344 62 _c
378 62 412 66 444 74 _c
476 82 509 95 541 113 _c
541 28 _l
509 14 476 3 442 -3 _c
408 -9 373 -13 339 -13 _c
251 -13 182 12 131 62 _c
80 112 55 181 55 268 _c
55 357 79 428 127 481 _c
175 533 241 560 323 560 _c
397 560 455 536 498 489 _c
}_e{540 441 562 377 562 296 _c
472 322 _m
471 371 457 410 431 440 _c
404 469 368 484 324 484 _c
274 484 234 469 204 441 _c
174 413 156 373 152 322 _c
472 322 _l
_cl}_e}_d
/i{278 0 94 0 184 760 _sc
94 547 _m
184 547 _l
184 0 _l
94 0 _l
94 547 _l
94 760 _m
184 760 _l
184 646 _l
94 646 _l
94 760 _l
_cl}_d
/m{{974 0 91 0 889 560 _sc
520 442 _m
542 482 569 511 600 531 _c
631 550 668 560 711 560 _c
767 560 811 540 842 500 _c
873 460 889 403 889 330 _c
889 0 _l
799 0 _l
799 327 _l
799 379 789 418 771 444 _c
752 469 724 482 686 482 _c
639 482 602 466 575 435 _c
548 404 535 362 535 309 _c
535 0 _l
445 0 _l
445 327 _l
445 379 435 418 417 444 _c
398 469 369 482 331 482 _c
}_e{285 482 248 466 221 435 _c
194 404 181 362 181 309 _c
181 0 _l
91 0 _l
91 547 _l
181 547 _l
181 462 _l
201 495 226 520 255 536 _c
283 552 317 560 357 560 _c
397 560 430 550 458 530 _c
486 510 506 480 520 442 _c
_cl}_e}_d
/n{634 0 91 0 549 560 _sc
549 330 _m
549 0 _l
459 0 _l
459 327 _l
459 379 448 417 428 443 _c
408 469 378 482 338 482 _c
289 482 251 466 223 435 _c
195 404 181 362 181 309 _c
181 0 _l
91 0 _l
91 547 _l
181 547 _l
181 462 _l
202 494 227 519 257 535 _c
286 551 320 560 358 560 _c
420 560 468 540 500 501 _c
532 462 549 405 549 330 _c
_cl}_d
/r{411 0 91 0 411 560 _sc
411 463 _m
401 469 390 473 378 476 _c
366 478 353 480 339 480 _c
288 480 249 463 222 430 _c
194 397 181 350 181 288 _c
181 0 _l
91 0 _l
91 547 _l
181 547 _l
181 462 _l
199 495 224 520 254 536 _c
284 552 321 560 365 560 _c
371 560 378 559 386 559 _c
393 558 401 557 411 555 _c
411 463 _l
_cl}_d
/s{{521 0 54 -13 472 560 _sc
443 531 _m
443 446 _l
417 458 391 468 364 475 _c
336 481 308 485 279 485 _c
234 485 200 478 178 464 _c
156 450 145 430 145 403 _c
145 382 153 366 169 354 _c
185 342 217 330 265 320 _c
296 313 _l
360 299 405 279 432 255 _c
458 230 472 195 472 151 _c
472 100 452 60 412 31 _c
372 1 316 -13 246 -13 _c
216 -13 186 -10 154 -5 _c
}_e{122 0 89 8 54 20 _c
54 113 _l
87 95 120 82 152 74 _c
184 65 216 61 248 61 _c
290 61 323 68 346 82 _c
368 96 380 117 380 144 _c
380 168 371 187 355 200 _c
339 213 303 226 247 238 _c
216 245 _l
160 257 119 275 95 299 _c
70 323 58 356 58 399 _c
58 450 76 490 112 518 _c
148 546 200 560 268 560 _c
301 560 332 557 362 552 _c
391 547 418 540 443 531 _c
}_e{_cl}_e}_d
/t{392 0 27 0 368 702 _sc
183 702 _m
183 547 _l
368 547 _l
368 477 _l
183 477 _l
183 180 _l
183 135 189 106 201 94 _c
213 81 238 75 276 75 _c
368 75 _l
368 0 _l
276 0 _l
206 0 158 13 132 39 _c
106 65 93 112 93 180 _c
93 477 _l
27 477 _l
27 547 _l
93 547 _l
93 702 _l
183 702 _l
_cl}_d
/u{634 0 85 -13 543 560 _sc
85 216 _m
85 547 _l
175 547 _l
175 219 _l
175 167 185 129 205 103 _c
225 77 255 64 296 64 _c
344 64 383 79 411 110 _c
439 141 453 183 453 237 _c
453 547 _l
543 547 _l
543 0 _l
453 0 _l
453 84 _l
431 50 405 26 377 10 _c
348 -5 315 -13 277 -13 _c
214 -13 166 6 134 45 _c
101 83 85 140 85 216 _c
311 560 _m
311 560 _l
_cl}_d
/minus{838 0 106 272 732 355 _sc
106 355 _m
732 355 _l
732 272 _l
106 272 _l
106 355 _l
_cl}_d
end readonly def

/BuildGlyph
 {exch begin
 CharStrings exch
 2 copy known not{pop /.notdef}if
 true 3 1 roll get exec
 end}_d

/BuildChar {
 1 index /Encoding get exch get
 1 index /BuildGlyph get exec
}_d

FontName currentdict end definefont pop
end
%%EndProlog
mpldict begin
90 252 translate
432 288 0 0 clipbox
gsave
0 0 m
432 0 l
432 288 l
0 288 l
cl
1.000 setgray
fill
grestore
gsave
54 36 m
388.8 36 l
388.8 253.44 l
54 253.44 l
cl
1.000 setgray
fill
grestore
0.800 setlinewidth
1 setlinejoin
2 setlinecap
[] 0 setdash
0.690 setgray
gsave
334.8 217.4 54 36 clipbox
69.218182 36 m
69.218182 253.44 l
stroke
grestore
0 setlinecap
0.000 setgray
gsave
/o {
gsave
newpath
translate
0.8 setlinewidth
1 setlinejoin
0 setlinecap
0 0 m
0 -3.5 l

gsave
0.000 setgray
fill
grestore
stroke
grestore
} bind def
69.2182 36 o
grestore
/DejaVuSans findfont
10.000 scalefont
setfont
gsave
66.038494 21.406250 translate
0.000000 rotate
0.000000 0.000000 m /zero glyphshow
grestore
2 setlinecap
0.690 setgray
gsave
334.8 217.4 54 36 clipbox
113.813586 36 m
113.813586 253.44 l
stroke
grestore
0 setlinecap
0.000 setgray
gsave
/o {
gsave
newpath
translate
0.8 setlinewidth
1 setlinejoin
0 setlinecap
0 0 m
0 -3.5 l

gsave
0.000 setgray
fill
grestore
stroke
grestore
} bind def
113.814 36 o
grestore
gsave
104.274524 21.406250 translate
0.000000 rotate
0.000000 0.000000 m /two glyphshow
6.362305 0.000000 m /zero glyphshow
12.724609 0.000000 m /zero glyphshow
grestore
2 setlinecap
0.690 setgray
gsave
334.8 217.4 54 36 clipbox
158.408991 36 m
158.408991 253.44 l
stroke
grestore
0 setlinecap
0.000 setgray
gsave
/o {
gsave
newpath
translate
0.8 setlinewidth
1 setlinejoin
0 setlinecap
0 0 m
0 -3.5 l

gsave
0.000 setgray
fill
grestore
stroke
grestore
} bind def
158.409 36 o
grestore
gsave
148.869929 21.406250 translate
0.000000 rotate
0.000000 0.000000 m /four glyphshow
6.362305 0.000000 m /zero glyphshow
12.724609 0.000000 m /zero glyphshow
grestore
2 setlinecap
0.690 setgray
gsave
334.8 217.4 54 36 clipbox
203.004396 36 m
203.004396 253.44 l
stroke
grestore
0 setlinecap
0.000 setgray
gsave
/o {
gsave
newpath
translate
0.8 setlinewidth
1 setlinejoin
0 setlinecap
0 0 m
0 -3.5 l

gsave
0.000 setgray
fill
grestore
stroke
grestore
} bind def
203.004 36 o
grestore
gsave
193.465333 21.406250 translate
0.000000 rotate
0.000000 0.000000 m /six glyphshow
6.362305 0.000000 m /zero glyphshow
12.724609 0.000000 m /zero glyphshow
grestore
2 setlinecap
0.690 setgray
gsave
334.8 217.4 54 36 clipbox
247.5998 36 m
247.5998 253.44 l
stroke
grestore
0 setlinecap
0.000 setgray
gsave
/o {
gsave
newpath
translate
0.8 setlinewidth
1 setlinejoin
0 setlinecap
0 0 m
0 -3.5 l

gsave
0.000 setgray
fill
grestore
stroke
grestore
} bind def
247.6 36 o
grestore
gsave
238.060738 21.406250 translate
0.000000 rotate
0.000000 0.000000 m /eight glyphshow
6.362305 0.000000 m /zero glyphshow
12.724609 0.000000 m /zero glyphshow
grestore
2 setlinecap
0.690 setgray
gsave
334.8 217.4 54 36 clipbox
292.195205 36 m
292.195205 253.44 l
stroke
grestore
0 setlinecap
0.000 setgray
gsave
/o {
gsave
newpath
translate
0.8 setlinewidth
1 setlinejoin
0 setlinecap
0 0 m
0 -3.5 l

gsave
0.000 setgray
fill
grestore
stroke
grestore
} bind def
292.195 36 o
grestore
gsave
279.476455 21.406250 translate
0.000000 rotate
0.000000 0.000000 m /one glyphshow
6.362305 0.000000 m /zero glyphshow
12.724609 0.000000 m /zero glyphshow
19.086914 0.000000 m /zero glyphshow
grestore
2 setlinecap
0.690 setgray
gsave
334.8 217.4 54 36 clipbox
336.790609 36 m
336.790609 253.44 l
stroke
grestore
0 setlinecap
0.000 setgray
gsave
/o {
gsave
newpath
translate
0.8 setlinewidth
1 setlinejoin
0 setlinecap
0 0 m
0 -3.5 l

gsave
0.000 setgray
fill
grestore
stroke
grestore
} bind def
336.791 36 o
grestore
gsave
324.071859 21.406250 translate
0.000000 rotate
0.000000 0.000000 m /one glyphshow
6.362305 0.000000 m /two glyphshow
12.724609 0.000000 m /zero glyphshow
19.086914 0.000000 m /zero glyphshow
grestore
2 setlinecap
0.690 setgray
gsave
334.8 217.4 54 36 clipbox
381.386014 36 m
381.386014 253.44 l
stroke
grestore
0 setlinecap
0.000 setgray
gsave
/o {
gsave
newpath
translate
0.8 setlinewidth
1 setlinejoin
0 setlinecap
0 0 m
0 -3.5 l

gsave
0.000 setgray
fill
grestore
stroke
grestore
} bind def
381.386 36 o
grestore
gsave
368.667264 21.406250 translate
0.000000 rotate
0.000000 0.000000 m /one glyphshow
6.362305 0.000000 m /four glyphshow
12.724609 0.000000 m /zero glyphshow
19.086914 0.000000 m /zero glyphshow
grestore
gsave
200.892188 7.734375 translate
0.000000 rotate
0.000000 0.000000 m /T glyphshow
6.108398 0.000000 m /i glyphshow
8.886719 0.000000 m /m glyphshow
18.627930 0.000000 m /e glyphshow
24.780273 0.000000 m /space glyphshow
27.958984 0.000000 m /bracketleft glyphshow
31.860352 0.000000 m /s glyphshow
37.070312 0.000000 m /bracketright glyphshow
grestore
2 setlinecap
0.690 setgray
gsave
334.8 217.4 54 36 clipbox
54 49.777481 m
388.8 49.777481 l
stroke
grestore
0 setlinecap
0.000 setgray
gsave
/o {
gsave
newpath
translate
0.8 setlinewidth
1 setlinejoin
0 setlinecap
0 0 m
-3.5 0 l

gsave
0.000 setgray
fill
grestore
stroke
grestore
} bind def
54 49.7775 o
grestore
gsave
19.546875 45.980606 translate
0.000000 rotate
0.000000 0.000000 m /minus glyphshow
8.378906 0.000000 m /one glyphshow
14.741211 0.000000 m /zero glyphshow
21.103516 0.000000 m /zero glyphshow
grestore
2 setlinecap
0.690 setgray
gsave
334.8 217.4 54 36 clipbox
54 87.026185 m
388.8 87.026185 l
stroke
grestore
0 setlinecap
0.000 setgray
gsave
/o {
gsave
newpath
translate
0.8 setlinewidth
1 setlinejoin
0 setlinecap
0 0 m
-3.5 0 l

gsave
0.000 setgray
fill
grestore
stroke
grestore
} bind def
54 87.0262 o
grestore
gsave
25.906250 83.229310 translate
0.000000 rotate
0.000000 0.000000 m /minus glyphshow
8.378906 0.000000 m /five glyphshow
14.741211 0.000000 m /zero glyphshow
grestore
2 setlinecap
0.690 setgray
gsave
334.8 217.4 54 36 clipbox
54 124.274888 m
388.8 124.274888 l
stroke
grestore
0 setlinecap
0.000 setgray
gsave
/o {
gsave
newpath
translate
0.8 setlinewidth
1 setlinejoin
0 setlinecap
0 0 m
-3.5 0 l

gsave
0.000 setgray
fill
grestore
stroke
grestore
} bind def
54 124.275 o
grestore
gsave
40.640625 120.478013 translate
0.000000 rotate
0.000000 0.000000 m /zero glyphshow
grestore
2 setlinecap
0.690 setgray
gsave
334.8 217.4 54 36 clipbox
54 161.523592 m
388.8 161.523592 l
stroke
grestore
0 setlinecap
0.000 setgray
gsave
/o {
gsave
newpath
translate
0.8 setlinewidth
1 setlinejoin
0 setlinecap
0 0 m
-3.5 0 l

gsave
0.000 setgray
fill
grestore
stroke
grestore
} bind def
54 161.524 o
grestore
gsave
34.281250 157.726717 translate
0.000000 rotate
0.000000 0.000000 m /five glyphshow
6.362305 0.000000 m /zero glyphshow
grestore
2 setlinecap
0.690 setgray
gsave
334.8 217.4 54 36 clipbox
54 198.772296 m
388.8 198.772296 l
stroke
grestore
0 setlinecap
0.000 setgray
gsave
/o {
gsave
newpath
translate
0.8 setlinewidth
1 setlinejoin
0 setlinecap
0 0 m
-3.5 0 l

gsave
0.000 setgray
fill
grestore
stroke
grestore
} bind def
54 198.772 o
grestore
gsave
27.921875 194.975421 translate
0.000000 rotate
0.000000 0.000000 m /one glyphshow
6.362305 0.000000 m /zero glyphshow
12.724609 0.000000 m /zero glyphshow
grestore
2 setlinecap
0.690 setgray
gsave
334.8 217.4 54 36 clipbox
54 236.020999 m
388.8 236.020999 l
stroke
grestore
0 setlinecap
0.000 setgray
gsave
/o {
gsave
newpath
translate
0.8 setlinewidth
1 setlinejoin
0 setlinecap
0 0 m
-3.5 0 l

gsave
0.000 setgray
fill
grestore
stroke
grestore
} bind def
54 236.021 o
grestore
gsave
27.921875 232.224124 translate
0.000000 rotate
0.000000 0.000000 m /one glyphshow
6.362305 0.000000 m /five glyphshow
12.724609 0.000000 m /zero glyphshow
grestore
gsave
13.468750 116.813750 translate
90.000000 rotate
0.000000 0.000000 m /C glyphshow
6.982422 0.000000 m /u glyphshow
13.320312 0.000000 m /r glyphshow
17.431641 0.000000 m /r glyphshow
21.542969 0.000000 m /e glyphshow
27.695312 0.000000 m /n glyphshow
34.033203 0.000000 m /t glyphshow
37.954102 0.000000 m /space glyphshow
41.132812 0.000000 m /bracketleft glyphshow
45.034180 0.000000 m /A glyphshow
51.875000 0.000000 m /bracketright glyphshow
grestore
1.500 setlinewidth
2 setlinecap
gsave
334.8 217.4 54 36 clipbox
69.218182 125.041436 m
79.482645 125.041489 l
79.705785 125.19633 l
79.928926 130.072287 l
80.152066 143.975253 l
80.598347 132.447435 l
80.821488 126.779026 l
81.044628 118.124868 l
81.71405 148.331496 l
81.93719 122.758102 l
82.160331 123.687373 l
82.606612 157.617283 l
82.829752 146.773383 l
83.052893 129.730741 l
83.276033 155.343918 l
83.499174 105.703236 l
83.722314 104.68015 l
83.945455 75.760109 l
84.391736 89.237534 l
85.061157 124.681036 l
85.284298 129.007681 l
85.507438 142.316748 l
85.730579 165.830859 l
85.953719 157.597793 l
86.17686 121.058664 l
86.62314 107.977063 l
87.069421 122.312518 l
87.515702 125.027422 l
89.747107 125.041672 l
90.416529 125.041632 l
90.639669 129.474901 l
90.86281 187.608066 l
91.08595 142.39298 l
91.532231 108.792473 l
91.978512 125.690184 l
92.201653 100.172956 l
92.424793 89.642034 l
92.647934 106.169432 l
92.871074 111.088437 l
93.317355 137.721421 l
93.763636 116.075926 l
93.986777 131.850271 l
94.209917 139.016103 l
94.433058 124.840693 l
94.656198 121.160843 l
94.879339 126.790818 l
95.102479 126.477808 l
95.54876 124.335479 l
95.771901 125.316925 l
96.218182 159.267208 l
96.441322 140.841552 l
96.664463 135.491024 l
96.887603 135.000593 l
97.110744 130.875337 l
97.333884 135.110126 l
97.780165 110.366376 l
98.003306 120.494107 l
98.226446 122.494679 l
98.449587 122.512748 l
98.672727 117.421277 l
98.895868 117.761689 l
99.119008 121.041836 l
99.342149 121.312314 l
100.01157 125.027994 l
100.234711 125.040152 l
100.457851 125.166471 l
100.904132 125.041459 l
101.350413 125.041807 l
101.573554 126.101591 l
102.019835 176.766772 l
102.242975 108.420649 l
102.466116 124.891076 l
102.689256 122.684291 l
102.912397 124.291622 l
103.135537 121.524934 l
103.358678 127.791283 l
103.581818 145.758644 l
103.804959 144.581587 l
104.028099 140.600536 l
104.25124 139.356243 l
104.47438 154.744601 l
104.697521 107.68676 l
105.143802 122.956512 l
105.366942 123.98003 l
105.590083 124.218221 l
105.813223 123.870047 l
106.036364 124.972566 l
106.259504 124.354058 l
106.482645 109.886062 l
106.705785 117.551035 l
106.928926 117.945507 l
107.152066 119.675095 l
107.375207 119.801063 l
107.821488 110.100456 l
108.044628 96.414507 l
108.267769 90.922175 l
108.490909 128.234433 l
108.71405 138.274192 l
108.93719 128.551459 l
109.160331 126.212627 l
109.383471 126.28418 l
109.606612 125.032732 l
109.829752 127.924879 l
110.276033 109.309723 l
110.499174 102.241095 l
111.168595 123.480024 l
111.391736 122.684487 l
111.614876 125.025311 l
112.507438 125.041766 l
112.730579 126.095302 l
112.953719 134.855559 l
113.17686 243.556364 l
113.62314 99.460895 l
113.846281 93.702453 l
114.069421 117.241595 l
114.292562 122.732855 l
114.515702 115.555371 l
115.185124 87.592509 l
115.408264 107.903605 l
115.631405 194.243161 l
115.854545 197.439821 l
116.300826 86.714799 l
116.747107 123.066778 l
116.970248 73.912097 l
117.193388 70.306557 l
117.416529 117.366918 l
117.639669 139.858483 l
117.86281 132.872098 l
118.08595 113.681424 l
118.532231 112.116624 l
118.755372 116.813827 l
119.201653 136.446514 l
119.424793 144.908715 l
119.647934 144.448807 l
119.871074 140.613285 l
120.094215 143.605127 l
120.317355 157.129424 l
120.540496 121.974274 l
120.763636 114.060963 l
121.209917 122.126388 l
121.879339 77.942525 l
122.54876 103.765116 l
122.771901 122.202656 l
122.995041 125.026059 l
124.780165 125.041705 l
125.895868 125.106444 l
126.119008 127.555923 l
126.342149 137.389638 l
126.565289 141.38795 l
127.01157 130.503457 l
127.234711 123.703333 l
127.457851 122.59271 l
127.680992 125.200978 l
127.904132 119.413116 l
128.127273 123.07343 l
128.350413 133.445368 l
128.573554 117.60826 l
128.796694 126.237864 l
129.019835 124.712771 l
129.242975 125.003938 l
129.466116 122.642951 l
129.689256 125.025987 l
130.581818 125.148081 l
130.804959 140.170132 l
131.028099 217.858375 l
131.25124 138.205045 l
131.47438 116.819819 l
131.697521 124.574825 l
131.920661 112.827058 l
132.143802 119.580775 l
132.366942 116.521665 l
132.590083 135.558801 l
132.813223 143.24876 l
133.036364 143.39051 l
133.705785 144.89379 l
133.928926 124.436627 l
134.152066 115.854305 l
134.598347 119.946558 l
134.821488 135.215801 l
135.044628 108.540595 l
135.267769 98.655982 l
135.490909 124.345271 l
135.71405 122.372599 l
135.93719 98.072263 l
136.160331 101.431415 l
136.383471 115.524072 l
136.606612 122.261611 l
136.829752 119.948471 l
137.276033 164.467053 l
137.499174 146.518484 l
137.722314 108.494252 l
137.945455 108.781287 l
138.168595 113.051899 l
138.391736 109.413589 l
138.838017 123.041364 l
139.061157 125.022698 l
141.069421 125.04192 l
141.292562 128.8357 l
141.515702 151.674298 l
141.738843 124.282659 l
141.961983 117.846239 l
142.185124 126.908087 l
142.631405 160.292133 l
143.077686 116.951792 l
143.300826 114.960699 l
143.523967 121.377102 l
143.747107 124.412271 l
143.970248 129.328448 l
144.193388 136.731369 l
144.416529 139.202857 l
144.639669 137.371819 l
144.86281 114.532065 l
145.08595 115.094678 l
145.309091 116.921897 l
145.532231 124.096806 l
145.755372 125.031799 l
149.102479 125.243825 l
149.54876 125.041574 l
157.358678 125.106843 l
157.581818 126.696295 l
157.804959 130.008426 l
158.25124 123.51048 l
158.47438 125.995521 l
158.697521 136.470401 l
158.920661 157.000993 l
159.143802 153.481149 l
159.590083 122.328173 l
159.813223 125.124162 l
160.036364 134.823662 l
160.259504 130.564812 l
160.482645 134.05271 l
160.928926 116.729622 l
161.152066 117.036418 l
161.375207 122.086406 l
161.598347 131.065764 l
161.821488 146.184181 l
162.044628 150.945643 l
162.267769 147.101833 l
162.71405 121.444995 l
162.93719 115.470603 l
163.606612 149.198316 l
163.829752 141.358028 l
164.052893 126.816747 l
164.276033 134.804047 l
164.499174 136.151875 l
164.722314 132.557698 l
164.945455 137.928309 l
165.168595 110.874177 l
165.391736 101.766284 l
165.614876 116.102322 l
165.838017 140.434767 l
166.061157 145.681275 l
166.507438 100.265726 l
166.730579 118.094555 l
167.17686 130.584245 l
167.4 112.692541 l
167.846281 123.492295 l
168.292562 125.033187 l
172.978512 125.042415 l
179.449587 125.042442 l
179.672727 125.70733 l
179.895868 136.419457 l
180.342149 168.23254 l
180.565289 116.104312 l
180.78843 122.149346 l
181.01157 123.223067 l
181.234711 136.750888 l
181.457851 121.561649 l
181.680992 126.494741 l
181.904132 113.379307 l
182.127273 124.616282 l
182.350413 120.931441 l
182.573554 121.560732 l
182.796694 124.844366 l
183.019835 151.232116 l
183.242975 126.34298 l
183.466116 88.641978 l
183.689256 109.613431 l
183.912397 78.012022 l
184.135537 88.525621 l
184.581818 123.157588 l
184.804959 125.025222 l
185.028099 125.088143 l
185.25124 125.446205 l
185.47438 126.232651 l
185.697521 127.672339 l
185.920661 127.099204 l
186.143802 126.836492 l
186.590083 123.151904 l
186.813223 125.030582 l
187.036364 125.334232 l
187.259504 127.127314 l
187.482645 129.880516 l
187.705785 129.853999 l
187.928926 134.721957 l
188.152066 149.395512 l
188.375207 150.157417 l
188.821488 125.925387 l
189.267769 110.985721 l
189.490909 124.156257 l
189.71405 148.143297 l
189.93719 150.192363 l
190.160331 146.431877 l
190.383471 228.086245 l
190.829752 116.908215 l
191.276033 96.772676 l
191.499174 118.686514 l
191.722314 121.188005 l
191.945455 122.286 l
192.168595 122.588995 l
192.391736 135.4062 l
192.614876 97.092606 l
192.838017 83.849192 l
193.061157 82.754391 l
193.730579 92.318589 l
193.953719 100.436292 l
194.17686 113.503043 l
194.62314 124.996849 l
195.515702 125.042412 l
203.102479 125.042391 l
203.32562 127.429359 l
203.995041 162.651113 l
204.218182 129.409326 l
204.664463 121.939357 l
204.887603 127.834093 l
205.110744 129.165573 l
205.333884 119.868852 l
205.780165 115.734927 l
206.003306 122.589872 l
206.226446 124.140478 l
206.449587 117.417046 l
206.895868 131.473135 l
207.119008 122.455172 l
207.342149 121.725442 l
207.565289 124.322087 l
207.78843 123.68444 l
208.01157 123.422958 l
208.234711 125.690104 l
208.457851 130.603561 l
208.680992 121.949448 l
208.904132 124.379985 l
209.127273 135.033783 l
209.350413 123.473763 l
209.573554 122.47955 l
209.796694 141.846221 l
210.242975 151.200666 l
210.689256 114.718917 l
210.912397 123.194961 l
211.135537 126.985267 l
211.358678 125.050428 l
211.581818 126.059491 l
211.804959 125.91967 l
212.028099 125.205442 l
212.25124 125.162434 l
212.47438 125.250815 l
212.920661 125.216076 l
213.366942 126.477101 l
213.590083 129.295722 l
213.813223 130.339975 l
214.036364 121.680565 l
214.259504 122.768149 l
214.705785 123.099029 l
214.928926 123.797448 l
215.152066 122.179601 l
215.375207 122.02076 l
215.598347 122.816125 l
215.821488 122.364521 l
216.267769 128.787635 l
216.490909 125.620374 l
216.71405 128.230906 l
216.93719 128.359979 l
217.160331 130.366579 l
217.383471 127.515745 l
217.829752 127.248403 l
218.052893 126.178872 l
218.276033 129.091467 l
218.499174 125.889197 l
218.722314 128.533124 l
218.945455 128.654629 l
219.391736 128.65234 l
219.614876 128.447111 l
219.838017 127.479217 l
220.061157 128.104827 l
220.284298 127.880464 l
220.507438 128.690372 l
220.730579 128.849659 l
220.953719 129.389334 l
221.17686 128.561045 l
221.4 128.214578 l
221.62314 129.368567 l
222.069421 127.305171 l
222.292562 127.953987 l
222.515702 125.069208 l
222.738843 132.326346 l
223.185124 155.964083 l
223.408264 149.277053 l
223.631405 119.11815 l
224.077686 128.241068 l
224.300826 127.395738 l
224.523967 127.320954 l
224.747107 126.163672 l
224.970248 128.632663 l
225.193388 126.998751 l
225.416529 127.377125 l
225.639669 125.61016 l
225.86281 128.352955 l
226.08595 128.812324 l
226.309091 128.937075 l
226.532231 128.845055 l
226.755372 129.416692 l
226.978512 128.555637 l
227.424793 128.529124 l
227.647934 128.539312 l
227.871074 128.082859 l
228.094215 128.93688 l
228.317355 128.863438 l
228.540496 126.074638 l
228.763636 125.788997 l
228.986777 126.457169 l
229.209917 125.659363 l
229.433058 126.085164 l
229.656198 123.431326 l
229.879339 124.060829 l
230.32562 130.336412 l
230.771901 125.333736 l
230.995041 127.935605 l
231.218182 127.838263 l
231.887603 128.877793 l
232.110744 127.593116 l
232.333884 128.367671 l
232.557025 128.159416 l
232.780165 166.355376 l
233.226446 49.362325 l
233.672727 82.366737 l
233.895868 124.644701 l
234.565289 146.159621 l
234.78843 119.207945 l
235.01157 134.024852 l
235.234711 122.530222 l
235.457851 125.929152 l
235.680992 125.182276 l
235.904132 113.266813 l
236.127273 120.429005 l
236.573554 126.134576 l
236.796694 128.166716 l
237.019835 126.296834 l
237.242975 128.344877 l
237.466116 128.638518 l
237.689256 129.719642 l
237.912397 120.962825 l
238.135537 130.133265 l
238.358678 127.375718 l
238.581818 120.6327 l
238.804959 127.696244 l
239.028099 128.027176 l
239.25124 133.565886 l
239.47438 119.901178 l
239.920661 127.760763 l
240.143802 128.229911 l
240.366942 127.610212 l
240.590083 133.133901 l
240.813223 118.966833 l
241.036364 122.842064 l
241.482645 136.789719 l
241.705785 136.790286 l
241.928926 142.43001 l
242.152066 142.828102 l
242.375207 130.903417 l
242.598347 101.585258 l
242.821488 105.631589 l
243.044628 105.995425 l
243.267769 112.922714 l
243.490909 143.225436 l
243.71405 149.588079 l
243.93719 119.168942 l
244.160331 117.459991 l
244.383471 119.09418 l
244.606612 125.14068 l
244.829752 134.599943 l
245.052893 132.056856 l
245.276033 149.891926 l
245.499174 148.388398 l
245.722314 120.076456 l
246.391736 126.089983 l
246.614876 125.419889 l
246.838017 126.21807 l
247.061157 121.195022 l
247.284298 121.978127 l
247.730579 145.064923 l
247.953719 140.096773 l
248.17686 139.360412 l
248.846281 155.557934 l
249.069421 119.167327 l
249.292562 119.584649 l
249.515702 137.249696 l
249.738843 106.391444 l
249.961983 100.025748 l
250.185124 109.501341 l
250.408264 113.003265 l
250.631405 141.662992 l
250.854545 121.528446 l
251.077686 134.054466 l
251.523967 115.144822 l
251.747107 116.477784 l
252.416529 131.454919 l
252.639669 120.974106 l
252.86281 125.183843 l
253.08595 125.416076 l
253.309091 124.595473 l
253.755372 130.617959 l
253.978512 119.472357 l
254.201653 123.510421 l
254.871074 127.382912 l
255.094215 127.669571 l
255.317355 127.632921 l
255.540496 127.758454 l
255.763636 127.35664 l
255.986777 126.721273 l
256.209917 127.801144 l
256.433058 127.42153 l
256.656198 126.545038 l
256.879339 128.648648 l
257.102479 127.073534 l
257.32562 128.175742 l
257.54876 127.494798 l
257.771901 127.493853 l
257.995041 121.961016 l
258.218182 126.631458 l
258.441322 127.828658 l
258.887603 127.857098 l
259.110744 128.351563 l
259.557025 126.887247 l
259.780165 127.578178 l
260.003306 134.971556 l
260.226446 122.184318 l
260.449587 125.072691 l
260.672727 125.440086 l
260.895868 127.908616 l
261.119008 128.019428 l
261.565289 127.929019 l
261.78843 127.451862 l
262.01157 160.663645 l
262.234711 123.639679 l
262.457851 140.085182 l
262.680992 132.682122 l
262.904132 121.36308 l
263.127273 121.295043 l
263.350413 137.00581 l
263.573554 137.333426 l
263.796694 136.730982 l
264.242975 136.444018 l
264.466116 136.265115 l
264.689256 130.395008 l
264.912397 134.836266 l
265.135537 129.922007 l
265.358678 112.835297 l
265.581818 112.925403 l
265.804959 109.560346 l
266.028099 75.215303 l
266.47438 100.344245 l
266.697521 84.876764 l
267.143802 113.642467 l
267.366942 113.506459 l
267.590083 110.729275 l
267.813223 110.916581 l
268.036364 103.287026 l
268.259504 106.265266 l
268.482645 111.723988 l
268.705785 121.369548 l
268.928926 140.91726 l
269.152066 145.148005 l
269.375207 156.089982 l
269.598347 131.530978 l
269.821488 137.720555 l
270.044628 118.990203 l
270.267769 116.020002 l
270.490909 107.085468 l
270.71405 115.916387 l
271.160331 120.544802 l
271.383471 119.404048 l
271.606612 127.789349 l
271.829752 124.127821 l
272.052893 123.684223 l
272.276033 120.931299 l
272.499174 124.259659 l
272.722314 124.862394 l
272.945455 126.529673 l
273.168595 125.827716 l
273.391736 129.107622 l
273.614876 124.799014 l
273.838017 125.8631 l
274.061157 131.742432 l
274.284298 122.988225 l
274.730579 130.037586 l
274.953719 124.064174 l
275.17686 125.368848 l
275.62314 121.130147 l
275.846281 124.970425 l
276.069421 123.036616 l
276.515702 123.244701 l
276.738843 123.911028 l
276.961983 123.941707 l
277.185124 123.45645 l
277.408264 117.59877 l
277.631405 123.751516 l
277.854545 122.402915 l
278.077686 118.12191 l
278.300826 129.207643 l
278.523967 129.773865 l
278.747107 129.437773 l
278.970248 126.192718 l
279.193388 127.716308 l
279.416529 126.587116 l
279.639669 131.050767 l
280.08595 124.846155 l
280.309091 128.337767 l
280.532231 128.304482 l
280.755372 126.982035 l
280.978512 129.0026 l
281.201653 130.008341 l
281.424793 130.22602 l
281.647934 130.092707 l
281.871074 130.107199 l
282.094215 129.853275 l
282.317355 129.874776 l
282.540496 129.665085 l
282.763636 130.126841 l
282.986777 128.574574 l
283.209917 129.793826 l
283.433058 129.280373 l
283.656198 129.394447 l
283.879339 129.840919 l
284.102479 128.658466 l
284.32562 129.644938 l
284.54876 128.90779 l
284.771901 130.401319 l
284.995041 127.753824 l
285.218182 128.74707 l
285.887603 128.700449 l
286.557025 128.647656 l
286.780165 128.363786 l
287.226446 129.297353 l
287.449587 126.610827 l
287.895868 129.525994 l
288.119008 128.42075 l
288.342149 129.704052 l
288.565289 129.790725 l
288.78843 126.319215 l
289.01157 124.934176 l
289.234711 126.831486 l
289.457851 126.719315 l
289.680992 125.251981 l
290.127273 128.436265 l
290.350413 128.967067 l
290.573554 128.955497 l
290.796694 129.198921 l
291.019835 126.480783 l
291.242975 127.912443 l
291.466116 133.97593 l
291.689256 126.330573 l
291.912397 128.337799 l
292.358678 122.941017 l
292.581818 125.253619 l
292.804959 124.228819 l
293.028099 128.168962 l
293.25124 128.685938 l
293.697521 128.681219 l
293.920661 128.115405 l
294.143802 128.871259 l
294.366942 128.960388 l
294.813223 129.962749 l
295.036364 127.456325 l
295.259504 127.068789 l
295.482645 127.023207 l
295.705785 130.44565 l
295.928926 130.761845 l
296.152066 118.712196 l
296.375207 128.848119 l
296.598347 127.828444 l
296.821488 121.60343 l
297.044628 126.117843 l
297.490909 129.302078 l
297.93719 129.408476 l
298.160331 129.382036 l
298.383471 129.098308 l
299.052893 129.00964 l
299.499174 128.905326 l
299.722314 129.233696 l
299.945455 127.954037 l
300.168595 128.669281 l
300.391736 128.786174 l
300.838017 128.66127 l
301.061157 129.051519 l
301.284298 128.469917 l
301.507438 128.204756 l
301.730579 128.210447 l
301.953719 129.52445 l
302.4 125.29728 l
302.62314 129.214343 l
302.846281 125.419659 l
303.069421 127.947165 l
303.292562 127.549035 l
303.738843 128.890325 l
304.185124 128.116598 l
304.631405 128.109127 l
304.854545 127.423755 l
305.077686 128.757883 l
305.300826 129.016872 l
305.747107 124.964701 l
305.970248 128.945315 l
306.416529 124.786598 l
306.639669 127.782616 l
306.86281 127.369691 l
307.08595 128.278443 l
307.309091 128.35995 l
307.532231 128.246675 l
307.755372 128.278891 l
307.978512 125.873193 l
308.424793 128.569353 l
308.647934 126.79216 l
308.871074 153.178804 l
309.094215 86.452067 l
309.317355 132.038855 l
309.540496 127.211823 l
309.763636 125.799162 l
309.986777 127.283793 l
310.209917 127.114993 l
310.433058 127.879119 l
310.656198 126.844756 l
311.32562 126.847866 l
311.54876 128.117426 l
311.771901 125.525882 l
311.995041 126.868888 l
312.664463 126.777586 l
312.887603 128.123293 l
313.110744 125.478484 l
313.780165 127.734438 l
314.003306 126.407249 l
314.226446 126.932275 l
314.449587 126.985114 l
314.672727 127.226039 l
314.895868 127.041627 l
315.119008 127.69165 l
315.342149 126.327853 l
315.78843 127.539976 l
316.01157 126.603015 l
316.234711 126.224533 l
316.457851 127.42916 l
316.680992 126.569442 l
317.350413 126.609584 l
317.796694 126.589755 l
318.019835 127.130854 l
318.242975 125.75676 l
318.466116 128.300159 l
318.912397 119.6092 l
319.135537 126.142956 l
319.358678 125.873891 l
319.581818 125.820996 l
319.804959 125.180944 l
320.028099 127.878678 l
320.25124 125.502614 l
320.47438 125.617704 l
321.590083 125.370535 l
321.813223 124.906887 l
322.036364 126.28367 l
322.259504 126.399083 l
324.267769 126.321999 l
324.490909 126.314849 l
324.71405 125.921556 l
324.93719 127.367773 l
325.383471 125.950109 l
325.606612 126.77027 l
326.276033 126.84678 l
326.722314 126.564901 l
326.945455 126.719688 l
327.168595 125.334581 l
327.391736 126.797955 l
327.838017 126.557965 l
328.061157 123.190549 l
328.507438 126.356714 l
328.730579 125.680209 l
328.953719 125.442579 l
329.17686 124.948484 l
329.4 126.478952 l
329.846281 126.302992 l
330.069421 126.733425 l
330.292562 126.132485 l
330.515702 126.000409 l
330.738843 126.685947 l
330.961983 124.322336 l
331.185124 126.563482 l
331.408264 125.555704 l
331.631405 125.413843 l
331.854545 124.369945 l
332.077686 125.428076 l
332.300826 122.333765 l
332.523967 122.194955 l
332.747107 127.76982 l
332.970248 125.776068 l
333.193388 120.898633 l
333.416529 122.109984 l
333.639669 100.460123 l
333.86281 134.600602 l
334.08595 120.983395 l
334.309091 126.049791 l
334.532231 128.193881 l
334.755372 125.792695 l
334.978512 116.24691 l
335.201653 124.606429 l
335.424793 124.39376 l
335.647934 125.027861 l
335.871074 126.181105 l
336.540496 122.752051 l
336.763636 123.522549 l
336.986777 124.83598 l
337.209917 125.270293 l
337.433058 125.196288 l
337.656198 127.756802 l
337.879339 127.007853 l
338.102479 127.85951 l
338.32562 110.693348 l
338.54876 123.797179 l
338.771901 125.580785 l
338.995041 135.83188 l
339.218182 108.601078 l
339.441322 107.629413 l
339.664463 142.863375 l
339.887603 142.079872 l
340.110744 118.01172 l
340.333884 134.839851 l
340.557025 137.468633 l
340.780165 133.255459 l
341.003306 100.502897 l
341.226446 129.729702 l
341.672727 109.275769 l
341.895868 116.919732 l
342.119008 119.79058 l
342.342149 128.603235 l
342.565289 118.363178 l
342.78843 116.525479 l
343.01157 127.680214 l
343.234711 124.176177 l
343.457851 126.268142 l
343.680992 121.08607 l
343.904132 120.341002 l
344.350413 132.44868 l
344.573554 109.167432 l
344.796694 100.322952 l
345.019835 54.583625 l
345.466116 77.928983 l
345.689256 127.399863 l
345.912397 138.615375 l
346.135537 90.810338 l
346.358678 139.978669 l
346.581818 120.242783 l
346.804959 126.628237 l
347.028099 120.777287 l
347.25124 118.879817 l
347.47438 122.862128 l
347.697521 120.900099 l
347.920661 117.282411 l
348.366942 126.958271 l
348.590083 120.795718 l
348.813223 120.234403 l
349.259504 134.619643 l
349.482645 126.347384 l
349.705785 99.291261 l
349.928926 138.321349 l
350.152066 120.636448 l
350.375207 129.113971 l
350.598347 124.329771 l
350.821488 124.046888 l
351.044628 122.264633 l
351.267769 125.952748 l
351.490909 124.104142 l
351.71405 120.884617 l
351.93719 126.585406 l
352.383471 126.454257 l
352.606612 127.236416 l
352.829752 126.054849 l
353.052893 128.229052 l
353.276033 123.167784 l
353.499174 126.584708 l
353.722314 123.991251 l
353.945455 124.164207 l
354.168595 167.512864 l
354.391736 121.165023 l
354.838017 134.297807 l
355.061157 90.149582 l
355.284298 134.260224 l
355.507438 123.430205 l
355.730579 126.654805 l
355.953719 127.631884 l
356.17686 126.231139 l
356.4 121.158007 l
356.62314 127.163304 l
356.846281 125.555995 l
357.292562 120.044321 l
357.515702 121.708987 l
357.961983 128.424806 l
358.185124 128.254863 l
358.408264 120.629818 l
358.854545 125.076586 l
359.077686 119.305771 l
359.300826 123.634854 l
359.523967 122.822681 l
359.747107 129.85165 l
359.970248 121.942072 l
360.193388 120.895938 l
360.416529 124.83686 l
360.639669 123.653258 l
361.08595 127.045797 l
361.532231 123.923662 l
361.755372 128.700577 l
361.978512 126.144477 l
362.424793 126.129329 l
362.647934 115.299722 l
362.871074 121.514094 l
363.317355 128.772018 l
363.540496 127.15455 l
363.763636 126.801193 l
363.986777 124.627148 l
364.433058 125.972197 l
364.656198 127.911853 l
364.879339 125.752662 l
365.102479 126.403773 l
365.32562 179.401625 l
365.54876 109.686679 l
365.771901 125.17113 l
365.995041 131.574836 l
366.218182 124.986689 l
366.441322 136.242434 l
366.887603 124.965797 l
367.110744 114.991539 l
367.333884 110.972876 l
367.557025 103.009708 l
367.780165 102.979736 l
368.226446 110.569853 l
368.449587 95.501008 l
368.895868 79.741597 l
369.119008 45.883636 l
369.342149 46.016118 l
369.565289 48.43653 l
369.78843 55.045686 l
370.01157 76.668686 l
370.234711 84.039044 l
370.457851 76.225536 l
370.680992 96.108767 l
370.904132 97.497134 l
371.350413 98.522793 l
371.796694 108.641646 l
372.019835 116.674728 l
372.466116 122.756219 l
372.689256 125.0235 l
373.581818 125.042882 l
373.581818 125.042882 l
stroke
grestore
0.800 setlinewidth
0 setlinejoin
[] 0 setdash
gsave
54 36 m
54 253.44 l
stroke
grestore
gsave
388.8 36 m
388.8 253.44 l
stroke
grestore
gsave
54 36 m
388.8 36 l
stroke
grestore
gsave
54 253.44 m
388.8 253.44 l
stroke
grestore

end
showpage
