%!PS-Adobe-3.0 EPSF-3.0
%%Title: battery_vol_com.eps
%%Creator: matplotlib version 2.0.0, http://matplotlib.org/
%%CreationDate: Mon May 15 21:34:57 2017
%%Orientation: portrait
%%BoundingBox: 90 252 522 540
%%EndComments
%%BeginProlog
/mpldict 8 dict def
mpldict begin
/m { moveto } bind def
/l { lineto } bind def
/r { rlineto } bind def
/c { curveto } bind def
/cl { closepath } bind def
/box {
m
1 index 0 r
0 exch r
neg 0 r
cl
} bind def
/clipbox {
box
clip
newpath
} bind def
%!PS-Adobe-3.0 Resource-Font
%%Title: DejaVu Sans
%%Copyright: Copyright (c) 2003 by Bitstream, Inc. All Rights Reserved. Copyright (c) 2006 by Tavmjong Bah. All Rights Reserved. DejaVu changes are in public domain 
%%Creator: Converted from TrueType to type 3 by PPR
25 dict begin
/_d{bind def}bind def
/_m{moveto}_d
/_l{lineto}_d
/_cl{closepath eofill}_d
/_c{curveto}_d
/_sc{7 -1 roll{setcachedevice}{pop pop pop pop pop pop}ifelse}_d
/_e{exec}_d
/FontName /DejaVuSans def
/PaintType 0 def
/FontMatrix[.001 0 0 .001 0 0]def
/FontBBox[-1021 -463 1793 1232]def
/FontType 3 def
/Encoding [ /space /zero /one /two /four /six /eight /A /S /T /bracketleft /bracketright /a /c /e /i /l /m /n /o /p /r /s /t /u ] def
/FontInfo 10 dict dup begin
/FamilyName (DejaVu Sans) def
/FullName (DejaVu Sans) def
/Notice (Copyright (c) 2003 by Bitstream, Inc. All Rights Reserved. Copyright (c) 2006 by Tavmjong Bah. All Rights Reserved. DejaVu changes are in public domain ) def
/Weight (Book) def
/Version (Version 2.35) def
/ItalicAngle 0.0 def
/isFixedPitch false def
/UnderlinePosition -130 def
/UnderlineThickness 90 def
end readonly def
/CharStrings 25 dict dup begin
/space{318 0 0 0 0 0 _sc
}_d
/zero{636 0 66 -13 570 742 _sc
318 664 _m
267 664 229 639 203 589 _c
177 539 165 464 165 364 _c
165 264 177 189 203 139 _c
229 89 267 64 318 64 _c
369 64 407 89 433 139 _c
458 189 471 264 471 364 _c
471 464 458 539 433 589 _c
407 639 369 664 318 664 _c
318 742 _m
399 742 461 709 505 645 _c
548 580 570 486 570 364 _c
570 241 548 147 505 83 _c
461 19 399 -13 318 -13 _c
236 -13 173 19 130 83 _c
87 147 66 241 66 364 _c
66 486 87 580 130 645 _c
173 709 236 742 318 742 _c
_cl}_d
/one{636 0 110 0 544 729 _sc
124 83 _m
285 83 _l
285 639 _l
110 604 _l
110 694 _l
284 729 _l
383 729 _l
383 83 _l
544 83 _l
544 0 _l
124 0 _l
124 83 _l
_cl}_d
/two{{636 0 73 0 536 742 _sc
192 83 _m
536 83 _l
536 0 _l
73 0 _l
73 83 _l
110 121 161 173 226 239 _c
290 304 331 346 348 365 _c
380 400 402 430 414 455 _c
426 479 433 504 433 528 _c
433 566 419 598 392 622 _c
365 646 330 659 286 659 _c
255 659 222 653 188 643 _c
154 632 117 616 78 594 _c
78 694 _l
118 710 155 722 189 730 _c
223 738 255 742 284 742 _c
}_e{359 742 419 723 464 685 _c
509 647 532 597 532 534 _c
532 504 526 475 515 449 _c
504 422 484 390 454 354 _c
446 344 420 317 376 272 _c
332 227 271 164 192 83 _c
_cl}_e}_d
/four{636 0 49 0 580 729 _sc
378 643 _m
129 254 _l
378 254 _l
378 643 _l
352 729 _m
476 729 _l
476 254 _l
580 254 _l
580 172 _l
476 172 _l
476 0 _l
378 0 _l
378 172 _l
49 172 _l
49 267 _l
352 729 _l
_cl}_d
/six{{636 0 70 -13 573 742 _sc
330 404 _m
286 404 251 388 225 358 _c
199 328 186 286 186 234 _c
186 181 199 139 225 109 _c
251 79 286 64 330 64 _c
374 64 409 79 435 109 _c
461 139 474 181 474 234 _c
474 286 461 328 435 358 _c
409 388 374 404 330 404 _c
526 713 _m
526 623 _l
501 635 476 644 451 650 _c
425 656 400 659 376 659 _c
310 659 260 637 226 593 _c
}_e{192 549 172 482 168 394 _c
187 422 211 444 240 459 _c
269 474 301 482 336 482 _c
409 482 467 459 509 415 _c
551 371 573 310 573 234 _c
573 159 550 99 506 54 _c
462 9 403 -13 330 -13 _c
246 -13 181 19 137 83 _c
92 147 70 241 70 364 _c
70 479 97 571 152 639 _c
206 707 280 742 372 742 _c
396 742 421 739 447 735 _c
472 730 498 723 526 713 _c
_cl}_e}_d
/eight{{636 0 68 -13 568 742 _sc
318 346 _m
271 346 234 333 207 308 _c
180 283 167 249 167 205 _c
167 161 180 126 207 101 _c
234 76 271 64 318 64 _c
364 64 401 76 428 102 _c
455 127 469 161 469 205 _c
469 249 455 283 429 308 _c
402 333 365 346 318 346 _c
219 388 _m
177 398 144 418 120 447 _c
96 476 85 511 85 553 _c
85 611 105 657 147 691 _c
188 725 245 742 318 742 _c
}_e{390 742 447 725 489 691 _c
530 657 551 611 551 553 _c
551 511 539 476 515 447 _c
491 418 459 398 417 388 _c
464 377 501 355 528 323 _c
554 291 568 251 568 205 _c
568 134 546 80 503 43 _c
459 5 398 -13 318 -13 _c
237 -13 175 5 132 43 _c
89 80 68 134 68 205 _c
68 251 81 291 108 323 _c
134 355 171 377 219 388 _c
183 544 _m
183 506 194 476 218 455 _c
}_e{242 434 275 424 318 424 _c
360 424 393 434 417 455 _c
441 476 453 506 453 544 _c
453 582 441 611 417 632 _c
393 653 360 664 318 664 _c
275 664 242 653 218 632 _c
194 611 183 582 183 544 _c
_cl}_e}_d
/A{684 0 8 0 676 729 _sc
342 632 _m
208 269 _l
476 269 _l
342 632 _l
286 729 _m
398 729 _l
676 0 _l
573 0 _l
507 187 _l
178 187 _l
112 0 _l
8 0 _l
286 729 _l
_cl}_d
/S{{635 0 66 -13 579 742 _sc
535 705 _m
535 609 _l
497 627 462 640 429 649 _c
395 657 363 662 333 662 _c
279 662 237 651 208 631 _c
179 610 165 580 165 542 _c
165 510 174 485 194 469 _c
213 452 250 439 304 429 _c
364 417 _l
437 403 491 378 526 343 _c
561 307 579 260 579 201 _c
579 130 555 77 508 41 _c
460 5 391 -13 300 -13 _c
265 -13 228 -9 189 -2 _c
}_e{150 5 110 16 69 32 _c
69 134 _l
109 111 148 94 186 83 _c
224 71 262 66 300 66 _c
356 66 399 77 430 99 _c
460 121 476 152 476 194 _c
476 230 465 258 443 278 _c
421 298 385 313 335 323 _c
275 335 _l
201 349 148 372 115 404 _c
82 435 66 478 66 534 _c
66 598 88 649 134 686 _c
179 723 242 742 322 742 _c
356 742 390 739 426 733 _c
461 727 497 717 535 705 _c
}_e{_cl}_e}_d
/T{611 0 -2 0 614 729 _sc
-2 729 _m
614 729 _l
614 646 _l
355 646 _l
355 0 _l
256 0 _l
256 646 _l
-2 646 _l
-2 729 _l
_cl}_d
/bracketleft{390 0 86 -131 293 760 _sc
86 760 _m
293 760 _l
293 690 _l
176 690 _l
176 -61 _l
293 -61 _l
293 -131 _l
86 -131 _l
86 760 _l
_cl}_d
/bracketright{390 0 97 -131 304 760 _sc
304 760 _m
304 -131 _l
97 -131 _l
97 -61 _l
214 -61 _l
214 690 _l
97 690 _l
97 760 _l
304 760 _l
_cl}_d
/a{{613 0 60 -13 522 560 _sc
343 275 _m
270 275 220 266 192 250 _c
164 233 150 205 150 165 _c
150 133 160 107 181 89 _c
202 70 231 61 267 61 _c
317 61 357 78 387 114 _c
417 149 432 196 432 255 _c
432 275 _l
343 275 _l
522 312 _m
522 0 _l
432 0 _l
432 83 _l
411 49 385 25 355 10 _c
325 -5 287 -13 243 -13 _c
187 -13 142 2 109 33 _c
76 64 60 106 60 159 _c
}_e{60 220 80 266 122 298 _c
163 329 224 345 306 345 _c
432 345 _l
432 354 _l
432 395 418 427 391 450 _c
364 472 326 484 277 484 _c
245 484 215 480 185 472 _c
155 464 127 453 100 439 _c
100 522 _l
132 534 164 544 195 550 _c
226 556 256 560 286 560 _c
365 560 424 539 463 498 _c
502 457 522 395 522 312 _c
_cl}_e}_d
/c{{550 0 55 -13 488 560 _sc
488 526 _m
488 442 _l
462 456 437 466 411 473 _c
385 480 360 484 334 484 _c
276 484 230 465 198 428 _c
166 391 150 339 150 273 _c
150 206 166 154 198 117 _c
230 80 276 62 334 62 _c
360 62 385 65 411 72 _c
437 79 462 90 488 104 _c
488 21 _l
462 9 436 0 410 -5 _c
383 -10 354 -13 324 -13 _c
242 -13 176 12 128 64 _c
}_e{79 115 55 185 55 273 _c
55 362 79 432 128 483 _c
177 534 244 560 330 560 _c
358 560 385 557 411 551 _c
437 545 463 537 488 526 _c
_cl}_e}_d
/e{{615 0 55 -13 562 560 _sc
562 296 _m
562 252 _l
149 252 _l
153 190 171 142 205 110 _c
238 78 284 62 344 62 _c
378 62 412 66 444 74 _c
476 82 509 95 541 113 _c
541 28 _l
509 14 476 3 442 -3 _c
408 -9 373 -13 339 -13 _c
251 -13 182 12 131 62 _c
80 112 55 181 55 268 _c
55 357 79 428 127 481 _c
175 533 241 560 323 560 _c
397 560 455 536 498 489 _c
}_e{540 441 562 377 562 296 _c
472 322 _m
471 371 457 410 431 440 _c
404 469 368 484 324 484 _c
274 484 234 469 204 441 _c
174 413 156 373 152 322 _c
472 322 _l
_cl}_e}_d
/i{278 0 94 0 184 760 _sc
94 547 _m
184 547 _l
184 0 _l
94 0 _l
94 547 _l
94 760 _m
184 760 _l
184 646 _l
94 646 _l
94 760 _l
_cl}_d
/l{278 0 94 0 184 760 _sc
94 760 _m
184 760 _l
184 0 _l
94 0 _l
94 760 _l
_cl}_d
/m{{974 0 91 0 889 560 _sc
520 442 _m
542 482 569 511 600 531 _c
631 550 668 560 711 560 _c
767 560 811 540 842 500 _c
873 460 889 403 889 330 _c
889 0 _l
799 0 _l
799 327 _l
799 379 789 418 771 444 _c
752 469 724 482 686 482 _c
639 482 602 466 575 435 _c
548 404 535 362 535 309 _c
535 0 _l
445 0 _l
445 327 _l
445 379 435 418 417 444 _c
398 469 369 482 331 482 _c
}_e{285 482 248 466 221 435 _c
194 404 181 362 181 309 _c
181 0 _l
91 0 _l
91 547 _l
181 547 _l
181 462 _l
201 495 226 520 255 536 _c
283 552 317 560 357 560 _c
397 560 430 550 458 530 _c
486 510 506 480 520 442 _c
_cl}_e}_d
/n{634 0 91 0 549 560 _sc
549 330 _m
549 0 _l
459 0 _l
459 327 _l
459 379 448 417 428 443 _c
408 469 378 482 338 482 _c
289 482 251 466 223 435 _c
195 404 181 362 181 309 _c
181 0 _l
91 0 _l
91 547 _l
181 547 _l
181 462 _l
202 494 227 519 257 535 _c
286 551 320 560 358 560 _c
420 560 468 540 500 501 _c
532 462 549 405 549 330 _c
_cl}_d
/o{612 0 55 -13 557 560 _sc
306 484 _m
258 484 220 465 192 427 _c
164 389 150 338 150 273 _c
150 207 163 156 191 118 _c
219 80 257 62 306 62 _c
354 62 392 80 420 118 _c
448 156 462 207 462 273 _c
462 337 448 389 420 427 _c
392 465 354 484 306 484 _c
306 560 _m
384 560 445 534 490 484 _c
534 433 557 363 557 273 _c
557 183 534 113 490 63 _c
445 12 384 -13 306 -13 _c
227 -13 165 12 121 63 _c
77 113 55 183 55 273 _c
55 363 77 433 121 484 _c
165 534 227 560 306 560 _c
_cl}_d
/p{{635 0 91 -207 580 560 _sc
181 82 _m
181 -207 _l
91 -207 _l
91 547 _l
181 547 _l
181 464 _l
199 496 223 520 252 536 _c
281 552 316 560 356 560 _c
422 560 476 533 518 481 _c
559 428 580 359 580 273 _c
580 187 559 117 518 65 _c
476 13 422 -13 356 -13 _c
316 -13 281 -5 252 10 _c
223 25 199 49 181 82 _c
487 273 _m
487 339 473 390 446 428 _c
418 466 381 485 334 485 _c
}_e{286 485 249 466 222 428 _c
194 390 181 339 181 273 _c
181 207 194 155 222 117 _c
249 79 286 61 334 61 _c
381 61 418 79 446 117 _c
473 155 487 207 487 273 _c
_cl}_e}_d
/r{411 0 91 0 411 560 _sc
411 463 _m
401 469 390 473 378 476 _c
366 478 353 480 339 480 _c
288 480 249 463 222 430 _c
194 397 181 350 181 288 _c
181 0 _l
91 0 _l
91 547 _l
181 547 _l
181 462 _l
199 495 224 520 254 536 _c
284 552 321 560 365 560 _c
371 560 378 559 386 559 _c
393 558 401 557 411 555 _c
411 463 _l
_cl}_d
/s{{521 0 54 -13 472 560 _sc
443 531 _m
443 446 _l
417 458 391 468 364 475 _c
336 481 308 485 279 485 _c
234 485 200 478 178 464 _c
156 450 145 430 145 403 _c
145 382 153 366 169 354 _c
185 342 217 330 265 320 _c
296 313 _l
360 299 405 279 432 255 _c
458 230 472 195 472 151 _c
472 100 452 60 412 31 _c
372 1 316 -13 246 -13 _c
216 -13 186 -10 154 -5 _c
}_e{122 0 89 8 54 20 _c
54 113 _l
87 95 120 82 152 74 _c
184 65 216 61 248 61 _c
290 61 323 68 346 82 _c
368 96 380 117 380 144 _c
380 168 371 187 355 200 _c
339 213 303 226 247 238 _c
216 245 _l
160 257 119 275 95 299 _c
70 323 58 356 58 399 _c
58 450 76 490 112 518 _c
148 546 200 560 268 560 _c
301 560 332 557 362 552 _c
391 547 418 540 443 531 _c
}_e{_cl}_e}_d
/t{392 0 27 0 368 702 _sc
183 702 _m
183 547 _l
368 547 _l
368 477 _l
183 477 _l
183 180 _l
183 135 189 106 201 94 _c
213 81 238 75 276 75 _c
368 75 _l
368 0 _l
276 0 _l
206 0 158 13 132 39 _c
106 65 93 112 93 180 _c
93 477 _l
27 477 _l
27 547 _l
93 547 _l
93 702 _l
183 702 _l
_cl}_d
/u{634 0 85 -13 543 560 _sc
85 216 _m
85 547 _l
175 547 _l
175 219 _l
175 167 185 129 205 103 _c
225 77 255 64 296 64 _c
344 64 383 79 411 110 _c
439 141 453 183 453 237 _c
453 547 _l
543 547 _l
543 0 _l
453 0 _l
453 84 _l
431 50 405 26 377 10 _c
348 -5 315 -13 277 -13 _c
214 -13 166 6 134 45 _c
101 83 85 140 85 216 _c
311 560 _m
311 560 _l
_cl}_d
end readonly def

/BuildGlyph
 {exch begin
 CharStrings exch
 2 copy known not{pop /.notdef}if
 true 3 1 roll get exec
 end}_d

/BuildChar {
 1 index /Encoding get exch get
 1 index /BuildGlyph get exec
}_d

FontName currentdict end definefont pop
end
%%EndProlog
mpldict begin
90 252 translate
432 288 0 0 clipbox
gsave
0 0 m
432 0 l
432 288 l
0 288 l
cl
1.000 setgray
fill
grestore
gsave
54 36 m
388.8 36 l
388.8 253.44 l
54 253.44 l
cl
1.000 setgray
fill
grestore
0.800 setlinewidth
1 setlinejoin
2 setlinecap
[] 0 setdash
0.690 setgray
gsave
334.8 217.4 54 36 clipbox
54 36 m
54 253.44 l
stroke
grestore
0 setlinecap
0.000 setgray
gsave
/o {
gsave
newpath
translate
0.8 setlinewidth
1 setlinejoin
0 setlinecap
0 0 m
0 -3.5 l

gsave
0.000 setgray
fill
grestore
stroke
grestore
} bind def
54 36 o
grestore
/DejaVuSans findfont
10.000 scalefont
setfont
gsave
50.820312 21.406250 translate
0.000000 rotate
0.000000 0.000000 m /zero glyphshow
grestore
2 setlinecap
0.690 setgray
gsave
334.8 217.4 54 36 clipbox
101.828571 36 m
101.828571 253.44 l
stroke
grestore
0 setlinecap
0.000 setgray
gsave
/o {
gsave
newpath
translate
0.8 setlinewidth
1 setlinejoin
0 setlinecap
0 0 m
0 -3.5 l

gsave
0.000 setgray
fill
grestore
stroke
grestore
} bind def
101.829 36 o
grestore
gsave
92.289509 21.406250 translate
0.000000 rotate
0.000000 0.000000 m /two glyphshow
6.362305 0.000000 m /zero glyphshow
12.724609 0.000000 m /zero glyphshow
grestore
2 setlinecap
0.690 setgray
gsave
334.8 217.4 54 36 clipbox
149.657143 36 m
149.657143 253.44 l
stroke
grestore
0 setlinecap
0.000 setgray
gsave
/o {
gsave
newpath
translate
0.8 setlinewidth
1 setlinejoin
0 setlinecap
0 0 m
0 -3.5 l

gsave
0.000 setgray
fill
grestore
stroke
grestore
} bind def
149.657 36 o
grestore
gsave
140.118080 21.406250 translate
0.000000 rotate
0.000000 0.000000 m /four glyphshow
6.362305 0.000000 m /zero glyphshow
12.724609 0.000000 m /zero glyphshow
grestore
2 setlinecap
0.690 setgray
gsave
334.8 217.4 54 36 clipbox
197.485714 36 m
197.485714 253.44 l
stroke
grestore
0 setlinecap
0.000 setgray
gsave
/o {
gsave
newpath
translate
0.8 setlinewidth
1 setlinejoin
0 setlinecap
0 0 m
0 -3.5 l

gsave
0.000 setgray
fill
grestore
stroke
grestore
} bind def
197.486 36 o
grestore
gsave
187.946652 21.406250 translate
0.000000 rotate
0.000000 0.000000 m /six glyphshow
6.362305 0.000000 m /zero glyphshow
12.724609 0.000000 m /zero glyphshow
grestore
2 setlinecap
0.690 setgray
gsave
334.8 217.4 54 36 clipbox
245.314286 36 m
245.314286 253.44 l
stroke
grestore
0 setlinecap
0.000 setgray
gsave
/o {
gsave
newpath
translate
0.8 setlinewidth
1 setlinejoin
0 setlinecap
0 0 m
0 -3.5 l

gsave
0.000 setgray
fill
grestore
stroke
grestore
} bind def
245.314 36 o
grestore
gsave
235.775223 21.406250 translate
0.000000 rotate
0.000000 0.000000 m /eight glyphshow
6.362305 0.000000 m /zero glyphshow
12.724609 0.000000 m /zero glyphshow
grestore
2 setlinecap
0.690 setgray
gsave
334.8 217.4 54 36 clipbox
293.142857 36 m
293.142857 253.44 l
stroke
grestore
0 setlinecap
0.000 setgray
gsave
/o {
gsave
newpath
translate
0.8 setlinewidth
1 setlinejoin
0 setlinecap
0 0 m
0 -3.5 l

gsave
0.000 setgray
fill
grestore
stroke
grestore
} bind def
293.143 36 o
grestore
gsave
280.424107 21.406250 translate
0.000000 rotate
0.000000 0.000000 m /one glyphshow
6.362305 0.000000 m /zero glyphshow
12.724609 0.000000 m /zero glyphshow
19.086914 0.000000 m /zero glyphshow
grestore
2 setlinecap
0.690 setgray
gsave
334.8 217.4 54 36 clipbox
340.971429 36 m
340.971429 253.44 l
stroke
grestore
0 setlinecap
0.000 setgray
gsave
/o {
gsave
newpath
translate
0.8 setlinewidth
1 setlinejoin
0 setlinecap
0 0 m
0 -3.5 l

gsave
0.000 setgray
fill
grestore
stroke
grestore
} bind def
340.971 36 o
grestore
gsave
328.252679 21.406250 translate
0.000000 rotate
0.000000 0.000000 m /one glyphshow
6.362305 0.000000 m /two glyphshow
12.724609 0.000000 m /zero glyphshow
19.086914 0.000000 m /zero glyphshow
grestore
2 setlinecap
0.690 setgray
gsave
334.8 217.4 54 36 clipbox
388.8 36 m
388.8 253.44 l
stroke
grestore
0 setlinecap
0.000 setgray
gsave
/o {
gsave
newpath
translate
0.8 setlinewidth
1 setlinejoin
0 setlinecap
0 0 m
0 -3.5 l

gsave
0.000 setgray
fill
grestore
stroke
grestore
} bind def
388.8 36 o
grestore
gsave
376.081250 21.406250 translate
0.000000 rotate
0.000000 0.000000 m /one glyphshow
6.362305 0.000000 m /four glyphshow
12.724609 0.000000 m /zero glyphshow
19.086914 0.000000 m /zero glyphshow
grestore
gsave
200.892188 7.734375 translate
0.000000 rotate
0.000000 0.000000 m /T glyphshow
6.108398 0.000000 m /i glyphshow
8.886719 0.000000 m /m glyphshow
18.627930 0.000000 m /e glyphshow
24.780273 0.000000 m /space glyphshow
27.958984 0.000000 m /bracketleft glyphshow
31.860352 0.000000 m /s glyphshow
37.070312 0.000000 m /bracketright glyphshow
grestore
2 setlinecap
0.690 setgray
gsave
334.8 217.4 54 36 clipbox
54 36 m
388.8 36 l
stroke
grestore
0 setlinecap
0.000 setgray
gsave
/o {
gsave
newpath
translate
0.8 setlinewidth
1 setlinejoin
0 setlinecap
0 0 m
-3.5 0 l

gsave
0.000 setgray
fill
grestore
stroke
grestore
} bind def
54 36 o
grestore
gsave
27.921875 32.203125 translate
0.000000 rotate
0.000000 0.000000 m /one glyphshow
6.362305 0.000000 m /eight glyphshow
12.724609 0.000000 m /zero glyphshow
grestore
2 setlinecap
0.690 setgray
gsave
334.8 217.4 54 36 clipbox
54 79.488 m
388.8 79.488 l
stroke
grestore
0 setlinecap
0.000 setgray
gsave
/o {
gsave
newpath
translate
0.8 setlinewidth
1 setlinejoin
0 setlinecap
0 0 m
-3.5 0 l

gsave
0.000 setgray
fill
grestore
stroke
grestore
} bind def
54 79.488 o
grestore
gsave
27.921875 75.691125 translate
0.000000 rotate
0.000000 0.000000 m /two glyphshow
6.362305 0.000000 m /zero glyphshow
12.724609 0.000000 m /zero glyphshow
grestore
2 setlinecap
0.690 setgray
gsave
334.8 217.4 54 36 clipbox
54 122.976 m
388.8 122.976 l
stroke
grestore
0 setlinecap
0.000 setgray
gsave
/o {
gsave
newpath
translate
0.8 setlinewidth
1 setlinejoin
0 setlinecap
0 0 m
-3.5 0 l

gsave
0.000 setgray
fill
grestore
stroke
grestore
} bind def
54 122.976 o
grestore
gsave
27.921875 119.179125 translate
0.000000 rotate
0.000000 0.000000 m /two glyphshow
6.362305 0.000000 m /two glyphshow
12.724609 0.000000 m /zero glyphshow
grestore
2 setlinecap
0.690 setgray
gsave
334.8 217.4 54 36 clipbox
54 166.464 m
388.8 166.464 l
stroke
grestore
0 setlinecap
0.000 setgray
gsave
/o {
gsave
newpath
translate
0.8 setlinewidth
1 setlinejoin
0 setlinecap
0 0 m
-3.5 0 l

gsave
0.000 setgray
fill
grestore
stroke
grestore
} bind def
54 166.464 o
grestore
gsave
27.921875 162.667125 translate
0.000000 rotate
0.000000 0.000000 m /two glyphshow
6.362305 0.000000 m /four glyphshow
12.724609 0.000000 m /zero glyphshow
grestore
2 setlinecap
0.690 setgray
gsave
334.8 217.4 54 36 clipbox
54 209.952 m
388.8 209.952 l
stroke
grestore
0 setlinecap
0.000 setgray
gsave
/o {
gsave
newpath
translate
0.8 setlinewidth
1 setlinejoin
0 setlinecap
0 0 m
-3.5 0 l

gsave
0.000 setgray
fill
grestore
stroke
grestore
} bind def
54 209.952 o
grestore
gsave
27.921875 206.155125 translate
0.000000 rotate
0.000000 0.000000 m /two glyphshow
6.362305 0.000000 m /six glyphshow
12.724609 0.000000 m /zero glyphshow
grestore
2 setlinecap
0.690 setgray
gsave
334.8 217.4 54 36 clipbox
54 253.44 m
388.8 253.44 l
stroke
grestore
0 setlinecap
0.000 setgray
gsave
/o {
gsave
newpath
translate
0.8 setlinewidth
1 setlinejoin
0 setlinecap
0 0 m
-3.5 0 l

gsave
0.000 setgray
fill
grestore
stroke
grestore
} bind def
54 253.44 o
grestore
gsave
27.921875 249.643125 translate
0.000000 rotate
0.000000 0.000000 m /two glyphshow
6.362305 0.000000 m /eight glyphshow
12.724609 0.000000 m /zero glyphshow
grestore
gsave
21.843750 103.837187 translate
90.000000 rotate
0.000000 0.000000 m /T glyphshow
6.092773 0.000000 m /e glyphshow
12.245117 0.000000 m /m glyphshow
21.986328 0.000000 m /p glyphshow
28.333984 0.000000 m /e glyphshow
34.486328 0.000000 m /r glyphshow
38.597656 0.000000 m /a glyphshow
44.725586 0.000000 m /t glyphshow
48.646484 0.000000 m /u glyphshow
54.984375 0.000000 m /r glyphshow
59.095703 0.000000 m /e glyphshow
65.248047 0.000000 m /space glyphshow
68.426758 0.000000 m /bracketleft glyphshow
72.328125 0.000000 m /c glyphshow
77.826172 0.000000 m /bracketright glyphshow
grestore
1.500 setlinewidth
2 setlinecap
gsave
334.8 217.4 54 36 clipbox
54 127.318673 m
65.000571 127.205376 l
65.239714 124.691657 l
65.478857 117.444087 l
65.718 117.334411 l
65.957143 113.684195 l
66.196286 119.005642 l
66.435429 126.991376 l
66.674571 125.256221 l
66.913714 124.371887 l
67.152857 114.12767 l
67.392 121.968116 l
67.631143 115.890206 l
67.870286 121.511649 l
68.109429 111.070578 l
68.587714 107.906224 l
68.826857 100.238469 l
69.066 134.715932 l
69.305143 121.976729 l
69.544286 162.652085 l
69.783429 159.340553 l
70.022571 171.165858 l
71.696571 101.566616 l
72.174857 115.649209 l
72.414 138.076758 l
72.653143 137.185389 l
72.892286 137.434578 l
73.370571 128.643439 l
73.848857 127.237904 l
76.479429 127.222143 l
76.718571 124.932497 l
76.957714 94.914473 l
77.196857 115.949523 l
77.436 95.083853 l
77.675143 126.591622 l
78.153429 135.218681 l
78.392571 143.539462 l
78.631714 145.134779 l
79.11 152.6955 l
79.588286 127.889225 l
80.066571 125.318666 l
80.305714 122.01642 l
80.544857 124.643987 l
80.784 123.813899 l
81.023143 122.010248 l
81.262286 126.417495 l
81.501429 128.475941 l
81.740571 126.141734 l
81.979714 126.835311 l
82.218857 126.900851 l
82.697143 109.384424 l
82.936286 111.185437 l
83.175429 104.081524 l
83.414571 113.834703 l
83.653714 118.714345 l
83.892857 116.762756 l
84.371143 129.50001 l
84.610286 129.924103 l
84.849429 136.034144 l
85.088571 130.783946 l
85.327714 132.38874 l
85.566857 132.206013 l
85.806 133.14704 l
86.045143 132.834469 l
86.284286 130.378582 l
86.523429 129.784329 l
86.762571 128.320905 l
87.001714 127.85829 l
87.240857 127.09003 l
87.48 127.147499 l
87.719143 127.08188 l
88.197429 127.14487 l
88.436571 126.595641 l
88.914857 99.815212 l
89.154 121.487768 l
89.393143 100.378941 l
89.632286 136.921694 l
89.871429 127.54298 l
90.110571 130.125178 l
90.349714 126.044344 l
90.588857 118.164706 l
90.828 115.519455 l
91.067143 108.252512 l
91.306286 109.486305 l
91.545429 103.538818 l
91.784571 128.593321 l
92.023714 116.426481 l
92.262857 137.099895 l
92.741143 128.51517 l
92.980286 128.16666 l
93.219429 127.470656 l
93.458571 127.972847 l
93.697714 134.91596 l
93.936857 131.258337 l
94.176 138.571884 l
94.415143 133.697923 l
94.654286 133.433886 l
95.132571 137.514526 l
95.610857 152.508169 l
95.85 140.266254 l
96.089143 137.920655 l
96.328286 123.637 l
96.567429 119.651297 l
96.806571 124.643872 l
97.045714 126.498356 l
97.284857 124.960599 l
97.524 132.010369 l
97.763143 133.754455 l
98.002286 143.822796 l
98.480571 141.793224 l
98.958857 131.229274 l
99.198 127.969556 l
99.437143 128.375865 l
99.676286 127.164099 l
100.154571 127.154695 l
100.393714 126.593717 l
100.632857 122.07526 l
100.872 65.286743 l
101.111143 93.415586 l
101.350286 78.886293 l
101.828571 144.347576 l
102.067714 144.487135 l
102.306857 135.999003 l
102.546 138.94266 l
103.024286 157.186416 l
103.263429 151.19436 l
103.502571 110.654142 l
103.980857 91.361886 l
104.22 109.37939 l
104.459143 137.547975 l
104.698286 147.950681 l
104.937429 163.945042 l
105.176571 156.476263 l
105.415714 157.56623 l
105.654857 147.790617 l
105.894 127.063366 l
106.133143 125.364451 l
106.372286 129.469978 l
106.611429 139.714736 l
106.850571 137.781634 l
107.328857 125.530442 l
107.568 115.286635 l
108.046286 108.820507 l
108.285429 107.485003 l
108.524571 102.43954 l
108.763714 119.068708 l
109.002857 116.140813 l
109.242 131.579781 l
109.481143 134.27502 l
109.720286 139.701589 l
109.959429 147.754412 l
110.198571 161.206408 l
110.437714 166.75361 l
110.676857 168.447288 l
111.633429 128.722168 l
111.872571 127.270807 l
114.503143 127.222063 l
114.742286 125.957846 l
115.220571 117.519063 l
115.459714 116.157913 l
115.698857 115.974037 l
115.938 123.196528 l
116.655429 131.379646 l
117.133714 125.777316 l
117.372857 132.065413 l
117.612 122.252425 l
117.851143 131.218785 l
118.090286 126.610194 l
118.329429 128.618151 l
118.568571 127.236609 l
118.807714 128.449623 l
119.046857 127.217573 l
119.525143 127.153635 l
119.764286 119.393109 l
120.003429 79.200376 l
120.242571 112.550357 l
120.481714 83.376754 l
120.720857 120.545004 l
120.96 137.685269 l
121.199143 130.168282 l
121.438286 137.844359 l
121.677429 124.488843 l
121.916571 122.093533 l
122.155714 112.153889 l
122.394857 107.908275 l
122.873143 107.001121 l
123.112286 117.311904 l
123.351429 121.492065 l
123.590571 130.931825 l
123.829714 134.436494 l
124.068857 125.337572 l
124.308 138.238799 l
124.547143 135.445829 l
124.786286 135.963809 l
125.025429 142.122175 l
125.503714 140.695965 l
125.742857 145.995018 l
126.221143 134.676547 l
126.699429 109.337597 l
126.938571 107.206831 l
127.416857 124.36643 l
127.656 141.864501 l
127.895143 143.605146 l
128.134286 136.830139 l
128.373429 136.228687 l
128.612571 130.642116 l
128.851714 128.1466 l
129.090857 127.118065 l
130.764857 127.103128 l
131.004 125.136967 l
131.243143 113.302761 l
131.482286 125.520312 l
131.721429 117.010547 l
131.960571 126.505169 l
132.199714 121.265809 l
132.438857 107.823007 l
132.678 111.179702 l
132.917143 112.945207 l
133.395429 133.123113 l
133.634571 132.582224 l
134.352 117.444244 l
134.591143 114.540596 l
134.830286 125.107655 l
135.069429 125.759078 l
135.308571 136.676201 l
135.547714 132.657948 l
135.786857 131.228185 l
136.026 127.499163 l
136.265143 127.014783 l
142.004571 126.974005 l
143.678571 126.98652 l
148.222286 126.938974 l
148.461429 126.111715 l
148.700571 124.354501 l
148.939714 125.617285 l
149.178857 125.179537 l
149.418 125.976894 l
149.657143 121.813979 l
149.896286 109.837156 l
150.374571 103.337247 l
150.852857 119.887099 l
151.092 123.196097 l
151.331143 123.952702 l
151.570286 117.071592 l
151.809429 124.410816 l
152.048571 126.494462 l
152.287714 131.459788 l
152.526857 132.73634 l
152.766 127.895769 l
153.244286 110.204529 l
153.483429 104.302304 l
153.722571 108.815897 l
154.200857 127.306275 l
154.44 127.970222 l
154.679143 124.986965 l
154.918286 113.462859 l
155.157429 111.443869 l
155.396571 113.206899 l
155.635714 113.110823 l
155.874857 119.998245 l
156.114 117.686333 l
156.353143 114.15818 l
156.592286 130.198329 l
156.831429 132.151922 l
157.070571 138.817094 l
157.548857 120.599653 l
157.788 122.453311 l
158.505429 139.482626 l
158.744571 127.46512 l
158.983714 132.985808 l
159.222857 127.328363 l
159.462 134.015002 l
159.940286 127.562334 l
160.418571 126.752579 l
169.506 126.719877 l
171.897429 126.712584 l
172.136571 126.363555 l
172.375714 120.750989 l
172.854 98.098607 l
173.093143 114.517302 l
173.332286 105.512413 l
173.571429 132.286568 l
173.810571 122.0037 l
174.049714 129.414545 l
174.288857 119.720044 l
174.528 134.579646 l
174.767143 126.088529 l
175.006286 134.912377 l
175.245429 128.68446 l
175.484571 128.898791 l
175.723714 114.717487 l
175.962857 126.054001 l
176.202 131.988272 l
176.441143 134.046637 l
176.680286 170.435671 l
176.919429 153.910593 l
177.158571 159.210008 l
177.876 127.71052 l
178.115143 126.549079 l
178.354286 126.104246 l
178.593429 125.162376 l
178.832571 125.048929 l
179.071714 124.430641 l
179.55 126.791647 l
179.789143 126.901624 l
180.028286 127.576237 l
180.506571 124.05301 l
180.745714 123.125603 l
180.984857 119.131628 l
181.224 111.45491 l
181.463143 108.490123 l
181.702286 108.413677 l
181.941429 113.051798 l
182.419714 133.570279 l
182.658857 129.875881 l
183.376286 103.30937 l
183.615429 59.340037 l
183.854571 98.280849 l
184.093714 76.606884 l
184.572 145.679388 l
184.811143 140.32775 l
185.050286 143.433265 l
185.289429 131.320356 l
185.528571 129.851507 l
185.767714 122.527832 l
186.006857 142.539783 l
186.246 142.766729 l
186.485143 163.512491 l
186.724286 168.482596 l
187.202571 164.024623 l
187.92 142.855233 l
188.159143 132.812033 l
188.637429 126.786903 l
190.072286 126.759772 l
197.246571 126.737911 l
197.485714 125.487666 l
197.724857 118.560158 l
198.203143 98.840179 l
198.442286 106.882183 l
198.681429 106.280606 l
198.920571 125.991698 l
199.159714 124.50819 l
199.638 127.890914 l
199.877143 128.503062 l
200.116286 134.242032 l
200.355429 131.958308 l
200.594571 132.007202 l
200.833714 131.941671 l
201.072857 127.453165 l
201.312 127.286522 l
201.551143 128.339206 l
201.790286 125.026488 l
202.029429 128.39455 l
202.268571 129.111278 l
202.746857 127.033345 l
202.986 124.592883 l
203.225143 127.942089 l
203.464286 124.088055 l
203.703429 123.037486 l
203.942571 127.823991 l
204.420857 118.654512 l
204.66 116.464902 l
204.899143 104.079555 l
205.138286 109.11759 l
205.377429 118.278876 l
205.616571 121.583922 l
205.855714 130.987436 l
206.334 125.025419 l
206.573143 126.115223 l
206.812286 125.958532 l
207.051429 126.053431 l
207.290571 126.381271 l
207.768857 126.373731 l
208.247143 125.72689 l
208.486286 123.960219 l
208.725429 123.028211 l
208.964571 126.096708 l
209.203714 124.972677 l
209.442857 129.398913 l
209.921143 128.286584 l
210.160286 129.092135 l
210.399429 128.809408 l
210.877714 129.565832 l
211.356 126.009385 l
211.595143 125.773107 l
211.834286 122.921791 l
212.073429 124.516898 l
212.312571 122.084523 l
212.551714 123.512345 l
212.790857 122.533401 l
213.03 124.088568 l
213.269143 124.728915 l
213.508286 123.252476 l
213.747429 125.497719 l
213.986571 122.56994 l
214.225714 124.188506 l
214.464857 122.805237 l
214.704 122.72604 l
214.943143 122.842151 l
215.182286 123.336007 l
215.421429 123.110412 l
215.660571 123.734434 l
215.899714 122.97435 l
216.138857 123.004711 l
216.378 122.28926 l
216.617143 122.637137 l
217.095429 122.35405 l
217.334571 123.070316 l
217.573714 123.006751 l
217.812857 123.199017 l
218.052 125.265832 l
218.291143 121.093191 l
219.008571 101.769772 l
219.247714 113.220234 l
219.486857 114.199764 l
219.726 127.833188 l
220.204286 123.490915 l
220.443429 124.547201 l
220.682571 123.278272 l
220.921714 124.751029 l
221.160857 123.242268 l
221.4 125.037794 l
221.639143 123.384122 l
221.878286 124.072893 l
222.117429 122.552662 l
222.356571 122.354478 l
222.595714 121.981299 l
222.834857 122.480614 l
223.074 122.196835 l
223.313143 122.638142 l
223.552286 122.651728 l
223.791429 122.879296 l
224.030571 122.417395 l
224.269714 122.69353 l
224.508857 123.713689 l
224.748 123.900101 l
224.987143 125.020237 l
225.226286 125.591709 l
225.465429 125.01049 l
225.704571 126.837456 l
225.943714 126.277286 l
226.182857 126.037575 l
226.422 124.023474 l
226.661143 123.501634 l
227.139429 123.087048 l
227.378571 124.66043 l
227.617714 123.098388 l
227.856857 123.039736 l
228.096 122.591809 l
228.335143 123.161586 l
228.574286 122.482655 l
228.813429 123.270147 l
229.052571 102.597336 l
229.291714 141.482613 l
229.530857 144.490835 l
230.009143 189.02493 l
230.248286 156.60661 l
230.487429 145.084757 l
230.726571 118.538866 l
230.965714 111.395594 l
231.204857 121.403551 l
231.444 110.480805 l
231.683143 130.7946 l
231.922286 121.156258 l
232.400571 132.130831 l
232.639714 128.740099 l
232.878857 133.378993 l
233.118 128.242529 l
233.357143 125.506665 l
233.596286 125.14293 l
233.835429 122.983839 l
234.074571 123.814249 l
234.313714 122.155799 l
234.552857 126.627647 l
234.792 121.202856 l
235.031143 127.290229 l
235.270286 126.003544 l
235.509429 123.725131 l
235.748571 127.115185 l
235.987714 120.446196 l
236.226857 127.497725 l
236.466 121.861706 l
236.705143 127.633772 l
236.944286 124.680663 l
237.183429 123.55093 l
237.422571 120.37613 l
237.661714 128.197974 l
237.900857 123.219919 l
238.14 126.445033 l
238.857429 110.895782 l
239.096571 110.667666 l
239.335714 113.977476 l
239.574857 129.292222 l
239.814 133.465178 l
240.053143 148.81942 l
240.292286 143.008053 l
240.531429 126.771401 l
240.770571 119.739293 l
241.009714 119.796847 l
241.248857 117.323539 l
241.488 132.567373 l
241.727143 130.26713 l
241.966286 124.392334 l
242.205429 122.53615 l
242.444571 108.068513 l
242.683714 110.197589 l
242.922857 115.730381 l
243.162 115.409335 l
243.401143 129.277341 l
243.640286 127.224744 l
243.879429 126.438627 l
244.118571 125.06887 l
244.357714 128.089185 l
244.596857 127.249527 l
244.836 123.530546 l
245.314286 113.488727 l
245.553429 107.995186 l
245.792571 107.704575 l
246.031714 105.081845 l
246.270857 99.429373 l
246.51 115.76151 l
246.749143 112.80151 l
246.988286 122.757151 l
247.227429 138.961347 l
247.466571 132.946028 l
247.705714 144.337496 l
247.944857 145.866977 l
248.184 125.584565 l
248.423143 134.439872 l
248.662286 112.535704 l
248.901429 127.744608 l
249.140571 126.631327 l
249.618857 133.201701 l
250.097143 124.533317 l
250.336286 127.208869 l
250.575429 122.683098 l
250.814571 128.132536 l
251.532 123.436349 l
251.771143 127.377186 l
252.010286 124.009086 l
252.249429 129.282027 l
252.488571 126.217335 l
252.966857 124.003955 l
253.206 123.53253 l
253.445143 123.310124 l
253.923429 123.808002 l
254.162571 123.443971 l
254.401714 123.981057 l
254.640857 123.869719 l
254.88 122.949007 l
255.119143 124.250895 l
255.358286 122.540711 l
255.597429 123.738647 l
255.836571 123.148521 l
256.075714 126.454765 l
256.314857 123.965654 l
256.554 126.273516 l
256.793143 123.768663 l
257.032286 123.129216 l
257.271429 122.847121 l
257.510571 123.308022 l
257.988857 123.449526 l
258.228 119.821454 l
258.467143 126.263724 l
258.706286 120.779207 l
258.945429 127.397185 l
259.184571 124.538625 l
259.423714 124.282785 l
259.662857 122.976307 l
259.902 122.950157 l
260.141143 123.212936 l
260.380286 105.531502 l
260.619429 125.521851 l
260.858571 99.01069 l
261.097714 122.706148 l
261.336857 119.95267 l
261.576 123.937643 l
261.815143 121.586913 l
262.054286 121.444167 l
262.293429 113.365865 l
262.532571 113.229679 l
262.771714 113.638711 l
263.010857 113.768701 l
263.25 116.996866 l
263.489143 114.703281 l
264.206571 129.804896 l
264.445714 140.756567 l
264.684857 159.097952 l
264.924 153.907549 l
265.163143 165.827835 l
265.402286 167.105537 l
265.641429 151.902437 l
265.880571 153.575346 l
266.358857 139.816645 l
266.598 139.797838 l
266.837143 145.343582 l
267.076286 143.665953 l
267.315429 144.828365 l
267.554571 138.125566 l
268.272 101.270389 l
268.511143 112.050406 l
268.750286 102.913135 l
268.989429 125.920383 l
269.228571 124.195418 l
269.467714 138.920474 l
269.706857 135.803635 l
269.946 139.279355 l
270.185143 133.410148 l
270.424286 132.738776 l
270.663429 127.107257 l
270.902571 129.663413 l
271.141714 125.441689 l
271.380857 128.852907 l
271.62 127.319144 l
271.859143 128.463354 l
272.098286 125.807945 l
272.337429 125.860825 l
272.576571 123.229317 l
272.815714 125.89127 l
273.054857 123.579061 l
273.294 122.741583 l
273.533143 126.827856 l
273.772286 122.148063 l
274.250571 126.226557 l
274.489714 123.331988 l
274.728857 127.826347 l
274.968 128.067565 l
275.207143 127.343838 l
275.446286 129.309769 l
275.685429 127.207989 l
275.924571 128.187019 l
276.163714 127.773281 l
276.642 127.611328 l
276.881143 130.711481 l
277.120286 127.698617 l
277.359429 131.533354 l
277.598571 130.539882 l
277.837714 125.364978 l
278.076857 127.341279 l
278.316 121.624258 l
278.555143 123.046379 l
278.794286 122.41026 l
279.033429 124.73287 l
279.272571 121.54462 l
279.511714 124.273247 l
279.750857 123.063816 l
279.99 123.334755 l
280.229143 124.518469 l
280.707429 122.300518 l
280.946571 122.465027 l
281.185714 121.268951 l
281.424857 120.799286 l
281.664 120.669595 l
281.903143 120.869461 l
282.142286 120.843986 l
282.381429 121.084772 l
282.620571 120.821217 l
282.859714 121.754097 l
283.098857 120.852511 l
283.338 121.947953 l
283.577143 121.231635 l
283.816286 121.261981 l
284.055429 121.826025 l
284.294571 121.056433 l
284.533714 122.074876 l
284.772857 120.746545 l
285.012 122.546902 l
285.251143 121.21476 l
285.490286 122.612262 l
285.729429 122.105749 l
286.686 122.157078 l
286.925143 122.313229 l
287.164286 122.051611 l
287.403429 121.966274 l
287.642571 123.130463 l
287.881714 122.132623 l
288.120857 122.767688 l
288.36 122.592681 l
288.599143 121.106163 l
288.838286 121.645636 l
289.316571 123.49989 l
289.794857 125.136195 l
290.034 124.904376 l
290.273143 123.97721 l
290.512286 124.042288 l
290.990571 122.055397 l
291.229714 121.636894 l
291.468857 123.092534 l
291.708 122.19195 l
291.947143 120.397584 l
292.186286 123.717795 l
292.425429 119.393103 l
292.664571 125.087399 l
292.903714 125.291329 l
293.142857 125.658536 l
293.382 127.488985 l
293.621143 124.140688 l
293.860286 124.411749 l
294.099429 122.302509 l
294.338571 122.021819 l
294.577714 122.323422 l
294.816857 121.913563 l
295.056 122.164397 l
295.534286 121.165113 l
295.773429 122.282419 l
296.012571 122.168623 l
296.251714 123.532264 l
296.490857 121.901579 l
296.73 121.752565 l
296.969143 126.373889 l
297.208286 120.766524 l
297.447429 127.772469 l
297.925714 123.798563 l
298.164857 126.025784 l
298.404 123.004637 l
298.643143 121.835311 l
298.882286 121.233171 l
299.121429 121.184855 l
299.360571 121.331919 l
299.599714 121.339262 l
300.078 121.528648 l
300.556286 121.623584 l
300.795429 121.478414 l
301.034571 122.180517 l
301.273714 121.615262 l
301.512857 122.235234 l
301.752 121.88955 l
301.991143 121.84621 l
302.230286 121.675007 l
302.469429 122.006757 l
302.708571 121.93486 l
302.947714 122.239921 l
303.186857 121.671638 l
303.426 122.966363 l
303.665143 123.226367 l
303.904286 122.41906 l
304.143429 125.427258 l
304.382571 121.95844 l
304.621714 124.211028 l
304.860857 122.376118 l
305.1 122.337516 l
305.578286 122.023829 l
306.295714 122.795089 l
306.534857 122.082564 l
306.774 122.308131 l
307.013143 122.759733 l
307.252286 123.624273 l
307.491429 122.651758 l
307.730571 124.76907 l
307.969714 123.7498 l
308.208857 123.24653 l
308.448 124.593654 l
308.687143 122.487623 l
308.926286 122.663313 l
309.165429 122.23091 l
309.404571 122.165688 l
309.643714 123.519083 l
309.882857 122.905972 l
310.361143 123.701082 l
310.600286 108.611791 l
310.839429 145.539124 l
311.078571 106.728235 l
311.317714 145.312903 l
311.556857 121.491663 l
311.796 123.300533 l
312.035143 124.149433 l
312.274286 122.934236 l
312.513429 123.580292 l
312.752571 123.147491 l
312.991714 123.710362 l
313.230857 123.69726 l
313.47 123.017008 l
313.709143 124.418828 l
313.948286 123.006534 l
314.187429 124.42767 l
314.426571 123.718572 l
314.665714 123.74633 l
314.904857 123.035936 l
315.144 124.461497 l
315.383143 123.265103 l
315.622286 124.340109 l
315.861429 123.46822 l
316.100571 123.833032 l
316.339714 123.145651 l
316.578857 123.828707 l
316.818 123.412321 l
317.057143 123.479729 l
317.296286 122.996042 l
317.535429 123.826147 l
317.774571 123.200935 l
318.252857 123.779926 l
318.731143 123.451287 l
318.970286 124.114456 l
319.209429 123.438975 l
319.448571 123.892725 l
320.166 123.879941 l
320.405143 123.590579 l
320.644286 124.332517 l
320.883429 122.669381 l
321.122571 125.349472 l
321.361714 126.710656 l
321.600857 125.138177 l
321.84 128.015264 l
322.079143 124.528018 l
322.318286 125.01712 l
322.557429 123.59188 l
322.796571 125.212227 l
323.035714 123.696262 l
323.274857 124.9979 l
323.753143 125.009372 l
324.231429 125.113286 l
324.470571 125.388791 l
324.709714 124.674324 l
324.948857 124.85997 l
325.188 124.127963 l
325.666286 124.078586 l
327.340286 124.113396 l
327.579429 124.325909 l
327.818571 123.549669 l
328.057714 124.182126 l
328.296857 123.739723 l
328.536 123.719932 l
328.775143 124.026433 l
329.014286 123.558879 l
329.492571 123.577357 l
329.970857 123.649806 l
330.21 124.475981 l
330.449143 123.603886 l
330.688286 124.415886 l
330.927429 123.685143 l
331.166571 125.5618 l
331.405714 124.555584 l
331.644857 125.724362 l
332.123143 124.512293 l
332.362286 125.139051 l
332.601429 124.442937 l
332.840571 124.773125 l
333.079714 123.976971 l
333.318857 123.810203 l
333.558 124.157671 l
334.036286 123.946484 l
334.275429 125.283391 l
334.514571 123.710225 l
334.753714 125.517767 l
334.992857 124.388844 l
335.232 125.488459 l
335.471143 124.994996 l
335.710286 127.214789 l
335.949429 126.721212 l
336.188571 125.390818 l
336.427714 126.5352 l
336.666857 126.160528 l
336.906 126.580623 l
337.145143 140.818693 l
337.384286 121.853491 l
337.623429 140.794208 l
337.862571 119.750292 l
338.101714 125.916123 l
338.340857 124.480536 l
338.58 128.453548 l
338.819143 125.254496 l
339.058286 130.495198 l
339.297429 125.66808 l
339.536571 125.165366 l
339.775714 125.422886 l
340.014857 125.271892 l
340.254 126.642523 l
340.732286 126.765911 l
341.210571 125.454295 l
341.449714 123.845543 l
341.688857 124.285424 l
341.928 122.450574 l
342.167143 132.065488 l
342.406286 124.57423 l
342.645429 132.836229 l
342.884571 120.299151 l
343.123714 133.963811 l
343.602 124.691435 l
343.841143 125.634799 l
344.319429 111.016887 l
344.558571 122.516294 l
344.797714 115.73394 l
345.036857 131.891797 l
345.276 118.465979 l
345.515143 141.738527 l
345.754286 131.337599 l
345.993429 132.950497 l
346.232571 136.696814 l
346.471714 127.873701 l
346.710857 131.839458 l
346.95 128.098508 l
347.189143 127.612241 l
347.428286 130.483745 l
347.667429 123.371619 l
347.906571 128.038648 l
348.384857 126.524952 l
348.624 123.996748 l
348.863143 132.927281 l
349.102286 134.752697 l
349.341429 171.851554 l
349.580571 170.654973 l
349.819714 188.840907 l
350.058857 156.296187 l
350.298 143.761439 l
350.537143 142.874162 l
350.776286 110.355182 l
351.015429 146.737276 l
351.254571 116.814546 l
351.493714 130.600623 l
351.732857 128.181196 l
351.972 129.189929 l
352.211143 131.270142 l
352.450286 131.076544 l
352.928571 128.877636 l
353.167714 129.853871 l
353.406857 127.293042 l
353.646 127.447901 l
353.885143 123.1715 l
354.124286 124.459115 l
354.363429 134.441972 l
354.602571 117.88731 l
354.841714 141.970711 l
355.080857 116.401374 l
355.32 128.497505 l
355.559143 124.083224 l
355.798286 127.617517 l
356.037429 125.783942 l
356.276571 127.738485 l
356.515714 127.486417 l
356.754857 125.413802 l
356.994 127.193914 l
357.233143 124.148472 l
357.472286 123.773882 l
357.711429 124.430861 l
357.950571 122.837065 l
358.189714 126.195331 l
358.428857 123.183223 l
358.668 127.303047 l
358.907143 125.368956 l
359.146286 103.423855 l
359.385429 128.277072 l
359.624571 100.50962 l
360.102857 142.176481 l
360.342 115.730061 l
360.581143 145.365964 l
360.820286 119.856478 l
361.059429 125.172115 l
361.298571 124.185627 l
361.537714 126.391471 l
361.776857 123.908744 l
362.016 127.508079 l
362.255143 125.835215 l
362.494286 128.107789 l
362.733429 128.775509 l
362.972571 128.260652 l
363.450857 123.837808 l
363.69 126.248612 l
363.929143 124.75353 l
364.168286 128.051063 l
364.407429 129.57588 l
364.646571 126.433295 l
364.885714 129.982344 l
365.124857 123.86271 l
365.364 128.563255 l
365.603143 125.338813 l
366.081429 128.679421 l
366.320571 125.418851 l
367.038 125.219298 l
367.277143 123.694678 l
367.516286 125.702084 l
367.755429 123.124545 l
367.994571 124.50977 l
368.233714 130.343559 l
368.472857 127.004032 l
368.712 131.166675 l
368.951143 125.583732 l
369.190286 124.780963 l
369.429429 122.734678 l
369.668571 124.775642 l
369.907714 124.57467 l
370.146857 125.408836 l
370.386 123.972893 l
370.625143 124.79911 l
370.864286 123.400451 l
371.103429 95.988296 l
371.342571 133.21266 l
371.581714 96.26722 l
371.820857 130.390958 l
372.06 125.578122 l
372.299143 116.062715 l
372.538286 122.477718 l
372.777429 119.609947 l
373.494857 142.881893 l
373.973143 147.286234 l
374.212286 145.366473 l
374.451429 151.380527 l
374.690571 153.015969 l
374.929714 166.026216 l
375.168857 187.83676 l
375.408 192.613667 l
375.647143 209.4362 l
375.886286 205.739099 l
376.364571 185.284823 l
376.603714 177.891361 l
376.842857 163.368647 l
377.082 166.782247 l
377.321143 155.855832 l
377.560286 154.943863 l
378.038571 149.048957 l
378.756 131.994835 l
378.995143 128.898805 l
379.473429 126.378859 l
380.190857 126.366504 l
380.190857 126.366504 l
stroke
grestore
1.000 0.000 0.000 setrgbcolor
gsave
334.8 217.4 54 36 clipbox
54 127.318673 m
65.000571 127.205376 l
65.239714 124.691657 l
65.478857 117.444087 l
65.718 117.334411 l
65.957143 113.684195 l
66.196286 119.005642 l
66.435429 126.991376 l
66.674571 125.256221 l
66.913714 124.371887 l
67.152857 114.12767 l
67.392 121.968116 l
67.631143 115.890206 l
67.870286 121.511649 l
68.109429 111.070578 l
68.587714 107.906224 l
68.826857 100.238469 l
69.066 134.715932 l
69.305143 121.976729 l
69.544286 162.652085 l
69.783429 159.340553 l
70.022571 171.165858 l
71.696571 101.566616 l
72.174857 115.649209 l
72.414 138.076758 l
72.653143 137.185389 l
72.892286 137.434578 l
73.370571 128.643439 l
73.848857 127.237904 l
76.479429 127.222143 l
76.718571 124.932497 l
76.957714 94.914473 l
77.196857 115.949523 l
77.436 95.083853 l
77.675143 126.591622 l
78.153429 135.218681 l
78.392571 143.539462 l
78.631714 145.134779 l
79.11 152.6955 l
79.588286 127.889225 l
80.066571 125.318666 l
80.305714 122.01642 l
80.544857 124.643987 l
80.784 123.813899 l
81.023143 122.010248 l
81.262286 126.417495 l
81.501429 128.475941 l
81.740571 126.141734 l
81.979714 126.835311 l
82.218857 126.900851 l
82.697143 109.384424 l
82.936286 111.185437 l
83.175429 104.081524 l
83.414571 113.834703 l
83.653714 118.714345 l
83.892857 116.762756 l
84.371143 129.50001 l
84.610286 129.924103 l
84.849429 136.034144 l
85.088571 130.783946 l
85.327714 132.38874 l
85.566857 132.206013 l
85.806 133.14704 l
86.045143 132.834469 l
86.284286 130.378582 l
86.523429 129.784329 l
86.762571 128.320905 l
87.001714 127.85829 l
87.240857 127.09003 l
87.48 127.147499 l
87.719143 127.08188 l
88.197429 127.14487 l
88.436571 126.595641 l
88.914857 99.815212 l
89.154 121.487768 l
89.393143 100.378941 l
89.632286 136.921694 l
89.871429 127.54298 l
90.110571 130.125178 l
90.349714 126.044344 l
90.588857 118.164706 l
90.828 115.519455 l
91.067143 108.252512 l
91.306286 109.486305 l
91.545429 103.538818 l
91.784571 128.593321 l
92.023714 116.426481 l
92.262857 137.099895 l
92.741143 128.51517 l
92.980286 128.16666 l
93.219429 127.470656 l
93.458571 127.972847 l
93.697714 134.91596 l
93.936857 131.258337 l
94.176 138.571884 l
94.415143 133.697923 l
94.654286 133.433886 l
95.132571 137.514526 l
95.610857 152.508169 l
95.85 140.266254 l
96.089143 137.920655 l
96.328286 123.637 l
96.567429 119.651297 l
96.806571 124.643872 l
97.045714 126.498356 l
97.284857 124.960599 l
97.524 132.010369 l
97.763143 133.754455 l
98.002286 143.822796 l
98.480571 141.793224 l
98.958857 131.229274 l
99.198 127.969556 l
99.437143 128.375865 l
99.676286 127.164099 l
100.154571 127.154695 l
100.393714 126.593717 l
100.632857 122.07526 l
100.872 65.286743 l
101.111143 93.415586 l
101.350286 78.886293 l
101.828571 144.347576 l
102.067714 144.487135 l
102.306857 135.999003 l
102.546 138.94266 l
103.024286 157.186416 l
103.263429 151.19436 l
103.502571 110.654142 l
103.980857 91.361886 l
104.22 109.37939 l
104.459143 137.547975 l
104.698286 147.950681 l
104.937429 163.945042 l
105.176571 156.476263 l
105.415714 157.56623 l
105.654857 147.790617 l
105.894 127.063366 l
106.133143 125.364451 l
106.372286 129.469978 l
106.611429 139.714736 l
106.850571 137.781634 l
107.328857 125.530442 l
107.568 115.286635 l
108.046286 108.820507 l
108.285429 107.485003 l
108.524571 102.43954 l
108.763714 119.068708 l
109.002857 116.140813 l
109.242 131.579781 l
109.481143 134.27502 l
109.720286 139.701589 l
109.959429 147.754412 l
110.198571 161.206408 l
110.437714 166.75361 l
110.676857 168.447288 l
111.633429 128.722168 l
111.872571 127.270807 l
114.503143 127.222063 l
114.742286 125.957846 l
115.220571 117.519063 l
115.459714 116.157913 l
115.698857 115.974037 l
115.938 123.196528 l
116.655429 131.379646 l
117.133714 125.777316 l
117.372857 132.065413 l
117.612 122.252425 l
117.851143 131.218785 l
118.090286 126.610194 l
118.329429 128.618151 l
118.568571 127.236609 l
118.807714 128.449623 l
119.046857 127.217573 l
119.525143 127.153635 l
119.764286 119.393109 l
120.003429 79.200376 l
120.242571 112.550357 l
120.481714 83.376754 l
120.720857 120.545004 l
120.96 137.685269 l
121.199143 130.168282 l
121.438286 137.844359 l
121.677429 124.488843 l
121.916571 122.093533 l
122.155714 112.153889 l
122.394857 107.908275 l
122.873143 107.001121 l
123.112286 117.311904 l
123.351429 121.492065 l
123.590571 130.931825 l
123.829714 134.436494 l
124.068857 125.337572 l
124.308 138.238799 l
124.547143 135.445829 l
124.786286 135.963809 l
125.025429 142.122175 l
125.503714 140.695965 l
125.742857 145.995018 l
126.221143 134.676547 l
126.699429 109.337597 l
126.938571 107.206831 l
127.416857 124.36643 l
127.656 141.864501 l
127.895143 143.605146 l
128.134286 136.830139 l
128.373429 136.228687 l
128.612571 130.642116 l
128.851714 128.1466 l
129.090857 127.118065 l
130.764857 127.103128 l
131.004 125.136967 l
131.243143 113.302761 l
131.482286 125.520312 l
131.721429 117.010547 l
131.960571 126.505169 l
132.199714 121.265809 l
132.438857 107.823007 l
132.678 111.179702 l
132.917143 112.945207 l
133.395429 133.123113 l
133.634571 132.582224 l
134.352 117.444244 l
134.591143 114.540596 l
134.830286 125.107655 l
135.069429 125.759078 l
135.308571 136.676201 l
135.547714 132.657948 l
135.786857 131.228185 l
136.026 127.499163 l
136.265143 127.014783 l
142.004571 126.974005 l
143.678571 126.98652 l
148.222286 126.938974 l
148.461429 126.111715 l
148.700571 124.354501 l
148.939714 125.617285 l
149.178857 125.179537 l
149.418 125.976894 l
149.657143 121.813979 l
149.896286 109.837156 l
150.374571 103.337247 l
150.852857 119.887099 l
151.092 123.196097 l
151.331143 123.952702 l
151.570286 117.071592 l
151.809429 124.410816 l
152.048571 126.494462 l
152.287714 131.459788 l
152.526857 132.73634 l
152.766 127.895769 l
153.244286 110.204529 l
153.483429 104.302304 l
153.722571 108.815897 l
154.200857 127.306275 l
154.44 127.970222 l
154.679143 124.986965 l
154.918286 113.462859 l
155.157429 111.443869 l
155.396571 113.206899 l
155.635714 113.110823 l
155.874857 119.998245 l
156.114 117.686333 l
156.353143 114.15818 l
156.592286 130.198329 l
156.831429 132.151922 l
157.070571 138.817094 l
157.548857 120.599653 l
157.788 122.453311 l
158.505429 139.482626 l
158.744571 127.46512 l
158.983714 132.985808 l
159.222857 127.328363 l
159.462 134.015002 l
159.940286 127.562334 l
160.418571 126.752579 l
169.506 126.719877 l
171.897429 126.712584 l
172.136571 126.363555 l
172.375714 120.750989 l
172.854 98.098607 l
173.093143 114.517302 l
173.332286 105.512413 l
173.571429 132.286568 l
173.810571 122.0037 l
174.049714 129.414545 l
174.288857 119.720044 l
174.528 134.579646 l
174.767143 126.088529 l
175.006286 134.912377 l
175.245429 128.68446 l
175.484571 128.898791 l
175.723714 114.717487 l
175.962857 126.054001 l
176.202 131.988272 l
176.441143 134.046637 l
176.680286 170.435671 l
176.919429 153.910593 l
177.158571 159.210008 l
177.876 127.71052 l
178.115143 126.549079 l
178.354286 126.104246 l
178.593429 125.162376 l
178.832571 125.048929 l
179.071714 124.430641 l
179.55 126.791647 l
179.789143 126.901624 l
180.028286 127.576237 l
180.506571 124.05301 l
180.745714 123.125603 l
180.984857 119.131628 l
181.224 111.45491 l
181.463143 108.490123 l
181.702286 108.413677 l
181.941429 113.051798 l
182.419714 133.570279 l
182.658857 129.875881 l
183.376286 103.30937 l
183.615429 59.340037 l
183.854571 98.280849 l
184.093714 76.606884 l
184.572 145.679388 l
184.811143 140.32775 l
185.050286 143.433265 l
185.289429 131.320356 l
185.528571 129.851507 l
185.767714 122.527832 l
186.006857 142.539783 l
186.246 142.766729 l
186.485143 163.512491 l
186.724286 168.482596 l
187.202571 164.024623 l
187.92 142.855233 l
188.159143 132.812033 l
188.637429 126.786903 l
190.072286 126.759772 l
197.246571 126.737911 l
197.485714 125.487666 l
197.724857 118.560158 l
198.203143 98.840179 l
198.442286 106.882183 l
198.681429 106.280606 l
198.920571 125.991698 l
199.159714 124.50819 l
199.638 127.890914 l
199.877143 128.503062 l
200.116286 134.242032 l
200.355429 131.958308 l
200.594571 132.007202 l
200.833714 131.941671 l
201.072857 127.453165 l
201.312 127.286522 l
201.551143 128.339206 l
201.790286 125.026488 l
202.029429 128.39455 l
202.268571 129.111278 l
202.746857 127.033345 l
202.986 124.592883 l
203.225143 127.942089 l
203.464286 124.088055 l
203.703429 123.037486 l
203.942571 127.823991 l
204.420857 118.654512 l
204.66 116.464902 l
204.899143 104.079555 l
205.138286 109.11759 l
205.377429 118.278876 l
205.616571 121.583922 l
205.855714 130.987436 l
206.334 125.025419 l
206.573143 126.115223 l
206.812286 125.958532 l
207.051429 126.053431 l
207.290571 126.381271 l
207.768857 126.373731 l
208.247143 125.72689 l
208.486286 123.960219 l
208.725429 123.028211 l
208.964571 126.096708 l
209.203714 124.972677 l
209.442857 129.398913 l
209.921143 128.286584 l
210.160286 129.092135 l
210.399429 128.809408 l
210.877714 129.565832 l
211.356 126.009385 l
211.595143 125.773107 l
211.834286 122.921791 l
212.073429 124.516898 l
212.312571 122.084523 l
212.551714 123.512345 l
212.790857 122.533401 l
213.03 124.088568 l
213.269143 124.728915 l
213.508286 123.252476 l
213.747429 125.497719 l
213.986571 122.56994 l
214.225714 124.188506 l
214.464857 122.805237 l
214.704 122.72604 l
214.943143 122.842151 l
215.182286 123.336007 l
215.421429 123.110412 l
215.660571 123.734434 l
215.899714 122.97435 l
216.138857 123.004711 l
216.378 122.28926 l
216.617143 122.637137 l
217.095429 122.35405 l
217.334571 123.070316 l
217.573714 123.006751 l
217.812857 123.199017 l
218.052 125.265832 l
218.291143 121.093191 l
219.008571 101.769772 l
219.247714 113.220234 l
219.486857 114.199764 l
219.726 127.833188 l
220.204286 123.490915 l
220.443429 124.547201 l
220.682571 123.278272 l
220.921714 124.751029 l
221.160857 123.242268 l
221.4 125.037794 l
221.639143 123.384122 l
221.878286 124.072893 l
222.117429 122.552662 l
222.356571 122.354478 l
222.595714 121.981299 l
222.834857 122.480614 l
223.074 122.196835 l
223.313143 122.638142 l
223.552286 122.651728 l
223.791429 122.879296 l
224.030571 122.417395 l
224.269714 122.69353 l
224.508857 123.713689 l
224.748 123.900101 l
224.987143 125.020237 l
225.226286 125.591709 l
225.465429 125.01049 l
225.704571 126.837456 l
225.943714 126.277286 l
226.182857 126.037575 l
226.422 124.023474 l
226.661143 123.501634 l
227.139429 123.087048 l
227.378571 124.66043 l
227.617714 123.098388 l
227.856857 123.039736 l
228.096 122.591809 l
228.335143 123.161586 l
228.574286 122.482655 l
228.813429 123.270147 l
229.052571 102.597336 l
229.291714 141.482613 l
229.530857 144.490835 l
230.009143 189.02493 l
230.248286 156.60661 l
230.487429 145.084757 l
230.726571 118.538866 l
230.965714 111.395594 l
231.204857 121.403551 l
231.444 110.480805 l
231.683143 130.7946 l
231.922286 121.156258 l
232.400571 132.130831 l
232.639714 128.740099 l
232.878857 133.378993 l
233.118 128.242529 l
233.357143 125.506665 l
233.596286 125.14293 l
233.835429 122.983839 l
234.074571 123.814249 l
234.313714 122.155799 l
234.552857 126.627647 l
234.792 121.202856 l
235.031143 127.290229 l
235.270286 126.003544 l
235.509429 123.725131 l
235.748571 127.115185 l
235.987714 120.446196 l
236.226857 127.497725 l
236.466 121.861706 l
236.705143 127.633772 l
236.944286 124.680663 l
237.183429 123.55093 l
237.422571 120.37613 l
237.661714 128.197974 l
237.900857 123.219919 l
238.14 126.445033 l
238.857429 110.895782 l
239.096571 110.667666 l
239.335714 113.977476 l
239.574857 129.292222 l
239.814 133.465178 l
240.053143 148.81942 l
240.292286 143.008053 l
240.531429 126.771401 l
240.770571 119.739293 l
241.009714 119.796847 l
241.248857 117.323539 l
241.488 132.567373 l
241.727143 130.26713 l
241.966286 124.392334 l
242.205429 122.53615 l
242.444571 108.068513 l
242.683714 110.197589 l
242.922857 115.730381 l
243.162 115.409335 l
243.401143 129.277341 l
243.640286 127.224744 l
243.879429 126.438627 l
244.118571 125.06887 l
244.357714 128.089185 l
244.596857 127.249527 l
244.836 123.530546 l
245.314286 113.488727 l
245.553429 107.995186 l
245.792571 107.704575 l
246.031714 105.081845 l
246.270857 99.429373 l
246.51 115.76151 l
246.749143 112.80151 l
246.988286 122.757151 l
247.227429 138.961347 l
247.466571 132.946028 l
247.705714 144.337496 l
247.944857 145.866977 l
248.184 125.584565 l
248.423143 134.439872 l
248.662286 112.535704 l
248.901429 127.744608 l
249.140571 126.631327 l
249.618857 133.201701 l
250.097143 124.533317 l
250.336286 127.208869 l
250.575429 122.683098 l
250.814571 128.132536 l
251.532 123.436349 l
251.771143 127.377186 l
252.010286 124.009086 l
252.249429 129.282027 l
252.488571 126.217335 l
252.966857 124.003955 l
253.206 123.53253 l
253.445143 123.310124 l
253.923429 123.808002 l
254.162571 123.443971 l
254.401714 123.981057 l
254.640857 123.869719 l
254.88 122.949007 l
255.119143 124.250895 l
255.358286 122.540711 l
255.597429 123.738647 l
255.836571 123.148521 l
256.075714 126.454765 l
256.314857 123.965654 l
256.554 126.273516 l
256.793143 123.768663 l
257.032286 123.129216 l
257.271429 122.847121 l
257.510571 123.308022 l
257.988857 123.449526 l
258.228 119.821454 l
258.467143 126.263724 l
258.706286 120.779207 l
258.945429 127.397185 l
259.184571 124.538625 l
259.423714 124.282785 l
259.662857 122.976307 l
259.902 122.950157 l
260.141143 123.212936 l
260.380286 105.531502 l
260.619429 125.521851 l
260.858571 99.01069 l
261.097714 122.706148 l
261.336857 119.95267 l
261.576 123.937643 l
261.815143 121.586913 l
262.054286 121.444167 l
262.293429 113.365865 l
262.532571 113.229679 l
262.771714 113.638711 l
263.010857 113.768701 l
263.25 116.996866 l
263.489143 114.703281 l
264.206571 129.804896 l
264.445714 140.756567 l
264.684857 159.097952 l
264.924 153.907549 l
265.163143 165.827835 l
265.402286 167.105537 l
265.641429 151.902437 l
265.880571 153.575346 l
266.358857 139.816645 l
266.598 139.797838 l
266.837143 145.343582 l
267.076286 143.665953 l
267.315429 144.828365 l
267.554571 138.125566 l
268.272 101.270389 l
268.511143 112.050406 l
268.750286 102.913135 l
268.989429 125.920383 l
269.228571 124.195418 l
269.467714 138.920474 l
269.706857 135.803635 l
269.946 139.279355 l
270.185143 133.410148 l
270.424286 132.738776 l
270.663429 127.107257 l
270.902571 129.663413 l
271.141714 125.441689 l
271.380857 128.852907 l
271.62 127.319144 l
271.859143 128.463354 l
272.098286 125.807945 l
272.337429 125.860825 l
272.576571 123.229317 l
272.815714 125.89127 l
273.054857 123.579061 l
273.294 122.741583 l
273.533143 126.827856 l
273.772286 122.148063 l
274.250571 126.226557 l
274.489714 123.331988 l
274.728857 127.826347 l
274.968 128.067565 l
275.207143 127.343838 l
275.446286 129.309769 l
275.685429 127.207989 l
275.924571 128.187019 l
276.163714 127.773281 l
276.642 127.611328 l
276.881143 130.711481 l
277.120286 127.698617 l
277.359429 131.533354 l
277.598571 130.539882 l
277.837714 125.364978 l
278.076857 127.341279 l
278.316 121.624258 l
278.555143 123.046379 l
278.794286 122.41026 l
279.033429 124.73287 l
279.272571 121.54462 l
279.511714 124.273247 l
279.750857 123.063816 l
279.99 123.334755 l
280.229143 124.518469 l
280.707429 122.300518 l
280.946571 122.465027 l
281.185714 121.268951 l
281.424857 120.799286 l
281.664 120.669595 l
281.903143 120.869461 l
282.142286 120.843986 l
282.381429 121.084772 l
282.620571 120.821217 l
282.859714 121.754097 l
283.098857 120.852511 l
283.338 121.947953 l
283.577143 121.231635 l
283.816286 121.261981 l
284.055429 121.826025 l
284.294571 121.056433 l
284.533714 122.074876 l
284.772857 120.746545 l
285.012 122.546902 l
285.251143 121.21476 l
285.490286 122.612262 l
285.729429 122.105749 l
286.686 122.157078 l
286.925143 122.313229 l
287.164286 122.051611 l
287.403429 121.966274 l
287.642571 123.130463 l
287.881714 122.132623 l
288.120857 122.767688 l
288.36 122.592681 l
288.599143 121.106163 l
288.838286 121.645636 l
289.316571 123.49989 l
289.794857 125.136195 l
290.034 124.904376 l
290.273143 123.97721 l
290.512286 124.042288 l
290.990571 122.055397 l
291.229714 121.636894 l
291.468857 123.092534 l
291.708 122.19195 l
291.947143 120.397584 l
292.186286 123.717795 l
292.425429 119.393103 l
292.664571 125.087399 l
292.903714 125.291329 l
293.142857 125.658536 l
293.382 127.488985 l
293.621143 124.140688 l
293.860286 124.411749 l
294.099429 122.302509 l
294.338571 122.021819 l
294.577714 122.323422 l
294.816857 121.913563 l
295.056 122.164397 l
295.534286 121.165113 l
295.773429 122.282419 l
296.012571 122.168623 l
296.251714 123.532264 l
296.490857 121.901579 l
296.73 121.752565 l
296.969143 126.373889 l
297.208286 120.766524 l
297.447429 127.772469 l
297.925714 123.798563 l
298.164857 126.025784 l
298.404 123.004637 l
298.643143 121.835311 l
298.882286 121.233171 l
299.121429 121.184855 l
299.360571 121.331919 l
299.599714 121.339262 l
300.078 121.528648 l
300.556286 121.623584 l
300.795429 121.478414 l
301.034571 122.180517 l
301.273714 121.615262 l
301.512857 122.235234 l
301.752 121.88955 l
301.991143 121.84621 l
302.230286 121.675007 l
302.469429 122.006757 l
302.708571 121.93486 l
302.947714 122.239921 l
303.186857 121.671638 l
303.426 122.966363 l
303.665143 123.226367 l
303.904286 122.41906 l
304.143429 125.427258 l
304.382571 121.95844 l
304.621714 124.211028 l
304.860857 122.376118 l
305.1 122.337516 l
305.578286 122.023829 l
306.295714 122.795089 l
306.534857 122.082564 l
306.774 122.308131 l
307.013143 122.759733 l
307.252286 123.624273 l
307.491429 122.651758 l
307.730571 124.76907 l
307.969714 123.7498 l
308.208857 123.24653 l
308.448 124.593654 l
308.687143 122.487623 l
308.926286 122.663313 l
309.165429 122.23091 l
309.404571 122.165688 l
309.643714 123.519083 l
309.882857 122.905972 l
310.361143 123.701082 l
310.600286 108.611791 l
310.839429 145.539124 l
311.078571 106.728235 l
311.317714 145.312903 l
311.556857 121.491663 l
311.796 123.300533 l
312.035143 124.149433 l
312.274286 122.934236 l
312.513429 123.580292 l
312.752571 123.147491 l
312.991714 123.710362 l
313.230857 123.69726 l
313.47 123.017008 l
313.709143 124.418828 l
313.948286 123.006534 l
314.187429 124.42767 l
314.426571 123.718572 l
314.665714 123.74633 l
314.904857 123.035936 l
315.144 124.461497 l
315.383143 123.265103 l
315.622286 124.340109 l
315.861429 123.46822 l
316.100571 123.833032 l
316.339714 123.145651 l
316.578857 123.828707 l
316.818 123.412321 l
317.057143 123.479729 l
317.296286 122.996042 l
317.535429 123.826147 l
317.774571 123.200935 l
318.252857 123.779926 l
318.731143 123.451287 l
318.970286 124.114456 l
319.209429 123.438975 l
319.448571 123.892725 l
320.166 123.879941 l
320.405143 123.590579 l
320.644286 124.332517 l
320.883429 122.669381 l
321.122571 125.349472 l
321.361714 126.710656 l
321.600857 125.138177 l
321.84 128.015264 l
322.079143 124.528018 l
322.318286 125.01712 l
322.557429 123.59188 l
322.796571 125.212227 l
323.035714 123.696262 l
323.274857 124.9979 l
323.753143 125.009372 l
324.231429 125.113286 l
324.470571 125.388791 l
324.709714 124.674324 l
324.948857 124.85997 l
325.188 124.127963 l
325.666286 124.078586 l
327.340286 124.113396 l
327.579429 124.325909 l
327.818571 123.549669 l
328.057714 124.182126 l
328.296857 123.739723 l
328.536 123.719932 l
328.775143 124.026433 l
329.014286 123.558879 l
329.492571 123.577357 l
329.970857 123.649806 l
330.21 124.475981 l
330.449143 123.603886 l
330.688286 124.415886 l
330.927429 123.685143 l
331.166571 125.5618 l
331.405714 124.555584 l
331.644857 125.724362 l
332.123143 124.512293 l
332.362286 125.139051 l
332.601429 124.442937 l
332.840571 124.773125 l
333.079714 123.976971 l
333.318857 123.810203 l
333.558 124.157671 l
334.036286 123.946484 l
334.275429 125.283391 l
334.514571 123.710225 l
334.753714 125.517767 l
334.992857 124.388844 l
335.232 125.488459 l
335.471143 124.994996 l
335.710286 127.214789 l
335.949429 126.721212 l
336.188571 125.390818 l
336.427714 126.5352 l
336.666857 126.160528 l
336.906 126.580623 l
337.145143 140.818693 l
337.384286 121.853491 l
337.623429 140.794208 l
337.862571 119.750292 l
338.101714 125.916123 l
338.340857 124.480536 l
338.58 128.453548 l
338.819143 125.254496 l
339.058286 130.495198 l
339.297429 125.66808 l
339.536571 125.165366 l
339.775714 125.422886 l
340.014857 125.271892 l
340.254 126.642523 l
340.732286 126.765911 l
341.210571 125.454295 l
341.449714 123.845543 l
341.688857 124.285424 l
341.928 122.450574 l
342.167143 132.065488 l
342.406286 124.57423 l
342.645429 132.836229 l
342.884571 120.299151 l
343.123714 133.963811 l
343.602 124.691435 l
343.841143 125.634799 l
344.319429 111.016887 l
344.558571 122.516294 l
344.797714 115.73394 l
345.036857 131.891797 l
345.276 118.465979 l
345.515143 141.738527 l
345.754286 131.337599 l
345.993429 132.950497 l
346.232571 136.696814 l
346.471714 127.873701 l
346.710857 131.839458 l
346.95 128.098508 l
347.189143 127.612241 l
347.428286 130.483745 l
347.667429 123.371619 l
347.906571 128.038648 l
348.384857 126.524952 l
348.624 123.996748 l
348.863143 132.927281 l
349.102286 134.752697 l
349.341429 171.851554 l
349.580571 170.654973 l
349.819714 188.840907 l
350.058857 156.296187 l
350.298 143.761439 l
350.537143 142.874162 l
350.776286 110.355182 l
351.015429 146.737276 l
351.254571 116.814546 l
351.493714 130.600623 l
351.732857 128.181196 l
351.972 129.189929 l
352.211143 131.270142 l
352.450286 131.076544 l
352.928571 128.877636 l
353.167714 129.853871 l
353.406857 127.293042 l
353.646 127.447901 l
353.885143 123.1715 l
354.124286 124.459115 l
354.363429 134.441972 l
354.602571 117.88731 l
354.841714 141.970711 l
355.080857 116.401374 l
355.32 128.497505 l
355.559143 124.083224 l
355.798286 127.617517 l
356.037429 125.783942 l
356.276571 127.738485 l
356.515714 127.486417 l
356.754857 125.413802 l
356.994 127.193914 l
357.233143 124.148472 l
357.472286 123.773882 l
357.711429 124.430861 l
357.950571 122.837065 l
358.189714 126.195331 l
358.428857 123.183223 l
358.668 127.303047 l
358.907143 125.368956 l
359.146286 103.423855 l
359.385429 128.277072 l
359.624571 100.50962 l
360.102857 142.176481 l
360.342 115.730061 l
360.581143 145.365964 l
360.820286 119.856478 l
361.059429 125.172115 l
361.298571 124.185627 l
361.537714 126.391471 l
361.776857 123.908744 l
362.016 127.508079 l
362.255143 125.835215 l
362.494286 128.107789 l
362.733429 128.775509 l
362.972571 128.260652 l
363.450857 123.837808 l
363.69 126.248612 l
363.929143 124.75353 l
364.168286 128.051063 l
364.407429 129.57588 l
364.646571 126.433295 l
364.885714 129.982344 l
365.124857 123.86271 l
365.364 128.563255 l
365.603143 125.338813 l
366.081429 128.679421 l
366.320571 125.418851 l
367.038 125.219298 l
367.277143 123.694678 l
367.516286 125.702084 l
367.755429 123.124545 l
367.994571 124.50977 l
368.233714 130.343559 l
368.472857 127.004032 l
368.712 131.166675 l
368.951143 125.583732 l
369.190286 124.780963 l
369.429429 122.734678 l
369.668571 124.775642 l
369.907714 124.57467 l
370.146857 125.408836 l
370.386 123.972893 l
370.625143 124.79911 l
370.864286 123.400451 l
371.103429 95.988296 l
371.342571 133.21266 l
371.581714 96.26722 l
371.820857 130.390958 l
372.06 125.578122 l
372.299143 116.062715 l
372.538286 122.477718 l
372.777429 119.609947 l
373.494857 142.881893 l
373.973143 147.286234 l
374.212286 145.366473 l
374.451429 151.380527 l
374.690571 153.015969 l
374.929714 166.026216 l
375.168857 187.83676 l
375.408 192.613667 l
375.647143 209.4362 l
375.886286 205.739099 l
376.364571 185.284823 l
376.603714 177.891361 l
376.842857 163.368647 l
377.082 166.782247 l
377.321143 155.855832 l
377.560286 154.943863 l
378.038571 149.048957 l
378.756 131.994835 l
378.995143 128.898805 l
379.473429 126.378859 l
380.190857 126.366504 l
380.190857 126.366504 l
stroke
grestore
0.800 setlinewidth
0 setlinejoin
[] 0 setdash
0.000 setgray
gsave
54 36 m
54 253.44 l
stroke
grestore
gsave
388.8 36 m
388.8 253.44 l
stroke
grestore
gsave
54 36 m
388.8 36 l
stroke
grestore
gsave
54 253.44 m
388.8 253.44 l
stroke
grestore
1.000 setlinewidth
0 setlinecap
0.800 setgray
gsave
295.409375 216.09625 m
381.8 216.09625 l
383.133333 216.09625 383.8 216.762917 383.8 218.09625 c
383.8 246.44 l
383.8 247.773333 383.133333 248.44 381.8 248.44 c
295.409375 248.44 l
294.076042 248.44 293.409375 247.773333 293.409375 246.44 c
293.409375 218.09625 l
293.409375 216.762917 294.076042 216.09625 295.409375 216.09625 c
cl
gsave
1.000 setgray
fill
grestore
stroke
grestore
1.500 setlinewidth
1 setlinejoin
2 setlinecap
[] 0 setdash
0.000 setgray
gsave
297.409375 240.34625 m
317.409375 240.34625 l
stroke
grestore
gsave
325.409375 236.846250 translate
0.000000 rotate
0.000000 0.000000 m /S glyphshow
6.347656 0.000000 m /i glyphshow
9.125977 0.000000 m /m glyphshow
18.867188 0.000000 m /u glyphshow
25.205078 0.000000 m /l glyphshow
27.983398 0.000000 m /a glyphshow
34.111328 0.000000 m /t glyphshow
38.032227 0.000000 m /o glyphshow
44.150391 0.000000 m /r glyphshow
grestore
1.000 0.000 0.000 setrgbcolor
gsave
297.409375 225.674375 m
317.409375 225.674375 l
stroke
grestore
0.000 setgray
gsave
325.409375 222.174375 translate
0.000000 rotate
0.000000 0.000000 m /A glyphshow
6.840820 0.000000 m /u glyphshow
13.178711 0.000000 m /t glyphshow
17.099609 0.000000 m /o glyphshow
23.217773 0.000000 m /n glyphshow
29.555664 0.000000 m /o glyphshow
35.673828 0.000000 m /m glyphshow
45.415039 0.000000 m /i glyphshow
48.193359 0.000000 m /e glyphshow
grestore

end
showpage
