%!PS-Adobe-3.0 EPSF-3.0
%%Creator: (MATLAB, The Mathworks, Inc. Version 8.4.0.150421 \(R2014b\). Operating System: Mac OS X)
%%Title: /Users/jaszhang/ieee1/paper/_images/100.eps
%%CreationDate: 2017-02-12T23:23:18
%%Pages: (atend)
%%BoundingBox: 0 0 882 680
%%LanguageLevel: 2
%%EndComments
%%BeginProlog
%%BeginResource: procset (Apache XML Graphics Std ProcSet) 1.2 0
%%Version: 1.2 0
%%Copyright: (Copyright 2001-2003,2010 The Apache Software Foundation. License terms: http://www.apache.org/licenses/LICENSE-2.0)
/bd{bind def}bind def
/ld{load def}bd
/GR/grestore ld
/M/moveto ld
/LJ/setlinejoin ld
/C/curveto ld
/f/fill ld
/LW/setlinewidth ld
/GC/setgray ld
/t/show ld
/N/newpath ld
/CT/concat ld
/cp/closepath ld
/S/stroke ld
/L/lineto ld
/CC/setcmykcolor ld
/A/ashow ld
/GS/gsave ld
/RC/setrgbcolor ld
/RM/rmoveto ld
/ML/setmiterlimit ld
/re {4 2 roll M
1 index 0 rlineto
0 exch rlineto
neg 0 rlineto
cp } bd
/_ctm matrix def
/_tm matrix def
/BT { _ctm currentmatrix pop matrix _tm copy pop 0 0 moveto } bd
/ET { _ctm setmatrix } bd
/iTm { _ctm setmatrix _tm concat } bd
/Tm { _tm astore pop iTm 0 0 moveto } bd
/ux 0.0 def
/uy 0.0 def
/F {
  /Tp exch def
  /Tf exch def
  Tf findfont Tp scalefont setfont
  /cf Tf def  /cs Tp def
} bd
/ULS {currentpoint /uy exch def /ux exch def} bd
/ULE {
  /Tcx currentpoint pop def
  gsave
  newpath
  cf findfont cs scalefont dup
  /FontMatrix get 0 get /Ts exch def /FontInfo get dup
  /UnderlinePosition get Ts mul /To exch def
  /UnderlineThickness get Ts mul /Tt exch def
  ux uy To add moveto  Tcx uy To add lineto
  Tt setlinewidth stroke
  grestore
} bd
/OLE {
  /Tcx currentpoint pop def
  gsave
  newpath
  cf findfont cs scalefont dup
  /FontMatrix get 0 get /Ts exch def /FontInfo get dup
  /UnderlinePosition get Ts mul /To exch def
  /UnderlineThickness get Ts mul /Tt exch def
  ux uy To add cs add moveto Tcx uy To add cs add lineto
  Tt setlinewidth stroke
  grestore
} bd
/SOE {
  /Tcx currentpoint pop def
  gsave
  newpath
  cf findfont cs scalefont dup
  /FontMatrix get 0 get /Ts exch def /FontInfo get dup
  /UnderlinePosition get Ts mul /To exch def
  /UnderlineThickness get Ts mul /Tt exch def
  ux uy To add cs 10 mul 26 idiv add moveto Tcx uy To add cs 10 mul 26 idiv add lineto
  Tt setlinewidth stroke
  grestore
} bd
/QT {
/Y22 exch store
/X22 exch store
/Y21 exch store
/X21 exch store
currentpoint
/Y21 load 2 mul add 3 div exch
/X21 load 2 mul add 3 div exch
/X21 load 2 mul /X22 load add 3 div
/Y21 load 2 mul /Y22 load add 3 div
/X22 load /Y22 load curveto
} bd
/SSPD {
dup length /d exch dict def
{
/v exch def
/k exch def
currentpagedevice k known {
/cpdv currentpagedevice k get def
v cpdv ne {
/upd false def
/nullv v type /nulltype eq def
/nullcpdv cpdv type /nulltype eq def
nullv nullcpdv or
{
/upd true def
} {
/sametype v type cpdv type eq def
sametype {
v type /arraytype eq {
/vlen v length def
/cpdvlen cpdv length def
vlen cpdvlen eq {
0 1 vlen 1 sub {
/i exch def
/obj v i get def
/cpdobj cpdv i get def
obj cpdobj ne {
/upd true def
exit
} if
} for
} {
/upd true def
} ifelse
} {
v type /dicttype eq {
v {
/dv exch def
/dk exch def
/cpddv cpdv dk get def
dv cpddv ne {
/upd true def
exit
} if
} forall
} {
/upd true def
} ifelse
} ifelse
} if
} ifelse
upd true eq {
d k v put
} if
} if
} if
} forall
d length 0 gt {
d setpagedevice
} if
} bd
%%EndResource
%%BeginResource: procset (Apache XML Graphics EPS ProcSet) 1.0 0
%%Version: 1.0 0
%%Copyright: (Copyright 2002-2003 The Apache Software Foundation. License terms: http://www.apache.org/licenses/LICENSE-2.0)
/BeginEPSF { %def
/b4_Inc_state save def         % Save state for cleanup
/dict_count countdictstack def % Count objects on dict stack
/op_count count 1 sub def      % Count objects on operand stack
userdict begin                 % Push userdict on dict stack
/showpage { } def              % Redefine showpage, { } = null proc
0 setgray 0 setlinecap         % Prepare graphics state
1 setlinewidth 0 setlinejoin
10 setmiterlimit [ ] 0 setdash newpath
/languagelevel where           % If level not equal to 1 then
{pop languagelevel             % set strokeadjust and
1 ne                           % overprint to their defaults.
{false setstrokeadjust false setoverprint
} if
} if
} bd
/EndEPSF { %def
count op_count sub {pop} repeat            % Clean up stacks
countdictstack dict_count sub {end} repeat
b4_Inc_state restore
} bd
%%EndResource
%FOPBeginFontDict
%%IncludeResource: font Courier-Bold
%%IncludeResource: font Helvetica
%%IncludeResource: font Courier-BoldOblique
%%IncludeResource: font Courier-Oblique
%%IncludeResource: font Times-Roman
%%IncludeResource: font Helvetica-BoldOblique
%%IncludeResource: font Helvetica-Bold
%%IncludeResource: font Helvetica-Oblique
%%IncludeResource: font Times-BoldItalic
%%IncludeResource: font Courier
%%IncludeResource: font Times-Italic
%%IncludeResource: font Times-Bold
%%IncludeResource: font Symbol
%%IncludeResource: font ZapfDingbats
%FOPEndFontDict
%%BeginResource: encoding WinAnsiEncoding
/WinAnsiEncoding [
/.notdef /.notdef /.notdef /.notdef /.notdef
/.notdef /.notdef /.notdef /.notdef /.notdef
/.notdef /.notdef /.notdef /.notdef /.notdef
/.notdef /.notdef /.notdef /.notdef /.notdef
/.notdef /.notdef /.notdef /.notdef /.notdef
/.notdef /.notdef /.notdef /.notdef /.notdef
/.notdef /.notdef /space /exclam /quotedbl
/numbersign /dollar /percent /ampersand /quotesingle
/parenleft /parenright /asterisk /plus /comma
/hyphen /period /slash /zero /one
/two /three /four /five /six
/seven /eight /nine /colon /semicolon
/less /equal /greater /question /at
/A /B /C /D /E
/F /G /H /I /J
/K /L /M /N /O
/P /Q /R /S /T
/U /V /W /X /Y
/Z /bracketleft /backslash /bracketright /asciicircum
/underscore /quoteleft /a /b /c
/d /e /f /g /h
/i /j /k /l /m
/n /o /p /q /r
/s /t /u /v /w
/x /y /z /braceleft /bar
/braceright /asciitilde /bullet /Euro /bullet
/quotesinglbase /florin /quotedblbase /ellipsis /dagger
/daggerdbl /circumflex /perthousand /Scaron /guilsinglleft
/OE /bullet /Zcaron /bullet /bullet
/quoteleft /quoteright /quotedblleft /quotedblright /bullet
/endash /emdash /asciitilde /trademark /scaron
/guilsinglright /oe /bullet /zcaron /Ydieresis
/space /exclamdown /cent /sterling /currency
/yen /brokenbar /section /dieresis /copyright
/ordfeminine /guillemotleft /logicalnot /sfthyphen /registered
/macron /degree /plusminus /twosuperior /threesuperior
/acute /mu /paragraph /middot /cedilla
/onesuperior /ordmasculine /guillemotright /onequarter /onehalf
/threequarters /questiondown /Agrave /Aacute /Acircumflex
/Atilde /Adieresis /Aring /AE /Ccedilla
/Egrave /Eacute /Ecircumflex /Edieresis /Igrave
/Iacute /Icircumflex /Idieresis /Eth /Ntilde
/Ograve /Oacute /Ocircumflex /Otilde /Odieresis
/multiply /Oslash /Ugrave /Uacute /Ucircumflex
/Udieresis /Yacute /Thorn /germandbls /agrave
/aacute /acircumflex /atilde /adieresis /aring
/ae /ccedilla /egrave /eacute /ecircumflex
/edieresis /igrave /iacute /icircumflex /idieresis
/eth /ntilde /ograve /oacute /ocircumflex
/otilde /odieresis /divide /oslash /ugrave
/uacute /ucircumflex /udieresis /yacute /thorn
/ydieresis
] def
%%EndResource
%FOPBeginFontReencode
/Courier-Bold findfont
dup length dict begin
  {1 index /FID ne {def} {pop pop} ifelse} forall
  /Encoding WinAnsiEncoding def
  currentdict
end
/Courier-Bold exch definefont pop
/Helvetica findfont
dup length dict begin
  {1 index /FID ne {def} {pop pop} ifelse} forall
  /Encoding WinAnsiEncoding def
  currentdict
end
/Helvetica exch definefont pop
/Courier-BoldOblique findfont
dup length dict begin
  {1 index /FID ne {def} {pop pop} ifelse} forall
  /Encoding WinAnsiEncoding def
  currentdict
end
/Courier-BoldOblique exch definefont pop
/Courier-Oblique findfont
dup length dict begin
  {1 index /FID ne {def} {pop pop} ifelse} forall
  /Encoding WinAnsiEncoding def
  currentdict
end
/Courier-Oblique exch definefont pop
/Times-Roman findfont
dup length dict begin
  {1 index /FID ne {def} {pop pop} ifelse} forall
  /Encoding WinAnsiEncoding def
  currentdict
end
/Times-Roman exch definefont pop
/Helvetica-BoldOblique findfont
dup length dict begin
  {1 index /FID ne {def} {pop pop} ifelse} forall
  /Encoding WinAnsiEncoding def
  currentdict
end
/Helvetica-BoldOblique exch definefont pop
/Helvetica-Bold findfont
dup length dict begin
  {1 index /FID ne {def} {pop pop} ifelse} forall
  /Encoding WinAnsiEncoding def
  currentdict
end
/Helvetica-Bold exch definefont pop
/Helvetica-Oblique findfont
dup length dict begin
  {1 index /FID ne {def} {pop pop} ifelse} forall
  /Encoding WinAnsiEncoding def
  currentdict
end
/Helvetica-Oblique exch definefont pop
/Times-BoldItalic findfont
dup length dict begin
  {1 index /FID ne {def} {pop pop} ifelse} forall
  /Encoding WinAnsiEncoding def
  currentdict
end
/Times-BoldItalic exch definefont pop
/Courier findfont
dup length dict begin
  {1 index /FID ne {def} {pop pop} ifelse} forall
  /Encoding WinAnsiEncoding def
  currentdict
end
/Courier exch definefont pop
/Times-Italic findfont
dup length dict begin
  {1 index /FID ne {def} {pop pop} ifelse} forall
  /Encoding WinAnsiEncoding def
  currentdict
end
/Times-Italic exch definefont pop
/Times-Bold findfont
dup length dict begin
  {1 index /FID ne {def} {pop pop} ifelse} forall
  /Encoding WinAnsiEncoding def
  currentdict
end
/Times-Bold exch definefont pop
%FOPEndFontReencode
%%EndProlog
%%Page: 1 1
%%PageBoundingBox: 0 0 882 680
%%BeginPageSetup
[1 0 0 -1 0 680] CT
%%EndPageSetup
GS
1 GC
N
0 0 882 680 re
f
GR
GS
1 GC
N
0 0 882 680 re
f
GR
GS
1 GC
N
115 140 M
798 140 L
798 51 L
115 51 L
cp
f
GR
GS
[1 0 0 1 456.5 166] CT
0.149 GC
/Helvetica 20 F
GS
[1 0 0 1 0 0] CT
-36.66 15.4 moveto 
1 -1 scale
(Time \(s\)) t 
GR
GR
GS
0.149 GC
2 setlinecap
10.0 ML
N
115 140 M
798 140 L
S
GR
GS
0.149 GC
2 setlinecap
10.0 ML
N
115 51 M
798 51 L
S
GR
GS
0.149 GC
2 setlinecap
10.0 ML
N
115 140 M
115 133.17 L
S
GR
GS
0.149 GC
2 setlinecap
10.0 ML
N
115 51 M
115 57.83 L
S
GR
GS
0.149 GC
2 setlinecap
10.0 ML
N
220.077 140 M
220.077 133.17 L
S
GR
GS
0.149 GC
2 setlinecap
10.0 ML
N
220.077 51 M
220.077 57.83 L
S
GR
GS
0.149 GC
2 setlinecap
10.0 ML
N
325.154 140 M
325.154 133.17 L
S
GR
GS
0.149 GC
2 setlinecap
10.0 ML
N
325.154 51 M
325.154 57.83 L
S
GR
GS
0.149 GC
2 setlinecap
10.0 ML
N
430.231 140 M
430.231 133.17 L
S
GR
GS
0.149 GC
2 setlinecap
10.0 ML
N
430.231 51 M
430.231 57.83 L
S
GR
GS
0.149 GC
2 setlinecap
10.0 ML
N
535.308 140 M
535.308 133.17 L
S
GR
GS
0.149 GC
2 setlinecap
10.0 ML
N
535.308 51 M
535.308 57.83 L
S
GR
GS
0.149 GC
2 setlinecap
10.0 ML
N
640.385 140 M
640.385 133.17 L
S
GR
GS
0.149 GC
2 setlinecap
10.0 ML
N
640.385 51 M
640.385 57.83 L
S
GR
GS
0.149 GC
2 setlinecap
10.0 ML
N
745.462 140 M
745.462 133.17 L
S
GR
GS
0.149 GC
2 setlinecap
10.0 ML
N
745.462 51 M
745.462 57.83 L
S
GR
GS
[1 0 0 1 115 146] CT
0.149 GC
/Helvetica 20 F
GS
[1 0 0 1 0 0] CT
-5.562 15.4 moveto 
1 -1 scale
(0) t 
GR
GR
GS
[1 0 0 1 220.07692 146] CT
0.149 GC
/Helvetica 20 F
GS
[1 0 0 1 0 0] CT
-16.685 15.4 moveto 
1 -1 scale
(200) t 
GR
GR
GS
[1 0 0 1 325.15384 146] CT
0.149 GC
/Helvetica 20 F
GS
[1 0 0 1 0 0] CT
-16.685 15.4 moveto 
1 -1 scale
(400) t 
GR
GR
GS
[1 0 0 1 430.23077 146] CT
0.149 GC
/Helvetica 20 F
GS
[1 0 0 1 0 0] CT
-16.685 15.4 moveto 
1 -1 scale
(600) t 
GR
GR
GS
[1 0 0 1 535.30768 146] CT
0.149 GC
/Helvetica 20 F
GS
[1 0 0 1 0 0] CT
-16.685 15.4 moveto 
1 -1 scale
(800) t 
GR
GR
GS
[1 0 0 1 640.38464 146] CT
0.149 GC
/Helvetica 20 F
GS
[1 0 0 1 0 0] CT
-22.246 15.4 moveto 
1 -1 scale
(1000) t 
GR
GR
GS
[1 0 0 1 745.46155 146] CT
0.149 GC
/Helvetica 20 F
GS
[1 0 0 1 0 0] CT
-22.246 15.4 moveto 
1 -1 scale
(1200) t 
GR
GR
GS
[0 -1 1 0 83.75391 95.5] CT
0.149 GC
/Helvetica 20 F
GS
[1 0 0 1 0 0] CT
-57.808 -3.6 moveto 
1 -1 scale
(Speed \(mph\)) t 
GR
GR
GS
0.149 GC
2 setlinecap
10.0 ML
N
115 140 M
115 51 L
S
GR
GS
0.149 GC
2 setlinecap
10.0 ML
N
798 140 M
798 51 L
S
GR
GS
0.149 GC
2 setlinecap
10.0 ML
N
115 140 M
121.83 140 L
S
GR
GS
0.149 GC
2 setlinecap
10.0 ML
N
798 140 M
791.17 140 L
S
GR
GS
0.149 GC
2 setlinecap
10.0 ML
N
115 84.375 M
121.83 84.375 L
S
GR
GS
0.149 GC
2 setlinecap
10.0 ML
N
798 84.375 M
791.17 84.375 L
S
GR
GS
[1 0 0 1 109 140] CT
0.149 GC
/Helvetica 20 F
GS
[1 0 0 1 0 0] CT
-11.123 5.9 moveto 
1 -1 scale
(0) t 
GR
GR
GS
[1 0 0 1 109 84.375] CT
0.149 GC
/Helvetica 20 F
GS
[1 0 0 1 0 0] CT
-22.246 5.9 moveto 
1 -1 scale
(50) t 
GR
GR
GS
2 setlinecap
10.0 ML
N
115 140 M
115.525 140 L
116.051 137.997 L
116.576 137.553 L
117.102 136.217 L
117.627 134.326 L
118.152 132.324 L
118.678 132.101 L
119.203 130.655 L
119.728 129.876 L
120.254 127.206 L
120.779 127.206 L
121.305 127.206 L
121.83 129.209 L
122.355 129.32 L
122.881 130.21 L
123.406 131.545 L
123.932 134.104 L
124.457 134.104 L
124.982 137.664 L
125.508 137.997 L
126.033 135.327 L
126.558 132.212 L
127.084 129.765 L
127.609 127.206 L
128.135 124.536 L
128.66 122.534 L
129.185 120.198 L
129.711 118.195 L
130.236 116.749 L
130.762 117.082 L
131.287 117.082 L
131.812 115.97 L
132.338 115.97 L
132.863 111.743 L
133.388 110.519 L
133.914 109.963 L
134.439 109.295 L
134.965 109.629 L
135.49 109.295 L
136.015 108.739 L
136.541 109.184 L
137.066 109.629 L
137.592 108.405 L
138.117 107.404 L
138.642 103.955 L
139.168 103.065 L
139.693 102.064 L
140.218 101.063 L
140.744 100.173 L
141.269 99.171 L
141.795 98.504 L
142.32 97.169 L
142.845 96.39 L
143.371 96.056 L
143.896 95.277 L
144.422 95.389 L
144.947 96.39 L
145.472 97.169 L
145.998 99.06 L
146.523 100.618 L
147.048 100.506 L
147.574 99.839 L
148.099 99.171 L
148.625 97.725 L
149.15 96.835 L
149.675 95.834 L
150.201 94.944 L
150.726 94.387 L
151.252 94.276 L
151.777 94.721 L
152.302 94.721 L
152.828 95.277 L
153.353 95.166 L
153.878 95.389 L
154.404 95.5 L
154.929 94.499 L
155.455 93.942 L
155.98 93.275 L
156.505 93.72 L
157.031 97.948 L
157.556 102.842 L
158.082 106.736 L
158.607 110.853 L
159.132 113.411 L
159.658 115.859 L
160.183 118.195 L
160.708 118.863 L
161.234 119.864 L
161.759 120.643 L
162.285 121.755 L
162.81 121.644 L
163.335 121.421 L
163.861 119.753 L
164.386 116.971 L
164.912 114.635 L
165.437 111.854 L
165.962 110.519 L
166.488 108.961 L
167.013 107.849 L
167.538 106.514 L
168.064 104.956 L
168.589 103.065 L
169.115 102.731 L
169.64 100.84 L
170.165 100.173 L
170.691 98.615 L
171.216 98.504 L
171.742 97.058 L
172.267 97.169 L
172.792 97.169 L
173.318 98.17 L
173.843 98.393 L
174.368 99.505 L
174.894 99.394 L
175.419 98.504 L
175.945 97.836 L
176.47 96.501 L
176.995 95.834 L
177.521 95.389 L
178.046 95.389 L
178.572 95.055 L
179.097 95.834 L
179.622 94.276 L
180.148 94.387 L
180.673 92.385 L
181.198 91.495 L
181.724 90.494 L
182.249 91.606 L
182.775 92.274 L
183.3 92.051 L
183.825 92.607 L
184.351 93.609 L
184.876 93.609 L
185.402 93.831 L
185.927 95.055 L
186.452 95.723 L
186.978 96.056 L
187.503 96.613 L
188.028 97.725 L
188.554 97.725 L
189.079 96.724 L
189.605 95.611 L
190.13 95.055 L
190.655 94.165 L
191.181 95.055 L
191.706 95.611 L
192.232 95.166 L
192.757 94.276 L
193.282 93.72 L
193.808 94.054 L
194.333 94.165 L
194.858 94.721 L
195.384 95.389 L
195.909 97.169 L
196.435 100.84 L
196.96 104.289 L
197.485 108.294 L
198.011 110.074 L
198.536 111.075 L
199.062 111.854 L
199.587 111.52 L
200.112 111.854 L
200.638 112.299 L
201.163 112.299 L
201.688 112.855 L
202.214 111.965 L
202.739 111.854 L
203.265 108.739 L
203.79 108.739 L
204.315 108.961 L
204.841 109.073 L
205.366 108.294 L
205.892 108.739 L
206.417 108.183 L
206.942 106.514 L
207.468 104.4 L
207.993 102.397 L
208.518 99.95 L
209.044 97.948 L
209.569 96.167 L
210.095 93.942 L
210.62 92.385 L
211.145 90.716 L
211.671 88.714 L
212.196 86.823 L
212.722 85.71 L
213.247 85.488 L
213.772 86.711 L
214.298 86.378 L
214.823 85.821 L
215.348 85.265 L
215.874 85.265 L
216.399 83.04 L
216.925 82.929 L
217.45 82.15 L
217.975 81.037 L
218.501 84.264 L
219.026 84.152 L
219.552 87.045 L
220.077 88.158 L
220.602 88.936 L
221.128 87.713 L
221.653 86.711 L
222.178 86.711 L
222.704 85.71 L
223.229 85.488 L
223.755 83.819 L
224.28 81.927 L
224.805 81.705 L
225.331 81.26 L
225.856 80.37 L
226.382 78.924 L
226.907 78.034 L
227.432 77.033 L
227.958 75.364 L
228.483 73.361 L
229.008 72.916 L
229.534 73.139 L
230.059 73.027 L
230.585 71.804 L
231.11 70.58 L
231.635 69.356 L
232.161 68.466 L
232.686 67.688 L
233.212 67.576 L
233.737 67.688 L
234.262 68.132 L
234.788 68.132 L
235.313 67.799 L
235.838 67.688 L
236.364 69.69 L
236.889 69.467 L
237.415 69.245 L
237.94 68.911 L
238.465 68.578 L
238.991 68.578 L
239.516 68.244 L
240.042 69.022 L
240.567 69.801 L
241.092 70.357 L
241.618 70.914 L
242.143 71.581 L
242.668 73.139 L
243.194 74.14 L
243.719 66.797 L
244.245 65.908 L
244.77 65.018 L
245.295 64.906 L
245.821 64.572 L
246.346 64.461 L
246.872 64.128 L
247.397 64.239 L
247.922 64.684 L
248.448 65.351 L
248.973 66.019 L
249.498 66.353 L
250.024 66.575 L
250.549 66.353 L
251.075 66.13 L
251.6 65.685 L
252.125 65.574 L
252.651 66.019 L
253.176 66.13 L
253.702 66.686 L
254.227 67.799 L
254.752 69.022 L
255.278 69.579 L
255.803 69.579 L
256.328 68.578 L
256.854 69.022 L
257.379 69.134 L
257.905 69.356 L
258.43 69.022 L
258.955 68.355 L
259.481 67.688 L
260.006 67.465 L
260.532 67.799 L
261.057 67.243 L
261.582 66.686 L
262.108 66.13 L
262.633 66.019 L
263.158 65.574 L
263.684 65.908 L
264.209 65.463 L
264.735 65.24 L
265.26 64.684 L
265.785 64.906 L
266.311 64.795 L
266.836 64.906 L
267.362 64.572 L
267.887 64.35 L
268.412 63.794 L
268.938 62.904 L
269.463 62.014 L
269.988 61.124 L
270.514 60.567 L
271.039 59.789 L
271.565 60.011 L
272.09 62.014 L
272.615 64.572 L
273.141 66.464 L
273.666 67.576 L
274.192 68.132 L
274.717 68.355 L
275.242 67.02 L
275.768 65.685 L
276.293 65.463 L
276.818 64.35 L
277.344 63.349 L
277.869 62.792 L
278.395 61.903 L
278.92 61.013 L
279.445 60.901 L
279.971 60.901 L
280.496 60.79 L
281.022 60.679 L
281.547 60.011 L
282.072 60.011 L
282.598 60.234 L
283.123 60.679 L
283.648 61.569 L
284.174 61.903 L
284.699 62.014 L
285.225 61.903 L
285.75 61.903 L
286.275 61.458 L
286.801 60.79 L
287.326 59.455 L
287.852 58.676 L
288.377 57.786 L
288.902 57.119 L
289.428 57.23 L
289.953 57.564 L
290.478 57.675 L
291.004 57.897 L
291.529 58.676 L
292.055 60.011 L
292.58 62.236 L
293.105 62.57 L
293.631 64.128 L
294.156 65.685 L
294.682 66.464 L
295.207 66.353 L
295.732 65.463 L
296.258 64.572 L
296.783 63.905 L
297.308 63.349 L
297.834 63.905 L
298.359 65.018 L
298.885 65.24 L
299.41 65.351 L
299.935 65.463 L
300.461 66.019 L
300.986 66.686 L
301.512 67.131 L
302.037 68.466 L
302.562 68.689 L
303.088 68.911 L
303.613 68.689 L
304.138 68.355 L
304.664 68.132 L
305.189 67.576 L
305.715 66.797 L
306.24 65.908 L
306.765 65.351 L
307.291 64.795 L
307.816 64.35 L
308.342 64.239 L
308.867 64.128 L
309.392 64.461 L
309.918 64.35 L
310.443 64.461 L
310.968 64.35 L
311.494 63.571 L
312.019 63.237 L
312.545 63.349 L
313.07 62.792 L
313.595 62.792 L
314.121 62.125 L
314.646 65.574 L
315.172 66.909 L
315.697 67.243 L
316.222 67.354 L
316.748 67.02 L
317.273 66.464 L
317.798 65.574 L
318.324 64.795 L
318.849 63.794 L
319.375 62.681 L
319.9 62.459 L
320.425 62.347 L
320.951 62.904 L
321.476 62.347 L
322.002 62.347 L
322.527 62.904 L
323.052 64.461 L
323.578 64.35 L
324.103 64.016 L
324.628 63.126 L
325.154 62.57 L
325.679 61.791 L
326.205 60.901 L
326.73 60.345 L
327.255 59.9 L
327.781 59.678 L
328.306 60.122 L
328.832 60.456 L
329.357 60.901 L
329.882 60.901 L
330.408 61.346 L
330.933 61.346 L
331.458 62.014 L
331.984 62.57 L
332.509 63.349 L
333.035 63.126 L
333.56 62.904 L
334.085 62.014 L
334.611 62.347 L
335.136 63.126 L
335.662 64.128 L
336.187 65.463 L
336.712 65.908 L
337.238 65.685 L
337.763 67.243 L
338.288 68.244 L
338.814 69.022 L
339.339 69.467 L
339.865 69.579 L
340.39 69.134 L
340.915 68.355 L
341.441 67.799 L
341.966 67.02 L
342.492 66.13 L
343.017 65.018 L
343.542 64.572 L
344.068 65.129 L
344.593 64.795 L
345.118 65.129 L
345.644 66.241 L
346.169 66.464 L
346.695 66.797 L
347.22 67.576 L
347.745 67.688 L
348.271 67.576 L
348.796 68.132 L
349.322 68.244 L
349.847 68.355 L
350.372 68.8 L
350.898 70.357 L
351.423 70.469 L
351.948 70.802 L
352.474 70.58 L
352.999 70.802 L
353.525 71.915 L
354.05 71.692 L
354.575 71.359 L
355.101 71.136 L
355.626 70.802 L
356.152 69.912 L
356.677 70.914 L
357.202 66.686 L
357.728 65.351 L
358.253 64.239 L
358.778 63.349 L
359.304 63.46 L
359.829 63.905 L
360.355 64.239 L
360.88 64.795 L
361.405 64.795 L
361.931 64.795 L
362.456 65.24 L
362.982 66.797 L
363.507 69.245 L
364.032 70.58 L
364.558 71.025 L
365.083 70.469 L
365.608 70.246 L
366.134 70.58 L
366.659 70.691 L
367.185 69.912 L
367.71 69.579 L
368.235 68.355 L
368.761 67.354 L
369.286 66.241 L
369.812 66.019 L
370.337 64.795 L
370.862 64.572 L
371.388 64.128 L
371.913 63.683 L
372.438 64.35 L
372.964 65.574 L
373.489 66.464 L
374.015 66.464 L
374.54 66.019 L
375.065 65.685 L
375.591 64.795 L
376.116 63.794 L
376.642 62.904 L
377.167 61.903 L
377.692 61.235 L
378.218 60.011 L
378.743 59.455 L
379.268 58.009 L
379.794 56.785 L
380.319 55.784 L
380.845 54.449 L
381.37 53.892 L
381.895 53.781 L
382.421 54.56 L
382.946 55.45 L
383.472 56.674 L
383.997 58.12 L
384.522 58.12 L
385.048 58.231 L
385.573 59.121 L
386.098 60.679 L
386.624 62.347 L
387.149 64.572 L
387.675 66.353 L
388.2 67.465 L
388.725 67.688 L
389.251 67.354 L
389.776 68.021 L
390.302 67.354 L
390.827 68.132 L
391.352 67.799 L
391.878 67.354 L
392.403 67.131 L
392.928 67.576 L
393.454 68.132 L
393.979 68.466 L
394.505 69.579 L
395.03 69.579 L
395.555 69.579 L
396.081 69.022 L
396.606 67.354 L
397.132 66.464 L
397.657 66.13 L
398.182 66.797 L
398.708 66.909 L
399.233 66.575 L
399.758 66.241 L
400.284 65.796 L
400.809 66.13 L
401.335 66.353 L
401.86 66.464 L
402.385 67.688 L
402.911 67.354 L
403.436 67.131 L
403.962 66.353 L
404.487 66.353 L
405.012 64.906 L
405.538 63.46 L
406.063 62.347 L
406.588 61.903 L
407.114 59.9 L
407.639 61.68 L
408.165 62.904 L
408.69 64.906 L
409.215 66.13 L
409.741 66.575 L
410.266 66.797 L
410.792 66.13 L
411.317 65.796 L
411.842 64.684 L
412.368 65.24 L
412.893 64.35 L
413.418 66.686 L
413.944 71.247 L
414.469 73.027 L
414.995 74.029 L
415.52 74.696 L
416.045 73.584 L
416.571 72.137 L
417.096 70.914 L
417.622 68.911 L
418.147 68.132 L
418.672 67.576 L
419.198 66.909 L
419.723 66.575 L
420.248 65.24 L
420.774 64.461 L
421.299 63.237 L
421.825 64.128 L
422.35 61.458 L
422.875 61.569 L
423.401 60.456 L
423.926 60.456 L
424.452 61.013 L
424.977 58.787 L
425.502 58.009 L
426.028 57.564 L
426.553 56.785 L
427.078 56.563 L
427.604 56.006 L
428.129 56.563 L
428.655 57.564 L
429.18 58.009 L
429.705 57.786 L
430.231 58.231 L
430.756 58.899 L
431.282 59.121 L
431.807 58.787 L
432.332 58.454 L
432.858 58.787 L
433.383 58.342 L
433.908 58.342 L
434.434 59.344 L
434.959 59.233 L
435.485 59.566 L
436.01 60.011 L
436.535 60.011 L
437.061 59.121 L
437.586 57.786 L
438.112 57.786 L
438.637 57.23 L
439.162 57.008 L
439.688 57.23 L
440.213 57.008 L
440.738 57.23 L
441.264 56.896 L
441.789 57.341 L
442.315 57.786 L
442.84 57.675 L
443.365 57.23 L
443.891 57.341 L
444.416 57.341 L
444.942 59.344 L
445.467 60.901 L
445.992 62.014 L
446.518 62.904 L
447.043 63.571 L
447.568 63.794 L
448.094 63.794 L
448.619 64.016 L
449.145 67.465 L
449.67 69.801 L
450.195 72.805 L
450.721 74.029 L
451.246 74.808 L
451.772 75.92 L
452.297 76.365 L
452.822 77.033 L
453.348 78.368 L
453.873 79.035 L
454.398 79.146 L
454.924 78.256 L
455.449 76.365 L
455.975 74.585 L
456.5 72.805 L
457.025 71.247 L
457.551 70.469 L
458.076 69.245 L
458.602 68.355 L
459.127 68.355 L
459.652 68.911 L
460.178 70.024 L
460.703 70.357 L
461.228 72.137 L
461.754 74.251 L
462.279 77.144 L
462.805 83.374 L
463.33 89.381 L
463.855 90.716 L
464.381 93.275 L
464.906 98.615 L
465.432 103.621 L
465.957 109.406 L
466.482 114.079 L
467.008 119.419 L
467.533 123.424 L
468.058 129.209 L
468.584 132.658 L
469.109 134.771 L
469.635 136.774 L
470.16 137.107 L
470.685 138.887 L
471.211 140 L
471.736 140 L
472.262 140 L
472.787 133.102 L
473.312 134.438 L
473.838 132.435 L
474.363 132.212 L
474.888 131.768 L
475.414 132.991 L
475.939 133.881 L
476.465 133.881 L
476.99 131.656 L
477.515 130.544 L
478.041 131.1 L
478.566 128.541 L
479.092 129.876 L
479.617 131.322 L
480.142 132.435 L
480.668 131.99 L
481.193 128.764 L
481.718 124.759 L
482.244 121.755 L
482.769 119.641 L
483.295 119.085 L
483.82 119.53 L
484.345 119.641 L
484.871 119.641 L
485.396 117.861 L
485.922 116.86 L
486.447 117.861 L
486.972 118.863 L
487.498 117.973 L
488.023 116.081 L
488.548 114.19 L
489.074 112.966 L
489.599 111.075 L
490.125 109.073 L
490.65 107.293 L
491.175 105.846 L
491.701 104.622 L
492.226 104.622 L
492.752 103.732 L
493.277 101.952 L
493.802 101.952 L
494.328 99.505 L
494.853 99.06 L
495.378 98.17 L
495.904 97.503 L
496.429 95.389 L
496.955 93.609 L
497.48 92.162 L
498.005 92.162 L
498.531 92.941 L
499.056 93.72 L
499.582 93.942 L
500.107 93.497 L
500.632 92.719 L
501.158 91.161 L
501.683 90.494 L
502.208 90.049 L
502.734 90.16 L
503.259 90.049 L
503.785 90.271 L
504.31 89.604 L
504.835 89.048 L
505.361 88.38 L
505.886 88.046 L
506.412 88.714 L
506.937 89.27 L
507.462 89.048 L
507.988 88.38 L
508.513 87.49 L
509.038 87.045 L
509.564 86.711 L
510.089 86.378 L
510.615 84.486 L
511.14 83.485 L
511.665 82.595 L
512.191 82.595 L
512.716 84.598 L
513.242 87.713 L
513.767 89.826 L
514.292 91.829 L
514.818 92.607 L
515.343 93.831 L
515.868 94.387 L
516.394 96.167 L
516.919 98.615 L
517.445 101.73 L
517.97 103.399 L
518.495 104.511 L
519.021 103.732 L
519.546 103.399 L
520.072 100.729 L
520.597 100.618 L
521.122 98.504 L
521.648 98.615 L
522.173 98.838 L
522.698 100.061 L
523.224 100.618 L
523.749 102.62 L
524.275 102.064 L
524.8 102.064 L
525.325 102.286 L
525.851 106.18 L
526.376 114.746 L
526.902 127.317 L
527.427 135.884 L
527.952 139.333 L
528.478 140 L
529.003 140 L
529.528 140 L
530.054 140 L
530.579 140 L
531.105 140 L
531.63 140 L
532.155 140 L
532.681 140 L
533.206 140 L
533.732 140 L
534.257 140 L
534.782 140 L
535.308 140 L
535.833 140 L
536.358 140 L
536.884 140 L
537.409 140 L
537.935 140 L
538.46 140 L
538.985 140 L
539.511 140 L
540.036 140 L
540.562 140 L
541.087 140 L
541.612 140 L
542.138 140 L
542.663 135.439 L
543.188 134.994 L
543.714 132.769 L
544.239 130.766 L
544.765 127.651 L
545.29 124.759 L
545.815 123.535 L
546.341 121.31 L
546.866 119.308 L
547.392 115.636 L
547.917 113.856 L
548.442 111.743 L
548.968 110.074 L
549.493 109.963 L
550.018 109.073 L
550.544 105.179 L
551.069 103.955 L
551.595 102.064 L
552.12 100.729 L
552.645 99.728 L
553.171 99.171 L
553.696 99.95 L
554.222 101.619 L
554.747 104.177 L
555.272 108.183 L
555.798 113.077 L
556.323 118.529 L
556.848 124.425 L
557.374 132.435 L
557.899 137.33 L
558.425 140 L
558.95 140 L
559.475 137.553 L
560.001 140 L
560.526 140 L
561.052 137.553 L
561.577 140 L
562.102 140 L
562.628 140 L
563.153 140 L
563.678 135.884 L
564.204 131.768 L
564.729 126.984 L
565.255 122.645 L
565.78 118.418 L
566.305 115.414 L
566.831 112.188 L
567.356 110.296 L
567.882 107.515 L
568.407 107.181 L
568.932 106.18 L
569.458 104.622 L
569.983 103.844 L
570.508 103.065 L
571.034 103.065 L
571.559 101.063 L
572.085 99.839 L
572.61 100.061 L
573.135 100.061 L
573.661 100.506 L
574.186 100.729 L
574.712 100.506 L
575.237 100.061 L
575.762 100.395 L
576.288 100.061 L
576.813 99.505 L
577.338 98.281 L
577.864 99.171 L
578.389 98.838 L
578.915 98.17 L
579.44 98.838 L
579.965 100.284 L
580.491 102.064 L
581.016 102.62 L
581.542 104.4 L
582.067 104.622 L
582.592 106.18 L
583.118 107.96 L
583.643 108.628 L
584.168 109.295 L
584.694 110.185 L
585.219 110.185 L
585.745 112.299 L
586.27 116.081 L
586.795 116.081 L
587.321 134.326 L
587.846 138.999 L
588.372 139.221 L
588.897 140 L
589.422 140 L
589.948 140 L
590.473 140 L
590.998 140 L
591.524 140 L
592.049 140 L
592.575 140 L
593.1 140 L
593.625 140 L
594.151 137.775 L
594.676 135.884 L
595.202 131.545 L
595.727 127.095 L
596.252 127.317 L
596.778 122.868 L
597.303 120.531 L
597.828 119.419 L
598.354 119.196 L
598.879 117.416 L
599.405 116.192 L
599.93 113.3 L
600.455 111.298 L
600.981 110.074 L
601.506 108.961 L
602.032 106.848 L
602.557 105.067 L
603.082 104.177 L
603.608 103.176 L
604.133 102.286 L
604.658 101.952 L
605.184 101.285 L
605.709 101.841 L
606.235 103.51 L
606.76 103.287 L
607.285 104.511 L
607.811 104.845 L
608.336 106.18 L
608.862 106.848 L
609.387 107.07 L
609.912 107.181 L
610.438 108.071 L
610.963 108.183 L
611.488 108.183 L
612.014 107.738 L
612.539 107.293 L
613.065 106.514 L
613.59 105.512 L
614.115 104.177 L
614.641 102.954 L
615.166 102.064 L
615.692 101.619 L
616.217 99.616 L
616.742 99.06 L
617.268 98.615 L
617.793 99.06 L
618.318 98.281 L
618.844 96.946 L
619.369 96.724 L
619.895 97.169 L
620.42 97.169 L
620.945 97.503 L
621.471 98.504 L
621.996 98.393 L
622.522 98.726 L
623.047 99.171 L
623.572 99.283 L
624.098 99.505 L
624.623 99.839 L
625.148 99.283 L
625.674 100.506 L
626.199 100.84 L
626.725 101.396 L
627.25 101.73 L
627.775 101.174 L
628.301 100.506 L
628.826 98.726 L
629.352 98.393 L
629.877 97.503 L
630.402 96.501 L
630.928 96.279 L
631.453 97.058 L
631.978 96.056 L
632.504 96.167 L
633.029 95.723 L
633.555 95.5 L
634.08 94.61 L
634.605 94.833 L
635.131 94.944 L
635.656 95.834 L
636.182 95.723 L
636.707 96.724 L
637.232 98.281 L
637.758 98.17 L
638.283 98.281 L
638.808 99.171 L
639.334 97.836 L
639.859 97.614 L
640.385 96.613 L
640.91 96.501 L
641.435 96.39 L
641.961 98.838 L
642.486 99.283 L
643.012 98.726 L
643.537 98.949 L
644.062 99.394 L
644.588 98.281 L
645.113 98.393 L
645.638 97.948 L
646.164 98.615 L
646.689 99.283 L
647.215 104.289 L
647.74 118.306 L
648.265 123.09 L
648.791 126.984 L
649.316 132.88 L
649.842 137.107 L
650.367 140 L
650.892 140 L
651.418 140 L
651.943 140 L
652.468 139.889 L
652.994 140 L
653.519 140 L
654.045 137.553 L
654.57 140 L
655.095 140 L
655.621 140 L
656.146 140 L
656.672 140 L
657.197 140 L
657.722 140 L
658.248 140 L
658.773 140 L
659.298 140 L
659.824 140 L
660.349 140 L
660.875 140 L
661.4 140 L
661.925 140 L
662.451 140 L
662.976 140 L
663.502 140 L
664.027 140 L
664.552 140 L
665.078 140 L
665.603 140 L
666.128 140 L
666.654 140 L
667.179 140 L
667.705 140 L
668.23 140 L
668.755 140 L
669.281 140 L
669.806 140 L
670.332 140 L
670.857 139.889 L
671.382 140 L
671.908 140 L
672.433 140 L
672.958 137.553 L
673.484 140 L
674.009 140 L
674.535 140 L
675.06 140 L
675.585 140 L
676.111 140 L
676.636 140 L
677.162 140 L
677.687 140 L
678.212 140 L
678.738 140 L
679.263 140 L
679.788 140 L
680.314 140 L
680.839 140 L
681.365 135.995 L
681.89 133.77 L
682.415 133.992 L
682.941 136.885 L
683.466 140 L
683.992 140 L
684.517 140 L
685.042 140 L
685.568 140 L
686.093 140 L
686.618 140 L
687.144 140 L
687.669 140 L
688.195 140 L
688.72 140 L
689.245 140 L
689.771 140 L
690.296 140 L
690.822 140 L
691.347 140 L
691.872 140 L
692.398 140 L
692.923 140 L
693.448 140 L
693.974 140 L
694.499 140 L
695.025 136.885 L
695.55 131.656 L
696.075 127.874 L
696.601 123.869 L
697.126 120.643 L
697.652 119.196 L
698.177 120.42 L
698.702 121.088 L
699.228 121.533 L
699.753 123.313 L
700.278 124.202 L
700.804 122.534 L
701.329 120.086 L
701.855 117.416 L
702.38 115.525 L
702.905 113.522 L
703.431 111.298 L
703.956 111.409 L
704.482 112.966 L
705.007 113.189 L
705.532 111.52 L
706.058 109.851 L
706.583 108.961 L
707.108 106.959 L
707.634 106.402 L
708.159 105.401 L
708.685 104.734 L
709.21 104.622 L
709.735 105.401 L
710.261 106.18 L
710.786 109.518 L
711.312 117.861 L
711.837 114.635 L
712.362 121.533 L
712.888 124.647 L
713.413 126.539 L
713.938 126.872 L
714.464 127.095 L
714.989 127.317 L
715.515 127.874 L
716.04 128.652 L
716.565 129.542 L
717.091 129.431 L
717.616 126.65 L
718.142 121.978 L
718.667 119.085 L
719.192 116.526 L
719.718 113.411 L
720.243 112.188 L
720.768 109.629 L
721.294 107.738 L
721.819 106.069 L
722.345 103.732 L
722.87 103.399 L
723.395 101.619 L
723.921 101.841 L
724.446 100.506 L
724.972 99.171 L
725.497 98.615 L
726.022 98.615 L
726.548 99.171 L
727.073 99.95 L
727.598 100.506 L
728.124 100.506 L
728.649 99.728 L
729.175 98.615 L
729.7 99.06 L
730.225 98.949 L
730.751 97.503 L
731.276 98.17 L
731.802 96.724 L
732.327 95.277 L
732.852 94.387 L
733.378 93.72 L
733.903 92.051 L
734.428 92.162 L
734.954 92.162 L
735.479 91.829 L
736.005 91.05 L
736.53 92.162 L
737.055 92.385 L
737.581 93.609 L
738.106 97.948 L
738.632 103.51 L
739.157 107.626 L
739.682 112.076 L
740.208 116.304 L
740.733 117.527 L
741.258 119.419 L
741.784 123.201 L
742.309 126.316 L
742.835 129.098 L
743.36 133.881 L
743.885 136.44 L
744.411 137.775 L
744.936 137.553 L
745.462 133.214 L
745.987 128.319 L
746.512 122.756 L
747.038 120.976 L
747.563 118.418 L
748.088 116.637 L
748.614 112.41 L
749.139 110.519 L
749.665 108.961 L
750.19 106.959 L
750.715 106.625 L
751.241 104.289 L
751.766 103.844 L
752.292 103.287 L
752.817 102.842 L
753.342 102.397 L
753.868 100.506 L
754.393 100.173 L
754.918 99.728 L
755.444 99.283 L
755.969 98.393 L
756.495 100.284 L
757.02 99.95 L
757.545 100.061 L
758.071 99.839 L
758.596 100.284 L
759.122 100.506 L
759.647 100.506 L
760.172 101.952 L
760.698 103.51 L
761.223 105.846 L
761.748 107.404 L
762.274 111.743 L
762.799 113.856 L
763.325 118.306 L
763.85 123.424 L
764.375 129.32 L
764.901 135.216 L
765.426 138.776 L
765.952 140 L
766.477 140 L
767.002 140 L
767.528 140 L
768.053 136.551 L
768.578 130.544 L
769.104 125.426 L
769.629 121.199 L
770.155 117.082 L
770.68 114.412 L
771.205 111.409 L
771.731 107.738 L
772.256 105.179 L
772.782 101.952 L
773.307 100.729 L
773.832 98.504 L
774.358 94.833 L
774.883 93.72 L
775.408 93.164 L
775.934 91.94 L
776.459 92.162 L
776.985 91.717 L
777.51 91.495 L
778.035 92.274 L
778.561 93.275 L
779.086 94.721 L
779.612 96.724 L
780.137 100.951 L
780.662 106.18 L
781.188 113.856 L
781.713 120.976 L
782.238 126.539 L
782.764 132.101 L
783.289 136.885 L
783.815 140 L
784.34 140 L
784.865 140 L
785.391 140 L
785.916 140 L
786.442 140 L
786.967 140 L
787.492 140 L
788.018 140 L
788.543 140 L
789.068 140 L
789.594 140 L
790.119 140 L
790.645 140 L
791.17 140 L
791.695 140 L
792.221 140 L
792.746 140 L
793.272 140 L
793.797 140 L
794.322 140 L
794.848 140 L
795.373 140 L
795.898 140 L
796.424 140 L
796.949 140 L
797.475 140 L
S
GR
GS
1 0 0 RC
[8 3 2 3] 0 setdash
2 LJ
N
167.538 140 M
167.538 51 L
S
GR
GS
1 0 0 RC
[8 3 2 3] 0 setdash
2 LJ
N
220.077 140 M
220.077 51 L
S
GR
GS
1 0 0 RC
[8 3 2 3] 0 setdash
2 LJ
N
272.615 140 M
272.615 51 L
S
GR
GS
1 0 0 RC
[8 3 2 3] 0 setdash
2 LJ
N
325.154 140 M
325.154 51 L
S
GR
GS
1 0 0 RC
[8 3 2 3] 0 setdash
2 LJ
N
377.692 140 M
377.692 51 L
S
GR
GS
1 0 0 RC
[8 3 2 3] 0 setdash
2 LJ
N
430.231 140 M
430.231 51 L
S
GR
GS
1 0 0 RC
[8 3 2 3] 0 setdash
2 LJ
N
482.769 140 M
482.769 51 L
S
GR
GS
1 0 0 RC
[8 3 2 3] 0 setdash
2 LJ
N
535.308 140 M
535.308 51 L
S
GR
GS
1 0 0 RC
[8 3 2 3] 0 setdash
2 LJ
N
587.846 140 M
587.846 51 L
S
GR
GS
1 0 0 RC
[8 3 2 3] 0 setdash
2 LJ
N
640.385 140 M
640.385 51 L
S
GR
GS
1 0 0 RC
[8 3 2 3] 0 setdash
2 LJ
N
692.923 140 M
692.923 51 L
S
GR
GS
1 0 0 RC
[8 3 2 3] 0 setdash
2 LJ
N
745.462 140 M
745.462 51 L
S
GR
GS
1 0 0 RC
[8 3 2 3] 0 setdash
2 LJ
N
798 140 M
798 51 L
S
GR
GS
0 0 1 RC
[10 6] 0 setdash
2 LJ
1.5 LW
N
202.214 140 M
202.214 51 L
S
GR
GS
0 0 1 RC
[10 6] 0 setdash
2 LJ
1.5 LW
N
472.787 140 M
472.787 51 L
S
GR
GS
1 GC
N
115 289 M
798 289 L
798 200 L
115 200 L
cp
f
GR
GS
0.149 GC
2 setlinecap
10.0 ML
N
115 289 M
798 289 L
S
GR
GS
0.149 GC
2 setlinecap
10.0 ML
N
115 200 M
798 200 L
S
GR
GS
[0 -1 1 0 112 244.5] CT
0.149 GC
/Helvetica 20 F
GS
[1 0 0 1 0 0] CT
-25 -3.6 moveto 
1 -1 scale
(IMPC) t 
GR
GR
GS
0.149 GC
2 setlinecap
10.0 ML
N
115 289 M
115 200 L
S
GR
GS
0.149 GC
2 setlinecap
10.0 ML
N
798 289 M
798 200 L
S
GR
GS
0.208 0.165 0.525 RC
N
130.762 289 M
130.762 229.667 L
151.777 229.667 L
151.777 289 L
cp
f
GR
GS
0.208 0.165 0.525 RC
N
183.3 289 M
183.3 229.667 L
204.315 229.667 L
204.315 289 L
cp
f
GR
GS
0.208 0.165 0.525 RC
N
235.838 289 M
235.838 259.333 L
256.854 259.333 L
256.854 289 L
cp
f
GR
GS
0.208 0.165 0.525 RC
N
288.377 289 M
288.377 259.333 L
309.392 259.333 L
309.392 289 L
cp
f
GR
GS
0.208 0.165 0.525 RC
N
340.915 289 M
340.915 259.333 L
361.931 259.333 L
361.931 289 L
cp
f
GR
GS
0.208 0.165 0.525 RC
N
393.454 289 M
393.454 259.333 L
414.469 259.333 L
414.469 289 L
cp
f
GR
GS
0.208 0.165 0.525 RC
N
445.992 289 M
445.992 259.333 L
467.008 259.333 L
467.008 289 L
cp
f
GR
GS
0.208 0.165 0.525 RC
N
498.531 289 M
498.531 229.667 L
519.546 229.667 L
519.546 289 L
cp
f
GR
GS
0.208 0.165 0.525 RC
N
551.069 289 M
551.069 229.667 L
572.085 229.667 L
572.085 289 L
cp
f
GR
GS
0.208 0.165 0.525 RC
N
603.608 289 M
603.608 229.667 L
624.623 229.667 L
624.623 289 L
cp
f
GR
GS
0.208 0.165 0.525 RC
N
656.146 289 M
656.146 229.667 L
677.162 229.667 L
677.162 289 L
cp
f
GR
GS
0.208 0.165 0.525 RC
N
708.685 289 M
708.685 229.667 L
729.7 229.667 L
729.7 289 L
cp
f
GR
GS
0.208 0.165 0.525 RC
N
761.223 289 M
761.223 229.667 L
782.238 229.667 L
782.238 289 L
cp
f
GR
GS
2 setlinecap
10.0 ML
N
130.762 289 M
130.762 229.667 L
151.777 229.667 L
151.777 289 L
130.762 289 L
S
GR
GS
2 setlinecap
10.0 ML
N
183.3 289 M
183.3 229.667 L
204.315 229.667 L
204.315 289 L
183.3 289 L
S
GR
GS
2 setlinecap
10.0 ML
N
235.838 289 M
235.838 259.333 L
256.854 259.333 L
256.854 289 L
235.838 289 L
S
GR
GS
2 setlinecap
10.0 ML
N
288.377 289 M
288.377 259.333 L
309.392 259.333 L
309.392 289 L
288.377 289 L
S
GR
GS
2 setlinecap
10.0 ML
N
340.915 289 M
340.915 259.333 L
361.931 259.333 L
361.931 289 L
340.915 289 L
S
GR
GS
2 setlinecap
10.0 ML
N
393.454 289 M
393.454 259.333 L
414.469 259.333 L
414.469 289 L
393.454 289 L
S
GR
GS
2 setlinecap
10.0 ML
N
445.992 289 M
445.992 259.333 L
467.008 259.333 L
467.008 289 L
445.992 289 L
S
GR
GS
2 setlinecap
10.0 ML
N
498.531 289 M
498.531 229.667 L
519.546 229.667 L
519.546 289 L
498.531 289 L
S
GR
GS
2 setlinecap
10.0 ML
N
551.069 289 M
551.069 229.667 L
572.085 229.667 L
572.085 289 L
551.069 289 L
S
GR
GS
2 setlinecap
10.0 ML
N
603.608 289 M
603.608 229.667 L
624.623 229.667 L
624.623 289 L
603.608 289 L
S
GR
GS
2 setlinecap
10.0 ML
N
656.146 289 M
656.146 229.667 L
677.162 229.667 L
677.162 289 L
656.146 289 L
S
GR
GS
2 setlinecap
10.0 ML
N
708.685 289 M
708.685 229.667 L
729.7 229.667 L
729.7 289 L
708.685 289 L
S
GR
GS
2 setlinecap
10.0 ML
N
761.223 289 M
761.223 229.667 L
782.238 229.667 L
782.238 289 L
761.223 289 L
S
GR
GS
1 0 0 RC
[8 3 2 3] 0 setdash
2 LJ
N
167.538 289 M
167.538 199.991 L
S
GR
GS
1 0 0 RC
[8 3 2 3] 0 setdash
2 LJ
N
220.077 289 M
220.077 199.991 L
S
GR
GS
1 0 0 RC
[8 3 2 3] 0 setdash
2 LJ
N
272.615 289 M
272.615 199.991 L
S
GR
GS
1 0 0 RC
[8 3 2 3] 0 setdash
2 LJ
N
325.154 289 M
325.154 199.991 L
S
GR
GS
1 0 0 RC
[8 3 2 3] 0 setdash
2 LJ
N
377.692 289 M
377.692 199.991 L
S
GR
GS
1 0 0 RC
[8 3 2 3] 0 setdash
2 LJ
N
430.231 289 M
430.231 199.991 L
S
GR
GS
1 0 0 RC
[8 3 2 3] 0 setdash
2 LJ
N
482.769 289 M
482.769 199.991 L
S
GR
GS
1 0 0 RC
[8 3 2 3] 0 setdash
2 LJ
N
535.308 289 M
535.308 199.991 L
S
GR
GS
1 0 0 RC
[8 3 2 3] 0 setdash
2 LJ
N
587.846 289 M
587.846 199.991 L
S
GR
GS
1 0 0 RC
[8 3 2 3] 0 setdash
2 LJ
N
640.385 289 M
640.385 199.991 L
S
GR
GS
1 0 0 RC
[8 3 2 3] 0 setdash
2 LJ
N
692.923 289 M
692.923 199.991 L
S
GR
GS
1 0 0 RC
[8 3 2 3] 0 setdash
2 LJ
N
745.462 289 M
745.462 199.991 L
S
GR
GS
1 0 0 RC
[8 3 2 3] 0 setdash
2 LJ
N
798 289 M
798 199.991 L
S
GR
GS
0.149 GC
2 setlinecap
10.0 ML
N
115 289 M
798 289 L
S
GR
GS
1 GC
N
115 438 M
798 438 L
798 349 L
115 349 L
cp
f
GR
GS
0.149 GC
2 setlinecap
10.0 ML
N
115 438 M
798 438 L
S
GR
GS
0.149 GC
2 setlinecap
10.0 ML
N
115 349 M
798 349 L
S
GR
GS
[0 -1 1 0 112 393.5] CT
0.149 GC
/Helvetica 20 F
GS
[1 0 0 1 0 0] CT
-21.67 -3.6 moveto 
1 -1 scale
(SVM) t 
GR
GR
GS
0.149 GC
2 setlinecap
10.0 ML
N
115 438 M
115 349 L
S
GR
GS
0.149 GC
2 setlinecap
10.0 ML
N
798 438 M
798 349 L
S
GR
GS
0.208 0.165 0.525 RC
N
130.762 438 M
130.762 378.667 L
151.777 378.667 L
151.777 438 L
cp
f
GR
GS
0.208 0.165 0.525 RC
N
183.3 438 M
183.3 408.333 L
204.315 408.333 L
204.315 438 L
cp
f
GR
GS
0.208 0.165 0.525 RC
N
235.838 438 M
235.838 408.333 L
256.854 408.333 L
256.854 438 L
cp
f
GR
GS
0.208 0.165 0.525 RC
N
288.377 438 M
288.377 408.333 L
309.392 408.333 L
309.392 438 L
cp
f
GR
GS
0.208 0.165 0.525 RC
N
340.915 438 M
340.915 408.333 L
361.931 408.333 L
361.931 438 L
cp
f
GR
GS
0.208 0.165 0.525 RC
N
393.454 438 M
393.454 408.333 L
414.469 408.333 L
414.469 438 L
cp
f
GR
GS
0.208 0.165 0.525 RC
N
445.992 438 M
445.992 408.333 L
467.008 408.333 L
467.008 438 L
cp
f
GR
GS
0.208 0.165 0.525 RC
N
498.531 438 M
498.531 378.667 L
519.546 378.667 L
519.546 438 L
cp
f
GR
GS
0.208 0.165 0.525 RC
N
551.069 438 M
551.069 378.667 L
572.085 378.667 L
572.085 438 L
cp
f
GR
GS
0.208 0.165 0.525 RC
N
603.608 438 M
603.608 408.333 L
624.623 408.333 L
624.623 438 L
cp
f
GR
GS
0.208 0.165 0.525 RC
N
656.146 438 M
656.146 378.667 L
677.162 378.667 L
677.162 438 L
cp
f
GR
GS
0.208 0.165 0.525 RC
N
708.685 438 M
708.685 378.667 L
729.7 378.667 L
729.7 438 L
cp
f
GR
GS
0.208 0.165 0.525 RC
N
761.223 438 M
761.223 378.667 L
782.238 378.667 L
782.238 438 L
cp
f
GR
GS
2 setlinecap
10.0 ML
N
130.762 438 M
130.762 378.667 L
151.777 378.667 L
151.777 438 L
130.762 438 L
S
GR
GS
2 setlinecap
10.0 ML
N
183.3 438 M
183.3 408.333 L
204.315 408.333 L
204.315 438 L
183.3 438 L
S
GR
GS
2 setlinecap
10.0 ML
N
235.838 438 M
235.838 408.333 L
256.854 408.333 L
256.854 438 L
235.838 438 L
S
GR
GS
2 setlinecap
10.0 ML
N
288.377 438 M
288.377 408.333 L
309.392 408.333 L
309.392 438 L
288.377 438 L
S
GR
GS
2 setlinecap
10.0 ML
N
340.915 438 M
340.915 408.333 L
361.931 408.333 L
361.931 438 L
340.915 438 L
S
GR
GS
2 setlinecap
10.0 ML
N
393.454 438 M
393.454 408.333 L
414.469 408.333 L
414.469 438 L
393.454 438 L
S
GR
GS
2 setlinecap
10.0 ML
N
445.992 438 M
445.992 408.333 L
467.008 408.333 L
467.008 438 L
445.992 438 L
S
GR
GS
2 setlinecap
10.0 ML
N
498.531 438 M
498.531 378.667 L
519.546 378.667 L
519.546 438 L
498.531 438 L
S
GR
GS
2 setlinecap
10.0 ML
N
551.069 438 M
551.069 378.667 L
572.085 378.667 L
572.085 438 L
551.069 438 L
S
GR
GS
2 setlinecap
10.0 ML
N
603.608 438 M
603.608 408.333 L
624.623 408.333 L
624.623 438 L
603.608 438 L
S
GR
GS
2 setlinecap
10.0 ML
N
656.146 438 M
656.146 378.667 L
677.162 378.667 L
677.162 438 L
656.146 438 L
S
GR
GS
2 setlinecap
10.0 ML
N
708.685 438 M
708.685 378.667 L
729.7 378.667 L
729.7 438 L
708.685 438 L
S
GR
GS
2 setlinecap
10.0 ML
N
761.223 438 M
761.223 378.667 L
782.238 378.667 L
782.238 438 L
761.223 438 L
S
GR
GS
1 0 0 RC
[8 3 2 3] 0 setdash
2 LJ
N
167.538 438 M
167.538 348.991 L
S
GR
GS
1 0 0 RC
[8 3 2 3] 0 setdash
2 LJ
N
220.077 438 M
220.077 348.991 L
S
GR
GS
1 0 0 RC
[8 3 2 3] 0 setdash
2 LJ
N
272.615 438 M
272.615 348.991 L
S
GR
GS
1 0 0 RC
[8 3 2 3] 0 setdash
2 LJ
N
325.154 438 M
325.154 348.991 L
S
GR
GS
1 0 0 RC
[8 3 2 3] 0 setdash
2 LJ
N
377.692 438 M
377.692 348.991 L
S
GR
GS
1 0 0 RC
[8 3 2 3] 0 setdash
2 LJ
N
430.231 438 M
430.231 348.991 L
S
GR
GS
1 0 0 RC
[8 3 2 3] 0 setdash
2 LJ
N
482.769 438 M
482.769 348.991 L
S
GR
GS
1 0 0 RC
[8 3 2 3] 0 setdash
2 LJ
N
535.308 438 M
535.308 348.991 L
S
GR
GS
1 0 0 RC
[8 3 2 3] 0 setdash
2 LJ
N
587.846 438 M
587.846 348.991 L
S
GR
GS
1 0 0 RC
[8 3 2 3] 0 setdash
2 LJ
N
640.385 438 M
640.385 348.991 L
S
GR
GS
1 0 0 RC
[8 3 2 3] 0 setdash
2 LJ
N
692.923 438 M
692.923 348.991 L
S
GR
GS
1 0 0 RC
[8 3 2 3] 0 setdash
2 LJ
N
745.462 438 M
745.462 348.991 L
S
GR
GS
1 0 0 RC
[8 3 2 3] 0 setdash
2 LJ
N
798 438 M
798 348.991 L
S
GR
GS
0.149 GC
2 setlinecap
10.0 ML
N
115 438 M
798 438 L
S
GR
GS
1 GC
N
115 587 M
798 587 L
798 498 L
115 498 L
cp
f
GR
GS
0.149 GC
2 setlinecap
10.0 ML
N
115 587 M
798 587 L
S
GR
GS
0.149 GC
2 setlinecap
10.0 ML
N
115 498 M
798 498 L
S
GR
GS
[0 -1 1 0 112 542.5] CT
0.149 GC
/Helvetica 20 F
GS
[1 0 0 1 0 0] CT
-26.66 -3.6 moveto 
1 -1 scale
(FFNN) t 
GR
GR
GS
0.149 GC
2 setlinecap
10.0 ML
N
115 587 M
115 498 L
S
GR
GS
0.149 GC
2 setlinecap
10.0 ML
N
798 587 M
798 498 L
S
GR
GS
0.208 0.165 0.525 RC
N
130.762 587 M
130.762 557.333 L
151.777 557.333 L
151.777 587 L
cp
f
GR
GS
0.208 0.165 0.525 RC
N
183.3 587 M
183.3 557.333 L
204.315 557.333 L
204.315 587 L
cp
f
GR
GS
0.208 0.165 0.525 RC
N
235.838 587 M
235.838 557.333 L
256.854 557.333 L
256.854 587 L
cp
f
GR
GS
0.208 0.165 0.525 RC
N
288.377 587 M
288.377 557.333 L
309.392 557.333 L
309.392 587 L
cp
f
GR
GS
0.208 0.165 0.525 RC
N
340.915 587 M
340.915 557.333 L
361.931 557.333 L
361.931 587 L
cp
f
GR
GS
0.208 0.165 0.525 RC
N
393.454 587 M
393.454 557.333 L
414.469 557.333 L
414.469 587 L
cp
f
GR
GS
0.208 0.165 0.525 RC
N
445.992 587 M
445.992 557.333 L
467.008 557.333 L
467.008 587 L
cp
f
GR
GS
0.208 0.165 0.525 RC
N
498.531 587 M
498.531 527.667 L
519.546 527.667 L
519.546 587 L
cp
f
GR
GS
0.208 0.165 0.525 RC
N
551.069 587 M
551.069 527.667 L
572.085 527.667 L
572.085 587 L
cp
f
GR
GS
0.208 0.165 0.525 RC
N
603.608 587 M
603.608 557.333 L
624.623 557.333 L
624.623 587 L
cp
f
GR
GS
0.208 0.165 0.525 RC
N
656.146 587 M
656.146 527.667 L
677.162 527.667 L
677.162 587 L
cp
f
GR
GS
0.208 0.165 0.525 RC
N
708.685 587 M
708.685 527.667 L
729.7 527.667 L
729.7 587 L
cp
f
GR
GS
0.208 0.165 0.525 RC
N
761.223 587 M
761.223 527.667 L
782.238 527.667 L
782.238 587 L
cp
f
GR
GS
2 setlinecap
10.0 ML
N
130.762 587 M
130.762 557.333 L
151.777 557.333 L
151.777 587 L
130.762 587 L
S
GR
GS
2 setlinecap
10.0 ML
N
183.3 587 M
183.3 557.333 L
204.315 557.333 L
204.315 587 L
183.3 587 L
S
GR
GS
2 setlinecap
10.0 ML
N
235.838 587 M
235.838 557.333 L
256.854 557.333 L
256.854 587 L
235.838 587 L
S
GR
GS
2 setlinecap
10.0 ML
N
288.377 587 M
288.377 557.333 L
309.392 557.333 L
309.392 587 L
288.377 587 L
S
GR
GS
2 setlinecap
10.0 ML
N
340.915 587 M
340.915 557.333 L
361.931 557.333 L
361.931 587 L
340.915 587 L
S
GR
GS
2 setlinecap
10.0 ML
N
393.454 587 M
393.454 557.333 L
414.469 557.333 L
414.469 587 L
393.454 587 L
S
GR
GS
2 setlinecap
10.0 ML
N
445.992 587 M
445.992 557.333 L
467.008 557.333 L
467.008 587 L
445.992 587 L
S
GR
GS
2 setlinecap
10.0 ML
N
498.531 587 M
498.531 527.667 L
519.546 527.667 L
519.546 587 L
498.531 587 L
S
GR
GS
2 setlinecap
10.0 ML
N
551.069 587 M
551.069 527.667 L
572.085 527.667 L
572.085 587 L
551.069 587 L
S
GR
GS
2 setlinecap
10.0 ML
N
603.608 587 M
603.608 557.333 L
624.623 557.333 L
624.623 587 L
603.608 587 L
S
GR
GS
2 setlinecap
10.0 ML
N
656.146 587 M
656.146 527.667 L
677.162 527.667 L
677.162 587 L
656.146 587 L
S
GR
GS
2 setlinecap
10.0 ML
N
708.685 587 M
708.685 527.667 L
729.7 527.667 L
729.7 587 L
708.685 587 L
S
GR
GS
2 setlinecap
10.0 ML
N
761.223 587 M
761.223 527.667 L
782.238 527.667 L
782.238 587 L
761.223 587 L
S
GR
GS
1 0 0 RC
[8 3 2 3] 0 setdash
2 LJ
N
167.538 587 M
167.538 497.991 L
S
GR
GS
1 0 0 RC
[8 3 2 3] 0 setdash
2 LJ
N
220.077 587 M
220.077 497.991 L
S
GR
GS
1 0 0 RC
[8 3 2 3] 0 setdash
2 LJ
N
272.615 587 M
272.615 497.991 L
S
GR
GS
1 0 0 RC
[8 3 2 3] 0 setdash
2 LJ
N
325.154 587 M
325.154 497.991 L
S
GR
GS
1 0 0 RC
[8 3 2 3] 0 setdash
2 LJ
N
377.692 587 M
377.692 497.991 L
S
GR
GS
1 0 0 RC
[8 3 2 3] 0 setdash
2 LJ
N
430.231 587 M
430.231 497.991 L
S
GR
GS
1 0 0 RC
[8 3 2 3] 0 setdash
2 LJ
N
482.769 587 M
482.769 497.991 L
S
GR
GS
1 0 0 RC
[8 3 2 3] 0 setdash
2 LJ
N
535.308 587 M
535.308 497.991 L
S
GR
GS
1 0 0 RC
[8 3 2 3] 0 setdash
2 LJ
N
587.846 587 M
587.846 497.991 L
S
GR
GS
1 0 0 RC
[8 3 2 3] 0 setdash
2 LJ
N
640.385 587 M
640.385 497.991 L
S
GR
GS
1 0 0 RC
[8 3 2 3] 0 setdash
2 LJ
N
692.923 587 M
692.923 497.991 L
S
GR
GS
1 0 0 RC
[8 3 2 3] 0 setdash
2 LJ
N
745.462 587 M
745.462 497.991 L
S
GR
GS
1 0 0 RC
[8 3 2 3] 0 setdash
2 LJ
N
798 587 M
798 497.991 L
S
GR
GS
0.149 GC
2 setlinecap
10.0 ML
N
115 587 M
798 587 L
S
GR
%%Trailer
%%Pages: 1
%%EOF
