%!PS-Adobe-3.0 EPSF-3.0
%%Creator: (MATLAB, The Mathworks, Inc. Version 8.4.0.150421 \(R2014b\). Operating System: Mac OS X)
%%Title: /Users/jaszhang/ieee1/paper/_images/180.eps
%%CreationDate: 2017-02-07T23:42:53
%%Pages: (atend)
%%BoundingBox: 0 0 985 711
%%LanguageLevel: 2
%%EndComments
%%BeginProlog
%%BeginResource: procset (Apache XML Graphics Std ProcSet) 1.2 0
%%Version: 1.2 0
%%Copyright: (Copyright 2001-2003,2010 The Apache Software Foundation. License terms: http://www.apache.org/licenses/LICENSE-2.0)
/bd{bind def}bind def
/ld{load def}bd
/GR/grestore ld
/M/moveto ld
/LJ/setlinejoin ld
/C/curveto ld
/f/fill ld
/LW/setlinewidth ld
/GC/setgray ld
/t/show ld
/N/newpath ld
/CT/concat ld
/cp/closepath ld
/S/stroke ld
/L/lineto ld
/CC/setcmykcolor ld
/A/ashow ld
/GS/gsave ld
/RC/setrgbcolor ld
/RM/rmoveto ld
/ML/setmiterlimit ld
/re {4 2 roll M
1 index 0 rlineto
0 exch rlineto
neg 0 rlineto
cp } bd
/_ctm matrix def
/_tm matrix def
/BT { _ctm currentmatrix pop matrix _tm copy pop 0 0 moveto } bd
/ET { _ctm setmatrix } bd
/iTm { _ctm setmatrix _tm concat } bd
/Tm { _tm astore pop iTm 0 0 moveto } bd
/ux 0.0 def
/uy 0.0 def
/F {
  /Tp exch def
  /Tf exch def
  Tf findfont Tp scalefont setfont
  /cf Tf def  /cs Tp def
} bd
/ULS {currentpoint /uy exch def /ux exch def} bd
/ULE {
  /Tcx currentpoint pop def
  gsave
  newpath
  cf findfont cs scalefont dup
  /FontMatrix get 0 get /Ts exch def /FontInfo get dup
  /UnderlinePosition get Ts mul /To exch def
  /UnderlineThickness get Ts mul /Tt exch def
  ux uy To add moveto  Tcx uy To add lineto
  Tt setlinewidth stroke
  grestore
} bd
/OLE {
  /Tcx currentpoint pop def
  gsave
  newpath
  cf findfont cs scalefont dup
  /FontMatrix get 0 get /Ts exch def /FontInfo get dup
  /UnderlinePosition get Ts mul /To exch def
  /UnderlineThickness get Ts mul /Tt exch def
  ux uy To add cs add moveto Tcx uy To add cs add lineto
  Tt setlinewidth stroke
  grestore
} bd
/SOE {
  /Tcx currentpoint pop def
  gsave
  newpath
  cf findfont cs scalefont dup
  /FontMatrix get 0 get /Ts exch def /FontInfo get dup
  /UnderlinePosition get Ts mul /To exch def
  /UnderlineThickness get Ts mul /Tt exch def
  ux uy To add cs 10 mul 26 idiv add moveto Tcx uy To add cs 10 mul 26 idiv add lineto
  Tt setlinewidth stroke
  grestore
} bd
/QT {
/Y22 exch store
/X22 exch store
/Y21 exch store
/X21 exch store
currentpoint
/Y21 load 2 mul add 3 div exch
/X21 load 2 mul add 3 div exch
/X21 load 2 mul /X22 load add 3 div
/Y21 load 2 mul /Y22 load add 3 div
/X22 load /Y22 load curveto
} bd
/SSPD {
dup length /d exch dict def
{
/v exch def
/k exch def
currentpagedevice k known {
/cpdv currentpagedevice k get def
v cpdv ne {
/upd false def
/nullv v type /nulltype eq def
/nullcpdv cpdv type /nulltype eq def
nullv nullcpdv or
{
/upd true def
} {
/sametype v type cpdv type eq def
sametype {
v type /arraytype eq {
/vlen v length def
/cpdvlen cpdv length def
vlen cpdvlen eq {
0 1 vlen 1 sub {
/i exch def
/obj v i get def
/cpdobj cpdv i get def
obj cpdobj ne {
/upd true def
exit
} if
} for
} {
/upd true def
} ifelse
} {
v type /dicttype eq {
v {
/dv exch def
/dk exch def
/cpddv cpdv dk get def
dv cpddv ne {
/upd true def
exit
} if
} forall
} {
/upd true def
} ifelse
} ifelse
} if
} ifelse
upd true eq {
d k v put
} if
} if
} if
} forall
d length 0 gt {
d setpagedevice
} if
} bd
%%EndResource
%%BeginResource: procset (Apache XML Graphics EPS ProcSet) 1.0 0
%%Version: 1.0 0
%%Copyright: (Copyright 2002-2003 The Apache Software Foundation. License terms: http://www.apache.org/licenses/LICENSE-2.0)
/BeginEPSF { %def
/b4_Inc_state save def         % Save state for cleanup
/dict_count countdictstack def % Count objects on dict stack
/op_count count 1 sub def      % Count objects on operand stack
userdict begin                 % Push userdict on dict stack
/showpage { } def              % Redefine showpage, { } = null proc
0 setgray 0 setlinecap         % Prepare graphics state
1 setlinewidth 0 setlinejoin
10 setmiterlimit [ ] 0 setdash newpath
/languagelevel where           % If level not equal to 1 then
{pop languagelevel             % set strokeadjust and
1 ne                           % overprint to their defaults.
{false setstrokeadjust false setoverprint
} if
} if
} bd
/EndEPSF { %def
count op_count sub {pop} repeat            % Clean up stacks
countdictstack dict_count sub {end} repeat
b4_Inc_state restore
} bd
%%EndResource
%FOPBeginFontDict
%%IncludeResource: font Courier-Bold
%%IncludeResource: font Helvetica
%%IncludeResource: font Courier-BoldOblique
%%IncludeResource: font Courier-Oblique
%%IncludeResource: font Times-Roman
%%IncludeResource: font Helvetica-BoldOblique
%%IncludeResource: font Helvetica-Bold
%%IncludeResource: font Helvetica-Oblique
%%IncludeResource: font Times-BoldItalic
%%IncludeResource: font Courier
%%IncludeResource: font Times-Italic
%%IncludeResource: font Times-Bold
%%IncludeResource: font Symbol
%%IncludeResource: font ZapfDingbats
%FOPEndFontDict
%%BeginResource: encoding WinAnsiEncoding
/WinAnsiEncoding [
/.notdef /.notdef /.notdef /.notdef /.notdef
/.notdef /.notdef /.notdef /.notdef /.notdef
/.notdef /.notdef /.notdef /.notdef /.notdef
/.notdef /.notdef /.notdef /.notdef /.notdef
/.notdef /.notdef /.notdef /.notdef /.notdef
/.notdef /.notdef /.notdef /.notdef /.notdef
/.notdef /.notdef /space /exclam /quotedbl
/numbersign /dollar /percent /ampersand /quotesingle
/parenleft /parenright /asterisk /plus /comma
/hyphen /period /slash /zero /one
/two /three /four /five /six
/seven /eight /nine /colon /semicolon
/less /equal /greater /question /at
/A /B /C /D /E
/F /G /H /I /J
/K /L /M /N /O
/P /Q /R /S /T
/U /V /W /X /Y
/Z /bracketleft /backslash /bracketright /asciicircum
/underscore /quoteleft /a /b /c
/d /e /f /g /h
/i /j /k /l /m
/n /o /p /q /r
/s /t /u /v /w
/x /y /z /braceleft /bar
/braceright /asciitilde /bullet /Euro /bullet
/quotesinglbase /florin /quotedblbase /ellipsis /dagger
/daggerdbl /circumflex /perthousand /Scaron /guilsinglleft
/OE /bullet /Zcaron /bullet /bullet
/quoteleft /quoteright /quotedblleft /quotedblright /bullet
/endash /emdash /asciitilde /trademark /scaron
/guilsinglright /oe /bullet /zcaron /Ydieresis
/space /exclamdown /cent /sterling /currency
/yen /brokenbar /section /dieresis /copyright
/ordfeminine /guillemotleft /logicalnot /sfthyphen /registered
/macron /degree /plusminus /twosuperior /threesuperior
/acute /mu /paragraph /middot /cedilla
/onesuperior /ordmasculine /guillemotright /onequarter /onehalf
/threequarters /questiondown /Agrave /Aacute /Acircumflex
/Atilde /Adieresis /Aring /AE /Ccedilla
/Egrave /Eacute /Ecircumflex /Edieresis /Igrave
/Iacute /Icircumflex /Idieresis /Eth /Ntilde
/Ograve /Oacute /Ocircumflex /Otilde /Odieresis
/multiply /Oslash /Ugrave /Uacute /Ucircumflex
/Udieresis /Yacute /Thorn /germandbls /agrave
/aacute /acircumflex /atilde /adieresis /aring
/ae /ccedilla /egrave /eacute /ecircumflex
/edieresis /igrave /iacute /icircumflex /idieresis
/eth /ntilde /ograve /oacute /ocircumflex
/otilde /odieresis /divide /oslash /ugrave
/uacute /ucircumflex /udieresis /yacute /thorn
/ydieresis
] def
%%EndResource
%FOPBeginFontReencode
/Courier-Bold findfont
dup length dict begin
  {1 index /FID ne {def} {pop pop} ifelse} forall
  /Encoding WinAnsiEncoding def
  currentdict
end
/Courier-Bold exch definefont pop
/Helvetica findfont
dup length dict begin
  {1 index /FID ne {def} {pop pop} ifelse} forall
  /Encoding WinAnsiEncoding def
  currentdict
end
/Helvetica exch definefont pop
/Courier-BoldOblique findfont
dup length dict begin
  {1 index /FID ne {def} {pop pop} ifelse} forall
  /Encoding WinAnsiEncoding def
  currentdict
end
/Courier-BoldOblique exch definefont pop
/Courier-Oblique findfont
dup length dict begin
  {1 index /FID ne {def} {pop pop} ifelse} forall
  /Encoding WinAnsiEncoding def
  currentdict
end
/Courier-Oblique exch definefont pop
/Times-Roman findfont
dup length dict begin
  {1 index /FID ne {def} {pop pop} ifelse} forall
  /Encoding WinAnsiEncoding def
  currentdict
end
/Times-Roman exch definefont pop
/Helvetica-BoldOblique findfont
dup length dict begin
  {1 index /FID ne {def} {pop pop} ifelse} forall
  /Encoding WinAnsiEncoding def
  currentdict
end
/Helvetica-BoldOblique exch definefont pop
/Helvetica-Bold findfont
dup length dict begin
  {1 index /FID ne {def} {pop pop} ifelse} forall
  /Encoding WinAnsiEncoding def
  currentdict
end
/Helvetica-Bold exch definefont pop
/Helvetica-Oblique findfont
dup length dict begin
  {1 index /FID ne {def} {pop pop} ifelse} forall
  /Encoding WinAnsiEncoding def
  currentdict
end
/Helvetica-Oblique exch definefont pop
/Times-BoldItalic findfont
dup length dict begin
  {1 index /FID ne {def} {pop pop} ifelse} forall
  /Encoding WinAnsiEncoding def
  currentdict
end
/Times-BoldItalic exch definefont pop
/Courier findfont
dup length dict begin
  {1 index /FID ne {def} {pop pop} ifelse} forall
  /Encoding WinAnsiEncoding def
  currentdict
end
/Courier exch definefont pop
/Times-Italic findfont
dup length dict begin
  {1 index /FID ne {def} {pop pop} ifelse} forall
  /Encoding WinAnsiEncoding def
  currentdict
end
/Times-Italic exch definefont pop
/Times-Bold findfont
dup length dict begin
  {1 index /FID ne {def} {pop pop} ifelse} forall
  /Encoding WinAnsiEncoding def
  currentdict
end
/Times-Bold exch definefont pop
%FOPEndFontReencode
%%EndProlog
%%Page: 1 1
%%PageBoundingBox: 0 0 985 711
%%BeginPageSetup
[1 0 0 -1 0 711] CT
%%EndPageSetup
GS
1 GC
N
0 0 985 711 re
f
GR
GS
1 GC
N
0 0 985 711 re
f
GR
GS
1 GC
N
128 149 M
891 149 L
891 53 L
128 53 L
cp
f
GR
GS
[1 0 0 1 509.5 175] CT
0.149 GC
/Helvetica 20 F
GS
[1 0 0 1 0 0] CT
-36.66 15.4 moveto 
1 -1 scale
(Time \(s\)) t 
GR
GR
GS
0.149 GC
2 setlinecap
10.0 ML
N
128 149 M
891 149 L
S
GR
GS
0.149 GC
2 setlinecap
10.0 ML
N
128 53 M
891 53 L
S
GR
GS
0.149 GC
2 setlinecap
10.0 ML
N
128 149 M
128 141.37 L
S
GR
GS
0.149 GC
2 setlinecap
10.0 ML
N
128 53 M
128 60.63 L
S
GR
GS
0.149 GC
2 setlinecap
10.0 ML
N
249.111 149 M
249.111 141.37 L
S
GR
GS
0.149 GC
2 setlinecap
10.0 ML
N
249.111 53 M
249.111 60.63 L
S
GR
GS
0.149 GC
2 setlinecap
10.0 ML
N
370.222 149 M
370.222 141.37 L
S
GR
GS
0.149 GC
2 setlinecap
10.0 ML
N
370.222 53 M
370.222 60.63 L
S
GR
GS
0.149 GC
2 setlinecap
10.0 ML
N
491.333 149 M
491.333 141.37 L
S
GR
GS
0.149 GC
2 setlinecap
10.0 ML
N
491.333 53 M
491.333 60.63 L
S
GR
GS
0.149 GC
2 setlinecap
10.0 ML
N
612.444 149 M
612.444 141.37 L
S
GR
GS
0.149 GC
2 setlinecap
10.0 ML
N
612.444 53 M
612.444 60.63 L
S
GR
GS
0.149 GC
2 setlinecap
10.0 ML
N
733.556 149 M
733.556 141.37 L
S
GR
GS
0.149 GC
2 setlinecap
10.0 ML
N
733.556 53 M
733.556 60.63 L
S
GR
GS
0.149 GC
2 setlinecap
10.0 ML
N
854.667 149 M
854.667 141.37 L
S
GR
GS
0.149 GC
2 setlinecap
10.0 ML
N
854.667 53 M
854.667 60.63 L
S
GR
GS
[1 0 0 1 128 155] CT
0.149 GC
/Helvetica 20 F
GS
[1 0 0 1 0 0] CT
-5.562 15.4 moveto 
1 -1 scale
(0) t 
GR
GR
GS
[1 0 0 1 249.11111 155] CT
0.149 GC
/Helvetica 20 F
GS
[1 0 0 1 0 0] CT
-16.685 15.4 moveto 
1 -1 scale
(200) t 
GR
GR
GS
[1 0 0 1 370.22223 155] CT
0.149 GC
/Helvetica 20 F
GS
[1 0 0 1 0 0] CT
-16.685 15.4 moveto 
1 -1 scale
(400) t 
GR
GR
GS
[1 0 0 1 491.33334 155] CT
0.149 GC
/Helvetica 20 F
GS
[1 0 0 1 0 0] CT
-16.685 15.4 moveto 
1 -1 scale
(600) t 
GR
GR
GS
[1 0 0 1 612.44446 155] CT
0.149 GC
/Helvetica 20 F
GS
[1 0 0 1 0 0] CT
-16.685 15.4 moveto 
1 -1 scale
(800) t 
GR
GR
GS
[1 0 0 1 733.55554 155] CT
0.149 GC
/Helvetica 20 F
GS
[1 0 0 1 0 0] CT
-22.246 15.4 moveto 
1 -1 scale
(1000) t 
GR
GR
GS
[1 0 0 1 854.66669 155] CT
0.149 GC
/Helvetica 20 F
GS
[1 0 0 1 0 0] CT
-22.246 15.4 moveto 
1 -1 scale
(1200) t 
GR
GR
GS
[0 -1 1 0 96.75391 101] CT
0.149 GC
/Helvetica 20 F
GS
[1 0 0 1 0 0] CT
-57.808 -3.6 moveto 
1 -1 scale
(Speed \(mph\)) t 
GR
GR
GS
0.149 GC
2 setlinecap
10.0 ML
N
128 149 M
128 53 L
S
GR
GS
0.149 GC
2 setlinecap
10.0 ML
N
891 149 M
891 53 L
S
GR
GS
0.149 GC
2 setlinecap
10.0 ML
N
128 149 M
135.63 149 L
S
GR
GS
0.149 GC
2 setlinecap
10.0 ML
N
891 149 M
883.37 149 L
S
GR
GS
0.149 GC
2 setlinecap
10.0 ML
N
128 89 M
135.63 89 L
S
GR
GS
0.149 GC
2 setlinecap
10.0 ML
N
891 89 M
883.37 89 L
S
GR
GS
[1 0 0 1 122 149] CT
0.149 GC
/Helvetica 20 F
GS
[1 0 0 1 0 0] CT
-11.123 5.9 moveto 
1 -1 scale
(0) t 
GR
GR
GS
[1 0 0 1 122 89] CT
0.149 GC
/Helvetica 20 F
GS
[1 0 0 1 0 0] CT
-22.246 5.9 moveto 
1 -1 scale
(50) t 
GR
GR
GS
2 setlinecap
10.0 ML
N
128 149 M
128.606 149 L
129.211 146.84 L
129.817 146.36 L
130.422 144.92 L
131.028 142.88 L
131.633 140.72 L
132.239 140.48 L
132.844 138.92 L
133.45 138.08 L
134.056 135.2 L
134.661 135.2 L
135.267 135.2 L
135.872 137.36 L
136.478 137.48 L
137.083 138.44 L
137.689 139.88 L
138.294 142.64 L
138.9 142.64 L
139.506 146.48 L
140.111 146.84 L
140.717 143.96 L
141.322 140.6 L
141.928 137.96 L
142.533 135.2 L
143.139 132.32 L
143.744 130.16 L
144.35 127.64 L
144.956 125.48 L
145.561 123.92 L
146.167 124.28 L
146.772 124.28 L
147.378 123.08 L
147.983 123.08 L
148.589 118.52 L
149.194 117.2 L
149.8 116.6 L
150.406 115.88 L
151.011 116.24 L
151.617 115.88 L
152.222 115.28 L
152.828 115.76 L
153.433 116.24 L
154.039 114.92 L
154.644 113.84 L
155.25 110.12 L
155.856 109.16 L
156.461 108.08 L
157.067 107 L
157.672 106.04 L
158.278 104.96 L
158.883 104.24 L
159.489 102.8 L
160.094 101.96 L
160.7 101.6 L
161.306 100.76 L
161.911 100.88 L
162.517 101.96 L
163.122 102.8 L
163.728 104.84 L
164.333 106.52 L
164.939 106.4 L
165.544 105.68 L
166.15 104.96 L
166.756 103.4 L
167.361 102.44 L
167.967 101.36 L
168.572 100.4 L
169.178 99.8 L
169.783 99.68 L
170.389 100.16 L
170.994 100.16 L
171.6 100.76 L
172.206 100.64 L
172.811 100.88 L
173.417 101 L
174.022 99.92 L
174.628 99.32 L
175.233 98.6 L
175.839 99.08 L
176.444 103.64 L
177.05 108.92 L
177.656 113.12 L
178.261 117.56 L
178.867 120.32 L
179.472 122.96 L
180.078 125.48 L
180.683 126.2 L
181.289 127.28 L
181.894 128.12 L
182.5 129.32 L
183.106 129.2 L
183.711 128.96 L
184.317 127.16 L
184.922 124.16 L
185.528 121.64 L
186.133 118.64 L
186.739 117.2 L
187.344 115.52 L
187.95 114.32 L
188.556 112.88 L
189.161 111.2 L
189.767 109.16 L
190.372 108.8 L
190.978 106.76 L
191.583 106.04 L
192.189 104.36 L
192.794 104.24 L
193.4 102.68 L
194.006 102.8 L
194.611 102.8 L
195.217 103.88 L
195.822 104.12 L
196.428 105.32 L
197.033 105.2 L
197.639 104.24 L
198.244 103.52 L
198.85 102.08 L
199.456 101.36 L
200.061 100.88 L
200.667 100.88 L
201.272 100.52 L
201.878 101.36 L
202.483 99.68 L
203.089 99.8 L
203.694 97.64 L
204.3 96.68 L
204.906 95.6 L
205.511 96.8 L
206.117 97.52 L
206.722 97.28 L
207.328 97.88 L
207.933 98.96 L
208.539 98.96 L
209.144 99.2 L
209.75 100.52 L
210.356 101.24 L
210.961 101.6 L
211.567 102.2 L
212.172 103.4 L
212.778 103.4 L
213.383 102.32 L
213.989 101.12 L
214.594 100.52 L
215.2 99.56 L
215.806 100.52 L
216.411 101.12 L
217.017 100.64 L
217.622 99.68 L
218.228 99.08 L
218.833 99.44 L
219.439 99.56 L
220.044 100.16 L
220.65 100.88 L
221.256 102.8 L
221.861 106.76 L
222.467 110.48 L
223.072 114.8 L
223.678 116.72 L
224.283 117.8 L
224.889 118.64 L
225.494 118.28 L
226.1 118.64 L
226.706 119.12 L
227.311 119.12 L
227.917 119.72 L
228.522 118.76 L
229.128 118.64 L
229.733 115.28 L
230.339 115.28 L
230.944 115.52 L
231.55 115.64 L
232.156 114.8 L
232.761 115.28 L
233.367 114.68 L
233.972 112.88 L
234.578 110.6 L
235.183 108.44 L
235.789 105.8 L
236.394 103.64 L
237 101.72 L
237.606 99.32 L
238.211 97.64 L
238.817 95.84 L
239.422 93.68 L
240.028 91.64 L
240.633 90.44 L
241.239 90.2 L
241.844 91.52 L
242.45 91.16 L
243.056 90.56 L
243.661 89.96 L
244.267 89.96 L
244.872 87.56 L
245.478 87.44 L
246.083 86.6 L
246.689 85.4 L
247.294 88.88 L
247.9 88.76 L
248.506 91.88 L
249.111 93.08 L
249.717 93.92 L
250.322 92.6 L
250.928 91.52 L
251.533 91.52 L
252.139 90.44 L
252.744 90.2 L
253.35 88.4 L
253.956 86.36 L
254.561 86.12 L
255.167 85.64 L
255.772 84.68 L
256.378 83.12 L
256.983 82.16 L
257.589 81.08 L
258.194 79.28 L
258.8 77.12 L
259.406 76.64 L
260.011 76.88 L
260.617 76.76 L
261.222 75.44 L
261.828 74.12 L
262.433 72.8 L
263.039 71.84 L
263.644 71 L
264.25 70.88 L
264.856 71 L
265.461 71.48 L
266.067 71.48 L
266.672 71.12 L
267.278 71 L
267.883 73.16 L
268.489 72.92 L
269.094 72.68 L
269.7 72.32 L
270.306 71.96 L
270.911 71.96 L
271.517 71.6 L
272.122 72.44 L
272.728 73.28 L
273.333 73.88 L
273.939 74.48 L
274.544 75.2 L
275.15 76.88 L
275.756 77.96 L
276.361 70.04 L
276.967 69.08 L
277.572 68.12 L
278.178 68 L
278.783 67.64 L
279.389 67.52 L
279.994 67.16 L
280.6 67.28 L
281.206 67.76 L
281.811 68.48 L
282.417 69.2 L
283.022 69.56 L
283.628 69.8 L
284.233 69.56 L
284.839 69.32 L
285.444 68.84 L
286.05 68.72 L
286.656 69.2 L
287.261 69.32 L
287.867 69.92 L
288.472 71.12 L
289.078 72.44 L
289.683 73.04 L
290.289 73.04 L
290.894 71.96 L
291.5 72.44 L
292.106 72.56 L
292.711 72.8 L
293.317 72.44 L
293.922 71.72 L
294.528 71 L
295.133 70.76 L
295.739 71.12 L
296.344 70.52 L
296.95 69.92 L
297.556 69.32 L
298.161 69.2 L
298.767 68.72 L
299.372 69.08 L
299.978 68.6 L
300.583 68.36 L
301.189 67.76 L
301.794 68 L
302.4 67.88 L
303.006 68 L
303.611 67.64 L
304.217 67.4 L
304.822 66.8 L
305.428 65.84 L
306.033 64.88 L
306.639 63.92 L
307.244 63.32 L
307.85 62.48 L
308.456 62.72 L
309.061 64.88 L
309.667 67.64 L
310.272 69.68 L
310.878 70.88 L
311.483 71.48 L
312.089 71.72 L
312.694 70.28 L
313.3 68.84 L
313.906 68.6 L
314.511 67.4 L
315.117 66.32 L
315.722 65.72 L
316.328 64.76 L
316.933 63.8 L
317.539 63.68 L
318.144 63.68 L
318.75 63.56 L
319.356 63.44 L
319.961 62.72 L
320.567 62.72 L
321.172 62.96 L
321.778 63.44 L
322.383 64.4 L
322.989 64.76 L
323.594 64.88 L
324.2 64.76 L
324.806 64.76 L
325.411 64.28 L
326.017 63.56 L
326.622 62.12 L
327.228 61.28 L
327.833 60.32 L
328.439 59.6 L
329.044 59.72 L
329.65 60.08 L
330.256 60.2 L
330.861 60.44 L
331.467 61.28 L
332.072 62.72 L
332.678 65.12 L
333.283 65.48 L
333.889 67.16 L
334.494 68.84 L
335.1 69.68 L
335.706 69.56 L
336.311 68.6 L
336.917 67.64 L
337.522 66.92 L
338.128 66.32 L
338.733 66.92 L
339.339 68.12 L
339.944 68.36 L
340.55 68.48 L
341.156 68.6 L
341.761 69.2 L
342.367 69.92 L
342.972 70.4 L
343.578 71.84 L
344.183 72.08 L
344.789 72.32 L
345.394 72.08 L
346 71.72 L
346.606 71.48 L
347.211 70.88 L
347.817 70.04 L
348.422 69.08 L
349.028 68.48 L
349.633 67.88 L
350.239 67.4 L
350.844 67.28 L
351.45 67.16 L
352.056 67.52 L
352.661 67.4 L
353.267 67.52 L
353.872 67.4 L
354.478 66.56 L
355.083 66.2 L
355.689 66.32 L
356.294 65.72 L
356.9 65.72 L
357.506 65 L
358.111 68.72 L
358.717 70.16 L
359.322 70.52 L
359.928 70.64 L
360.533 70.28 L
361.139 69.68 L
361.744 68.72 L
362.35 67.88 L
362.956 66.8 L
363.561 65.6 L
364.167 65.36 L
364.772 65.24 L
365.378 65.84 L
365.983 65.24 L
366.589 65.24 L
367.194 65.84 L
367.8 67.52 L
368.406 67.4 L
369.011 67.04 L
369.617 66.08 L
370.222 65.48 L
370.828 64.64 L
371.433 63.68 L
372.039 63.08 L
372.644 62.6 L
373.25 62.36 L
373.856 62.84 L
374.461 63.2 L
375.067 63.68 L
375.672 63.68 L
376.278 64.16 L
376.883 64.16 L
377.489 64.88 L
378.094 65.48 L
378.7 66.32 L
379.306 66.08 L
379.911 65.84 L
380.517 64.88 L
381.122 65.24 L
381.728 66.08 L
382.333 67.16 L
382.939 68.6 L
383.544 69.08 L
384.15 68.84 L
384.756 70.52 L
385.361 71.6 L
385.967 72.44 L
386.572 72.92 L
387.178 73.04 L
387.783 72.56 L
388.389 71.72 L
388.994 71.12 L
389.6 70.28 L
390.206 69.32 L
390.811 68.12 L
391.417 67.64 L
392.022 68.24 L
392.628 67.88 L
393.233 68.24 L
393.839 69.44 L
394.444 69.68 L
395.05 70.04 L
395.656 70.88 L
396.261 71 L
396.867 70.88 L
397.472 71.48 L
398.078 71.6 L
398.683 71.72 L
399.289 72.2 L
399.894 73.88 L
400.5 74 L
401.106 74.36 L
401.711 74.12 L
402.317 74.36 L
402.922 75.56 L
403.528 75.32 L
404.133 74.96 L
404.739 74.72 L
405.344 74.36 L
405.95 73.4 L
406.556 74.48 L
407.161 69.92 L
407.767 68.48 L
408.372 67.28 L
408.978 66.32 L
409.583 66.44 L
410.189 66.92 L
410.794 67.28 L
411.4 67.88 L
412.006 67.88 L
412.611 67.88 L
413.217 68.36 L
413.822 70.04 L
414.428 72.68 L
415.033 74.12 L
415.639 74.6 L
416.244 74 L
416.85 73.76 L
417.456 74.12 L
418.061 74.24 L
418.667 73.4 L
419.272 73.04 L
419.878 71.72 L
420.483 70.64 L
421.089 69.44 L
421.694 69.2 L
422.3 67.88 L
422.906 67.64 L
423.511 67.16 L
424.117 66.68 L
424.722 67.4 L
425.328 68.72 L
425.933 69.68 L
426.539 69.68 L
427.144 69.2 L
427.75 68.84 L
428.356 67.88 L
428.961 66.8 L
429.567 65.84 L
430.172 64.76 L
430.778 64.04 L
431.383 62.72 L
431.989 62.12 L
432.594 60.56 L
433.2 59.24 L
433.806 58.16 L
434.411 56.72 L
435.017 56.12 L
435.622 56 L
436.228 56.84 L
436.833 57.8 L
437.439 59.12 L
438.044 60.68 L
438.65 60.68 L
439.256 60.8 L
439.861 61.76 L
440.467 63.44 L
441.072 65.24 L
441.678 67.64 L
442.283 69.56 L
442.889 70.76 L
443.494 71 L
444.1 70.64 L
444.706 71.36 L
445.311 70.64 L
445.917 71.48 L
446.522 71.12 L
447.128 70.64 L
447.733 70.4 L
448.339 70.88 L
448.944 71.48 L
449.55 71.84 L
450.156 73.04 L
450.761 73.04 L
451.367 73.04 L
451.972 72.44 L
452.578 70.64 L
453.183 69.68 L
453.789 69.32 L
454.394 70.04 L
455 70.16 L
455.606 69.8 L
456.211 69.44 L
456.817 68.96 L
457.422 69.32 L
458.028 69.56 L
458.633 69.68 L
459.239 71 L
459.844 70.64 L
460.45 70.4 L
461.056 69.56 L
461.661 69.56 L
462.267 68 L
462.872 66.44 L
463.478 65.24 L
464.083 64.76 L
464.689 62.6 L
465.294 64.52 L
465.9 65.84 L
466.506 68 L
467.111 69.32 L
467.717 69.8 L
468.322 70.04 L
468.928 69.32 L
469.533 68.96 L
470.139 67.76 L
470.744 68.36 L
471.35 67.4 L
471.956 69.92 L
472.561 74.84 L
473.167 76.76 L
473.772 77.84 L
474.378 78.56 L
474.983 77.36 L
475.589 75.8 L
476.194 74.48 L
476.8 72.32 L
477.406 71.48 L
478.011 70.88 L
478.617 70.16 L
479.222 69.8 L
479.828 68.36 L
480.433 67.52 L
481.039 66.2 L
481.644 67.16 L
482.25 64.28 L
482.856 64.4 L
483.461 63.2 L
484.067 63.2 L
484.672 63.8 L
485.278 61.4 L
485.883 60.56 L
486.489 60.08 L
487.094 59.24 L
487.7 59 L
488.306 58.4 L
488.911 59 L
489.517 60.08 L
490.122 60.56 L
490.728 60.32 L
491.333 60.8 L
491.939 61.52 L
492.544 61.76 L
493.15 61.4 L
493.756 61.04 L
494.361 61.4 L
494.967 60.92 L
495.572 60.92 L
496.178 62 L
496.783 61.88 L
497.389 62.24 L
497.994 62.72 L
498.6 62.72 L
499.206 61.76 L
499.811 60.32 L
500.417 60.32 L
501.022 59.72 L
501.628 59.48 L
502.233 59.72 L
502.839 59.48 L
503.444 59.72 L
504.05 59.36 L
504.656 59.84 L
505.261 60.32 L
505.867 60.2 L
506.472 59.72 L
507.078 59.84 L
507.683 59.84 L
508.289 62 L
508.894 63.68 L
509.5 64.88 L
510.106 65.84 L
510.711 66.56 L
511.317 66.8 L
511.922 66.8 L
512.528 67.04 L
513.133 70.76 L
513.739 73.28 L
514.344 76.52 L
514.95 77.84 L
515.556 78.68 L
516.161 79.88 L
516.767 80.36 L
517.372 81.08 L
517.978 82.52 L
518.583 83.24 L
519.189 83.36 L
519.794 82.4 L
520.4 80.36 L
521.006 78.44 L
521.611 76.52 L
522.217 74.84 L
522.822 74 L
523.428 72.68 L
524.033 71.72 L
524.639 71.72 L
525.244 72.32 L
525.85 73.52 L
526.456 73.88 L
527.061 75.8 L
527.667 78.08 L
528.272 81.2 L
528.878 87.92 L
529.483 94.4 L
530.089 95.84 L
530.694 98.6 L
531.3 104.36 L
531.906 109.76 L
532.511 116 L
533.117 121.04 L
533.722 126.8 L
534.328 131.12 L
534.933 137.36 L
535.539 141.08 L
536.144 143.36 L
536.75 145.52 L
537.356 145.88 L
537.961 147.8 L
538.567 149 L
539.172 149 L
539.778 149 L
540.383 141.56 L
540.989 143 L
541.594 140.84 L
542.2 140.6 L
542.806 140.12 L
543.411 141.44 L
544.017 142.4 L
544.622 142.4 L
545.228 140 L
545.833 138.8 L
546.439 139.4 L
547.044 136.64 L
547.65 138.08 L
548.256 139.64 L
548.861 140.84 L
549.467 140.36 L
550.072 136.88 L
550.678 132.56 L
551.283 129.32 L
551.889 127.04 L
552.494 126.44 L
553.1 126.92 L
553.706 127.04 L
554.311 127.04 L
554.917 125.12 L
555.522 124.04 L
556.128 125.12 L
556.733 126.2 L
557.339 125.24 L
557.944 123.2 L
558.55 121.16 L
559.156 119.84 L
559.761 117.8 L
560.367 115.64 L
560.972 113.72 L
561.578 112.16 L
562.183 110.84 L
562.789 110.84 L
563.394 109.88 L
564 107.96 L
564.606 107.96 L
565.211 105.32 L
565.817 104.84 L
566.422 103.88 L
567.028 103.16 L
567.633 100.88 L
568.239 98.96 L
568.844 97.4 L
569.45 97.4 L
570.056 98.24 L
570.661 99.08 L
571.267 99.32 L
571.872 98.84 L
572.478 98 L
573.083 96.32 L
573.689 95.6 L
574.294 95.12 L
574.9 95.24 L
575.506 95.12 L
576.111 95.36 L
576.717 94.64 L
577.322 94.04 L
577.928 93.32 L
578.533 92.96 L
579.139 93.68 L
579.744 94.28 L
580.35 94.04 L
580.956 93.32 L
581.561 92.36 L
582.167 91.88 L
582.772 91.52 L
583.378 91.16 L
583.983 89.12 L
584.589 88.04 L
585.194 87.08 L
585.8 87.08 L
586.406 89.24 L
587.011 92.6 L
587.617 94.88 L
588.222 97.04 L
588.828 97.88 L
589.433 99.2 L
590.039 99.8 L
590.644 101.72 L
591.25 104.36 L
591.856 107.72 L
592.461 109.52 L
593.067 110.72 L
593.672 109.88 L
594.278 109.52 L
594.883 106.64 L
595.489 106.52 L
596.094 104.24 L
596.7 104.36 L
597.306 104.6 L
597.911 105.92 L
598.517 106.52 L
599.122 108.68 L
599.728 108.08 L
600.333 108.08 L
600.939 108.32 L
601.544 112.52 L
602.15 121.76 L
602.756 135.32 L
603.361 144.56 L
603.967 148.28 L
604.572 149 L
605.178 149 L
605.783 149 L
606.389 149 L
606.994 149 L
607.6 149 L
608.206 149 L
608.811 149 L
609.417 149 L
610.022 149 L
610.628 149 L
611.233 149 L
611.839 149 L
612.444 149 L
613.05 149 L
613.656 149 L
614.261 149 L
614.867 149 L
615.472 149 L
616.078 149 L
616.683 149 L
617.289 149 L
617.894 149 L
618.5 149 L
619.106 149 L
619.711 149 L
620.317 149 L
620.922 144.08 L
621.528 143.6 L
622.133 141.2 L
622.739 139.04 L
623.344 135.68 L
623.95 132.56 L
624.556 131.24 L
625.161 128.84 L
625.767 126.68 L
626.372 122.72 L
626.978 120.8 L
627.583 118.52 L
628.189 116.72 L
628.794 116.6 L
629.4 115.64 L
630.006 111.44 L
630.611 110.12 L
631.217 108.08 L
631.822 106.64 L
632.428 105.56 L
633.033 104.96 L
633.639 105.8 L
634.244 107.6 L
634.85 110.36 L
635.456 114.68 L
636.061 119.96 L
636.667 125.84 L
637.272 132.2 L
637.878 140.84 L
638.483 146.12 L
639.089 149 L
639.694 149 L
640.3 146.36 L
640.906 149 L
641.511 149 L
642.117 146.36 L
642.722 149 L
643.328 149 L
643.933 149 L
644.539 149 L
645.144 144.56 L
645.75 140.12 L
646.356 134.96 L
646.961 130.28 L
647.567 125.72 L
648.172 122.48 L
648.778 119 L
649.383 116.96 L
649.989 113.96 L
650.594 113.6 L
651.2 112.52 L
651.806 110.84 L
652.411 110 L
653.017 109.16 L
653.622 109.16 L
654.228 107 L
654.833 105.68 L
655.439 105.92 L
656.044 105.92 L
656.65 106.4 L
657.256 106.64 L
657.861 106.4 L
658.467 105.92 L
659.072 106.28 L
659.678 105.92 L
660.283 105.32 L
660.889 104 L
661.494 104.96 L
662.1 104.6 L
662.706 103.88 L
663.311 104.6 L
663.917 106.16 L
664.522 108.08 L
665.128 108.68 L
665.733 110.6 L
666.339 110.84 L
666.944 112.52 L
667.55 114.44 L
668.156 115.16 L
668.761 115.88 L
669.367 116.84 L
669.972 116.84 L
670.578 119.12 L
671.183 123.2 L
671.789 123.2 L
672.394 142.88 L
673 147.92 L
673.606 148.16 L
674.211 149 L
674.817 149 L
675.422 149 L
676.028 149 L
676.633 149 L
677.239 149 L
677.844 149 L
678.45 149 L
679.056 149 L
679.661 149 L
680.267 146.6 L
680.872 144.56 L
681.478 139.88 L
682.083 135.08 L
682.689 135.32 L
683.294 130.52 L
683.9 128 L
684.506 126.8 L
685.111 126.56 L
685.717 124.64 L
686.322 123.32 L
686.928 120.2 L
687.533 118.04 L
688.139 116.72 L
688.744 115.52 L
689.35 113.24 L
689.956 111.32 L
690.561 110.36 L
691.167 109.28 L
691.772 108.32 L
692.378 107.96 L
692.983 107.24 L
693.589 107.84 L
694.194 109.64 L
694.8 109.4 L
695.406 110.72 L
696.011 111.08 L
696.617 112.52 L
697.222 113.24 L
697.828 113.48 L
698.433 113.6 L
699.039 114.56 L
699.644 114.68 L
700.25 114.68 L
700.856 114.2 L
701.461 113.72 L
702.067 112.88 L
702.672 111.8 L
703.278 110.36 L
703.883 109.04 L
704.489 108.08 L
705.094 107.6 L
705.7 105.44 L
706.306 104.84 L
706.911 104.36 L
707.517 104.84 L
708.122 104 L
708.728 102.56 L
709.333 102.32 L
709.939 102.8 L
710.544 102.8 L
711.15 103.16 L
711.756 104.24 L
712.361 104.12 L
712.967 104.48 L
713.572 104.96 L
714.178 105.08 L
714.783 105.32 L
715.389 105.68 L
715.994 105.08 L
716.6 106.4 L
717.206 106.76 L
717.811 107.36 L
718.417 107.72 L
719.022 107.12 L
719.628 106.4 L
720.233 104.48 L
720.839 104.12 L
721.444 103.16 L
722.05 102.08 L
722.656 101.84 L
723.261 102.68 L
723.867 101.6 L
724.472 101.72 L
725.078 101.24 L
725.683 101 L
726.289 100.04 L
726.894 100.28 L
727.5 100.4 L
728.106 101.36 L
728.711 101.24 L
729.317 102.32 L
729.922 104 L
730.528 103.88 L
731.133 104 L
731.739 104.96 L
732.344 103.52 L
732.95 103.28 L
733.556 102.2 L
734.161 102.08 L
734.767 101.96 L
735.372 104.6 L
735.978 105.08 L
736.583 104.48 L
737.189 104.72 L
737.794 105.2 L
738.4 104 L
739.006 104.12 L
739.611 103.64 L
740.217 104.36 L
740.822 105.08 L
741.428 110.48 L
742.033 125.6 L
742.639 130.76 L
743.244 134.96 L
743.85 141.32 L
744.456 145.88 L
745.061 149 L
745.667 149 L
746.272 149 L
746.878 149 L
747.483 148.88 L
748.089 149 L
748.694 149 L
749.3 146.36 L
749.906 149 L
750.511 149 L
751.117 149 L
751.722 149 L
752.328 149 L
752.933 149 L
753.539 149 L
754.144 149 L
754.75 149 L
755.356 149 L
755.961 149 L
756.567 149 L
757.172 149 L
757.778 149 L
758.383 149 L
758.989 149 L
759.594 149 L
760.2 149 L
760.806 149 L
761.411 149 L
762.017 149 L
762.622 149 L
763.228 149 L
763.833 149 L
764.439 149 L
765.044 149 L
765.65 149 L
766.256 149 L
766.861 149 L
767.467 149 L
768.072 149 L
768.678 148.88 L
769.283 149 L
769.889 149 L
770.494 149 L
771.1 146.36 L
771.706 149 L
772.311 149 L
772.917 149 L
773.522 149 L
774.128 149 L
774.733 149 L
775.339 149 L
775.944 149 L
776.55 149 L
777.156 149 L
777.761 149 L
778.367 149 L
778.972 149 L
779.578 149 L
780.183 149 L
780.789 144.68 L
781.394 142.28 L
782 142.52 L
782.606 145.64 L
783.211 149 L
783.817 149 L
784.422 149 L
785.028 149 L
785.633 149 L
786.239 149 L
786.844 149 L
787.45 149 L
788.056 149 L
788.661 149 L
789.267 149 L
789.872 149 L
790.478 149 L
791.083 149 L
791.689 149 L
792.294 149 L
792.9 149 L
793.506 149 L
794.111 149 L
794.717 149 L
795.322 149 L
795.928 149 L
796.533 145.64 L
797.139 140 L
797.744 135.92 L
798.35 131.6 L
798.956 128.12 L
799.561 126.56 L
800.167 127.88 L
800.772 128.6 L
801.378 129.08 L
801.983 131 L
802.589 131.96 L
803.194 130.16 L
803.8 127.52 L
804.406 124.64 L
805.011 122.6 L
805.617 120.44 L
806.222 118.04 L
806.828 118.16 L
807.433 119.84 L
808.039 120.08 L
808.644 118.28 L
809.25 116.48 L
809.856 115.52 L
810.461 113.36 L
811.067 112.76 L
811.672 111.68 L
812.278 110.96 L
812.883 110.84 L
813.489 111.68 L
814.094 112.52 L
814.7 116.12 L
815.306 125.12 L
815.911 121.64 L
816.517 129.08 L
817.122 132.44 L
817.728 134.48 L
818.333 134.84 L
818.939 135.08 L
819.544 135.32 L
820.15 135.92 L
820.756 136.76 L
821.361 137.72 L
821.967 137.6 L
822.572 134.6 L
823.178 129.56 L
823.783 126.44 L
824.389 123.68 L
824.994 120.32 L
825.6 119 L
826.206 116.24 L
826.811 114.2 L
827.417 112.4 L
828.022 109.88 L
828.628 109.52 L
829.233 107.6 L
829.839 107.84 L
830.444 106.4 L
831.05 104.96 L
831.656 104.36 L
832.261 104.36 L
832.867 104.96 L
833.472 105.8 L
834.078 106.4 L
834.683 106.4 L
835.289 105.56 L
835.894 104.36 L
836.5 104.84 L
837.106 104.72 L
837.711 103.16 L
838.317 103.88 L
838.922 102.32 L
839.528 100.76 L
840.133 99.8 L
840.739 99.08 L
841.344 97.28 L
841.95 97.4 L
842.556 97.4 L
843.161 97.04 L
843.767 96.2 L
844.372 97.4 L
844.978 97.64 L
845.583 98.96 L
846.189 103.64 L
846.794 109.64 L
847.4 114.08 L
848.006 118.88 L
848.611 123.44 L
849.217 124.76 L
849.822 126.8 L
850.428 130.88 L
851.033 134.24 L
851.639 137.24 L
852.244 142.4 L
852.85 145.16 L
853.456 146.6 L
854.061 146.36 L
854.667 141.68 L
855.272 136.4 L
855.878 130.4 L
856.483 128.48 L
857.089 125.72 L
857.694 123.8 L
858.3 119.24 L
858.906 117.2 L
859.511 115.52 L
860.117 113.36 L
860.722 113 L
861.328 110.48 L
861.933 110 L
862.539 109.4 L
863.144 108.92 L
863.75 108.44 L
864.356 106.4 L
864.961 106.04 L
865.567 105.56 L
866.172 105.08 L
866.778 104.12 L
867.383 106.16 L
867.989 105.8 L
868.594 105.92 L
869.2 105.68 L
869.806 106.16 L
870.411 106.4 L
871.017 106.4 L
871.622 107.96 L
872.228 109.64 L
872.833 112.16 L
873.439 113.84 L
874.044 118.52 L
874.65 120.8 L
875.256 125.6 L
875.861 131.12 L
876.467 137.48 L
877.072 143.84 L
877.678 147.68 L
878.283 149 L
878.889 149 L
879.494 149 L
880.1 149 L
880.706 145.28 L
881.311 138.8 L
881.917 133.28 L
882.522 128.72 L
883.128 124.28 L
883.733 121.4 L
884.339 118.16 L
884.944 114.2 L
885.55 111.44 L
886.156 107.96 L
886.761 106.64 L
887.367 104.24 L
887.972 100.28 L
888.578 99.08 L
889.183 98.48 L
889.789 97.16 L
890.394 97.4 L
S
GR
GS
1 0 0 RC
[8 3 2 3] 0 setdash
2 LJ
N
237 149 M
237 53 L
S
GR
GS
1 0 0 RC
[8 3 2 3] 0 setdash
2 LJ
N
346 149 M
346 53 L
S
GR
GS
1 0 0 RC
[8 3 2 3] 0 setdash
2 LJ
N
455 149 M
455 53 L
S
GR
GS
1 0 0 RC
[8 3 2 3] 0 setdash
2 LJ
N
564 149 M
564 53 L
S
GR
GS
1 0 0 RC
[8 3 2 3] 0 setdash
2 LJ
N
673 149 M
673 53 L
S
GR
GS
1 0 0 RC
[8 3 2 3] 0 setdash
2 LJ
N
782 149 M
782 53 L
S
GR
GS
1 0 0 RC
[8 3 2 3] 0 setdash
2 LJ
N
891 149 M
891 53 L
S
GR
GS
0 0 1 RC
[10 6] 0 setdash
2 LJ
1.5 LW
N
228.522 149 M
228.522 53 L
S
GR
GS
0 0 1 RC
[10 6] 0 setdash
2 LJ
1.5 LW
N
540.383 149 M
540.383 53 L
S
GR
GS
1 GC
N
128 304 M
891 304 L
891 209 L
128 209 L
cp
f
GR
GS
0.149 GC
2 setlinecap
10.0 ML
N
128 304 M
891 304 L
S
GR
GS
0.149 GC
2 setlinecap
10.0 ML
N
128 209 M
891 209 L
S
GR
GS
[0 -1 1 0 125 256.5] CT
0.149 GC
/Helvetica 20 F
GS
[1 0 0 1 0 0] CT
-25 -3.6 moveto 
1 -1 scale
(IMPC) t 
GR
GR
GS
0.149 GC
2 setlinecap
10.0 ML
N
128 304 M
128 209 L
S
GR
GS
0.149 GC
2 setlinecap
10.0 ML
N
891 304 M
891 209 L
S
GR
GS
0.208 0.165 0.525 RC
N
171.6 304 M
171.6 240.667 L
193.4 240.667 L
193.4 304 L
cp
f
GR
GS
0.208 0.165 0.525 RC
N
280.6 304 M
280.6 272.333 L
302.4 272.333 L
302.4 304 L
cp
f
GR
GS
0.208 0.165 0.525 RC
N
389.6 304 M
389.6 272.333 L
411.4 272.333 L
411.4 304 L
cp
f
GR
GS
0.208 0.165 0.525 RC
N
498.6 304 M
498.6 272.333 L
520.4 272.333 L
520.4 304 L
cp
f
GR
GS
0.208 0.165 0.525 RC
N
607.6 304 M
607.6 240.667 L
629.4 240.667 L
629.4 304 L
cp
f
GR
GS
0.208 0.165 0.525 RC
N
716.6 304 M
716.6 240.667 L
738.4 240.667 L
738.4 304 L
cp
f
GR
GS
0.208 0.165 0.525 RC
N
825.6 304 M
825.6 240.667 L
847.4 240.667 L
847.4 304 L
cp
f
GR
GS
2 setlinecap
10.0 ML
N
171.6 304 M
171.6 240.667 L
193.4 240.667 L
193.4 304 L
171.6 304 L
S
GR
GS
2 setlinecap
10.0 ML
N
280.6 304 M
280.6 272.333 L
302.4 272.333 L
302.4 304 L
280.6 304 L
S
GR
GS
2 setlinecap
10.0 ML
N
389.6 304 M
389.6 272.333 L
411.4 272.333 L
411.4 304 L
389.6 304 L
S
GR
GS
2 setlinecap
10.0 ML
N
498.6 304 M
498.6 272.333 L
520.4 272.333 L
520.4 304 L
498.6 304 L
S
GR
GS
2 setlinecap
10.0 ML
N
607.6 304 M
607.6 240.667 L
629.4 240.667 L
629.4 304 L
607.6 304 L
S
GR
GS
2 setlinecap
10.0 ML
N
716.6 304 M
716.6 240.667 L
738.4 240.667 L
738.4 304 L
716.6 304 L
S
GR
GS
2 setlinecap
10.0 ML
N
825.6 304 M
825.6 240.667 L
847.4 240.667 L
847.4 304 L
825.6 304 L
S
GR
GS
1 0 0 RC
[8 3 2 3] 0 setdash
2 LJ
N
237 304 M
237 208.99 L
S
GR
GS
1 0 0 RC
[8 3 2 3] 0 setdash
2 LJ
N
346 304 M
346 208.99 L
S
GR
GS
1 0 0 RC
[8 3 2 3] 0 setdash
2 LJ
N
455 304 M
455 208.99 L
S
GR
GS
1 0 0 RC
[8 3 2 3] 0 setdash
2 LJ
N
564 304 M
564 208.99 L
S
GR
GS
1 0 0 RC
[8 3 2 3] 0 setdash
2 LJ
N
673 304 M
673 208.99 L
S
GR
GS
1 0 0 RC
[8 3 2 3] 0 setdash
2 LJ
N
782 304 M
782 208.99 L
S
GR
GS
1 0 0 RC
[8 3 2 3] 0 setdash
2 LJ
N
891 304 M
891 208.99 L
S
GR
GS
0.149 GC
2 setlinecap
10.0 ML
N
128 304 M
891 304 L
S
GR
GS
1 GC
N
128 460 M
891 460 L
891 365 L
128 365 L
cp
f
GR
GS
0.149 GC
2 setlinecap
10.0 ML
N
128 460 M
891 460 L
S
GR
GS
0.149 GC
2 setlinecap
10.0 ML
N
128 365 M
891 365 L
S
GR
GS
[0 -1 1 0 125 412.5] CT
0.149 GC
/Helvetica 20 F
GS
[1 0 0 1 0 0] CT
-21.67 -3.6 moveto 
1 -1 scale
(SVM) t 
GR
GR
GS
0.149 GC
2 setlinecap
10.0 ML
N
128 460 M
128 365 L
S
GR
GS
0.149 GC
2 setlinecap
10.0 ML
N
891 460 M
891 365 L
S
GR
GS
0.208 0.165 0.525 RC
N
171.6 460 M
171.6 396.667 L
193.4 396.667 L
193.4 460 L
cp
f
GR
GS
0.208 0.165 0.525 RC
N
280.6 460 M
280.6 428.333 L
302.4 428.333 L
302.4 460 L
cp
f
GR
GS
0.208 0.165 0.525 RC
N
389.6 460 M
389.6 428.333 L
411.4 428.333 L
411.4 460 L
cp
f
GR
GS
0.208 0.165 0.525 RC
N
498.6 460 M
498.6 428.333 L
520.4 428.333 L
520.4 460 L
cp
f
GR
GS
0.208 0.165 0.525 RC
N
607.6 460 M
607.6 396.667 L
629.4 396.667 L
629.4 460 L
cp
f
GR
GS
0.208 0.165 0.525 RC
N
716.6 460 M
716.6 396.667 L
738.4 396.667 L
738.4 460 L
cp
f
GR
GS
0.208 0.165 0.525 RC
N
825.6 460 M
825.6 396.667 L
847.4 396.667 L
847.4 460 L
cp
f
GR
GS
2 setlinecap
10.0 ML
N
171.6 460 M
171.6 396.667 L
193.4 396.667 L
193.4 460 L
171.6 460 L
S
GR
GS
2 setlinecap
10.0 ML
N
280.6 460 M
280.6 428.333 L
302.4 428.333 L
302.4 460 L
280.6 460 L
S
GR
GS
2 setlinecap
10.0 ML
N
389.6 460 M
389.6 428.333 L
411.4 428.333 L
411.4 460 L
389.6 460 L
S
GR
GS
2 setlinecap
10.0 ML
N
498.6 460 M
498.6 428.333 L
520.4 428.333 L
520.4 460 L
498.6 460 L
S
GR
GS
2 setlinecap
10.0 ML
N
607.6 460 M
607.6 396.667 L
629.4 396.667 L
629.4 460 L
607.6 460 L
S
GR
GS
2 setlinecap
10.0 ML
N
716.6 460 M
716.6 396.667 L
738.4 396.667 L
738.4 460 L
716.6 460 L
S
GR
GS
2 setlinecap
10.0 ML
N
825.6 460 M
825.6 396.667 L
847.4 396.667 L
847.4 460 L
825.6 460 L
S
GR
GS
1 0 0 RC
[8 3 2 3] 0 setdash
2 LJ
N
237 460 M
237 364.991 L
S
GR
GS
1 0 0 RC
[8 3 2 3] 0 setdash
2 LJ
N
346 460 M
346 364.991 L
S
GR
GS
1 0 0 RC
[8 3 2 3] 0 setdash
2 LJ
N
455 460 M
455 364.991 L
S
GR
GS
1 0 0 RC
[8 3 2 3] 0 setdash
2 LJ
N
564 460 M
564 364.991 L
S
GR
GS
1 0 0 RC
[8 3 2 3] 0 setdash
2 LJ
N
673 460 M
673 364.991 L
S
GR
GS
1 0 0 RC
[8 3 2 3] 0 setdash
2 LJ
N
782 460 M
782 364.991 L
S
GR
GS
1 0 0 RC
[8 3 2 3] 0 setdash
2 LJ
N
891 460 M
891 364.991 L
S
GR
GS
0.149 GC
2 setlinecap
10.0 ML
N
128 460 M
891 460 L
S
GR
GS
1 GC
N
128 616 M
891 616 L
891 521 L
128 521 L
cp
f
GR
GS
0.149 GC
2 setlinecap
10.0 ML
N
128 616 M
891 616 L
S
GR
GS
0.149 GC
2 setlinecap
10.0 ML
N
128 521 M
891 521 L
S
GR
GS
[0 -1 1 0 125 568.5] CT
0.149 GC
/Helvetica 20 F
GS
[1 0 0 1 0 0] CT
-26.66 -3.6 moveto 
1 -1 scale
(FFNN) t 
GR
GR
GS
0.149 GC
2 setlinecap
10.0 ML
N
128 616 M
128 521 L
S
GR
GS
0.149 GC
2 setlinecap
10.0 ML
N
891 616 M
891 521 L
S
GR
GS
0.208 0.165 0.525 RC
N
171.6 616 M
171.6 552.667 L
193.4 552.667 L
193.4 616 L
cp
f
GR
GS
0.208 0.165 0.525 RC
N
280.6 616 M
280.6 584.333 L
302.4 584.333 L
302.4 616 L
cp
f
GR
GS
0.208 0.165 0.525 RC
N
389.6 616 M
389.6 584.333 L
411.4 584.333 L
411.4 616 L
cp
f
GR
GS
0.208 0.165 0.525 RC
N
498.6 616 M
498.6 584.333 L
520.4 584.333 L
520.4 616 L
cp
f
GR
GS
0.208 0.165 0.525 RC
N
607.6 616 M
607.6 552.667 L
629.4 552.667 L
629.4 616 L
cp
f
GR
GS
0.208 0.165 0.525 RC
N
716.6 616 M
716.6 552.667 L
738.4 552.667 L
738.4 616 L
cp
f
GR
GS
0.208 0.165 0.525 RC
N
825.6 616 M
825.6 552.667 L
847.4 552.667 L
847.4 616 L
cp
f
GR
GS
2 setlinecap
10.0 ML
N
171.6 616 M
171.6 552.667 L
193.4 552.667 L
193.4 616 L
171.6 616 L
S
GR
GS
2 setlinecap
10.0 ML
N
280.6 616 M
280.6 584.333 L
302.4 584.333 L
302.4 616 L
280.6 616 L
S
GR
GS
2 setlinecap
10.0 ML
N
389.6 616 M
389.6 584.333 L
411.4 584.333 L
411.4 616 L
389.6 616 L
S
GR
GS
2 setlinecap
10.0 ML
N
498.6 616 M
498.6 584.333 L
520.4 584.333 L
520.4 616 L
498.6 616 L
S
GR
GS
2 setlinecap
10.0 ML
N
607.6 616 M
607.6 552.667 L
629.4 552.667 L
629.4 616 L
607.6 616 L
S
GR
GS
2 setlinecap
10.0 ML
N
716.6 616 M
716.6 552.667 L
738.4 552.667 L
738.4 616 L
716.6 616 L
S
GR
GS
2 setlinecap
10.0 ML
N
825.6 616 M
825.6 552.667 L
847.4 552.667 L
847.4 616 L
825.6 616 L
S
GR
GS
1 0 0 RC
[8 3 2 3] 0 setdash
2 LJ
N
237 616 M
237 520.99 L
S
GR
GS
1 0 0 RC
[8 3 2 3] 0 setdash
2 LJ
N
346 616 M
346 520.99 L
S
GR
GS
1 0 0 RC
[8 3 2 3] 0 setdash
2 LJ
N
455 616 M
455 520.99 L
S
GR
GS
1 0 0 RC
[8 3 2 3] 0 setdash
2 LJ
N
564 616 M
564 520.99 L
S
GR
GS
1 0 0 RC
[8 3 2 3] 0 setdash
2 LJ
N
673 616 M
673 520.99 L
S
GR
GS
1 0 0 RC
[8 3 2 3] 0 setdash
2 LJ
N
782 616 M
782 520.99 L
S
GR
GS
1 0 0 RC
[8 3 2 3] 0 setdash
2 LJ
N
891 616 M
891 520.99 L
S
GR
GS
0.149 GC
2 setlinecap
10.0 ML
N
128 616 M
891 616 L
S
GR
%%Trailer
%%Pages: 1
%%EOF
