%!PS-Adobe-3.0 EPSF-3.0
%%Creator: MATLAB, The MathWorks, Inc. Version 8.0.0.783 (R2012b). Operating System: Microsoft Windows 7.
%%Title: D:\000 Feb_paper\FebDraft\LatexDraft1\4a.eps
%%CreationDate: 05/09/2013  01:26:25
%%DocumentNeededFonts: Helvetica
%%DocumentProcessColors: Cyan Magenta Yellow Black
%%LanguageLevel: 2
%%Pages: 1
%%BoundingBox:    96   320   515   470
%%EndComments

%%BeginProlog
% MathWorks dictionary
/MathWorks 160 dict begin
% definition operators
/bdef {bind def} bind def
/ldef {load def} bind def
/xdef {exch def} bdef
/xstore {exch store} bdef
% operator abbreviations
/c  /clip ldef
/cc /concat ldef
/cp /closepath ldef
/gr /grestore ldef
/gs /gsave ldef
/mt /moveto ldef
/np /newpath ldef
/cm /currentmatrix ldef
/sm /setmatrix ldef
/rm /rmoveto ldef
/rl /rlineto ldef
/s {show newpath} bdef
/sc {setcmykcolor} bdef
/sr /setrgbcolor ldef
/sg /setgray ldef
/w /setlinewidth ldef
/j /setlinejoin ldef
/cap /setlinecap ldef
/rc {rectclip} bdef
/rf {rectfill} bdef
% page state control
/pgsv () def
/bpage {/pgsv save def} bdef
/epage {pgsv restore} bdef
/bplot /gsave ldef
/eplot {stroke grestore} bdef
% orientation switch
/portraitMode 0 def /landscapeMode 1 def /rotateMode 2 def
% coordinate system mappings
/dpi2point 0 def
% font control
/FontSize 0 def
/FMS {/FontSize xstore findfont [FontSize 0 0 FontSize neg 0 0]
  makefont setfont} bdef
/ISOLatin1Encoding where {pop /WindowsLatin1Encoding 256 array bdef
ISOLatin1Encoding WindowsLatin1Encoding copy pop
/.notdef/.notdef/quotesinglbase/florin/quotedblbase/ellipsis/dagger
/daggerdbl/circumflex/perthousand/Scaron/guilsinglleft/OE/.notdef/.notdef
/.notdef/.notdef/quoteleft/quoteright/quotedblleft/quotedblright/bullet
/endash/emdash/tilde/trademark/scaron/guilsinglright/oe/.notdef/.notdef
/Ydieresis WindowsLatin1Encoding 128 32 getinterval astore pop}
{/WindowsLatin1Encoding StandardEncoding bdef} ifelse
/reencode {exch dup where {pop load} {pop StandardEncoding} ifelse
  exch dup 3 1 roll findfont dup length dict begin
  { 1 index /FID ne {def}{pop pop} ifelse } forall
  /Encoding exch def currentdict end definefont pop} bdef
/isroman {findfont /CharStrings get /Agrave known} bdef
/FMSR {3 1 roll 1 index dup isroman {reencode} {pop pop} ifelse
  exch FMS} bdef
/csm {1 dpi2point div -1 dpi2point div scale neg translate
 dup landscapeMode eq {pop -90 rotate}
  {rotateMode eq {90 rotate} if} ifelse} bdef
% line types: solid, dotted, dashed, dotdash
/SO { [] 0 setdash } bdef
/DO { [.5 dpi2point mul 4 dpi2point mul] 0 setdash } bdef
/DA { [6 dpi2point mul] 0 setdash } bdef
/DD { [.5 dpi2point mul 4 dpi2point mul 6 dpi2point mul 4
  dpi2point mul] 0 setdash } bdef
% macros for lines and objects
/L {lineto stroke} bdef
/MP {3 1 roll moveto 1 sub {rlineto} repeat} bdef
/AP {{rlineto} repeat} bdef
/PDlw -1 def
/W {/PDlw currentlinewidth def setlinewidth} def
/PP {closepath eofill} bdef
/DP {closepath stroke} bdef
/MR {4 -2 roll moveto dup  0 exch rlineto exch 0 rlineto
  neg 0 exch rlineto closepath} bdef
/FR {MR stroke} bdef
/PR {MR fill} bdef
/L1i {{currentfile picstr readhexstring pop} image} bdef
/tMatrix matrix def
/MakeOval {newpath tMatrix currentmatrix pop translate scale
0 0 1 0 360 arc tMatrix setmatrix} bdef
/FO {MakeOval stroke} bdef
/PO {MakeOval fill} bdef
/PD {currentlinewidth 2 div 0 360 arc fill
   PDlw -1 eq not {PDlw w /PDlw -1 def} if} def
/FA {newpath tMatrix currentmatrix pop translate scale
  0 0 1 5 -2 roll arc tMatrix setmatrix stroke} bdef
/PA {newpath tMatrix currentmatrix pop	translate 0 0 moveto scale
  0 0 1 5 -2 roll arc closepath tMatrix setmatrix fill} bdef
/FAn {newpath tMatrix currentmatrix pop translate scale
  0 0 1 5 -2 roll arcn tMatrix setmatrix stroke} bdef
/PAn {newpath tMatrix currentmatrix pop translate 0 0 moveto scale
  0 0 1 5 -2 roll arcn closepath tMatrix setmatrix fill} bdef
/vradius 0 def /hradius 0 def /lry 0 def
/lrx 0 def /uly 0 def /ulx 0 def /rad 0 def
/MRR {/vradius xdef /hradius xdef /lry xdef /lrx xdef /uly xdef
  /ulx xdef newpath tMatrix currentmatrix pop ulx hradius add uly
  vradius add translate hradius vradius scale 0 0 1 180 270 arc 
  tMatrix setmatrix lrx hradius sub uly vradius add translate
  hradius vradius scale 0 0 1 270 360 arc tMatrix setmatrix
  lrx hradius sub lry vradius sub translate hradius vradius scale
  0 0 1 0 90 arc tMatrix setmatrix ulx hradius add lry vradius sub
  translate hradius vradius scale 0 0 1 90 180 arc tMatrix setmatrix
  closepath} bdef
/FRR {MRR stroke } bdef
/PRR {MRR fill } bdef
/MlrRR {/lry xdef /lrx xdef /uly xdef /ulx xdef /rad lry uly sub 2 div def
  newpath tMatrix currentmatrix pop ulx rad add uly rad add translate
  rad rad scale 0 0 1 90 270 arc tMatrix setmatrix lrx rad sub lry rad
  sub translate rad rad scale 0 0 1 270 90 arc tMatrix setmatrix
  closepath} bdef
/FlrRR {MlrRR stroke } bdef
/PlrRR {MlrRR fill } bdef
/MtbRR {/lry xdef /lrx xdef /uly xdef /ulx xdef /rad lrx ulx sub 2 div def
  newpath tMatrix currentmatrix pop ulx rad add uly rad add translate
  rad rad scale 0 0 1 180 360 arc tMatrix setmatrix lrx rad sub lry rad
  sub translate rad rad scale 0 0 1 0 180 arc tMatrix setmatrix
  closepath} bdef
/FtbRR {MtbRR stroke } bdef
/PtbRR {MtbRR fill } bdef
/stri 6 array def /dtri 6 array def
/smat 6 array def /dmat 6 array def
/tmat1 6 array def /tmat2 6 array def /dif 3 array def
/asub {/ind2 exch def /ind1 exch def dup dup
  ind1 get exch ind2 get sub exch } bdef
/tri_to_matrix {
  2 0 asub 3 1 asub 4 0 asub 5 1 asub
  dup 0 get exch 1 get 7 -1 roll astore } bdef
/compute_transform {
  dmat dtri tri_to_matrix tmat1 invertmatrix 
  smat stri tri_to_matrix tmat2 concatmatrix } bdef
/ds {stri astore pop} bdef
/dt {dtri astore pop} bdef
/db {2 copy /cols xdef /rows xdef mul dup 3 mul string
  currentfile 
  3 index 0 eq {/ASCIIHexDecode filter}
  {/ASCII85Decode filter 3 index 2 eq {/RunLengthDecode filter} if }
  ifelse exch readstring pop
  dup 0 3 index getinterval /rbmap xdef
  dup 2 index dup getinterval /gbmap xdef
  1 index dup 2 mul exch getinterval /bbmap xdef pop pop}bdef
/it {gs np dtri aload pop moveto lineto lineto cp c
  cols rows 8 compute_transform 
  rbmap gbmap bbmap true 3 colorimage gr}bdef
/il {newpath moveto lineto stroke}bdef
currentdict end def
%%EndProlog

%%BeginSetup
MathWorks begin

0 cap

end
%%EndSetup

%%Page: 1 1
%%BeginPageSetup
%%PageBoundingBox:    96   320   515   470
MathWorks begin
bpage
%%EndPageSetup

%%BeginObject: obj1
bplot

/dpi2point 12 def
portraitMode 1152 5640 csm

    0     0  5039  1791 rc
85 dict begin %Colortable dictionary
/c0 { 0.000000 0.000000 0.000000 sr} bdef
/c1 { 1.000000 1.000000 1.000000 sr} bdef
/c2 { 0.900000 0.000000 0.000000 sr} bdef
/c3 { 0.000000 0.820000 0.000000 sr} bdef
/c4 { 0.000000 0.000000 0.800000 sr} bdef
/c5 { 0.910000 0.820000 0.320000 sr} bdef
/c6 { 1.000000 0.260000 0.820000 sr} bdef
/c7 { 0.000000 0.820000 0.820000 sr} bdef
c0
1 j
1 sg
   0    0 5040 1792 rf
6 w
0 1340 1674 0 0 -1340 655 1474 4 MP
PP
-1674 0 0 1340 1674 0 0 -1340 655 1474 5 MP stroke
4 w
DO
SO
6 w
0 sg
 655  134 mt 2329  134 L
 655 1474 mt 2329 1474 L
2329 1474 mt 2329  134 L
 655 1474 mt  655  134 L
 655 1474 mt 2329 1474 L
 655 1474 mt  655  134 L
 655 1474 mt  655 1457 L
 655  134 mt  655  150 L
%%IncludeResource: font Helvetica
/Helvetica /WindowsLatin1Encoding 120 FMSR

 622 1619 mt 
(0) s
1073 1474 mt 1073 1457 L
1073  134 mt 1073  150 L
 973 1619 mt 
(200) s
1492 1474 mt 1492 1457 L
1492  134 mt 1492  150 L
1392 1619 mt 
(400) s
1910 1474 mt 1910 1457 L
1910  134 mt 1910  150 L
1810 1619 mt 
(600) s
2329 1474 mt 2329 1457 L
2329  134 mt 2329  150 L
2229 1619 mt 
(800) s
 655 1474 mt  671 1474 L
2329 1474 mt 2312 1474 L
 554 1518 mt 
(0) s
 655 1027 mt  671 1027 L
2329 1027 mt 2312 1027 L
 487 1071 mt 
(20) s
 655  580 mt  671  580 L
2329  580 mt 2312  580 L
 487  624 mt 
(40) s
 655  134 mt  671  134 L
2329  134 mt 2312  134 L
 487  178 mt 
(60) s
 655  134 mt 2329  134 L
 655 1474 mt 2329 1474 L
2329 1474 mt 2329  134 L
 655 1474 mt  655  134 L
gs 655 134 1675 1341 rc
/c8 { 0.000000 0.000000 1.000000 sr} bdef
c8
2 0 2 0 2 16 2 29 2 29 2 38 2 45 2 60 
2 60 3 61 2 51 2 47 2 45 2 67 2 51 2 56 
2 74 2 73 2 74 2 74 3 38 2 31 2 27 2 18 
2 20 2 22 2 22 2 18 2 16 2 11 3 9 2 7 
2 11 2 9 2 11 2 20 2 16 2 6 2 7 2 7 
2 4 3 9 2 9 2 9 2 7 2 6 2 3 2 -3 
2 -6 2 -14 2 -11 2 -9 3 -7 2 -2 2 -4 2 -5 
2 -2 2 -2 2 -5 2 -4 2 -9 2 -11 2 -5 3 -6 
2 -7 2 -11 2 -9 2 -9 2 -11 2 -7 2 -2 2 -2 
2 -7 2 -11 3 -11 2 -9 2 -5 2 -7 2 -4 2 0 
2 2 2 2 2 3 2 6 3 9 2 14 2 13 2 9 
2 7 2 6 2 0 2 -4 2 -2 2 -2 2 0 3 6 
2 2 2 3 2 -7 2 -7 2 -4 2 -7 2 -7 2 -6 
2 -3 2 0 3 3 2 11 2 11 2 9 2 -7 2 -11 
2 -13 2 -9 2 -11 2 -16 2 -16 3 -13 2 -16 2 -15 
2 -11 2 -7 2 0 2 4 2 7 2 38 2 45 2 51 
3 25 2 20 2 11 2 9 2 0 2 -7 2 -9 2 -7 
2 -6 2 -3 3 -8 2 -14 2 -7 2 -11 2 -15 2 -20 
2 -21 2 -15 2 -27 2 -20 2 -16 3 -2 2 0 2 2 
2 20 2 20 2 21 2 2 2 2 2 -2 2 -16 2 -9 
3 -4 2 2 2 2 2 2 2 7 2 7 2 7 2 2 
2 0 2 2 2 0 3 -2 2 -2 2 -12 2 -6 2 -3 
2 0 2 3 2 2 2 11 2 14 2 11 3 11 2 9 
2 9 2 6 2 5 2 7 2 2 2 0 2 2 2 -2 
2 0 3 0 2 0 2 2 2 2 2 5 2 4 2 7 
2 4 2 5 2 2 3 9 2 7 2 2 2 4 2 5 
2 7 2 2 2 2 2 2 2 5 2 4 3 5 2 2 
2 0 2 0 2 2 2 0 2 0 2 0 2 0 2 0 
2 0 3 0 2 0 2 0 2 0 2 0 2 0 2 0 
2 -2 2 -2 2 -3 2 -2 3 -2 2 -2 2 -2 2 -3 
2 0 2 -2 2 -2 2 -2 2 -3 2 -6 2 -7 3 -2 
2 -3 2 0 2 0 2 0 2 0 2 0 2 0 2 0 
2 3 3 0 2 0 2 2 2 2 2 0 2 2 2 5 
2 2 2 2 2 3 2 0 3 2 2 2 2 0 2 -2 
2 0 2 0 2 0 2 0 2 0 2 -2 2 0 3 0 
2 0 2 0 2 0 2 2 2 2 2 2 2 7 2 7 
2 4 2 2 3 12 2 8 2 3 2 9 2 6 2 5 
2 2 2 2 2 3 1632 171 300 MP stroke
2 0 2 0 3 -3 2 -2 2 0 2 -2 2 -2 2 0 
2 2 2 0 2 0 2 0 3 0 2 0 2 2 2 2 
2 0 2 0 2 -2 2 0 2 -2 2 -2 2 0 3 0 
2 0 2 0 2 2 2 2 2 2 2 3 2 2 2 0 
2 2 2 2 3 2 2 5 2 2 2 2 2 3 2 4 
2 5 2 4 2 2 2 0 2 -2 3 -9 2 -7 2 -4 
2 -11 2 -7 2 -2 2 -2 2 -3 2 -2 2 0 2 2 
3 3 2 2 2 0 2 0 2 0 2 0 2 0 2 -5 
2 -6 2 -9 2 -9 3 -7 2 -7 2 5 2 7 2 6 
2 2 2 5 2 4 2 0 2 -2 3 -4 2 -5 2 -4 
2 -7 2 -7 2 -2 2 0 2 0 2 5 2 6 2 7 
3 2 2 2 2 0 2 0 2 0 2 0 2 0 2 0 
2 0 2 0 2 -2 3 0 2 0 2 2 2 0 2 3 
2 2 2 4 2 5 2 7 2 2 2 2 3 2 2 5 
2 4 2 5 2 2 2 2 2 0 2 -2 2 -2 2 -3 
2 -6 3 -7 2 -2 2 -5 2 -4 2 -7 2 -4 2 -3 
2 -2 2 -11 2 -13 3 -14 2 -15 2 -16 2 -16 2 -15 
2 -16 2 -16 2 -15 2 -14 2 -15 2 -16 3 -13 2 -14 
2 -6 2 -7 2 -9 2 -2 2 -5 2 -6 2 -3 2 -4 
2 -5 3 -6 2 -9 2 -11 2 -11 2 -12 2 -9 2 -13 
2 -16 2 -20 2 -24 2 -36 3 -42 2 -50 2 -44 2 -43 
2 -20 2 -4 2 9 2 18 2 22 2 24 2 18 3 18 
2 16 2 15 2 25 2 38 2 25 2 33 2 42 2 18 
2 16 3 16 2 6 2 5 2 6 2 5 2 4 2 5 
2 4 2 5 2 4 2 11 3 12 2 6 2 5 2 11 
2 16 2 2 2 2 2 0 2 0 2 0 2 0 3 -4 
2 -7 2 -11 2 2 2 0 2 -2 2 -3 2 0 2 0 
2 0 2 0 3 -2 2 -9 2 -6 2 -5 2 -2 2 -2 
2 2 2 2 2 0 2 2 2 3 3 0 2 0 2 2 
2 0 2 2 2 -4 2 -7 2 -9 2 -16 2 -9 3 -6 
2 -9 2 -9 2 -9 2 -11 2 -5 2 -2 2 -9 2 -16 
2 -22 2 -15 3 -7 2 0 2 15 2 18 2 25 2 20 
2 11 2 -2 2 -11 2 -7 2 -2 3 0 2 2 2 2 
2 0 2 5 2 11 2 11 2 9 2 2 2 -6 2 -7 
3 -9 2 -11 2 -7 2 -2 2 7 2 6 2 7 2 -9 
2 -13 2 -18 2 -14 3 0 2 16 2 20 2 20 2 22 
2 7 2 2 2 3 2 4 2 5 2 6 3 11 2 14 
2 11 2 2 2 2 1006 402 300 MP stroke
2 0 2 -2 2 -6 2 -12 2 -2 3 -2 2 -2 2 -11 
2 -9 2 -5 2 -11 2 -7 2 -4 2 -2 2 -5 2 -2 
3 -5 2 -9 2 -13 2 -25 2 -22 2 -20 2 -13 2 -9 
2 -3 2 0 2 5 3 7 2 38 2 47 2 60 2 29 
2 13 2 2 2 0 2 0 2 -2 2 0 3 0 2 2 
2 -2 2 -2 2 -7 2 -4 2 2 2 7 2 9 2 6 
2 5 3 7 2 4 2 7 2 2 2 0 2 0 2 -2 
2 -2 2 -3 2 -2 3 -2 2 0 2 2 2 0 2 2 
2 -2 2 -7 2 -6 2 -7 2 -5 2 -6 3 -7 2 -7 
2 -4 2 -9 2 -4 2 -3 2 3 2 4 2 9 2 2 
2 2 3 3 2 -3 2 0 2 -2 2 -2 2 0 2 0 
2 2 2 2 2 3 2 2 3 -2 2 -3 2 -2 2 -2 
2 -2 2 -7 2 -4 2 -7 2 -7 2 -7 2 -6 3 -3 
2 -2 2 -2 2 -7 2 -4 2 -7 2 -11 2 -13 2 -16 
2 -18 3 -16 2 -15 2 -16 2 -15 2 -18 2 -11 2 -5 
2 -2 2 0 2 0 2 0 3 0 2 0 2 -2 2 -5 
2 -4 2 -7 2 -2 2 -9 2 -14 2 -6 2 -5 3 -2 
2 9 2 9 2 11 2 2 2 -4 2 -14 2 -4 2 -7 
2 -11 2 -13 3 -14 2 -15 2 -16 2 -18 2 -16 2 -22 
2 -22 2 -20 2 -29 2 -41 2 -49 3 -49 2 -51 2 -63 
2 -71 2 -72 2 -71 2 -65 2 -45 2 0 2 0 657 1474 168 MP stroke
gr

c8
0 sg
 405 1152 mt  -90 rotate
(Speed \(mph\)) s
90 rotate
1271 1762 mt 
(Time \(s\)) s
1 sg
0 1340 1674 0 0 -1340 2874 1474 4 MP
PP
-1674 0 0 1340 1674 0 0 -1340 2874 1474 5 MP stroke
4 w
DO
SO
6 w
0 sg
2874  134 mt 4548  134 L
2874 1474 mt 4548 1474 L
4548 1474 mt 4548  134 L
2874 1474 mt 2874  134 L
2874 1474 mt 4548 1474 L
2874 1474 mt 2874  134 L
2874 1474 mt 2874 1457 L
2874  134 mt 2874  150 L
2841 1619 mt 
(0) s
3292 1474 mt 3292 1457 L
3292  134 mt 3292  150 L
3192 1619 mt 
(100) s
3711 1474 mt 3711 1457 L
3711  134 mt 3711  150 L
3611 1619 mt 
(200) s
4129 1474 mt 4129 1457 L
4129  134 mt 4129  150 L
4029 1619 mt 
(300) s
4548 1474 mt 4548 1457 L
4548  134 mt 4548  150 L
4448 1619 mt 
(400) s
2874 1474 mt 2890 1474 L
4548 1474 mt 4531 1474 L
2773 1518 mt 
(0) s
2874 1206 mt 2890 1206 L
4548 1206 mt 4531 1206 L
2706 1250 mt 
(20) s
2874  938 mt 2890  938 L
4548  938 mt 4531  938 L
2706  982 mt 
(40) s
2874  670 mt 2890  670 L
4548  670 mt 4531  670 L
2706  714 mt 
(60) s
2874  402 mt 2890  402 L
4548  402 mt 4531  402 L
2706  446 mt 
(80) s
2874  134 mt 2890  134 L
4548  134 mt 4531  134 L
2639  178 mt 
(100) s
2874  134 mt 4548  134 L
2874 1474 mt 4548 1474 L
4548 1474 mt 4548  134 L
2874 1474 mt 2874  134 L
gs 2874 134 1675 1341 rc
c8
4 0 5 0 4 0 4 0 4 0 4 0 5 27 4 54 
4 53 4 54 4 44 4 6 5 61 4 93 4 51 4 21 
4 35 5 58 4 45 4 36 4 16 4 6 4 31 5 34 
4 22 4 15 4 26 4 10 5 21 4 15 4 5 4 6 
4 -6 5 0 4 -5 4 5 4 -5 4 5 4 -5 5 -5 
4 5 4 -5 4 0 4 0 5 0 4 -6 4 0 4 -4 
4 4 4 -4 5 4 4 11 4 0 4 44 4 8 5 -2 
4 6 4 -2 4 5 4 -4 5 9 4 3 4 5 4 0 
4 -1 4 -3 5 6 4 6 4 2 4 -2 4 8 5 4 
4 17 4 -2 4 11 4 -11 4 10 5 -6 4 -1 4 7 
4 8 4 8 5 14 4 -5 4 -3 4 -9 4 1 5 2 
4 2 4 0 4 4 4 -9 4 -3 5 -6 4 -6 4 7 
4 -1 4 -4 5 -3 4 3 4 -2 4 3 4 -11 4 0 
5 0 4 -4 4 -5 4 2 4 3 5 -8 4 4 4 7 
4 -3 4 -3 5 9 4 4 4 -4 4 8 4 -4 4 -3 
5 -6 4 -8 4 0 4 0 4 -10 5 4 4 -6 4 -5 
4 -3 4 -5 4 -7 5 -9 4 -4 4 5 4 -5 4 -4 
5 5 4 4 4 10 4 12 4 1 5 1 4 7 4 -5 
4 0 4 -12 4 -4 5 -14 4 2 4 -4 4 2 4 8 
5 -4 4 16 4 43 4 24 4 23 4 30 5 14 4 15 
4 5 4 6 4 0 5 11 4 0 4 -6 4 0 4 -5 
4 -6 5 -14 4 -6 4 -16 4 -10 4 5 5 29 4 15 
4 -12 4 -15 4 -21 5 -12 4 -16 4 -14 4 -6 4 -12 
4 -3 5 0 4 -1 4 2 4 0 4 4 5 6 4 12 
4 1 4 -4 4 -7 4 3 5 0 4 5 4 31 4 -37 
4 -6 5 -31 4 -4 4 -4 4 -6 4 0 5 -11 4 -4 
4 -3 4 -12 4 -2 4 -11 5 -4 4 -7 4 -8 4 -15 
4 2 5 -4 4 -3 4 0 4 3 4 -6 4 2 5 0 
4 0 4 -4 4 1 4 3 5 4 4 5 4 -7 4 7 
4 0 5 -12 4 7 4 -2 4 0 4 7 4 -4 5 -5 
4 4 4 -2 4 0 4 2 5 -3 4 8 4 1 4 -5 
4 0 4 11 5 1 4 -1 4 -4 4 1 4 -1 5 6 
4 3 4 -8 4 8 4 -8 5 15 4 -3 4 15 4 -4 
4 -7 4 -4 5 -1 4 -7 4 -1 4 9 4 -3 5 3 
4 -1 4 1 4 -8 4 11 4 -4 5 4 4 1 4 -8 
4 5 4 -2 5 -4 4 6 4 31 4 -5 4 0 5 -9 
4 -6 4 -5 4 -3 4 -3 4 -2 5 2 4 -14 4 -3 
4 -1 4 5 5 -8 3166 636 300 MP stroke
4 -4 4 7 4 -3 4 0 4 -8 5 -7 4 -5 4 -15 
4 -7 4 -17 5 -1 4 -14 4 -17 4 -14 4 -33 5 32 
4 -5 4 8 4 15 4 1 4 1 5 4 4 3 4 -3 
4 -2 4 4 5 1 4 5 4 -5 4 12 4 -3 4 7 
5 4 4 3 4 18 4 11 4 -4 5 -4 4 -4 4 -16 
4 -4 4 -16 5 -8 4 -23 4 -11 4 0 4 0 4 -10 
5 -6 4 -5 4 -9 4 -16 4 -11 5 -20 4 -16 4 -20 
4 -31 4 -57 4 -61 5 -67 4 -87 4 -89 4 -92 4 -87 
5 -37 4 0 4 0 4 0 4 0 2878 1474 70 MP stroke
gr

c8
0 sg
2557 1152 mt  -90 rotate
(Speed \(mph\)) s
90 rotate
3490 1762 mt 
(Time \(s\)) s

end %%Color Dict

eplot
%%EndObject

epage
end

showpage

%%Trailer
%%EOF
