%!PS-Adobe-3.0 EPSF-3.0
%%Creator: MATLAB, The MathWorks, Inc. Version 8.0.0.783 (R2012b). Operating System: Microsoft Windows 7.
%%Title: D:\000 Feb_paper\FebDraft\LatexDraft1\4b.eps
%%CreationDate: 05/09/2013  01:26:10
%%DocumentNeededFonts: Helvetica
%%DocumentProcessColors: Cyan Magenta Yellow Black
%%LanguageLevel: 2
%%Pages: 1
%%BoundingBox:    96   320   515   470
%%EndComments

%%BeginProlog
% MathWorks dictionary
/MathWorks 160 dict begin
% definition operators
/bdef {bind def} bind def
/ldef {load def} bind def
/xdef {exch def} bdef
/xstore {exch store} bdef
% operator abbreviations
/c  /clip ldef
/cc /concat ldef
/cp /closepath ldef
/gr /grestore ldef
/gs /gsave ldef
/mt /moveto ldef
/np /newpath ldef
/cm /currentmatrix ldef
/sm /setmatrix ldef
/rm /rmoveto ldef
/rl /rlineto ldef
/s {show newpath} bdef
/sc {setcmykcolor} bdef
/sr /setrgbcolor ldef
/sg /setgray ldef
/w /setlinewidth ldef
/j /setlinejoin ldef
/cap /setlinecap ldef
/rc {rectclip} bdef
/rf {rectfill} bdef
% page state control
/pgsv () def
/bpage {/pgsv save def} bdef
/epage {pgsv restore} bdef
/bplot /gsave ldef
/eplot {stroke grestore} bdef
% orientation switch
/portraitMode 0 def /landscapeMode 1 def /rotateMode 2 def
% coordinate system mappings
/dpi2point 0 def
% font control
/FontSize 0 def
/FMS {/FontSize xstore findfont [FontSize 0 0 FontSize neg 0 0]
  makefont setfont} bdef
/ISOLatin1Encoding where {pop /WindowsLatin1Encoding 256 array bdef
ISOLatin1Encoding WindowsLatin1Encoding copy pop
/.notdef/.notdef/quotesinglbase/florin/quotedblbase/ellipsis/dagger
/daggerdbl/circumflex/perthousand/Scaron/guilsinglleft/OE/.notdef/.notdef
/.notdef/.notdef/quoteleft/quoteright/quotedblleft/quotedblright/bullet
/endash/emdash/tilde/trademark/scaron/guilsinglright/oe/.notdef/.notdef
/Ydieresis WindowsLatin1Encoding 128 32 getinterval astore pop}
{/WindowsLatin1Encoding StandardEncoding bdef} ifelse
/reencode {exch dup where {pop load} {pop StandardEncoding} ifelse
  exch dup 3 1 roll findfont dup length dict begin
  { 1 index /FID ne {def}{pop pop} ifelse } forall
  /Encoding exch def currentdict end definefont pop} bdef
/isroman {findfont /CharStrings get /Agrave known} bdef
/FMSR {3 1 roll 1 index dup isroman {reencode} {pop pop} ifelse
  exch FMS} bdef
/csm {1 dpi2point div -1 dpi2point div scale neg translate
 dup landscapeMode eq {pop -90 rotate}
  {rotateMode eq {90 rotate} if} ifelse} bdef
% line types: solid, dotted, dashed, dotdash
/SO { [] 0 setdash } bdef
/DO { [.5 dpi2point mul 4 dpi2point mul] 0 setdash } bdef
/DA { [6 dpi2point mul] 0 setdash } bdef
/DD { [.5 dpi2point mul 4 dpi2point mul 6 dpi2point mul 4
  dpi2point mul] 0 setdash } bdef
% macros for lines and objects
/L {lineto stroke} bdef
/MP {3 1 roll moveto 1 sub {rlineto} repeat} bdef
/AP {{rlineto} repeat} bdef
/PDlw -1 def
/W {/PDlw currentlinewidth def setlinewidth} def
/PP {closepath eofill} bdef
/DP {closepath stroke} bdef
/MR {4 -2 roll moveto dup  0 exch rlineto exch 0 rlineto
  neg 0 exch rlineto closepath} bdef
/FR {MR stroke} bdef
/PR {MR fill} bdef
/L1i {{currentfile picstr readhexstring pop} image} bdef
/tMatrix matrix def
/MakeOval {newpath tMatrix currentmatrix pop translate scale
0 0 1 0 360 arc tMatrix setmatrix} bdef
/FO {MakeOval stroke} bdef
/PO {MakeOval fill} bdef
/PD {currentlinewidth 2 div 0 360 arc fill
   PDlw -1 eq not {PDlw w /PDlw -1 def} if} def
/FA {newpath tMatrix currentmatrix pop translate scale
  0 0 1 5 -2 roll arc tMatrix setmatrix stroke} bdef
/PA {newpath tMatrix currentmatrix pop	translate 0 0 moveto scale
  0 0 1 5 -2 roll arc closepath tMatrix setmatrix fill} bdef
/FAn {newpath tMatrix currentmatrix pop translate scale
  0 0 1 5 -2 roll arcn tMatrix setmatrix stroke} bdef
/PAn {newpath tMatrix currentmatrix pop translate 0 0 moveto scale
  0 0 1 5 -2 roll arcn closepath tMatrix setmatrix fill} bdef
/vradius 0 def /hradius 0 def /lry 0 def
/lrx 0 def /uly 0 def /ulx 0 def /rad 0 def
/MRR {/vradius xdef /hradius xdef /lry xdef /lrx xdef /uly xdef
  /ulx xdef newpath tMatrix currentmatrix pop ulx hradius add uly
  vradius add translate hradius vradius scale 0 0 1 180 270 arc 
  tMatrix setmatrix lrx hradius sub uly vradius add translate
  hradius vradius scale 0 0 1 270 360 arc tMatrix setmatrix
  lrx hradius sub lry vradius sub translate hradius vradius scale
  0 0 1 0 90 arc tMatrix setmatrix ulx hradius add lry vradius sub
  translate hradius vradius scale 0 0 1 90 180 arc tMatrix setmatrix
  closepath} bdef
/FRR {MRR stroke } bdef
/PRR {MRR fill } bdef
/MlrRR {/lry xdef /lrx xdef /uly xdef /ulx xdef /rad lry uly sub 2 div def
  newpath tMatrix currentmatrix pop ulx rad add uly rad add translate
  rad rad scale 0 0 1 90 270 arc tMatrix setmatrix lrx rad sub lry rad
  sub translate rad rad scale 0 0 1 270 90 arc tMatrix setmatrix
  closepath} bdef
/FlrRR {MlrRR stroke } bdef
/PlrRR {MlrRR fill } bdef
/MtbRR {/lry xdef /lrx xdef /uly xdef /ulx xdef /rad lrx ulx sub 2 div def
  newpath tMatrix currentmatrix pop ulx rad add uly rad add translate
  rad rad scale 0 0 1 180 360 arc tMatrix setmatrix lrx rad sub lry rad
  sub translate rad rad scale 0 0 1 0 180 arc tMatrix setmatrix
  closepath} bdef
/FtbRR {MtbRR stroke } bdef
/PtbRR {MtbRR fill } bdef
/stri 6 array def /dtri 6 array def
/smat 6 array def /dmat 6 array def
/tmat1 6 array def /tmat2 6 array def /dif 3 array def
/asub {/ind2 exch def /ind1 exch def dup dup
  ind1 get exch ind2 get sub exch } bdef
/tri_to_matrix {
  2 0 asub 3 1 asub 4 0 asub 5 1 asub
  dup 0 get exch 1 get 7 -1 roll astore } bdef
/compute_transform {
  dmat dtri tri_to_matrix tmat1 invertmatrix 
  smat stri tri_to_matrix tmat2 concatmatrix } bdef
/ds {stri astore pop} bdef
/dt {dtri astore pop} bdef
/db {2 copy /cols xdef /rows xdef mul dup 3 mul string
  currentfile 
  3 index 0 eq {/ASCIIHexDecode filter}
  {/ASCII85Decode filter 3 index 2 eq {/RunLengthDecode filter} if }
  ifelse exch readstring pop
  dup 0 3 index getinterval /rbmap xdef
  dup 2 index dup getinterval /gbmap xdef
  1 index dup 2 mul exch getinterval /bbmap xdef pop pop}bdef
/it {gs np dtri aload pop moveto lineto lineto cp c
  cols rows 8 compute_transform 
  rbmap gbmap bbmap true 3 colorimage gr}bdef
/il {newpath moveto lineto stroke}bdef
currentdict end def
%%EndProlog

%%BeginSetup
MathWorks begin

0 cap

end
%%EndSetup

%%Page: 1 1
%%BeginPageSetup
%%PageBoundingBox:    96   320   515   470
MathWorks begin
bpage
%%EndPageSetup

%%BeginObject: obj1
bplot

/dpi2point 12 def
portraitMode 1152 5640 csm

    0     0  5039  1800 rc
85 dict begin %Colortable dictionary
/c0 { 0.000000 0.000000 0.000000 sr} bdef
/c1 { 1.000000 1.000000 1.000000 sr} bdef
/c2 { 0.900000 0.000000 0.000000 sr} bdef
/c3 { 0.000000 0.820000 0.000000 sr} bdef
/c4 { 0.000000 0.000000 0.800000 sr} bdef
/c5 { 0.910000 0.820000 0.320000 sr} bdef
/c6 { 1.000000 0.260000 0.820000 sr} bdef
/c7 { 0.000000 0.820000 0.820000 sr} bdef
c0
1 j
1 sg
   0    0 5040 1801 rf
6 w
0 1348 1674 0 0 -1348 655 1483 4 MP
PP
-1674 0 0 1348 1674 0 0 -1348 655 1483 5 MP stroke
4 w
DO
SO
6 w
0 sg
 655  135 mt 2329  135 L
 655 1483 mt 2329 1483 L
2329 1483 mt 2329  135 L
 655 1483 mt  655  135 L
 655 1483 mt 2329 1483 L
 655 1483 mt  655  135 L
 655 1483 mt  655 1466 L
 655  135 mt  655  151 L
%%IncludeResource: font Helvetica
/Helvetica /WindowsLatin1Encoding 120 FMSR

 622 1628 mt 
(0) s
1213 1483 mt 1213 1466 L
1213  135 mt 1213  151 L
1113 1628 mt 
(200) s
1771 1483 mt 1771 1466 L
1771  135 mt 1771  151 L
1671 1628 mt 
(400) s
2329 1483 mt 2329 1466 L
2329  135 mt 2329  151 L
2229 1628 mt 
(600) s
 655 1483 mt  671 1483 L
2329 1483 mt 2312 1483 L
 554 1527 mt 
(0) s
 655 1033 mt  671 1033 L
2329 1033 mt 2312 1033 L
 487 1077 mt 
(10) s
 655  584 mt  671  584 L
2329  584 mt 2312  584 L
 487  628 mt 
(20) s
 655  135 mt  671  135 L
2329  135 mt 2312  135 L
 487  179 mt 
(30) s
 655  135 mt 2329  135 L
 655 1483 mt 2329 1483 L
2329 1483 mt 2329  135 L
 655 1483 mt  655  135 L
gs 655 135 1675 1349 rc
/c8 { 0.000000 0.000000 1.000000 sr} bdef
c8
3 0 3 0 3 0 2 0 3 0 3 0 3 0 3 0 
2 0 3 0 3 0 3 0 3 0 2 0 3 0 3 0 
3 0 3 0 2 0 3 0 3 0 3 0 2 0 3 0 
3 0 3 0 3 0 2 0 3 0 3 0 3 0 3 0 
2 0 3 0 3 0 3 32 3 45 2 130 3 126 3 175 
3 162 2 130 3 126 3 121 3 108 3 72 2 14 3 4 
3 -18 3 -27 3 -31 2 -41 3 -103 3 -144 3 -184 3 -162 
2 -58 3 -77 3 -94 3 14 2 103 3 36 3 4 3 -27 
3 -85 2 -112 3 -63 3 -36 3 -59 3 -49 2 -27 3 49 
3 68 3 13 3 -13 2 -18 3 -41 3 -31 3 -23 2 -9 
3 36 3 95 3 206 3 248 2 206 3 54 3 99 3 -9 
3 -49 2 9 3 13 3 -27 3 -45 3 -36 2 -81 3 -76 
3 -94 3 -18 2 -23 3 -49 3 -126 3 -148 3 -140 2 -45 
3 0 3 0 3 0 3 0 2 0 3 0 3 0 3 0 
3 0 2 0 3 0 3 0 3 0 3 0 2 0 3 0 
3 0 3 0 2 0 3 0 3 0 3 0 3 0 2 0 
3 0 3 0 3 0 3 0 2 0 3 0 3 0 3 0 
3 0 2 0 3 0 3 0 3 0 2 0 3 0 3 0 
3 0 3 5 2 -5 3 0 3 0 3 0 3 0 2 0 
3 0 3 27 3 36 3 45 2 41 3 99 3 112 3 -18 
2 4 3 54 3 149 3 40 3 -49 2 -41 3 50 3 103 
3 58 3 -22 2 -9 3 -18 3 -18 3 5 3 -32 2 -58 
3 -32 3 0 3 50 2 22 3 -13 3 -54 3 -72 3 -72 
2 -18 3 27 3 54 3 49 3 14 2 -23 3 -9 3 -27 
3 5 3 22 2 -36 3 -94 3 -144 3 -103 2 -9 3 40 
3 0 3 -63 3 -63 2 -9 3 0 3 0 3 0 3 0 
2 0 3 0 3 0 3 0 3 0 2 0 3 0 3 0 
3 0 3 0 2 0 3 0 3 0 3 0 2 0 3 0 
3 0 3 5 3 0 2 -5 3 0 3 0 3 5 3 -5 
2 0 3 0 3 0 3 0 3 0 2 9 3 14 3 4 
3 -4 2 -9 3 -9 3 -5 3 0 3 0 2 0 3 0 
3 0 3 0 3 0 2 0 3 0 3 0 3 0 3 5 
2 108 3 135 3 94 3 76 2 -40 3 -54 3 -54 3 -18 
3 14 2 40 3 81 3 54 3 -32 3 -134 2 -113 3 -18 
3 104 3 27 3 -162 2 -113 3 0 3 0 3 0 2 0 
3 0 3 0 3 0 3 0 2 27 3 63 3 54 3 104 
3 139 2 81 3 85 3 63 3 -40 3 -99 2 -54 3 36 
3 22 3 54 2 108 1492 840 300 MP stroke
3 108 3 18 3 9 3 90 2 54 3 -9 3 22 3 27 
3 32 2 13 3 -22 3 -23 3 -22 3 -23 2 -22 3 -9 
3 36 3 0 3 -63 2 -108 3 -126 3 -189 3 -224 2 -198 
3 -14 3 0 3 14 3 22 2 23 3 72 3 4 3 18 
3 -18 2 113 3 -50 3 32 3 63 3 4 2 27 3 18 
3 -18 3 -36 2 -85 3 -113 3 -81 3 -9 3 0 2 0 
3 0 3 0 3 0 3 0 2 0 3 0 3 0 3 0 
3 0 2 0 3 0 3 149 3 265 2 193 3 166 3 158 
3 107 3 54 2 32 3 -18 3 -50 3 -80 3 -95 2 -72 
3 -22 3 -32 3 -36 3 -18 2 0 3 36 3 50 3 45 
2 40 3 -4 3 -18 3 31 3 166 2 140 3 -9 3 -23 
3 -85 3 -180 2 -220 3 -166 3 85 3 162 3 103 2 68 
3 40 3 0 3 -31 2 -63 3 -153 3 -270 3 -269 3 -117 
2 -59 3 5 3 0 3 9 3 22 2 23 3 72 3 36 
3 81 3 130 2 139 3 77 3 45 3 0 3 9 2 4 
3 5 3 0 3 -23 2 -9 3 139 3 99 3 50 3 36 
2 22 3 23 3 26 3 27 3 45 2 14 3 27 3 -9 
3 -23 3 -18 2 -18 3 -27 3 -62 3 -95 2 -72 3 -22 
3 -32 3 -36 3 -4 2 13 3 -49 3 -58 3 -77 3 -85 
2 -189 3 -211 3 -59 3 0 3 0 2 9 3 9 3 -13 
3 31 2 9 3 72 3 50 3 58 3 50 2 67 3 58 
3 23 3 22 3 32 2 76 3 14 3 -23 3 -9 3 -22 
2 -27 3 -41 3 -121 3 -76 2 4 3 14 3 4 3 0 
3 -4 2 40 3 14 3 -63 3 -41 3 95 2 -5 3 -63 
3 23 3 121 3 117 2 175 3 94 3 5 3 4 2 -76 
3 -148 3 -185 3 -251 3 -122 2 0 3 0 3 0 3 0 
3 0 2 9 3 5 3 -14 3 0 3 0 2 0 3 5 
3 31 3 9 3 72 2 59 3 117 3 134 3 59 2 0 
3 -81 3 -148 3 -117 3 -45 2 18 3 139 3 207 3 193 
3 166 2 158 3 53 3 -85 3 -144 3 -126 2 -116 3 -126 
3 -45 3 13 2 27 3 -85 3 -54 3 -9 3 63 2 0 
3 -27 3 -63 3 -126 3 -108 2 -18 3 0 3 0 3 0 
3 0 2 0 3 0 3 0 3 0 2 0 3 0 3 0 
3 0 3 0 2 0 3 0 3 0 3 0 3 9 2 -4 
3 -5 3 0 3 0 3 0 2 0 3 0 3 0 3 0 
2 0 3 0 3 0 3 0 3 0 2 0 3 0 3 0 
3 14 3 -5 2 -9 3 14 3 -14 3 0 3 0 2 0 
3 0 3 0 3 0 657 1483 300 MP stroke
gr

c8
0 sg
 405 1157 mt  -90 rotate
(Speed \(mph\)) s
90 rotate
1271 1771 mt 
(Time \(s\)) s
1 sg
0 1348 1674 0 0 -1348 2874 1483 4 MP
PP
-1674 0 0 1348 1674 0 0 -1348 2874 1483 5 MP stroke
4 w
DO
SO
6 w
0 sg
2874  135 mt 4548  135 L
2874 1483 mt 4548 1483 L
4548 1483 mt 4548  135 L
2874 1483 mt 2874  135 L
2874 1483 mt 4548 1483 L
2874 1483 mt 2874  135 L
2874 1483 mt 2874 1466 L
2874  135 mt 2874  151 L
2841 1628 mt 
(0) s
3571 1483 mt 3571 1466 L
3571  135 mt 3571  151 L
3471 1628 mt 
(500) s
4269 1483 mt 4269 1466 L
4269  135 mt 4269  151 L
4136 1628 mt 
(1000) s
2874 1483 mt 2890 1483 L
4548 1483 mt 4531 1483 L
2773 1527 mt 
(0) s
2874 1033 mt 2890 1033 L
4548 1033 mt 4531 1033 L
2706 1077 mt 
(10) s
2874  584 mt 2890  584 L
4548  584 mt 4531  584 L
2706  628 mt 
(20) s
2874  135 mt 2890  135 L
4548  135 mt 4531  135 L
2706  179 mt 
(30) s
2874  135 mt 4548  135 L
2874 1483 mt 4548 1483 L
4548 1483 mt 4548  135 L
2874 1483 mt 2874  135 L
gs 2874 135 1675 1349 rc
c8
1 0 2 0 1 0 2 0 1 0 1 0 2 0 1 0 
2 0 1 0 1 0 2 0 1 0 1 0 2 0 1 0 
2 0 1 0 1 0 2 5 1 67 2 149 1 152 1 131 
2 108 1 80 2 63 1 50 1 -23 2 -27 1 9 2 -27 
1 -18 1 -22 2 -18 1 13 2 -4 1 -5 1 5 2 0 
1 0 2 0 1 0 1 -5 2 -22 1 31 2 9 1 -4 
1 4 2 -18 1 23 1 0 2 -9 1 -9 2 -14 1 -8 
1 -14 2 -18 1 -18 2 -36 1 -18 1 -31 2 -14 1 -36 
2 -31 1 -45 1 -50 2 -53 1 -59 2 -81 1 -54 1 -49 
2 -59 1 0 2 0 1 0 1 0 2 0 1 0 2 0 
1 0 1 0 2 0 1 0 2 0 1 0 1 0 2 0 
1 0 1 0 2 9 1 90 2 221 1 251 1 126 2 121 
1 90 2 86 1 53 1 41 2 -41 1 -44 2 -54 1 -99 
1 -113 2 -49 1 -54 2 -76 1 -86 1 -139 2 -144 1 -72 
2 -72 1 -45 1 0 2 0 1 0 2 0 1 0 1 0 
2 0 1 0 2 0 1 0 1 0 2 0 1 0 2 0 
1 0 1 0 2 0 1 0 1 18 2 18 1 72 2 81 
1 5 1 -14 2 -4 1 9 2 -14 1 72 1 63 2 -13 
1 0 2 22 1 72 1 9 2 -9 1 -9 2 -5 1 5 
1 -41 2 -58 1 -76 2 -68 1 -31 1 -36 2 -18 1 9 
2 36 1 90 1 139 2 103 1 95 2 49 1 27 1 23 
2 13 1 -40 1 -59 2 -85 1 -113 2 -121 1 -108 1 -81 
2 -27 1 0 2 0 1 0 1 0 2 0 1 0 2 0 
1 0 1 0 2 0 1 0 2 0 1 0 1 0 2 0 
1 0 2 0 1 5 1 72 2 112 1 117 2 126 1 198 
1 152 2 86 1 85 2 58 1 59 1 54 2 13 1 -54 
2 -58 1 -121 1 -86 2 -54 1 -67 1 -189 2 -121 1 -121 
2 -81 1 -36 1 -45 2 -95 1 -9 2 0 1 0 1 0 
2 0 1 0 2 0 1 0 1 0 2 0 1 0 2 0 
1 0 1 0 2 0 1 0 2 0 1 0 1 0 2 9 
1 81 2 95 1 121 1 117 2 103 1 63 2 72 1 58 
1 5 2 13 1 0 1 -13 2 13 1 18 2 50 1 -36 
1 18 2 -41 1 -49 2 -45 1 -67 1 -77 2 -63 1 -67 
2 -63 1 -85 1 -59 2 -36 1 -13 2 -50 1 -72 1 0 
2 0 1 0 2 0 1 0 1 0 2 0 1 0 2 0 
1 0 1 0 2 0 1 0 2 0 1 0 1 0 2 0 
1 0 1 9 2 104 1 103 2 90 1 103 1 225 2 171 
1 76 2 77 1 67 3977 458 300 MP stroke
1 63 2 0 1 -77 2 -67 1 -76 1 -153 2 -180 1 -108 
2 -121 1 -184 1 -63 2 -59 1 0 2 0 1 0 1 0 
2 0 1 0 2 0 1 0 1 0 2 0 1 0 2 0 
1 0 1 0 2 0 1 0 2 0 1 0 1 5 2 31 
1 63 1 27 2 -31 1 -14 2 117 1 148 1 140 2 99 
1 18 2 -9 1 40 1 -31 2 -32 1 -36 2 -49 1 -59 
1 -58 2 -45 1 -22 2 49 1 67 1 41 2 -5 1 9 
2 9 1 5 1 4 2 14 1 -9 2 -54 1 -54 1 -112 
2 -54 1 -72 2 -59 1 -36 1 23 2 31 1 104 1 45 
2 -41 1 -45 2 -31 1 54 1 94 2 130 1 122 2 -9 
1 -5 1 -9 2 14 1 9 2 0 1 -9 1 -59 2 -76 
1 -81 2 -85 1 -72 1 -81 2 -68 1 0 2 0 1 0 
1 0 2 0 1 0 2 0 1 0 1 0 2 0 1 0 
2 0 1 0 1 0 2 0 1 0 2 0 1 0 1 0 
2 5 1 45 1 49 2 90 1 95 2 161 1 144 1 68 
2 71 1 122 2 81 1 76 1 63 2 -18 1 -27 2 -76 
1 -90 1 -50 2 -58 1 -108 2 -148 1 -131 1 -121 2 -85 
1 -86 2 -72 1 0 1 0 2 0 1 0 2 0 1 0 
1 0 2 0 1 0 2 0 1 0 1 0 2 0 1 0 
1 0 2 0 1 0 2 0 1 0 1 14 2 36 1 108 
2 121 1 157 1 122 2 31 1 -18 2 -40 1 -32 1 -4 
2 9 1 31 2 -18 1 -9 1 9 2 36 1 9 2 -27 
1 -18 1 -22 2 -27 1 22 2 27 1 -9 1 -4 2 -77 
1 -31 2 -32 1 -18 1 -17 2 -63 1 -86 1 -103 2 -77 
1 0 2 0 1 0 1 0 2 0 1 0 2 0 1 0 
1 0 2 0 1 0 2 0 1 0 1 0 2 0 1 0 
2 0 1 0 1 0 2 5 1 45 2 49 1 50 1 63 
2 76 1 166 2 207 1 108 1 103 2 117 1 67 2 18 
1 18 1 -13 2 -23 1 -94 2 -22 1 -14 1 -22 2 -108 
1 -126 1 -67 2 -77 1 -206 2 -99 1 -95 1 -99 2 -13 
1 -14 2 0 1 0 1 0 2 0 1 0 2 0 1 0 
1 0 2 0 1 0 2 0 1 0 1 0 2 0 1 0 
2 0 1 0 1 0 2 5 1 67 2 149 1 152 1 131 
2 108 1 80 2 63 1 50 1 -23 2 -27 1 9 1 -27 
2 -18 1 -22 2 -18 1 13 1 -4 2 -5 1 5 2 0 
1 0 1 0 2 0 1 -5 2 -22 1 31 1 9 2 -4 
1 4 2 -18 1 23 1 0 2 -9 1 -9 2 -14 1 -8 
1 -14 2 -18 1 -18 3560 867 300 MP stroke
2 -36 1 -18 1 -31 2 -14 1 -36 2 -31 1 -45 1 -50 
2 -53 1 -59 2 -81 1 -54 1 -49 2 -59 1 0 1 0 
2 0 1 0 2 0 1 0 1 0 2 0 1 0 2 0 
1 0 1 0 2 0 1 0 2 0 1 0 1 0 2 9 
1 90 2 221 1 251 1 126 2 121 1 90 2 86 1 53 
1 41 2 -41 1 -44 2 -54 1 -99 1 -113 2 -49 1 -54 
2 -76 1 -86 1 -139 2 -144 1 -72 1 -72 2 -45 1 0 
2 0 1 0 1 0 2 0 1 0 2 0 1 0 1 0 
2 0 1 0 2 0 1 0 1 0 2 0 1 0 2 0 
1 0 1 18 2 18 1 72 2 81 1 5 1 -14 2 -4 
1 9 2 -14 1 72 1 63 2 -13 1 0 2 22 1 72 
1 9 2 -9 1 -9 1 -5 2 5 1 -41 2 -58 1 -76 
1 -68 2 -31 1 -36 2 -18 1 9 1 36 2 90 1 139 
2 103 1 95 1 49 2 27 1 23 2 13 1 -40 1 -59 
2 -85 1 -113 2 -121 1 -108 1 -81 2 -27 1 0 2 0 
1 0 1 0 2 0 1 0 2 0 1 0 1 0 2 0 
1 0 2 0 1 0 1 0 2 0 1 0 1 0 2 5 
1 72 2 112 1 117 1 126 2 198 1 152 2 86 1 85 
1 58 2 59 1 54 2 13 1 -54 1 -58 2 -121 1 -86 
2 -54 1 -67 1 -189 2 -121 1 -121 2 -81 1 -36 1 -45 
2 -95 1 -9 2 0 1 0 1 0 2 0 1 0 2 0 
1 0 1 0 2 0 1 0 1 0 2 0 1 0 2 0 
1 0 1 0 2 0 1 0 2 9 1 81 1 95 2 121 
1 117 2 103 1 63 1 72 2 58 1 5 2 13 1 0 
1 -13 2 13 1 18 2 50 1 -36 1 18 2 -41 1 -49 
2 -45 1 -67 1 -77 2 -63 1 -67 2 -63 1 -85 1 -59 
2 -36 1 -13 2 -50 1 -72 1 0 2 0 1 0 1 0 
2 0 1 0 2 0 1 0 1 0 2 0 1 0 2 0 
1 0 1 0 2 0 1 0 2 0 1 0 1 9 2 104 
1 103 2 90 1 103 1 225 2 171 1 76 2 77 1 67 
1 63 2 0 1 -77 2 -67 1 -76 1 -153 2 -180 1 -108 
2 -121 1 -184 1 -63 2 -59 1 0 1 0 2 0 1 0 
2 0 1 0 1 0 2 0 1 0 2 0 1 0 1 0 
2 0 1 0 2 0 1 0 1 0 2 0 1 5 2 31 
1 63 1 27 2 -31 1 -14 2 117 1 148 1 140 2 99 
1 18 2 -9 1 40 1 -31 2 -32 1 -36 2 -49 1 -59 
1 -58 2 -45 1 -22 1 49 2 67 1 41 2 -5 1 9 
1 9 2 5 1 4 3143 1002 300 MP stroke
2 14 1 -9 1 -54 2 -54 1 -112 2 -54 1 -72 1 -59 
2 -36 1 23 2 31 1 104 1 45 2 -41 1 -45 2 -31 
1 54 1 94 2 130 1 122 2 -9 1 -5 1 -9 2 14 
1 9 2 0 1 -9 1 -59 2 -76 1 -81 2 -85 1 -72 
1 -81 2 -68 1 0 1 0 2 0 1 0 2 0 1 0 
1 0 2 0 1 0 2 0 1 0 1 0 2 0 1 0 
2 0 1 0 1 0 2 0 1 0 2 5 1 45 1 49 
2 90 1 95 2 161 1 144 1 68 2 71 1 122 2 81 
1 76 1 63 2 -18 1 -27 2 -76 1 -90 1 -50 2 -58 
1 -108 1 -148 2 -131 1 -121 2 -85 1 -86 1 -72 2 0 
1 0 2 0 1 0 1 0 2 0 1 0 2 0 1 0 
1 0 2 0 1 0 2 0 1 0 1 0 2 0 1 0 
2 0 1 0 1 14 2 36 1 108 2 121 1 157 1 122 
2 31 1 -18 2 -40 1 -32 1 -4 2 9 1 31 2 -18 
1 -9 1 9 2 36 1 9 1 -27 2 -18 1 -22 2 -27 
1 22 1 27 2 -9 1 -4 2 -77 1 -31 1 -32 2 -18 
1 -17 2 -63 1 -86 1 -103 2 -77 1 0 2 0 1 0 
1 0 2 0 1 0 2 0 1 0 1 0 2 0 1 0 
2 0 1 0 1 0 2 0 1 0 2 0 1 0 1 0 
2 5 1 45 1 49 2 50 1 63 2 76 1 166 1 207 
2 108 1 103 2 117 1 67 1 18 2 18 1 -13 2 -23 
1 -94 1 -22 2 -14 1 -22 2 -108 1 -126 1 -67 2 -77 
1 -206 2 -99 1 -95 1 -99 2 -13 1 -14 2 0 1 0 
1 0 2 0 1 0 2 0 1 0 1 0 2 0 1 0 
2875 1483 193 MP stroke
gr

c8
0 sg
2624 1157 mt  -90 rotate
(Speed \(mph\)) s
90 rotate
3490 1771 mt 
(Time \(s\)) s

end %%Color Dict

eplot
%%EndObject

epage
end

showpage

%%Trailer
%%EOF
