%!PS-Adobe-3.0 EPSF-3.0
%%Creator: MATLAB, The MathWorks, Inc. Version 8.0.0.783 (R2012b). Operating System: Microsoft Windows 7.
%%Title: D:\000 Feb_paper\FebDraft\LatexDraft1\4c.eps
%%CreationDate: 05/09/2013  01:25:57
%%DocumentNeededFonts: Helvetica
%%DocumentProcessColors: Cyan Magenta Yellow Black
%%LanguageLevel: 2
%%Pages: 1
%%BoundingBox:    96   320   515   471
%%EndComments

%%BeginProlog
% MathWorks dictionary
/MathWorks 160 dict begin
% definition operators
/bdef {bind def} bind def
/ldef {load def} bind def
/xdef {exch def} bdef
/xstore {exch store} bdef
% operator abbreviations
/c  /clip ldef
/cc /concat ldef
/cp /closepath ldef
/gr /grestore ldef
/gs /gsave ldef
/mt /moveto ldef
/np /newpath ldef
/cm /currentmatrix ldef
/sm /setmatrix ldef
/rm /rmoveto ldef
/rl /rlineto ldef
/s {show newpath} bdef
/sc {setcmykcolor} bdef
/sr /setrgbcolor ldef
/sg /setgray ldef
/w /setlinewidth ldef
/j /setlinejoin ldef
/cap /setlinecap ldef
/rc {rectclip} bdef
/rf {rectfill} bdef
% page state control
/pgsv () def
/bpage {/pgsv save def} bdef
/epage {pgsv restore} bdef
/bplot /gsave ldef
/eplot {stroke grestore} bdef
% orientation switch
/portraitMode 0 def /landscapeMode 1 def /rotateMode 2 def
% coordinate system mappings
/dpi2point 0 def
% font control
/FontSize 0 def
/FMS {/FontSize xstore findfont [FontSize 0 0 FontSize neg 0 0]
  makefont setfont} bdef
/ISOLatin1Encoding where {pop /WindowsLatin1Encoding 256 array bdef
ISOLatin1Encoding WindowsLatin1Encoding copy pop
/.notdef/.notdef/quotesinglbase/florin/quotedblbase/ellipsis/dagger
/daggerdbl/circumflex/perthousand/Scaron/guilsinglleft/OE/.notdef/.notdef
/.notdef/.notdef/quoteleft/quoteright/quotedblleft/quotedblright/bullet
/endash/emdash/tilde/trademark/scaron/guilsinglright/oe/.notdef/.notdef
/Ydieresis WindowsLatin1Encoding 128 32 getinterval astore pop}
{/WindowsLatin1Encoding StandardEncoding bdef} ifelse
/reencode {exch dup where {pop load} {pop StandardEncoding} ifelse
  exch dup 3 1 roll findfont dup length dict begin
  { 1 index /FID ne {def}{pop pop} ifelse } forall
  /Encoding exch def currentdict end definefont pop} bdef
/isroman {findfont /CharStrings get /Agrave known} bdef
/FMSR {3 1 roll 1 index dup isroman {reencode} {pop pop} ifelse
  exch FMS} bdef
/csm {1 dpi2point div -1 dpi2point div scale neg translate
 dup landscapeMode eq {pop -90 rotate}
  {rotateMode eq {90 rotate} if} ifelse} bdef
% line types: solid, dotted, dashed, dotdash
/SO { [] 0 setdash } bdef
/DO { [.5 dpi2point mul 4 dpi2point mul] 0 setdash } bdef
/DA { [6 dpi2point mul] 0 setdash } bdef
/DD { [.5 dpi2point mul 4 dpi2point mul 6 dpi2point mul 4
  dpi2point mul] 0 setdash } bdef
% macros for lines and objects
/L {lineto stroke} bdef
/MP {3 1 roll moveto 1 sub {rlineto} repeat} bdef
/AP {{rlineto} repeat} bdef
/PDlw -1 def
/W {/PDlw currentlinewidth def setlinewidth} def
/PP {closepath eofill} bdef
/DP {closepath stroke} bdef
/MR {4 -2 roll moveto dup  0 exch rlineto exch 0 rlineto
  neg 0 exch rlineto closepath} bdef
/FR {MR stroke} bdef
/PR {MR fill} bdef
/L1i {{currentfile picstr readhexstring pop} image} bdef
/tMatrix matrix def
/MakeOval {newpath tMatrix currentmatrix pop translate scale
0 0 1 0 360 arc tMatrix setmatrix} bdef
/FO {MakeOval stroke} bdef
/PO {MakeOval fill} bdef
/PD {currentlinewidth 2 div 0 360 arc fill
   PDlw -1 eq not {PDlw w /PDlw -1 def} if} def
/FA {newpath tMatrix currentmatrix pop translate scale
  0 0 1 5 -2 roll arc tMatrix setmatrix stroke} bdef
/PA {newpath tMatrix currentmatrix pop	translate 0 0 moveto scale
  0 0 1 5 -2 roll arc closepath tMatrix setmatrix fill} bdef
/FAn {newpath tMatrix currentmatrix pop translate scale
  0 0 1 5 -2 roll arcn tMatrix setmatrix stroke} bdef
/PAn {newpath tMatrix currentmatrix pop translate 0 0 moveto scale
  0 0 1 5 -2 roll arcn closepath tMatrix setmatrix fill} bdef
/vradius 0 def /hradius 0 def /lry 0 def
/lrx 0 def /uly 0 def /ulx 0 def /rad 0 def
/MRR {/vradius xdef /hradius xdef /lry xdef /lrx xdef /uly xdef
  /ulx xdef newpath tMatrix currentmatrix pop ulx hradius add uly
  vradius add translate hradius vradius scale 0 0 1 180 270 arc 
  tMatrix setmatrix lrx hradius sub uly vradius add translate
  hradius vradius scale 0 0 1 270 360 arc tMatrix setmatrix
  lrx hradius sub lry vradius sub translate hradius vradius scale
  0 0 1 0 90 arc tMatrix setmatrix ulx hradius add lry vradius sub
  translate hradius vradius scale 0 0 1 90 180 arc tMatrix setmatrix
  closepath} bdef
/FRR {MRR stroke } bdef
/PRR {MRR fill } bdef
/MlrRR {/lry xdef /lrx xdef /uly xdef /ulx xdef /rad lry uly sub 2 div def
  newpath tMatrix currentmatrix pop ulx rad add uly rad add translate
  rad rad scale 0 0 1 90 270 arc tMatrix setmatrix lrx rad sub lry rad
  sub translate rad rad scale 0 0 1 270 90 arc tMatrix setmatrix
  closepath} bdef
/FlrRR {MlrRR stroke } bdef
/PlrRR {MlrRR fill } bdef
/MtbRR {/lry xdef /lrx xdef /uly xdef /ulx xdef /rad lrx ulx sub 2 div def
  newpath tMatrix currentmatrix pop ulx rad add uly rad add translate
  rad rad scale 0 0 1 180 360 arc tMatrix setmatrix lrx rad sub lry rad
  sub translate rad rad scale 0 0 1 0 180 arc tMatrix setmatrix
  closepath} bdef
/FtbRR {MtbRR stroke } bdef
/PtbRR {MtbRR fill } bdef
/stri 6 array def /dtri 6 array def
/smat 6 array def /dmat 6 array def
/tmat1 6 array def /tmat2 6 array def /dif 3 array def
/asub {/ind2 exch def /ind1 exch def dup dup
  ind1 get exch ind2 get sub exch } bdef
/tri_to_matrix {
  2 0 asub 3 1 asub 4 0 asub 5 1 asub
  dup 0 get exch 1 get 7 -1 roll astore } bdef
/compute_transform {
  dmat dtri tri_to_matrix tmat1 invertmatrix 
  smat stri tri_to_matrix tmat2 concatmatrix } bdef
/ds {stri astore pop} bdef
/dt {dtri astore pop} bdef
/db {2 copy /cols xdef /rows xdef mul dup 3 mul string
  currentfile 
  3 index 0 eq {/ASCIIHexDecode filter}
  {/ASCII85Decode filter 3 index 2 eq {/RunLengthDecode filter} if }
  ifelse exch readstring pop
  dup 0 3 index getinterval /rbmap xdef
  dup 2 index dup getinterval /gbmap xdef
  1 index dup 2 mul exch getinterval /bbmap xdef pop pop}bdef
/it {gs np dtri aload pop moveto lineto lineto cp c
  cols rows 8 compute_transform 
  rbmap gbmap bbmap true 3 colorimage gr}bdef
/il {newpath moveto lineto stroke}bdef
currentdict end def
%%EndProlog

%%BeginSetup
MathWorks begin

0 cap

end
%%EndSetup

%%Page: 1 1
%%BeginPageSetup
%%PageBoundingBox:    96   320   515   471
MathWorks begin
bpage
%%EndPageSetup

%%BeginObject: obj1
bplot

/dpi2point 12 def
portraitMode 1152 5652 csm

    0     0  5039  1809 rc
85 dict begin %Colortable dictionary
/c0 { 0.000000 0.000000 0.000000 sr} bdef
/c1 { 1.000000 1.000000 1.000000 sr} bdef
/c2 { 0.900000 0.000000 0.000000 sr} bdef
/c3 { 0.000000 0.820000 0.000000 sr} bdef
/c4 { 0.000000 0.000000 0.800000 sr} bdef
/c5 { 0.910000 0.820000 0.320000 sr} bdef
/c6 { 1.000000 0.260000 0.820000 sr} bdef
/c7 { 0.000000 0.820000 0.820000 sr} bdef
c0
1 j
1 sg
   0    0 5040 1810 rf
6 w
0 1356 1641 0 0 -1356 655 1492 4 MP
PP
-1641 0 0 1356 1641 0 0 -1356 655 1492 5 MP stroke
4 w
DO
SO
6 w
0 sg
 655  136 mt 2296  136 L
 655 1492 mt 2296 1492 L
2296 1492 mt 2296  136 L
 655 1492 mt  655  136 L
 655 1492 mt 2296 1492 L
 655 1492 mt  655  136 L
 655 1492 mt  655 1475 L
 655  136 mt  655  152 L
%%IncludeResource: font Helvetica
/Helvetica /WindowsLatin1Encoding 120 FMSR

 622 1637 mt 
(0) s
1475 1492 mt 1475 1475 L
1475  136 mt 1475  152 L
1375 1637 mt 
(500) s
2296 1492 mt 2296 1475 L
2296  136 mt 2296  152 L
2163 1637 mt 
(1000) s
 655 1492 mt  671 1492 L
2296 1492 mt 2279 1492 L
 554 1536 mt 
(0) s
 655 1220 mt  671 1220 L
2296 1220 mt 2279 1220 L
 487 1264 mt 
(10) s
 655  949 mt  671  949 L
2296  949 mt 2279  949 L
 487  993 mt 
(20) s
 655  678 mt  671  678 L
2296  678 mt 2279  678 L
 487  722 mt 
(30) s
 655  407 mt  671  407 L
2296  407 mt 2279  407 L
 487  451 mt 
(40) s
 655  136 mt  671  136 L
2296  136 mt 2279  136 L
 487  180 mt 
(50) s
 655  136 mt 2296  136 L
 655 1492 mt 2296 1492 L
2296 1492 mt 2296  136 L
 655 1492 mt  655  136 L
gs 655 136 1642 1357 rc
/c8 { 0.000000 0.000000 1.000000 sr} bdef
c8
2 0 1 1 2 20 2 37 1 51 2 60 2 67 1 71 
2 71 2 67 1 61 2 52 1 44 2 39 2 34 1 33 
2 33 2 31 1 28 2 24 2 19 1 12 2 5 2 0 
1 -6 2 -11 1 -15 2 -18 2 -18 1 -18 2 -15 2 -12 
1 -11 2 -13 2 -20 1 -28 2 -40 1 -45 2 -42 2 -30 
1 -12 2 12 2 32 1 41 2 45 2 39 1 26 2 15 
2 5 1 -3 2 -10 1 -13 2 -15 2 -14 1 -8 2 0 
2 9 1 18 2 23 2 26 1 25 2 22 2 17 1 12 
2 4 1 -5 2 -13 2 -21 1 -23 2 -24 2 -20 1 -13 
2 -9 2 -5 1 -3 2 -3 1 -5 2 -6 2 -7 1 -8 
2 -8 2 -9 1 -9 2 -10 2 -11 1 -12 2 -13 2 -15 
1 -16 2 -19 1 -21 2 -24 2 -27 1 -33 2 -38 2 -46 
1 -54 2 -58 2 -55 1 -49 2 -37 2 -22 1 -7 2 3 
1 11 2 15 2 17 1 23 2 30 2 42 1 56 2 73 
2 85 1 91 2 90 1 83 2 71 2 59 1 49 2 40 
2 33 1 27 2 22 2 16 1 12 2 8 2 4 1 1 
2 -1 1 -2 2 -2 2 -2 1 -1 2 0 2 1 1 2 
2 2 2 2 1 1 2 -1 2 -4 1 -8 2 -12 1 -14 
2 -16 2 -18 1 -18 2 -20 2 -20 1 -21 2 -22 2 -24 
1 -31 2 -45 1 -63 2 -90 2 -116 1 -129 2 -121 2 -93 
1 -46 2 15 2 66 1 100 2 119 2 121 1 109 2 94 
1 76 2 56 2 36 1 14 2 -3 2 -13 1 -17 2 -15 
2 -9 1 -4 2 -3 2 -6 1 -12 2 -21 1 -32 2 -43 
2 -55 1 -68 2 -79 2 -83 1 -77 2 -62 2 -36 1 -5 
2 18 1 29 2 28 2 15 1 -8 2 -27 2 -39 1 -47 
2 -48 2 -44 1 -37 2 -28 2 -19 1 -7 2 6 1 13 
2 16 2 12 1 4 2 -9 2 -14 1 -9 2 4 2 28 
1 57 2 80 2 94 1 97 2 93 1 79 2 65 2 50 
1 37 2 22 2 9 1 -3 2 -12 2 -20 1 -25 2 -28 
1 -28 2 -26 2 -22 1 -14 2 -4 2 4 1 11 2 18 
2 22 1 25 2 26 2 26 1 23 2 18 1 12 2 6 
2 -1 1 -6 2 -11 2 -16 1 -17 2 -14 2 -8 1 4 
2 18 2 27 1 32 2 32 1 26 2 17 2 8 1 -1 
2 -9 2 -15 1 -21 2 -22 2 -21 1 -15 2 -5 1 7 
2 17 2 21 1 22 2 17 2 10 1 3 2 -2 2 -5 
1 -6 2 -5 2 -3 1 0 2 2 1 6 2 10 2 14 
1 17 2 21 2 22 1 25 2 23 2 20 1 13 2 4 
2 -9 1 -16 2 -21 1611 526 300 MP stroke
1 -22 2 -17 2 -9 1 -4 2 2 2 5 1 6 2 7 
2 5 1 4 2 2 1 -1 2 -3 2 -5 1 -5 2 -3 
2 -1 1 4 2 7 2 11 1 13 2 16 2 17 1 17 
2 16 1 11 2 6 2 0 1 -4 2 -3 2 0 1 7 
2 18 2 25 1 30 2 32 2 30 1 26 2 21 1 17 
2 12 2 8 1 5 2 1 2 -1 1 -2 2 -3 2 -2 
1 -1 2 0 1 1 2 2 2 4 1 4 2 4 2 4 
1 1 2 0 2 -3 1 -4 2 -5 2 -5 1 -4 2 -6 
1 -6 2 -7 2 -10 1 -13 2 -13 2 -12 1 -9 2 -4 
2 3 1 7 2 9 2 9 1 6 2 1 1 -3 2 -8 
2 -11 1 -13 2 -15 2 -16 1 -15 2 -12 2 -9 1 -5 
2 -2 1 -1 2 -3 2 -6 1 -11 2 -16 2 -18 1 -20 
2 -19 2 -18 1 -17 2 -17 2 -16 1 -17 2 -17 1 -18 
2 -17 2 -17 1 -15 2 -12 2 -9 1 -2 2 6 2 17 
1 28 2 36 2 38 1 37 2 30 1 19 2 11 2 4 
1 0 2 -1 2 0 1 0 2 0 2 0 1 0 2 0 
1 -1 2 -1 2 0 1 2 2 4 2 3 1 2 2 -1 
2 -8 1 -14 2 -20 2 -25 1 -28 2 -31 1 -30 2 -27 
2 -21 1 -10 2 4 2 20 1 33 2 39 2 40 1 37 
2 27 2 20 1 15 2 11 1 11 2 11 2 12 1 11 
2 9 2 7 1 4 2 1 2 0 1 -2 2 -3 1 -2 
2 -1 2 0 1 1 2 2 2 5 1 5 2 8 2 7 
1 9 2 9 2 9 1 7 2 6 1 3 2 0 2 -3 
1 -7 2 -10 2 -14 1 -17 2 -19 2 -19 1 -17 2 -12 
2 -7 1 -2 2 2 1 3 2 4 2 3 1 2 2 1 
2 -2 1 -4 2 -7 2 -7 1 -5 2 -2 1 4 2 11 
2 16 1 17 2 15 2 8 1 0 2 -7 2 -12 1 -16 
2 -15 2 -14 1 -13 2 -10 1 -8 2 -6 2 -3 1 -3 
2 -5 2 -8 1 -14 2 -21 2 -27 1 -29 2 -30 2 -28 
1 -24 2 -18 1 -9 2 2 2 15 1 29 2 38 2 40 
1 36 2 26 2 10 1 -3 2 -11 1 -15 2 -15 2 -11 
1 -8 2 -8 2 -10 1 -14 2 -19 2 -22 1 -21 2 -15 
2 -7 1 4 2 10 1 8 2 -3 2 -19 1 -41 2 -56 
2 -61 1 -55 2 -40 2 -17 1 3 2 16 2 23 1 26 
2 22 1 21 2 21 2 24 1 30 2 36 2 39 1 38 
2 33 2 22 1 10 2 -3 1 -13 2 -20 2 -24 1 -28 
2 -30 2 -34 1 -36 2 -41 2 -43 1 -43 2 -38 2 -29 
1 -15 2 0 1 12 1121 940 300 MP stroke
2 16 2 15 1 7 2 -4 2 -14 1 -15 2 -13 2 -4 
1 9 2 21 2 29 1 36 2 40 1 39 2 37 2 31 
1 20 2 7 2 -8 1 -19 2 -26 2 -26 1 -22 2 -13 
1 -8 2 -8 2 -14 1 -24 2 -37 2 -45 1 -42 2 -32 
2 -13 1 13 2 33 2 47 1 55 2 55 1 49 2 41 
2 35 1 26 2 17 2 9 1 0 2 -8 2 -14 1 -21 
2 -25 2 -27 1 -24 2 -17 1 -8 2 6 2 17 1 24 
2 27 2 27 1 24 2 18 2 10 1 -2 2 -16 1 -30 
2 -37 2 -36 1 -26 2 -6 2 20 1 39 2 52 2 56 
1 52 2 42 2 29 1 17 2 5 1 -8 2 -21 2 -31 
1 -37 2 -40 2 -40 1 -36 2 -31 2 -23 1 -12 2 1 
2 14 1 24 2 26 1 23 2 14 2 1 1 -9 2 -13 
2 -10 1 -3 2 10 2 21 1 27 2 30 1 30 2 27 
2 22 1 18 2 12 2 6 1 0 2 -5 2 -9 1 -10 
2 -10 2 -10 1 -9 2 -9 1 -11 2 -12 2 -13 1 -14 
2 -12 2 -9 1 -2 2 4 2 10 1 12 2 13 2 11 
1 7 2 3 1 0 2 -4 2 -6 1 -8 2 -12 2 -15 
1 -21 2 -28 2 -34 1 -40 2 -43 1 -43 2 -42 2 -39 
1 -32 2 -23 2 -11 1 4 2 19 2 30 1 34 2 31 
2 21 1 6 2 -4 1 -7 2 -3 2 8 1 22 2 33 
2 35 1 29 2 15 2 -2 1 -17 2 -24 2 -24 1 -17 
2 -5 1 -2 2 -7 2 -22 1 -48 2 -79 2 -96 1 -95 
2 -77 2 -41 1 8 2 46 1 67 2 72 2 60 1 37 
2 17 2 8 1 7 2 15 2 31 1 44 2 55 2 60 
1 63 2 62 1 57 2 50 2 40 1 27 2 12 2 0 
1 -10 2 -16 2 -20 1 -20 2 -21 2 -23 1 -25 2 -29 
1 -32 2 -34 2 -36 1 -34 2 -32 2 -29 1 -25 2 -23 
2 -21 1 -20 2 -21 1 -22 2 -25 2 -30 1 -37 2 -43 
2 -43 1 -34 2 -20 2 5 1 34 2 58 2 75 1 84 
2 86 1 81 2 74 2 63 1 50 2 36 2 19 1 8 
2 2 2 0 1 4 2 12 2 17 1 18 2 14 1 7 
2 -5 2 -13 1 -17 2 -18 2 -15 1 -9 2 -5 2 -3 
1 -6 2 -10 1 -18 2 -24 2 -28 1 -32 2 -33 2 -34 
1 -34 2 -34 2 -33 1 -34 2 -33 2 -35 1 -38 2 -44 
1 -52 2 -61 2 -67 1 -71 2 -71 2 -67 1 -60 2 -51 
2 -37 1 -20 2 -1 656 1492 284 MP stroke
gr

c8
0 sg
 405 1162 mt  -90 rotate
(Speed \(mph\)) s
90 rotate
1254 1780 mt 
(Time \(s\)) s
1 sg
0 1356 1641 0 0 -1356 2874 1492 4 MP
PP
-1641 0 0 1356 1641 0 0 -1356 2874 1492 5 MP stroke
4 w
DO
SO
6 w
0 sg
2874  136 mt 4515  136 L
2874 1492 mt 4515 1492 L
4515 1492 mt 4515  136 L
2874 1492 mt 2874  136 L
2874 1492 mt 4515 1492 L
2874 1492 mt 2874  136 L
2874 1492 mt 2874 1475 L
2874  136 mt 2874  152 L
2841 1637 mt 
(0) s
3238 1492 mt 3238 1475 L
3238  136 mt 3238  152 L
3138 1637 mt 
(100) s
3603 1492 mt 3603 1475 L
3603  136 mt 3603  152 L
3503 1637 mt 
(200) s
3968 1492 mt 3968 1475 L
3968  136 mt 3968  152 L
3868 1637 mt 
(300) s
4332 1492 mt 4332 1475 L
4332  136 mt 4332  152 L
4232 1637 mt 
(400) s
2874 1492 mt 2890 1492 L
4515 1492 mt 4498 1492 L
2773 1536 mt 
(0) s
2874 1040 mt 2890 1040 L
4515 1040 mt 4498 1040 L
2706 1084 mt 
(20) s
2874  588 mt 2890  588 L
4515  588 mt 4498  588 L
2706  632 mt 
(40) s
2874  136 mt 2890  136 L
4515  136 mt 4498  136 L
2706  180 mt 
(60) s
2874  136 mt 4515  136 L
2874 1492 mt 4515 1492 L
4515 1492 mt 4515  136 L
2874 1492 mt 2874  136 L
gs 2874 136 1642 1357 rc
c8
4 0 4 0 3 0 4 0 4 0 3 0 4 0 4 0 
3 0 4 0 3 0 4 0 4 0 3 0 4 7 4 77 
3 136 4 101 4 91 3 90 4 68 4 66 3 22 4 41 
4 54 3 50 4 59 3 49 4 36 4 25 3 14 4 4 
4 7 3 2 4 3 4 9 3 0 4 0 4 4 3 -4 
4 -5 4 5 3 7 4 0 3 -3 4 3 4 11 3 0 
4 0 4 -11 3 -16 4 -30 4 -36 3 -32 4 -11 4 -4 
3 -23 4 -9 4 -9 3 -18 4 -9 3 -27 4 -18 4 -25 
3 -14 4 0 4 14 3 0 4 11 4 9 3 11 4 7 
4 7 3 0 4 -7 4 -22 3 -16 4 0 3 -9 4 -9 
4 -7 3 0 4 -5 4 0 3 16 4 21 4 15 3 9 
4 -2 4 -7 3 -6 4 -16 4 -5 3 3 4 0 3 2 
4 -7 4 -16 3 -2 4 -7 4 -18 3 -9 4 0 4 2 
3 -9 4 -18 4 -7 3 -4 4 -7 3 18 4 11 4 12 
3 18 4 -5 4 -22 3 -25 4 -25 4 -38 3 -28 4 -11 
4 -11 3 11 4 -22 4 -32 3 -41 4 -27 3 14 4 58 
4 91 3 72 4 48 4 15 3 -4 4 -20 4 -16 3 -21 
4 -29 4 -32 3 -24 4 -48 4 -47 3 -41 4 -16 3 -4 
4 -66 4 -65 3 -55 4 -34 4 -76 3 -82 4 -50 4 0 
3 0 4 0 4 0 3 0 4 7 4 -7 3 0 4 0 
3 68 4 129 4 158 3 145 4 102 4 45 3 4 4 16 
4 14 3 0 4 16 4 18 3 18 4 29 4 27 3 18 
4 14 3 2 4 0 4 -9 3 -2 4 -9 4 -7 3 -7 
4 -2 4 -2 3 27 4 27 4 7 3 9 4 4 4 -2 
3 -2 4 9 3 16 4 11 4 9 3 23 4 13 4 14 
3 22 4 12 4 20 3 29 4 30 4 18 3 11 4 20 
4 25 3 14 4 4 3 16 4 7 4 4 3 0 4 0 
4 0 3 0 4 -2 4 -4 3 -3 4 -11 4 2 3 -2 
4 0 4 0 3 -11 4 0 3 0 4 0 4 0 3 -2 
4 -14 4 0 3 -9 4 -14 4 -9 3 -2 4 -16 4 -2 
3 0 4 2 4 5 3 0 4 -5 3 -2 4 -2 4 9 
3 2 4 9 4 5 3 4 4 0 4 0 3 -2 4 0 
4 4 3 -6 4 0 3 -14 4 -4 4 -16 3 -9 4 -3 
4 -4 3 -16 4 -13 4 -9 3 0 4 -7 4 -3 3 -9 
4 -6 4 -14 3 -4 4 -14 3 -23 4 -13 4 -11 3 -21 
4 -22 4 -30 3 -18 4 -9 4 9 3 25 4 9 4 -4 
3 2 4 0 4 -14 3 -27 4 -29 3 -18 4 0 4 -12 
3 -22 4 -7 4 -38 3278 804 300 MP stroke
3 -37 4 -43 4 -43 3 -58 4 -59 4 -52 3 -18 4 -18 
4 -5 3 -4 4 -25 3 -7 4 2 4 30 3 59 4 31 
4 -2 3 -7 4 2 4 34 3 97 4 0 4 95 3 50 
4 11 4 5 3 14 4 4 3 11 4 -6 4 -12 3 0 
4 -9 4 -29 3 -11 4 -10 4 -6 3 -34 4 -41 4 -34 
3 -16 4 -22 4 40 3 -33 4 47 3 -11 4 -7 4 -25 
3 -63 4 -72 4 -55 3 -47 4 -11 4 4 3 -32 4 -90 
4 -36 3 0 4 31 4 34 3 -2 4 -11 3 -43 4 -25 
4 -18 3 -27 4 -14 4 -25 3 -20 4 2 4 5 3 -2 
4 -14 4 -5 3 0 4 0 4 0 3 0 4 0 3 0 
4 0 4 43 3 113 4 0 4 28 3 4 4 9 4 2 
3 7 4 0 4 -4 3 -14 4 -52 4 -79 3 -5 4 37 
3 29 4 0 4 -5 3 -6 4 -34 4 -57 3 -16 4 0 
4 0 3 0 4 0 4 0 3 0 4 0 2877 1492 111 MP stroke
gr

c8
0 sg
2624 1162 mt  -90 rotate
(Speed \(mph\)) s
90 rotate
3473 1780 mt 
(Time \(s\)) s

end %%Color Dict

eplot
%%EndObject

epage
end

showpage

%%Trailer
%%EOF
