%!PS-Adobe-3.0 EPSF-3.0
%%Creator: MATLAB, The MathWorks, Inc. Version 8.0.0.783 (R2012b). Operating System: Microsoft Windows 7.
%%Title: D:\000 Feb_paper\FebDraft\LatexDraft1\4d.eps
%%CreationDate: 05/09/2013  01:25:34
%%DocumentNeededFonts: Helvetica
%%DocumentProcessColors: Cyan Magenta Yellow Black
%%LanguageLevel: 2
%%Pages: 1
%%BoundingBox:    95   320   515   471
%%EndComments

%%BeginProlog
% MathWorks dictionary
/MathWorks 160 dict begin
% definition operators
/bdef {bind def} bind def
/ldef {load def} bind def
/xdef {exch def} bdef
/xstore {exch store} bdef
% operator abbreviations
/c  /clip ldef
/cc /concat ldef
/cp /closepath ldef
/gr /grestore ldef
/gs /gsave ldef
/mt /moveto ldef
/np /newpath ldef
/cm /currentmatrix ldef
/sm /setmatrix ldef
/rm /rmoveto ldef
/rl /rlineto ldef
/s {show newpath} bdef
/sc {setcmykcolor} bdef
/sr /setrgbcolor ldef
/sg /setgray ldef
/w /setlinewidth ldef
/j /setlinejoin ldef
/cap /setlinecap ldef
/rc {rectclip} bdef
/rf {rectfill} bdef
% page state control
/pgsv () def
/bpage {/pgsv save def} bdef
/epage {pgsv restore} bdef
/bplot /gsave ldef
/eplot {stroke grestore} bdef
% orientation switch
/portraitMode 0 def /landscapeMode 1 def /rotateMode 2 def
% coordinate system mappings
/dpi2point 0 def
% font control
/FontSize 0 def
/FMS {/FontSize xstore findfont [FontSize 0 0 FontSize neg 0 0]
  makefont setfont} bdef
/ISOLatin1Encoding where {pop /WindowsLatin1Encoding 256 array bdef
ISOLatin1Encoding WindowsLatin1Encoding copy pop
/.notdef/.notdef/quotesinglbase/florin/quotedblbase/ellipsis/dagger
/daggerdbl/circumflex/perthousand/Scaron/guilsinglleft/OE/.notdef/.notdef
/.notdef/.notdef/quoteleft/quoteright/quotedblleft/quotedblright/bullet
/endash/emdash/tilde/trademark/scaron/guilsinglright/oe/.notdef/.notdef
/Ydieresis WindowsLatin1Encoding 128 32 getinterval astore pop}
{/WindowsLatin1Encoding StandardEncoding bdef} ifelse
/reencode {exch dup where {pop load} {pop StandardEncoding} ifelse
  exch dup 3 1 roll findfont dup length dict begin
  { 1 index /FID ne {def}{pop pop} ifelse } forall
  /Encoding exch def currentdict end definefont pop} bdef
/isroman {findfont /CharStrings get /Agrave known} bdef
/FMSR {3 1 roll 1 index dup isroman {reencode} {pop pop} ifelse
  exch FMS} bdef
/csm {1 dpi2point div -1 dpi2point div scale neg translate
 dup landscapeMode eq {pop -90 rotate}
  {rotateMode eq {90 rotate} if} ifelse} bdef
% line types: solid, dotted, dashed, dotdash
/SO { [] 0 setdash } bdef
/DO { [.5 dpi2point mul 4 dpi2point mul] 0 setdash } bdef
/DA { [6 dpi2point mul] 0 setdash } bdef
/DD { [.5 dpi2point mul 4 dpi2point mul 6 dpi2point mul 4
  dpi2point mul] 0 setdash } bdef
% macros for lines and objects
/L {lineto stroke} bdef
/MP {3 1 roll moveto 1 sub {rlineto} repeat} bdef
/AP {{rlineto} repeat} bdef
/PDlw -1 def
/W {/PDlw currentlinewidth def setlinewidth} def
/PP {closepath eofill} bdef
/DP {closepath stroke} bdef
/MR {4 -2 roll moveto dup  0 exch rlineto exch 0 rlineto
  neg 0 exch rlineto closepath} bdef
/FR {MR stroke} bdef
/PR {MR fill} bdef
/L1i {{currentfile picstr readhexstring pop} image} bdef
/tMatrix matrix def
/MakeOval {newpath tMatrix currentmatrix pop translate scale
0 0 1 0 360 arc tMatrix setmatrix} bdef
/FO {MakeOval stroke} bdef
/PO {MakeOval fill} bdef
/PD {currentlinewidth 2 div 0 360 arc fill
   PDlw -1 eq not {PDlw w /PDlw -1 def} if} def
/FA {newpath tMatrix currentmatrix pop translate scale
  0 0 1 5 -2 roll arc tMatrix setmatrix stroke} bdef
/PA {newpath tMatrix currentmatrix pop	translate 0 0 moveto scale
  0 0 1 5 -2 roll arc closepath tMatrix setmatrix fill} bdef
/FAn {newpath tMatrix currentmatrix pop translate scale
  0 0 1 5 -2 roll arcn tMatrix setmatrix stroke} bdef
/PAn {newpath tMatrix currentmatrix pop translate 0 0 moveto scale
  0 0 1 5 -2 roll arcn closepath tMatrix setmatrix fill} bdef
/vradius 0 def /hradius 0 def /lry 0 def
/lrx 0 def /uly 0 def /ulx 0 def /rad 0 def
/MRR {/vradius xdef /hradius xdef /lry xdef /lrx xdef /uly xdef
  /ulx xdef newpath tMatrix currentmatrix pop ulx hradius add uly
  vradius add translate hradius vradius scale 0 0 1 180 270 arc 
  tMatrix setmatrix lrx hradius sub uly vradius add translate
  hradius vradius scale 0 0 1 270 360 arc tMatrix setmatrix
  lrx hradius sub lry vradius sub translate hradius vradius scale
  0 0 1 0 90 arc tMatrix setmatrix ulx hradius add lry vradius sub
  translate hradius vradius scale 0 0 1 90 180 arc tMatrix setmatrix
  closepath} bdef
/FRR {MRR stroke } bdef
/PRR {MRR fill } bdef
/MlrRR {/lry xdef /lrx xdef /uly xdef /ulx xdef /rad lry uly sub 2 div def
  newpath tMatrix currentmatrix pop ulx rad add uly rad add translate
  rad rad scale 0 0 1 90 270 arc tMatrix setmatrix lrx rad sub lry rad
  sub translate rad rad scale 0 0 1 270 90 arc tMatrix setmatrix
  closepath} bdef
/FlrRR {MlrRR stroke } bdef
/PlrRR {MlrRR fill } bdef
/MtbRR {/lry xdef /lrx xdef /uly xdef /ulx xdef /rad lrx ulx sub 2 div def
  newpath tMatrix currentmatrix pop ulx rad add uly rad add translate
  rad rad scale 0 0 1 180 360 arc tMatrix setmatrix lrx rad sub lry rad
  sub translate rad rad scale 0 0 1 0 180 arc tMatrix setmatrix
  closepath} bdef
/FtbRR {MtbRR stroke } bdef
/PtbRR {MtbRR fill } bdef
/stri 6 array def /dtri 6 array def
/smat 6 array def /dmat 6 array def
/tmat1 6 array def /tmat2 6 array def /dif 3 array def
/asub {/ind2 exch def /ind1 exch def dup dup
  ind1 get exch ind2 get sub exch } bdef
/tri_to_matrix {
  2 0 asub 3 1 asub 4 0 asub 5 1 asub
  dup 0 get exch 1 get 7 -1 roll astore } bdef
/compute_transform {
  dmat dtri tri_to_matrix tmat1 invertmatrix 
  smat stri tri_to_matrix tmat2 concatmatrix } bdef
/ds {stri astore pop} bdef
/dt {dtri astore pop} bdef
/db {2 copy /cols xdef /rows xdef mul dup 3 mul string
  currentfile 
  3 index 0 eq {/ASCIIHexDecode filter}
  {/ASCII85Decode filter 3 index 2 eq {/RunLengthDecode filter} if }
  ifelse exch readstring pop
  dup 0 3 index getinterval /rbmap xdef
  dup 2 index dup getinterval /gbmap xdef
  1 index dup 2 mul exch getinterval /bbmap xdef pop pop}bdef
/it {gs np dtri aload pop moveto lineto lineto cp c
  cols rows 8 compute_transform 
  rbmap gbmap bbmap true 3 colorimage gr}bdef
/il {newpath moveto lineto stroke}bdef
currentdict end def
%%EndProlog

%%BeginSetup
MathWorks begin

0 cap

end
%%EndSetup

%%Page: 1 1
%%BeginPageSetup
%%PageBoundingBox:    95   320   515   471
MathWorks begin
bpage
%%EndPageSetup

%%BeginObject: obj1
bplot

/dpi2point 12 def
portraitMode 1140 5652 csm

    0     0  5049  1809 rc
85 dict begin %Colortable dictionary
/c0 { 0.000000 0.000000 0.000000 sr} bdef
/c1 { 1.000000 1.000000 1.000000 sr} bdef
/c2 { 0.900000 0.000000 0.000000 sr} bdef
/c3 { 0.000000 0.820000 0.000000 sr} bdef
/c4 { 0.000000 0.000000 0.800000 sr} bdef
/c5 { 0.910000 0.820000 0.320000 sr} bdef
/c6 { 1.000000 0.260000 0.820000 sr} bdef
/c7 { 0.000000 0.820000 0.820000 sr} bdef
c0
1 j
1 sg
   0    0 5050 1810 rf
6 w
0 1356 1645 0 0 -1356 656 1492 4 MP
PP
-1645 0 0 1356 1645 0 0 -1356 656 1492 5 MP stroke
4 w
DO
SO
6 w
0 sg
 656  136 mt 2301  136 L
 656 1492 mt 2301 1492 L
2301 1492 mt 2301  136 L
 656 1492 mt  656  136 L
 656 1492 mt 2301 1492 L
 656 1492 mt  656  136 L
 656 1492 mt  656 1475 L
 656  136 mt  656  152 L
%%IncludeResource: font Helvetica
/Helvetica /WindowsLatin1Encoding 120 FMSR

 623 1637 mt 
(0) s
1204 1492 mt 1204 1475 L
1204  136 mt 1204  152 L
1104 1637 mt 
(500) s
1752 1492 mt 1752 1475 L
1752  136 mt 1752  152 L
1619 1637 mt 
(1000) s
2301 1492 mt 2301 1475 L
2301  136 mt 2301  152 L
2168 1637 mt 
(1500) s
 656 1492 mt  672 1492 L
2301 1492 mt 2284 1492 L
 555 1536 mt 
(0) s
 656 1040 mt  672 1040 L
2301 1040 mt 2284 1040 L
 488 1084 mt 
(20) s
 656  588 mt  672  588 L
2301  588 mt 2284  588 L
 488  632 mt 
(40) s
 656  136 mt  672  136 L
2301  136 mt 2284  136 L
 488  180 mt 
(60) s
 656  136 mt 2301  136 L
 656 1492 mt 2301 1492 L
2301 1492 mt 2301  136 L
 656 1492 mt  656  136 L
gs 656 136 1646 1357 rc
/c8 { 0.000000 0.000000 1.000000 sr} bdef
c8
1 0 1 0 1 57 1 61 2 63 1 68 1 68 1 34 
1 22 1 23 1 23 1 24 1 9 1 12 2 13 1 12 
1 9 1 9 1 -7 1 -5 1 -13 1 -23 1 -18 1 -27 
1 -34 2 -38 1 -43 1 -41 1 -74 1 -75 1 -75 1 -34 
1 0 1 0 1 0 2 0 1 0 1 0 1 0 1 0 
1 0 1 0 1 0 1 0 1 0 2 0 1 0 1 0 
1 0 1 0 1 0 1 0 1 0 1 0 1 0 1 0 
2 37 1 74 1 75 1 74 1 75 1 75 1 74 1 75 
1 74 1 23 2 2 1 -2 1 -16 1 -11 1 -18 1 -18 
1 -5 1 -7 1 -2 1 -4 2 -10 1 -6 1 -5 1 -9 
1 -2 1 -11 1 0 1 0 1 0 1 0 1 0 2 11 
1 11 1 0 1 -9 1 -11 1 -14 1 -18 1 -9 1 -18 
1 -34 2 -56 1 -68 1 -68 1 -50 1 -27 1 21 1 22 
1 23 1 -12 1 -45 2 -38 1 -30 1 -22 1 -23 1 -31 
1 -14 1 0 1 0 1 0 1 0 1 -23 2 0 1 0 
1 0 1 0 1 0 1 0 1 0 1 16 1 41 1 34 
2 45 1 45 1 45 1 68 1 57 1 45 1 45 1 11 
1 -4 1 -5 2 -9 1 7 1 14 1 29 1 2 1 0 
1 5 1 4 1 3 1 -5 1 -7 2 -6 1 6 1 7 
1 0 1 -7 1 -11 1 -29 1 -25 1 -36 1 -34 2 -34 
1 -20 1 0 1 -7 1 -5 1 9 1 -2 1 -20 1 -50 
1 -75 1 -67 2 -46 1 -29 1 -5 1 0 1 0 1 0 
1 0 1 0 1 0 1 0 2 0 1 0 1 5 1 75 
1 74 1 75 1 74 1 75 1 74 1 57 2 11 1 12 
1 -12 1 -43 1 -56 1 -75 1 -74 1 -75 1 -74 1 -75 
1 -48 2 0 1 0 1 0 1 0 1 0 1 0 1 0 
1 0 1 0 1 0 2 0 1 0 1 0 1 0 1 0 
1 19 1 74 1 75 1 74 1 75 2 45 1 34 1 56 
1 34 1 46 1 24 1 21 1 11 1 9 1 2 1 7 
2 0 1 2 1 3 1 0 1 0 1 -3 1 -6 1 -5 
1 -9 1 -4 2 -9 1 -10 1 -4 1 2 1 2 1 -11 
1 -16 1 -18 1 -11 1 -18 2 -7 1 -2 1 -2 1 -5 
1 -23 1 -42 1 -48 1 -34 1 -11 1 -27 1 -64 2 -70 
1 -74 1 -45 1 -23 1 -11 1 -3 1 23 1 36 1 36 
1 18 2 46 1 22 1 14 1 2 1 7 1 -5 1 -4 
1 2 1 9 1 9 2 11 1 14 1 11 1 27 1 61 
1 68 1 59 1 20 1 23 1 45 1 41 2 16 1 0 
1 11 1 11 1 7 1830 852 300 MP stroke
1 -9 1 -11 1 -14 1 -7 1 -20 2 -18 1 -18 1 -23 
1 -27 1 -41 1 -33 1 -34 1 -70 1 -75 1 -75 2 -74 
1 -63 1 -28 1 0 1 0 1 0 1 0 1 0 1 0 
1 0 1 0 2 0 1 0 1 0 1 0 1 0 1 0 
1 0 1 0 1 0 1 0 2 0 1 0 1 0 1 0 
1 0 1 0 1 0 1 0 1 0 1 0 2 0 1 23 
1 75 1 74 1 75 1 74 1 75 1 68 1 25 1 9 
1 11 2 9 1 7 1 11 1 9 1 20 1 12 1 2 
1 -2 1 -9 1 -7 2 -5 1 -13 1 -11 1 -18 1 0 
1 0 1 6 1 -4 1 0 1 4 2 -11 1 -16 1 -7 
1 0 1 12 1 45 1 27 1 11 1 7 1 11 1 7 
2 9 1 7 1 5 1 18 1 0 1 0 1 -3 1 -6 
1 -14 1 -27 2 -41 1 -34 1 -22 1 -21 1 -25 1 -31 
1 -25 1 -52 1 -75 1 -74 2 -75 1 -74 1 -46 1 0 
1 0 1 10 1 74 1 75 1 74 1 75 1 74 2 73 
1 43 1 45 1 25 1 11 1 -11 1 -14 1 -9 1 11 
1 0 2 9 1 0 1 -11 1 -4 1 0 1 4 1 5 
1 6 1 0 1 0 2 5 1 7 1 -5 1 -2 1 -2 
1 -5 1 -11 1 -5 1 -4 1 -14 1 -18 2 -20 1 -2 
1 0 1 13 1 30 1 24 1 21 1 7 1 2 1 -7 
2 0 1 7 1 7 1 0 1 2 1 4 1 0 1 0 
1 3 1 6 1 12 2 7 1 6 1 0 1 0 1 -4 
1 4 1 -4 1 -7 1 -11 1 -9 2 13 1 9 1 9 
1 0 1 3 1 9 1 9 1 2 1 2 1 2 2 -4 
1 -14 1 -13 1 -7 1 -14 1 -15 1 -12 1 -4 1 -9 
1 -7 1 -7 2 11 1 19 1 27 1 11 1 14 1 20 
1 2 1 -2 1 -2 1 -3 2 -15 1 -7 1 -14 1 -4 
1 -5 1 -4 1 0 1 -14 1 -23 1 -22 2 -18 1 -14 
1 -13 1 -14 1 -11 1 -18 1 -21 1 0 1 30 1 34 
1 38 2 41 1 34 1 16 1 11 1 16 1 9 1 4 
1 0 1 2 1 7 2 0 1 0 1 0 1 2 1 14 
1 20 1 3 1 6 1 3 1 11 2 11 1 3 1 11 
1 7 1 2 1 0 1 4 1 3 1 -7 1 -9 1 -14 
2 0 1 -22 1 -23 1 -23 1 -33 1 -12 1 -9 1 -2 
1 0 1 0 2 0 1 0 1 0 1 2 1 14 1 2 
1 0 1 0 1 5 1 6 2 3 1 0 1 0 1 -14 
1 -7 1 -11 1 -23 1 -34 1 -40 1 -27 1 -30 2 -27 
1 -25 1 -20 1 -38 1502 1134 300 MP stroke
1 -66 1 -75 1 -74 1 -75 1 -68 1 12 2 22 1 0 
1 34 1 73 1 72 1 70 1 54 1 36 1 57 1 56 
2 46 1 45 1 29 1 16 1 11 1 5 1 2 1 7 
1 0 1 -7 1 -9 2 -7 1 -11 1 -14 1 -22 1 -23 
1 -31 1 -37 1 -43 1 -36 1 -45 2 -45 1 -34 1 -66 
1 -70 1 -74 1 -61 1 0 1 36 1 20 1 34 2 39 
1 63 1 68 1 67 1 68 1 57 1 25 1 20 1 23 
1 -5 1 -13 2 -14 1 9 1 0 1 -23 1 -31 1 -21 
1 -22 1 -39 1 0 1 5 2 -7 1 -41 1 -24 1 -50 
1 -48 1 -61 1 -47 1 -25 1 -43 1 -32 2 0 1 0 
1 0 1 0 1 0 1 0 1 0 1 0 1 0 1 0 
1 0 2 0 1 0 1 46 1 34 1 52 1 65 1 66 
1 65 1 43 1 48 2 65 1 50 1 43 1 11 1 11 
1 0 1 -2 1 -4 1 0 1 -3 2 -2 1 -9 1 -7 
1 -18 1 -27 1 -25 1 -27 1 -32 1 -47 1 -50 1 -29 
2 -34 1 -52 1 -54 1 -75 1 -56 1 -46 1 0 1 0 
1 0 1 0 2 0 1 0 1 0 1 0 1 0 1 0 
1 0 1 0 1 0 1 0 2 0 1 0 1 0 1 0 
1 0 1 0 1 0 1 0 1 0 1 0 1 0 2 68 
1 75 1 74 1 75 1 75 1 74 1 75 1 74 1 21 
1 -12 2 -11 1 -20 1 -32 1 -22 1 -5 1 0 1 0 
1 -2 1 -9 1 -9 1 -9 2 -3 1 -2 1 -18 1 -23 
1 -15 1 -21 1 -13 1 -9 1 -3 1 0 2 3 1 9 
1 2 1 -2 1 -9 1 6 1 3 1 11 1 5 1 0 
2 -5 1 -11 1 0 1 0 1 -23 1 -32 1 -36 1 -70 
1 -74 1 -75 1 -75 2 0 1 0 1 0 1 0 1 0 
1 0 1 0 1 0 1 0 1 0 2 0 1 0 1 0 
1 0 1 0 1 0 1 75 1 75 1 74 1 75 2 74 
1 75 1 75 1 29 1 13 1 0 1 0 1 5 1 9 
1 9 1 -4 2 -5 1 -14 1 0 1 0 1 0 1 0 
1 0 1 -2 1 -9 1 -16 2 -18 1 -22 1 -23 1 -20 
1 -25 1 -29 1 -39 1 -45 1 -48 1 -31 2 -21 1 -24 
1 -46 1 -22 1 -45 1 -52 1 -28 1 0 1 0 1 0 
1 0 2 0 1 23 1 68 1 72 1 70 1 66 1 74 
1 75 1 61 1 68 2 56 1 48 1 43 1 34 1 22 
1 2 1 5 1 4 1 0 1 0 2 5 1 7 1 -7 
1 -2 1 -3 1 5 1 0 1 0 1 0 1 0 1 0 
2 5 1 2 1 2 1174 687 300 MP stroke
1 9 1 0 1 -7 1 7 1 5 1 -3 1 -2 2 2 
1 -11 1 -11 1 -7 1 -27 1 -14 1 -34 1 -54 1 -29 
1 -32 2 -74 1 -75 1 -75 1 -74 1 -75 1 -74 1 -75 
1 -75 1 0 1 0 1 0 2 0 1 0 1 0 1 0 
1 0 1 0 1 0 1 0 1 0 1 0 2 0 1 0 
1 0 1 0 1 0 1 43 1 75 1 75 1 74 1 75 
2 74 1 75 1 74 1 68 1 18 1 12 1 9 1 6 
1 3 1 -3 1 -22 2 -34 1 -43 1 -14 1 -58 1 -75 
1 -74 1 -75 1 -75 1 -74 1 -75 2 -59 1 0 1 0 
1 0 1 0 1 0 1 48 1 75 1 74 1 75 2 56 
1 68 1 63 1 61 1 61 1 75 1 54 1 48 1 13 
1 23 1 20 2 9 1 2 1 -2 1 -7 1 -2 1 0 
1 0 1 0 1 0 1 0 2 -11 1 -18 1 -5 1 7 
1 2 1 -7 1 -2 1 -20 1 -18 1 -16 2 -11 1 -18 
1 -19 1 -42 1 -34 1 -32 1 -34 1 -27 1 -57 1 -61 
1 -70 2 -74 1 -75 1 -74 1 -75 1 -23 1 0 1 0 
1 0 1 0 1 0 2 0 1 0 1 0 1 0 1 0 
1 0 1 0 1 0 1 32 1 75 2 74 1 64 1 38 
1 68 1 34 1 34 1 13 1 23 1 31 1 75 1 61 
2 34 1 22 1 12 1 2 1 20 1 23 1 29 1 32 
1 41 1 34 2 40 1 27 1 25 1 27 1 28 1 24 
1 25 1 21 1 11 1 11 1 9 2 0 1 0 1 2 
1 9 1 3 1 -3 1 3 1 22 1 9 1 0 2 0 
1 23 1 25 1 20 1 16 1 14 1 4 1 0 1 -9 
1 -4 2 -12 1 -20 1 -11 1 -12 1 -11 1 -9 1 -7 
1 -4 1 -3 1 5 1 4 2 3 1 9 1 -7 1 11 
1 9 1 9 1 9 1 7 1 0 1 -2 2 -2 1 -7 
1 2 1 7 1 4 1 9 1 12 1 16 1 6 1 7 
2 2 1 0 1 0 1 0 1 0 1 0 1 5 1 0 
1 -2 1 -7 1 -5 2 -9 1 -4 1 -9 1 -7 1 -5 
1 0 1 7 1 2 1 -2 1 -7 2 -11 1 -20 1 -23 
1 -16 1 -11 1 -9 1 -14 1 -11 1 -9 1 -13 2 -14 
1 -11 1 -5 1 -4 1 0 1 0 1 0 1 0 1 4 
1 2 1 5 2 0 1 -16 1 -18 1 -20 1 -36 1 -32 
1 -36 1 -27 1 -46 1 -24 2 -61 1 -68 1 -73 1 -63 
1 -52 1 -50 1 -31 1 -11 1 -21 1 12 2 38 1 75 
1 29 1 56 1 16 1 -31 1 -9 1 -5 1 -5 1 -6 
1 9 2 13 1 16 846 895 300 MP stroke
1 -13 1 -34 1 -48 1 -54 1 -75 1 -74 1 -75 1 -74 
2 -75 1 -75 1 0 1 0 1 0 1 0 1 0 1 0 
1 0 1 0 2 0 1 0 1 0 1 0 1 0 1 0 
1 0 1 0 1 0 1 0 1 0 2 0 1 0 1 0 
1 0 1 0 1 0 1 0 1 0 1 0 1 0 2 0 
1 0 1 0 1 0 1 0 1 0 1 0 1 0 1 0 
1 50 2 75 1 74 1 75 1 75 1 74 1 75 1 74 
1 75 1 70 1 11 1 5 2 -5 1 -9 1 -13 1 -12 
1 -11 1 -7 1 -2 1 14 1 11 1 2 2 -2 1 -5 
1 -9 1 -11 1 -7 1 9 1 12 1 9 1 -9 1 -3 
2 3 1 2 1 4 1 0 1 -6 1 -7 1 -7 1 -11 
1 -16 1 -25 1 -18 2 -14 1 -9 1 7 1 0 1 -13 
1 -10 1 -2 1 12 1 6 1 -2 2 -11 1 -12 1 0 
1 3 1 2 1 -2 1 -5 1 2 1 9 1 -2 2 -7 
1 -9 1 -22 1 -36 1 -41 1 -47 1 -43 1 0 1 29 
1 43 1 52 2 29 1 3 1 4 1 -4 1 -37 1 -45 
1 -45 1 -25 1 -11 1 -7 2 -7 1 0 1 48 1 63 
1 14 1 11 1 13 1 14 1 9 1 -2 2 -16 1 -23 
1 -58 1 -19 1 -9 1 -58 1 -64 1 -65 1 -61 1 -66 
1 -68 2 0 1 0 1 0 1 0 1 0 1 0 1 0 
1 0 1 0 1 0 2 0 1 0 1 0 1 0 1 0 
1 0 1 0 1 0 1 0 1 0 657 1492 174 MP stroke
gr

c8
0 sg
 406 1162 mt  -90 rotate
(Speed \(mph\)) s
90 rotate
1257 1780 mt 
(Time \(s\)) s
1 sg
0 1356 1644 0 0 -1356 2880 1492 4 MP
PP
-1644 0 0 1356 1644 0 0 -1356 2880 1492 5 MP stroke
4 w
DO
SO
6 w
0 sg
2880  136 mt 4524  136 L
2880 1492 mt 4524 1492 L
4524 1492 mt 4524  136 L
2880 1492 mt 2880  136 L
2880 1492 mt 4524 1492 L
2880 1492 mt 2880  136 L
2880 1492 mt 2880 1475 L
2880  136 mt 2880  152 L
2847 1637 mt 
(0) s
3627 1492 mt 3627 1475 L
3627  136 mt 3627  152 L
3527 1637 mt 
(500) s
4374 1492 mt 4374 1475 L
4374  136 mt 4374  152 L
4241 1637 mt 
(1000) s
2880 1492 mt 2896 1492 L
4524 1492 mt 4507 1492 L
2779 1536 mt 
(0) s
2880 1153 mt 2896 1153 L
4524 1153 mt 4507 1153 L
2712 1197 mt 
(10) s
2880  814 mt 2896  814 L
4524  814 mt 4507  814 L
2712  858 mt 
(20) s
2880  475 mt 2896  475 L
4524  475 mt 4507  475 L
2712  519 mt 
(30) s
2880  136 mt 2896  136 L
4524  136 mt 4507  136 L
2712  180 mt 
(40) s
2880  136 mt 4524  136 L
2880 1492 mt 4524 1492 L
4524 1492 mt 4524  136 L
2880 1492 mt 2880  136 L
gs 2880 136 1645 1357 rc
c8
2 0 1 0 2 0 1 4 2 3 1 2 2 -2 1 -7 
2 0 1 0 2 0 1 0 2 0 1 50 2 70 1 82 
2 89 1 89 2 83 1 81 2 80 1 85 2 92 1 101 
2 102 1 94 2 76 1 48 2 15 1 -12 2 -28 1 -32 
2 -27 1 -13 2 -2 1 5 2 7 1 3 2 -4 1 -12 
2 -18 1 -23 2 -27 1 -30 2 -33 1 -34 2 -35 1 -37 
2 -36 1 -36 2 -35 1 -32 2 -29 1 -26 2 -23 1 -23 
2 -25 1 -30 2 -34 1 -37 2 -37 1 -34 2 -26 1 -18 
2 -10 1 -6 1 -3 2 -5 1 -8 2 -7 1 -4 2 4 
1 15 2 29 1 39 2 47 1 48 2 47 1 42 2 34 
1 27 2 17 1 7 2 -4 1 -13 2 -19 1 -23 2 -26 
1 -25 2 -25 1 -25 2 -25 1 -26 2 -26 1 -25 2 -19 
1 -13 2 -1 1 10 2 19 1 21 2 20 1 14 2 3 
1 -8 2 -17 1 -27 2 -35 1 -42 2 -41 1 -33 2 -17 
1 6 2 35 1 57 2 68 1 71 2 64 1 50 2 37 
1 29 2 26 1 27 2 30 1 32 2 30 1 22 2 12 
1 -1 2 -13 1 -20 2 -25 1 -25 2 -24 1 -23 2 -23 
1 -26 2 -30 1 -36 2 -40 1 -43 2 -46 1 -46 2 -46 
1 -44 2 -43 1 -41 2 -37 1 -33 2 -31 1 -29 2 -27 
1 -27 2 -27 1 -26 2 -23 1 -18 1 -12 2 0 1 0 
2 10 1 15 2 18 1 20 2 20 1 15 2 9 1 -1 
2 -13 1 -22 2 -26 1 -25 2 -20 1 0 2 0 1 0 
2 0 1 0 2 4 1 1 2 -1 1 -1 2 -3 1 0 
2 0 1 0 2 0 1 0 2 7 1 9 2 9 1 10 
2 8 1 5 2 3 1 0 2 -3 1 -5 2 -8 1 -10 
2 -10 1 -8 2 -7 1 0 2 0 1 0 2 0 1 0 
2 0 1 0 2 0 1 0 2 0 1 9 2 11 1 11 
2 8 1 4 2 -4 1 -9 2 -11 1 -11 2 -8 1 0 
2 0 1 0 2 1 1 -1 2 0 1 0 2 0 1 0 
2 0 1 23 2 33 1 43 2 52 1 60 2 67 1 68 
2 65 1 55 2 40 1 21 2 6 1 -5 2 -11 1 -11 
1 -8 2 -5 1 -6 2 -9 1 -14 2 -20 1 -21 2 -15 
1 -3 2 17 1 40 2 55 1 61 2 56 1 41 2 18 
1 1 2 -8 1 -9 2 -2 1 10 2 21 1 23 2 19 
1 11 2 -4 1 -17 2 -27 1 -36 2 -43 1 -45 2 -44 
1 -39 2 -28 1 -12 2 7 1 23 2 37 1 47 2 54 
1 58 2 57 1 54 2 47 1 37 2 25 1 14 2 6 
1 0 2 -3 1 -3 4038 568 300 MP stroke
2 -5 1 -7 2 -11 1 -16 2 -20 1 -25 2 -27 1 -28 
2 -26 1 -24 2 -21 1 -17 2 -14 1 -8 2 -5 1 0 
2 1 1 2 2 2 1 -1 2 1 1 5 2 13 1 24 
2 37 1 45 2 48 1 45 2 35 1 21 2 8 1 -2 
2 -11 1 -16 2 -19 1 -20 2 -19 1 -16 2 -10 1 -4 
2 -1 1 -3 1 -11 2 -23 1 -38 2 -46 1 -44 2 -31 
1 -10 2 19 1 41 2 52 1 54 2 45 1 29 2 14 
1 4 2 -2 1 -3 2 -1 1 1 2 1 1 0 2 -1 
1 -4 2 -6 1 -9 2 -10 1 -13 2 -14 1 -13 2 -11 
1 -5 2 1 1 9 2 16 1 20 2 20 1 19 2 15 
1 12 2 7 1 6 2 2 1 1 2 0 1 0 2 -1 
1 0 2 2 1 2 2 1 1 -1 2 -4 1 -7 2 -9 
1 -10 2 -9 1 -7 2 -3 1 -2 2 -5 1 -11 2 -21 
1 -33 2 -41 1 -47 2 -47 1 -43 2 -35 1 -26 2 -18 
1 -7 2 2 1 13 2 21 1 28 2 31 1 34 2 32 
1 31 2 27 1 22 2 14 1 6 2 0 1 -3 2 -3 
1 0 2 4 1 9 2 10 1 10 1 9 2 6 1 3 
2 0 1 -3 2 -6 1 -8 2 -12 1 -16 2 -21 1 -27 
2 -34 1 -40 2 -43 1 -46 2 -48 1 -47 2 -43 1 -37 
2 -27 1 -14 2 0 1 8 2 8 1 0 2 -16 1 -38 
2 -55 1 -62 2 -64 1 -55 2 -42 1 -29 2 -18 1 -11 
2 -6 1 0 2 0 1 0 2 0 1 0 2 1 1 1 
2 0 1 -1 2 -1 1 0 2 0 1 0 2 0 1 0 
2 4 1 3 2 2 1 -2 2 -7 1 0 2 0 1 0 
2 0 1 43 2 78 1 102 2 113 1 113 2 99 1 77 
2 56 1 38 2 25 1 15 2 9 1 4 2 0 1 -5 
2 -8 1 -12 2 -14 1 -17 2 -19 1 -22 2 -24 1 -26 
2 -26 1 -26 2 -25 1 -23 2 -21 1 -18 2 -13 1 -9 
1 -4 2 -2 1 -4 2 -11 1 -21 2 -34 1 -43 2 -47 
1 -47 2 -40 1 -30 2 -23 1 -18 2 -16 1 -18 2 -22 
1 -24 2 -24 1 -20 2 -16 1 0 2 0 1 0 2 0 
1 0 2 3 1 0 2 0 1 -1 2 -2 1 0 2 0 
1 0 2 0 1 0 2 1 1 0 2 1 1 -1 2 -1 
1 0 2 0 1 0 2 0 1 0 2 5 1 8 2 8 
1 11 2 11 1 11 2 12 1 13 2 13 1 14 2 14 
1 15 2 13 1 12 2 9 1 6 2 3 1 0 2 -3 
1 -6 2 -8 1 -5 2 2 1 17 2 36 1 59 2 73 
1 77 2 72 1 56 3591 944 300 MP stroke
2 33 1 11 2 -5 1 -16 2 -23 1 -24 2 -25 1 -26 
2 -26 1 -25 2 -25 1 -22 2 -18 1 -13 2 -6 1 1 
2 10 1 18 1 24 2 31 1 36 2 39 1 37 2 32 
1 24 2 13 1 4 2 -3 1 -6 2 -8 1 -6 2 -6 
1 -7 2 -9 1 -14 2 -19 1 -23 2 -27 1 -28 2 -29 
1 -29 2 -27 1 -26 2 -23 1 -22 2 -18 1 -16 2 -16 
1 -16 2 -18 1 -20 2 -21 1 -22 2 -22 1 -20 2 -18 
1 -15 2 -13 1 -10 2 -7 1 -5 2 -2 1 0 2 3 
1 4 2 5 1 5 2 2 1 -3 2 -9 1 -17 2 -20 
1 -6 2 0 1 0 2 35 1 49 2 52 1 46 2 29 
1 6 2 -11 1 -18 2 -16 1 -3 2 16 1 34 2 46 
1 55 2 60 1 59 2 54 1 46 2 34 1 17 2 -1 
1 -18 2 -29 1 -37 2 -41 1 -40 2 -33 1 -22 2 -6 
1 17 2 40 1 55 2 56 1 42 1 17 2 -17 1 -42 
2 -49 1 -42 2 -18 1 15 2 42 1 54 2 56 1 43 
2 22 1 2 2 -13 1 -24 2 -29 1 -30 2 -30 1 -26 
2 -23 1 -17 2 -10 1 -6 2 -5 1 -8 2 -13 1 -21 
2 -22 1 -16 2 -2 1 19 2 44 1 62 2 69 1 67 
2 53 1 30 2 9 1 -11 2 -28 1 -43 2 -55 1 -63 
2 -68 1 -67 2 -63 1 -54 2 -48 1 -41 2 -35 1 -32 
2 -29 1 -26 2 -21 1 -17 2 -13 1 0 2 0 1 0 
2 0 1 0 2 4 1 3 2 1 1 -2 2 -6 1 0 
2 0 1 0 2 5 1 38 2 60 1 72 2 70 1 52 
2 19 1 -21 2 -54 1 -70 2 -71 1 -57 2 -32 1 -9 
2 6 1 16 2 19 1 16 2 19 1 27 2 43 1 63 
1 88 2 103 1 106 2 95 1 72 2 39 1 12 2 -8 
1 -20 2 -23 1 -21 2 -15 1 -9 2 -3 1 5 2 13 
1 18 2 20 1 19 2 15 1 7 2 2 1 -2 2 -4 
1 -3 2 -2 1 2 2 7 1 13 2 22 1 29 2 33 
1 32 2 23 1 9 2 -7 1 -20 2 -24 1 -22 2 -11 
1 4 2 16 1 22 2 24 1 18 2 10 1 5 2 3 
1 8 2 16 1 28 2 36 1 39 2 37 1 29 2 17 
1 7 2 -2 1 -9 2 -13 1 -16 2 -17 1 -17 2 -18 
1 -16 2 -16 1 -17 2 -21 1 -31 2 -42 1 -55 2 -59 
1 -53 2 -36 1 -7 2 27 1 53 2 64 1 62 2 46 
1 21 2 -2 1 -16 2 -23 1 -22 2 -15 1 -9 2 -5 
1 -6 2 -7 1 -11 2 -13 1 -12 1 -7 2 1 1 10 
2 18 1 20 2 20 3144 623 300 MP stroke
1 16 2 9 1 2 2 -2 1 -4 2 -5 1 -4 2 -4 
1 -6 2 -11 1 -17 2 -25 1 -33 2 -42 1 -50 2 -61 
1 -67 2 -66 1 -54 2 -29 1 6 2 48 1 80 2 99 
1 102 2 92 1 71 2 52 1 37 2 28 1 23 2 22 
1 19 2 12 1 1 2 -12 1 -29 2 -41 1 -48 2 -49 
1 -44 2 -34 1 -24 2 -9 1 4 2 21 1 37 2 47 
1 50 2 44 1 33 2 14 1 1 2 -6 1 -7 2 -2 
1 7 2 14 1 14 2 9 1 -2 2 -16 1 -24 2 -24 
1 -18 2 -2 1 17 2 30 1 35 2 29 1 15 2 -7 
1 -25 2 -39 1 -47 2 -51 1 -49 2 -44 1 -36 2 -26 
1 -13 2 2 1 14 2 22 1 24 1 22 2 17 1 9 
2 1 1 -8 2 -19 1 -29 2 -41 1 -51 2 -61 1 -71 
2 -79 1 -85 2 -87 1 -87 2 -83 1 -74 2 -58 1 -30 
2 5 1 52 2 102 1 136 2 148 1 138 2 108 1 59 
2 13 1 -27 2 -61 1 -90 2 -109 1 -120 2 -117 1 -103 
2 -77 1 -42 2 -8 1 24 2 53 1 78 2 100 1 112 
2 116 1 108 2 91 1 66 2 44 1 25 2 11 1 1 
2 -5 1 -8 2 -10 1 -11 2 -8 1 -5 2 -1 1 0 
2 3 1 3 2 3 1 -4 2 -15 1 -33 2 -56 1 -82 
2 -94 1 -89 2 -67 1 -26 2 24 1 59 2 73 1 64 
2 32 1 -14 2 -53 1 -77 2 -88 1 -84 2 -67 1 -52 
2 -40 1 -29 2 -22 1 -18 2 -17 1 -18 2 -23 1 -30 
2881 1492 177 MP stroke
gr

c8
0 sg
2630 1162 mt  -90 rotate
(Speed \(mph\)) s
90 rotate
3481 1780 mt 
(Time \(s\)) s

end %%Color Dict

eplot
%%EndObject

epage
end

showpage

%%Trailer
%%EOF
