%!PS-Adobe-3.0 EPSF-3.0
%%Creator: (MATLAB, The Mathworks, Inc. Version 8.4.0.150421 \(R2014b\). Operating System: Mac OS X)
%%Title: /Users/jaszhang/ieee1/paper/_images/acc1_2.eps
%%CreationDate: 2017-01-30T23:07:59
%%Pages: (atend)
%%BoundingBox: 0 0 756 549
%%LanguageLevel: 2
%%EndComments
%%BeginProlog
%%BeginResource: procset (Apache XML Graphics Std ProcSet) 1.2 0
%%Version: 1.2 0
%%Copyright: (Copyright 2001-2003,2010 The Apache Software Foundation. License terms: http://www.apache.org/licenses/LICENSE-2.0)
/bd{bind def}bind def
/ld{load def}bd
/GR/grestore ld
/M/moveto ld
/LJ/setlinejoin ld
/C/curveto ld
/f/fill ld
/LW/setlinewidth ld
/GC/setgray ld
/t/show ld
/N/newpath ld
/CT/concat ld
/cp/closepath ld
/S/stroke ld
/L/lineto ld
/CC/setcmykcolor ld
/A/ashow ld
/GS/gsave ld
/RC/setrgbcolor ld
/RM/rmoveto ld
/ML/setmiterlimit ld
/re {4 2 roll M
1 index 0 rlineto
0 exch rlineto
neg 0 rlineto
cp } bd
/_ctm matrix def
/_tm matrix def
/BT { _ctm currentmatrix pop matrix _tm copy pop 0 0 moveto } bd
/ET { _ctm setmatrix } bd
/iTm { _ctm setmatrix _tm concat } bd
/Tm { _tm astore pop iTm 0 0 moveto } bd
/ux 0.0 def
/uy 0.0 def
/F {
  /Tp exch def
  /Tf exch def
  Tf findfont Tp scalefont setfont
  /cf Tf def  /cs Tp def
} bd
/ULS {currentpoint /uy exch def /ux exch def} bd
/ULE {
  /Tcx currentpoint pop def
  gsave
  newpath
  cf findfont cs scalefont dup
  /FontMatrix get 0 get /Ts exch def /FontInfo get dup
  /UnderlinePosition get Ts mul /To exch def
  /UnderlineThickness get Ts mul /Tt exch def
  ux uy To add moveto  Tcx uy To add lineto
  Tt setlinewidth stroke
  grestore
} bd
/OLE {
  /Tcx currentpoint pop def
  gsave
  newpath
  cf findfont cs scalefont dup
  /FontMatrix get 0 get /Ts exch def /FontInfo get dup
  /UnderlinePosition get Ts mul /To exch def
  /UnderlineThickness get Ts mul /Tt exch def
  ux uy To add cs add moveto Tcx uy To add cs add lineto
  Tt setlinewidth stroke
  grestore
} bd
/SOE {
  /Tcx currentpoint pop def
  gsave
  newpath
  cf findfont cs scalefont dup
  /FontMatrix get 0 get /Ts exch def /FontInfo get dup
  /UnderlinePosition get Ts mul /To exch def
  /UnderlineThickness get Ts mul /Tt exch def
  ux uy To add cs 10 mul 26 idiv add moveto Tcx uy To add cs 10 mul 26 idiv add lineto
  Tt setlinewidth stroke
  grestore
} bd
/QT {
/Y22 exch store
/X22 exch store
/Y21 exch store
/X21 exch store
currentpoint
/Y21 load 2 mul add 3 div exch
/X21 load 2 mul add 3 div exch
/X21 load 2 mul /X22 load add 3 div
/Y21 load 2 mul /Y22 load add 3 div
/X22 load /Y22 load curveto
} bd
/SSPD {
dup length /d exch dict def
{
/v exch def
/k exch def
currentpagedevice k known {
/cpdv currentpagedevice k get def
v cpdv ne {
/upd false def
/nullv v type /nulltype eq def
/nullcpdv cpdv type /nulltype eq def
nullv nullcpdv or
{
/upd true def
} {
/sametype v type cpdv type eq def
sametype {
v type /arraytype eq {
/vlen v length def
/cpdvlen cpdv length def
vlen cpdvlen eq {
0 1 vlen 1 sub {
/i exch def
/obj v i get def
/cpdobj cpdv i get def
obj cpdobj ne {
/upd true def
exit
} if
} for
} {
/upd true def
} ifelse
} {
v type /dicttype eq {
v {
/dv exch def
/dk exch def
/cpddv cpdv dk get def
dv cpddv ne {
/upd true def
exit
} if
} forall
} {
/upd true def
} ifelse
} ifelse
} if
} ifelse
upd true eq {
d k v put
} if
} if
} if
} forall
d length 0 gt {
d setpagedevice
} if
} bd
%%EndResource
%%BeginResource: procset (Apache XML Graphics EPS ProcSet) 1.0 0
%%Version: 1.0 0
%%Copyright: (Copyright 2002-2003 The Apache Software Foundation. License terms: http://www.apache.org/licenses/LICENSE-2.0)
/BeginEPSF { %def
/b4_Inc_state save def         % Save state for cleanup
/dict_count countdictstack def % Count objects on dict stack
/op_count count 1 sub def      % Count objects on operand stack
userdict begin                 % Push userdict on dict stack
/showpage { } def              % Redefine showpage, { } = null proc
0 setgray 0 setlinecap         % Prepare graphics state
1 setlinewidth 0 setlinejoin
10 setmiterlimit [ ] 0 setdash newpath
/languagelevel where           % If level not equal to 1 then
{pop languagelevel             % set strokeadjust and
1 ne                           % overprint to their defaults.
{false setstrokeadjust false setoverprint
} if
} if
} bd
/EndEPSF { %def
count op_count sub {pop} repeat            % Clean up stacks
countdictstack dict_count sub {end} repeat
b4_Inc_state restore
} bd
%%EndResource
%FOPBeginFontDict
%%IncludeResource: font Courier-Bold
%%IncludeResource: font Helvetica
%%IncludeResource: font Courier-BoldOblique
%%IncludeResource: font Courier-Oblique
%%IncludeResource: font Times-Roman
%%IncludeResource: font Helvetica-BoldOblique
%%IncludeResource: font Helvetica-Bold
%%IncludeResource: font Helvetica-Oblique
%%IncludeResource: font Times-BoldItalic
%%IncludeResource: font Courier
%%IncludeResource: font Times-Italic
%%IncludeResource: font Times-Bold
%%IncludeResource: font Symbol
%%IncludeResource: font ZapfDingbats
%FOPEndFontDict
%%BeginResource: encoding WinAnsiEncoding
/WinAnsiEncoding [
/.notdef /.notdef /.notdef /.notdef /.notdef
/.notdef /.notdef /.notdef /.notdef /.notdef
/.notdef /.notdef /.notdef /.notdef /.notdef
/.notdef /.notdef /.notdef /.notdef /.notdef
/.notdef /.notdef /.notdef /.notdef /.notdef
/.notdef /.notdef /.notdef /.notdef /.notdef
/.notdef /.notdef /space /exclam /quotedbl
/numbersign /dollar /percent /ampersand /quotesingle
/parenleft /parenright /asterisk /plus /comma
/hyphen /period /slash /zero /one
/two /three /four /five /six
/seven /eight /nine /colon /semicolon
/less /equal /greater /question /at
/A /B /C /D /E
/F /G /H /I /J
/K /L /M /N /O
/P /Q /R /S /T
/U /V /W /X /Y
/Z /bracketleft /backslash /bracketright /asciicircum
/underscore /quoteleft /a /b /c
/d /e /f /g /h
/i /j /k /l /m
/n /o /p /q /r
/s /t /u /v /w
/x /y /z /braceleft /bar
/braceright /asciitilde /bullet /Euro /bullet
/quotesinglbase /florin /quotedblbase /ellipsis /dagger
/daggerdbl /circumflex /perthousand /Scaron /guilsinglleft
/OE /bullet /Zcaron /bullet /bullet
/quoteleft /quoteright /quotedblleft /quotedblright /bullet
/endash /emdash /asciitilde /trademark /scaron
/guilsinglright /oe /bullet /zcaron /Ydieresis
/space /exclamdown /cent /sterling /currency
/yen /brokenbar /section /dieresis /copyright
/ordfeminine /guillemotleft /logicalnot /sfthyphen /registered
/macron /degree /plusminus /twosuperior /threesuperior
/acute /mu /paragraph /middot /cedilla
/onesuperior /ordmasculine /guillemotright /onequarter /onehalf
/threequarters /questiondown /Agrave /Aacute /Acircumflex
/Atilde /Adieresis /Aring /AE /Ccedilla
/Egrave /Eacute /Ecircumflex /Edieresis /Igrave
/Iacute /Icircumflex /Idieresis /Eth /Ntilde
/Ograve /Oacute /Ocircumflex /Otilde /Odieresis
/multiply /Oslash /Ugrave /Uacute /Ucircumflex
/Udieresis /Yacute /Thorn /germandbls /agrave
/aacute /acircumflex /atilde /adieresis /aring
/ae /ccedilla /egrave /eacute /ecircumflex
/edieresis /igrave /iacute /icircumflex /idieresis
/eth /ntilde /ograve /oacute /ocircumflex
/otilde /odieresis /divide /oslash /ugrave
/uacute /ucircumflex /udieresis /yacute /thorn
/ydieresis
] def
%%EndResource
%FOPBeginFontReencode
/Courier-Bold findfont
dup length dict begin
  {1 index /FID ne {def} {pop pop} ifelse} forall
  /Encoding WinAnsiEncoding def
  currentdict
end
/Courier-Bold exch definefont pop
/Helvetica findfont
dup length dict begin
  {1 index /FID ne {def} {pop pop} ifelse} forall
  /Encoding WinAnsiEncoding def
  currentdict
end
/Helvetica exch definefont pop
/Courier-BoldOblique findfont
dup length dict begin
  {1 index /FID ne {def} {pop pop} ifelse} forall
  /Encoding WinAnsiEncoding def
  currentdict
end
/Courier-BoldOblique exch definefont pop
/Courier-Oblique findfont
dup length dict begin
  {1 index /FID ne {def} {pop pop} ifelse} forall
  /Encoding WinAnsiEncoding def
  currentdict
end
/Courier-Oblique exch definefont pop
/Times-Roman findfont
dup length dict begin
  {1 index /FID ne {def} {pop pop} ifelse} forall
  /Encoding WinAnsiEncoding def
  currentdict
end
/Times-Roman exch definefont pop
/Helvetica-BoldOblique findfont
dup length dict begin
  {1 index /FID ne {def} {pop pop} ifelse} forall
  /Encoding WinAnsiEncoding def
  currentdict
end
/Helvetica-BoldOblique exch definefont pop
/Helvetica-Bold findfont
dup length dict begin
  {1 index /FID ne {def} {pop pop} ifelse} forall
  /Encoding WinAnsiEncoding def
  currentdict
end
/Helvetica-Bold exch definefont pop
/Helvetica-Oblique findfont
dup length dict begin
  {1 index /FID ne {def} {pop pop} ifelse} forall
  /Encoding WinAnsiEncoding def
  currentdict
end
/Helvetica-Oblique exch definefont pop
/Times-BoldItalic findfont
dup length dict begin
  {1 index /FID ne {def} {pop pop} ifelse} forall
  /Encoding WinAnsiEncoding def
  currentdict
end
/Times-BoldItalic exch definefont pop
/Courier findfont
dup length dict begin
  {1 index /FID ne {def} {pop pop} ifelse} forall
  /Encoding WinAnsiEncoding def
  currentdict
end
/Courier exch definefont pop
/Times-Italic findfont
dup length dict begin
  {1 index /FID ne {def} {pop pop} ifelse} forall
  /Encoding WinAnsiEncoding def
  currentdict
end
/Times-Italic exch definefont pop
/Times-Bold findfont
dup length dict begin
  {1 index /FID ne {def} {pop pop} ifelse} forall
  /Encoding WinAnsiEncoding def
  currentdict
end
/Times-Bold exch definefont pop
%FOPEndFontReencode
%%EndProlog
%%Page: 1 1
%%PageBoundingBox: 0 0 756 549
%%BeginPageSetup
[1 0 0 -1 0 549] CT
%%EndPageSetup
GS
1 GC
N
0 0 756 549 re
f
GR
GS
1 GC
N
0 0 756 549 re
f
GR
GS
1 GC
N
98 489 M
684 489 L
684 41 L
98 41 L
cp
f
GR
GS
0.873 GC
2 setlinecap
10.0 ML
N
98 489 M
98 41 L
S
GR
GS
0.873 GC
2 setlinecap
10.0 ML
N
195.667 489 M
195.667 41 L
S
GR
GS
0.873 GC
2 setlinecap
10.0 ML
N
293.333 489 M
293.333 41 L
S
GR
GS
0.873 GC
2 setlinecap
10.0 ML
N
391 489 M
391 41 L
S
GR
GS
0.873 GC
2 setlinecap
10.0 ML
N
488.667 489 M
488.667 41 L
S
GR
GS
0.873 GC
2 setlinecap
10.0 ML
N
586.333 489 M
586.333 41 L
S
GR
GS
0.873 GC
2 setlinecap
10.0 ML
N
684 489 M
684 41 L
S
GR
GS
0.873 GC
2 setlinecap
10.0 ML
N
684 489 M
98 489 L
S
GR
GS
0.873 GC
2 setlinecap
10.0 ML
N
684 414.333 M
98 414.333 L
S
GR
GS
0.873 GC
2 setlinecap
10.0 ML
N
684 339.667 M
98 339.667 L
S
GR
GS
0.873 GC
2 setlinecap
10.0 ML
N
684 265 M
98 265 L
S
GR
GS
0.873 GC
2 setlinecap
10.0 ML
N
684 190.333 M
98 190.333 L
S
GR
GS
0.873 GC
2 setlinecap
10.0 ML
N
684 115.667 M
98 115.667 L
S
GR
GS
0.873 GC
2 setlinecap
10.0 ML
N
684 41 M
98 41 L
S
GR
GS
[1 0 0 1 391 515] CT
0.149 GC
/Helvetica 22 F
GS
[1 0 0 1 0 0] CT
-89.241 16.94 moveto 
1 -1 scale
(Sampling Time \(s\)) t 
GR
GR
GS
0.149 GC
2 setlinecap
10.0 ML
N
98 489 M
684 489 L
S
GR
GS
0.149 GC
2 setlinecap
10.0 ML
N
98 41 M
684 41 L
S
GR
GS
0.149 GC
2 setlinecap
10.0 ML
N
98 489 M
98 483.14 L
S
GR
GS
0.149 GC
2 setlinecap
10.0 ML
N
98 41 M
98 46.86 L
S
GR
GS
0.149 GC
2 setlinecap
10.0 ML
N
195.667 489 M
195.667 483.14 L
S
GR
GS
0.149 GC
2 setlinecap
10.0 ML
N
195.667 41 M
195.667 46.86 L
S
GR
GS
0.149 GC
2 setlinecap
10.0 ML
N
293.333 489 M
293.333 483.14 L
S
GR
GS
0.149 GC
2 setlinecap
10.0 ML
N
293.333 41 M
293.333 46.86 L
S
GR
GS
0.149 GC
2 setlinecap
10.0 ML
N
391 489 M
391 483.14 L
S
GR
GS
0.149 GC
2 setlinecap
10.0 ML
N
391 41 M
391 46.86 L
S
GR
GS
0.149 GC
2 setlinecap
10.0 ML
N
488.667 489 M
488.667 483.14 L
S
GR
GS
0.149 GC
2 setlinecap
10.0 ML
N
488.667 41 M
488.667 46.86 L
S
GR
GS
0.149 GC
2 setlinecap
10.0 ML
N
586.333 489 M
586.333 483.14 L
S
GR
GS
0.149 GC
2 setlinecap
10.0 ML
N
586.333 41 M
586.333 46.86 L
S
GR
GS
0.149 GC
2 setlinecap
10.0 ML
N
684 489 M
684 483.14 L
S
GR
GS
0.149 GC
2 setlinecap
10.0 ML
N
684 41 M
684 46.86 L
S
GR
GS
[1 0 0 1 98 495] CT
0.149 GC
/Helvetica 20 F
GS
[1 0 0 1 0 0] CT
-11.123 15.4 moveto 
1 -1 scale
(60) t 
GR
GR
GS
[1 0 0 1 195.66667 495] CT
0.149 GC
/Helvetica 20 F
GS
[1 0 0 1 0 0] CT
-11.123 15.4 moveto 
1 -1 scale
(80) t 
GR
GR
GS
[1 0 0 1 293.33334 495] CT
0.149 GC
/Helvetica 20 F
GS
[1 0 0 1 0 0] CT
-16.685 15.4 moveto 
1 -1 scale
(100) t 
GR
GR
GS
[1 0 0 1 391 495] CT
0.149 GC
/Helvetica 20 F
GS
[1 0 0 1 0 0] CT
-16.685 15.4 moveto 
1 -1 scale
(120) t 
GR
GR
GS
[1 0 0 1 488.66666 495] CT
0.149 GC
/Helvetica 20 F
GS
[1 0 0 1 0 0] CT
-16.685 15.4 moveto 
1 -1 scale
(140) t 
GR
GR
GS
[1 0 0 1 586.33331 495] CT
0.149 GC
/Helvetica 20 F
GS
[1 0 0 1 0 0] CT
-16.685 15.4 moveto 
1 -1 scale
(160) t 
GR
GR
GS
[1 0 0 1 684 495] CT
0.149 GC
/Helvetica 20 F
GS
[1 0 0 1 0 0] CT
-16.685 15.4 moveto 
1 -1 scale
(180) t 
GR
GR
GS
[0 -1 1 0 66.75391 265] CT
0.149 GC
/Helvetica 22 F
GS
[1 0 0 1 0 0] CT
-44.607 -4.06 moveto 
1 -1 scale
(Error \(%\)) t 
GR
GR
GS
0.149 GC
2 setlinecap
10.0 ML
N
98 489 M
98 41 L
S
GR
GS
0.149 GC
2 setlinecap
10.0 ML
N
684 489 M
684 41 L
S
GR
GS
0.149 GC
2 setlinecap
10.0 ML
N
98 489 M
103.86 489 L
S
GR
GS
0.149 GC
2 setlinecap
10.0 ML
N
684 489 M
678.14 489 L
S
GR
GS
0.149 GC
2 setlinecap
10.0 ML
N
98 414.333 M
103.86 414.333 L
S
GR
GS
0.149 GC
2 setlinecap
10.0 ML
N
684 414.333 M
678.14 414.333 L
S
GR
GS
0.149 GC
2 setlinecap
10.0 ML
N
98 339.667 M
103.86 339.667 L
S
GR
GS
0.149 GC
2 setlinecap
10.0 ML
N
684 339.667 M
678.14 339.667 L
S
GR
GS
0.149 GC
2 setlinecap
10.0 ML
N
98 265 M
103.86 265 L
S
GR
GS
0.149 GC
2 setlinecap
10.0 ML
N
684 265 M
678.14 265 L
S
GR
GS
0.149 GC
2 setlinecap
10.0 ML
N
98 190.333 M
103.86 190.333 L
S
GR
GS
0.149 GC
2 setlinecap
10.0 ML
N
684 190.333 M
678.14 190.333 L
S
GR
GS
0.149 GC
2 setlinecap
10.0 ML
N
98 115.667 M
103.86 115.667 L
S
GR
GS
0.149 GC
2 setlinecap
10.0 ML
N
684 115.667 M
678.14 115.667 L
S
GR
GS
0.149 GC
2 setlinecap
10.0 ML
N
98 41 M
103.86 41 L
S
GR
GS
0.149 GC
2 setlinecap
10.0 ML
N
684 41 M
678.14 41 L
S
GR
GS
[1 0 0 1 92 489] CT
0.149 GC
/Helvetica 20 F
GS
[1 0 0 1 0 0] CT
-11.123 5.9 moveto 
1 -1 scale
(0) t 
GR
GR
GS
[1 0 0 1 92 414.33334] CT
0.149 GC
/Helvetica 20 F
GS
[1 0 0 1 0 0] CT
-11.123 5.9 moveto 
1 -1 scale
(5) t 
GR
GR
GS
[1 0 0 1 92 339.66666] CT
0.149 GC
/Helvetica 20 F
GS
[1 0 0 1 0 0] CT
-22.246 5.9 moveto 
1 -1 scale
(10) t 
GR
GR
GS
[1 0 0 1 92 265] CT
0.149 GC
/Helvetica 20 F
GS
[1 0 0 1 0 0] CT
-22.246 5.9 moveto 
1 -1 scale
(15) t 
GR
GR
GS
[1 0 0 1 92 190.33333] CT
0.149 GC
/Helvetica 20 F
GS
[1 0 0 1 0 0] CT
-22.246 5.9 moveto 
1 -1 scale
(20) t 
GR
GR
GS
[1 0 0 1 92 115.66666] CT
0.149 GC
/Helvetica 20 F
GS
[1 0 0 1 0 0] CT
-22.246 5.9 moveto 
1 -1 scale
(25) t 
GR
GR
GS
[1 0 0 1 92 41] CT
0.149 GC
/Helvetica 20 F
GS
[1 0 0 1 0 0] CT
-22.246 5.9 moveto 
1 -1 scale
(30) t 
GR
GR
GS
1 0 0 RC
2 setlinecap
10.0 ML
N
98 293.994 M
98 214.054 L
S
GR
GS
1 0 0 RC
2 setlinecap
10.0 ML
N
146.833 363.294 M
146.833 240.178 L
S
GR
GS
1 0 0 RC
2 setlinecap
10.0 ML
N
195.667 360.584 M
195.667 279.923 L
S
GR
GS
1 0 0 RC
2 setlinecap
10.0 ML
N
244.5 377.159 M
244.5 257.225 L
S
GR
GS
1 0 0 RC
2 setlinecap
10.0 ML
N
293.333 428.088 M
293.333 390.126 L
S
GR
GS
1 0 0 RC
2 setlinecap
10.0 ML
N
342.167 447.99 M
342.167 400.986 L
S
GR
GS
1 0 0 RC
2 setlinecap
10.0 ML
N
391 435.647 M
391 391.527 L
S
GR
GS
1 0 0 RC
2 setlinecap
10.0 ML
N
439.833 441.815 M
439.833 390.286 L
S
GR
GS
1 0 0 RC
2 setlinecap
10.0 ML
N
488.667 458.169 M
488.667 414.999 L
S
GR
GS
1 0 0 RC
2 setlinecap
10.0 ML
N
537.5 463.294 M
537.5 437.949 L
S
GR
GS
1 0 0 RC
2 setlinecap
10.0 ML
N
586.333 467.981 M
586.333 454.915 L
S
GR
GS
1 0 0 RC
2 setlinecap
10.0 ML
N
635.167 474.633 M
635.167 466.631 L
S
GR
GS
1 0 0 RC
2 setlinecap
10.0 ML
N
684 473.882 M
684 468.577 L
S
GR
GS
1 0 0 RC
2 setlinecap
10.0 ML
N
97.941 293.994 M
103.86 293.994 L
S
GR
GS
1 0 0 RC
2 setlinecap
10.0 ML
N
140.973 363.294 M
152.693 363.294 L
S
GR
GS
1 0 0 RC
2 setlinecap
10.0 ML
N
189.807 360.584 M
201.527 360.584 L
S
GR
GS
1 0 0 RC
2 setlinecap
10.0 ML
N
238.64 377.159 M
250.36 377.159 L
S
GR
GS
1 0 0 RC
2 setlinecap
10.0 ML
N
287.473 428.088 M
299.193 428.088 L
S
GR
GS
1 0 0 RC
2 setlinecap
10.0 ML
N
336.307 447.99 M
348.027 447.99 L
S
GR
GS
1 0 0 RC
2 setlinecap
10.0 ML
N
385.14 435.647 M
396.86 435.647 L
S
GR
GS
1 0 0 RC
2 setlinecap
10.0 ML
N
433.973 441.815 M
445.693 441.815 L
S
GR
GS
1 0 0 RC
2 setlinecap
10.0 ML
N
482.807 458.169 M
494.527 458.169 L
S
GR
GS
1 0 0 RC
2 setlinecap
10.0 ML
N
531.64 463.294 M
543.36 463.294 L
S
GR
GS
1 0 0 RC
2 setlinecap
10.0 ML
N
580.473 467.981 M
592.193 467.981 L
S
GR
GS
1 0 0 RC
2 setlinecap
10.0 ML
N
629.307 474.633 M
641.027 474.633 L
S
GR
GS
1 0 0 RC
2 setlinecap
10.0 ML
N
678.14 473.882 M
684.059 473.882 L
S
GR
GS
1 0 0 RC
2 setlinecap
10.0 ML
N
97.941 214.054 M
103.86 214.054 L
S
GR
GS
1 0 0 RC
2 setlinecap
10.0 ML
N
140.973 240.178 M
152.693 240.178 L
S
GR
GS
1 0 0 RC
2 setlinecap
10.0 ML
N
189.807 279.923 M
201.527 279.923 L
S
GR
GS
1 0 0 RC
2 setlinecap
10.0 ML
N
238.64 257.225 M
250.36 257.225 L
S
GR
GS
1 0 0 RC
2 setlinecap
10.0 ML
N
287.473 390.126 M
299.193 390.126 L
S
GR
GS
1 0 0 RC
2 setlinecap
10.0 ML
N
336.307 400.986 M
348.027 400.986 L
S
GR
GS
1 0 0 RC
2 setlinecap
10.0 ML
N
385.14 391.527 M
396.86 391.527 L
S
GR
GS
1 0 0 RC
2 setlinecap
10.0 ML
N
433.973 390.286 M
445.693 390.286 L
S
GR
GS
1 0 0 RC
2 setlinecap
10.0 ML
N
482.807 414.999 M
494.527 414.999 L
S
GR
GS
1 0 0 RC
2 setlinecap
10.0 ML
N
531.64 437.949 M
543.36 437.949 L
S
GR
GS
1 0 0 RC
2 setlinecap
10.0 ML
N
580.473 454.915 M
592.193 454.915 L
S
GR
GS
1 0 0 RC
2 setlinecap
10.0 ML
N
629.307 466.631 M
641.027 466.631 L
S
GR
GS
1 0 0 RC
2 setlinecap
10.0 ML
N
678.14 468.577 M
684.059 468.577 L
S
GR
GS
1 0 0 RC
2 setlinecap
10.0 ML
N
98 254.024 M
146.833 301.736 L
195.667 320.253 L
244.5 317.192 L
293.333 409.107 L
342.167 424.488 L
391 413.587 L
439.833 416.051 L
488.667 436.584 L
537.5 450.621 L
586.333 461.448 L
635.167 470.632 L
684 471.229 L
S
GR
GS
1 0 0 RC
2 setlinecap
10.0 ML
N
95 254.5 M
102 254.5 L
S
GR
GS
1 0 0 RC
2 setlinecap
10.0 ML
N
98.5 258 M
98.5 251 L
S
GR
GS
1 0 0 RC
2 setlinecap
10.0 ML
N
96 257 M
101 252 L
S
GR
GS
1 0 0 RC
2 setlinecap
10.0 ML
N
96 252 M
101 257 L
S
GR
GS
1 0 0 RC
2 setlinecap
10.0 ML
N
143 301.5 M
150 301.5 L
S
GR
GS
1 0 0 RC
2 setlinecap
10.0 ML
N
146.5 305 M
146.5 298 L
S
GR
GS
1 0 0 RC
2 setlinecap
10.0 ML
N
144 304 M
149 299 L
S
GR
GS
1 0 0 RC
2 setlinecap
10.0 ML
N
144 299 M
149 304 L
S
GR
GS
1 0 0 RC
2 setlinecap
10.0 ML
N
192 320.5 M
199 320.5 L
S
GR
GS
1 0 0 RC
2 setlinecap
10.0 ML
N
195.5 324 M
195.5 317 L
S
GR
GS
1 0 0 RC
2 setlinecap
10.0 ML
N
193 323 M
198 318 L
S
GR
GS
1 0 0 RC
2 setlinecap
10.0 ML
N
193 318 M
198 323 L
S
GR
GS
1 0 0 RC
2 setlinecap
10.0 ML
N
241 317.5 M
248 317.5 L
S
GR
GS
1 0 0 RC
2 setlinecap
10.0 ML
N
244.5 321 M
244.5 314 L
S
GR
GS
1 0 0 RC
2 setlinecap
10.0 ML
N
242 320 M
247 315 L
S
GR
GS
1 0 0 RC
2 setlinecap
10.0 ML
N
242 315 M
247 320 L
S
GR
GS
1 0 0 RC
2 setlinecap
10.0 ML
N
290 409.5 M
297 409.5 L
S
GR
GS
1 0 0 RC
2 setlinecap
10.0 ML
N
293.5 413 M
293.5 406 L
S
GR
GS
1 0 0 RC
2 setlinecap
10.0 ML
N
291 412 M
296 407 L
S
GR
GS
1 0 0 RC
2 setlinecap
10.0 ML
N
291 407 M
296 412 L
S
GR
GS
1 0 0 RC
2 setlinecap
10.0 ML
N
339 424.5 M
346 424.5 L
S
GR
GS
1 0 0 RC
2 setlinecap
10.0 ML
N
342.5 428 M
342.5 421 L
S
GR
GS
1 0 0 RC
2 setlinecap
10.0 ML
N
340 427 M
345 422 L
S
GR
GS
1 0 0 RC
2 setlinecap
10.0 ML
N
340 422 M
345 427 L
S
GR
GS
1 0 0 RC
2 setlinecap
10.0 ML
N
388 413.5 M
395 413.5 L
S
GR
GS
1 0 0 RC
2 setlinecap
10.0 ML
N
391.5 417 M
391.5 410 L
S
GR
GS
1 0 0 RC
2 setlinecap
10.0 ML
N
389 416 M
394 411 L
S
GR
GS
1 0 0 RC
2 setlinecap
10.0 ML
N
389 411 M
394 416 L
S
GR
GS
1 0 0 RC
2 setlinecap
10.0 ML
N
436 416.5 M
443 416.5 L
S
GR
GS
1 0 0 RC
2 setlinecap
10.0 ML
N
439.5 420 M
439.5 413 L
S
GR
GS
1 0 0 RC
2 setlinecap
10.0 ML
N
437 419 M
442 414 L
S
GR
GS
1 0 0 RC
2 setlinecap
10.0 ML
N
437 414 M
442 419 L
S
GR
GS
1 0 0 RC
2 setlinecap
10.0 ML
N
485 436.5 M
492 436.5 L
S
GR
GS
1 0 0 RC
2 setlinecap
10.0 ML
N
488.5 440 M
488.5 433 L
S
GR
GS
1 0 0 RC
2 setlinecap
10.0 ML
N
486 439 M
491 434 L
S
GR
GS
1 0 0 RC
2 setlinecap
10.0 ML
N
486 434 M
491 439 L
S
GR
GS
1 0 0 RC
2 setlinecap
10.0 ML
N
534 450.5 M
541 450.5 L
S
GR
GS
1 0 0 RC
2 setlinecap
10.0 ML
N
537.5 454 M
537.5 447 L
S
GR
GS
1 0 0 RC
2 setlinecap
10.0 ML
N
535 453 M
540 448 L
S
GR
GS
1 0 0 RC
2 setlinecap
10.0 ML
N
535 448 M
540 453 L
S
GR
GS
1 0 0 RC
2 setlinecap
10.0 ML
N
583 461.5 M
590 461.5 L
S
GR
GS
1 0 0 RC
2 setlinecap
10.0 ML
N
586.5 465 M
586.5 458 L
S
GR
GS
1 0 0 RC
2 setlinecap
10.0 ML
N
584 464 M
589 459 L
S
GR
GS
1 0 0 RC
2 setlinecap
10.0 ML
N
584 459 M
589 464 L
S
GR
GS
1 0 0 RC
2 setlinecap
10.0 ML
N
632 470.5 M
639 470.5 L
S
GR
GS
1 0 0 RC
2 setlinecap
10.0 ML
N
635.5 474 M
635.5 467 L
S
GR
GS
1 0 0 RC
2 setlinecap
10.0 ML
N
633 473 M
638 468 L
S
GR
GS
1 0 0 RC
2 setlinecap
10.0 ML
N
633 468 M
638 473 L
S
GR
GS
1 0 0 RC
2 setlinecap
10.0 ML
N
681 471.5 M
688 471.5 L
S
GR
GS
1 0 0 RC
2 setlinecap
10.0 ML
N
684.5 475 M
684.5 468 L
S
GR
GS
1 0 0 RC
2 setlinecap
10.0 ML
N
682 474 M
687 469 L
S
GR
GS
1 0 0 RC
2 setlinecap
10.0 ML
N
682 469 M
687 474 L
S
GR
GS
1 0 1 RC
2 setlinecap
10.0 ML
N
98 80.838 M
98 53.28 L
S
GR
GS
1 0 1 RC
2 setlinecap
10.0 ML
N
146.833 133.439 M
146.833 89.532 L
S
GR
GS
1 0 1 RC
2 setlinecap
10.0 ML
N
195.667 169.495 M
195.667 142.031 L
S
GR
GS
1 0 1 RC
2 setlinecap
10.0 ML
N
244.5 196.327 M
244.5 175.081 L
S
GR
GS
1 0 1 RC
2 setlinecap
10.0 ML
N
293.333 209.87 M
293.333 187.522 L
S
GR
GS
1 0 1 RC
2 setlinecap
10.0 ML
N
342.167 224.757 M
342.167 197.873 L
S
GR
GS
1 0 1 RC
2 setlinecap
10.0 ML
N
391 233.575 M
391 196.82 L
S
GR
GS
1 0 1 RC
2 setlinecap
10.0 ML
N
439.833 232.878 M
439.833 204.984 L
S
GR
GS
1 0 1 RC
2 setlinecap
10.0 ML
N
488.667 234.573 M
488.667 201.646 L
S
GR
GS
1 0 1 RC
2 setlinecap
10.0 ML
N
537.5 238.828 M
537.5 201.572 L
S
GR
GS
1 0 1 RC
2 setlinecap
10.0 ML
N
586.333 250.957 M
586.333 222.745 L
S
GR
GS
1 0 1 RC
2 setlinecap
10.0 ML
N
635.167 246.499 M
635.167 226.008 L
S
GR
GS
1 0 1 RC
2 setlinecap
10.0 ML
N
684 254.774 M
684 231.919 L
S
GR
GS
1 0 1 RC
2 setlinecap
10.0 ML
N
97.941 80.838 M
103.86 80.838 L
S
GR
GS
1 0 1 RC
2 setlinecap
10.0 ML
N
140.973 133.439 M
152.693 133.439 L
S
GR
GS
1 0 1 RC
2 setlinecap
10.0 ML
N
189.807 169.495 M
201.527 169.495 L
S
GR
GS
1 0 1 RC
2 setlinecap
10.0 ML
N
238.64 196.327 M
250.36 196.327 L
S
GR
GS
1 0 1 RC
2 setlinecap
10.0 ML
N
287.473 209.87 M
299.193 209.87 L
S
GR
GS
1 0 1 RC
2 setlinecap
10.0 ML
N
336.307 224.757 M
348.027 224.757 L
S
GR
GS
1 0 1 RC
2 setlinecap
10.0 ML
N
385.14 233.575 M
396.86 233.575 L
S
GR
GS
1 0 1 RC
2 setlinecap
10.0 ML
N
433.973 232.878 M
445.693 232.878 L
S
GR
GS
1 0 1 RC
2 setlinecap
10.0 ML
N
482.807 234.573 M
494.527 234.573 L
S
GR
GS
1 0 1 RC
2 setlinecap
10.0 ML
N
531.64 238.828 M
543.36 238.828 L
S
GR
GS
1 0 1 RC
2 setlinecap
10.0 ML
N
580.473 250.957 M
592.193 250.957 L
S
GR
GS
1 0 1 RC
2 setlinecap
10.0 ML
N
629.307 246.499 M
641.027 246.499 L
S
GR
GS
1 0 1 RC
2 setlinecap
10.0 ML
N
678.14 254.774 M
684.059 254.774 L
S
GR
GS
1 0 1 RC
2 setlinecap
10.0 ML
N
97.941 53.28 M
103.86 53.28 L
S
GR
GS
1 0 1 RC
2 setlinecap
10.0 ML
N
140.973 89.532 M
152.693 89.532 L
S
GR
GS
1 0 1 RC
2 setlinecap
10.0 ML
N
189.807 142.031 M
201.527 142.031 L
S
GR
GS
1 0 1 RC
2 setlinecap
10.0 ML
N
238.64 175.081 M
250.36 175.081 L
S
GR
GS
1 0 1 RC
2 setlinecap
10.0 ML
N
287.473 187.522 M
299.193 187.522 L
S
GR
GS
1 0 1 RC
2 setlinecap
10.0 ML
N
336.307 197.873 M
348.027 197.873 L
S
GR
GS
1 0 1 RC
2 setlinecap
10.0 ML
N
385.14 196.82 M
396.86 196.82 L
S
GR
GS
1 0 1 RC
2 setlinecap
10.0 ML
N
433.973 204.984 M
445.693 204.984 L
S
GR
GS
1 0 1 RC
2 setlinecap
10.0 ML
N
482.807 201.646 M
494.527 201.646 L
S
GR
GS
1 0 1 RC
2 setlinecap
10.0 ML
N
531.64 201.572 M
543.36 201.572 L
S
GR
GS
1 0 1 RC
2 setlinecap
10.0 ML
N
580.473 222.745 M
592.193 222.745 L
S
GR
GS
1 0 1 RC
2 setlinecap
10.0 ML
N
629.307 226.008 M
641.027 226.008 L
S
GR
GS
1 0 1 RC
2 setlinecap
10.0 ML
N
678.14 231.919 M
684.059 231.919 L
S
GR
GS
1 0 1 RC
2 setlinecap
10.0 ML
N
98 67.059 M
146.833 111.485 L
195.667 155.763 L
244.5 185.704 L
293.333 198.696 L
342.167 211.315 L
391 215.197 L
439.833 218.931 L
488.667 218.109 L
537.5 220.2 L
586.333 236.851 L
635.167 236.253 L
684 243.347 L
S
GR
GS
1 0 1 RC
2 setlinecap
10.0 ML
N
95.647 66.573 M
97.795 66.573 L
98.5 64.5 L
99.205 66.573 L
101.353 66.573 L
99.641 67.871 L
100.263 69.927 L
98.5 68.7 L
96.737 69.927 L
97.359 67.871 L
95.647 66.573 L
S
GR
GS
1 0 1 RC
2 setlinecap
10.0 ML
N
143.647 110.573 M
145.795 110.573 L
146.5 108.5 L
147.205 110.573 L
149.353 110.573 L
147.641 111.871 L
148.263 113.927 L
146.5 112.7 L
144.737 113.927 L
145.359 111.871 L
143.647 110.573 L
S
GR
GS
1 0 1 RC
2 setlinecap
10.0 ML
N
192.647 154.573 M
194.795 154.573 L
195.5 152.5 L
196.205 154.573 L
198.353 154.573 L
196.641 155.871 L
197.263 157.927 L
195.5 156.7 L
193.737 157.927 L
194.359 155.871 L
192.647 154.573 L
S
GR
GS
1 0 1 RC
2 setlinecap
10.0 ML
N
241.647 184.573 M
243.795 184.573 L
244.5 182.5 L
245.205 184.573 L
247.353 184.573 L
245.641 185.871 L
246.263 187.927 L
244.5 186.7 L
242.737 187.927 L
243.359 185.871 L
241.647 184.573 L
S
GR
GS
1 0 1 RC
2 setlinecap
10.0 ML
N
290.647 197.573 M
292.795 197.573 L
293.5 195.5 L
294.205 197.573 L
296.353 197.573 L
294.641 198.871 L
295.263 200.927 L
293.5 199.7 L
291.737 200.927 L
292.359 198.871 L
290.647 197.573 L
S
GR
GS
1 0 1 RC
2 setlinecap
10.0 ML
N
339.647 210.573 M
341.795 210.573 L
342.5 208.5 L
343.205 210.573 L
345.353 210.573 L
343.641 211.871 L
344.263 213.927 L
342.5 212.7 L
340.737 213.927 L
341.359 211.871 L
339.647 210.573 L
S
GR
GS
1 0 1 RC
2 setlinecap
10.0 ML
N
388.647 214.573 M
390.795 214.573 L
391.5 212.5 L
392.205 214.573 L
394.353 214.573 L
392.641 215.871 L
393.263 217.927 L
391.5 216.7 L
389.737 217.927 L
390.359 215.871 L
388.647 214.573 L
S
GR
GS
1 0 1 RC
2 setlinecap
10.0 ML
N
436.647 217.573 M
438.795 217.573 L
439.5 215.5 L
440.205 217.573 L
442.353 217.573 L
440.641 218.871 L
441.263 220.927 L
439.5 219.7 L
437.737 220.927 L
438.359 218.871 L
436.647 217.573 L
S
GR
GS
1 0 1 RC
2 setlinecap
10.0 ML
N
485.647 217.573 M
487.795 217.573 L
488.5 215.5 L
489.205 217.573 L
491.353 217.573 L
489.641 218.871 L
490.263 220.927 L
488.5 219.7 L
486.737 220.927 L
487.359 218.871 L
485.647 217.573 L
S
GR
GS
1 0 1 RC
2 setlinecap
10.0 ML
N
534.647 219.573 M
536.795 219.573 L
537.5 217.5 L
538.205 219.573 L
540.353 219.573 L
538.641 220.871 L
539.263 222.927 L
537.5 221.7 L
535.737 222.927 L
536.359 220.871 L
534.647 219.573 L
S
GR
GS
1 0 1 RC
2 setlinecap
10.0 ML
N
583.647 235.573 M
585.795 235.573 L
586.5 233.5 L
587.205 235.573 L
589.353 235.573 L
587.641 236.871 L
588.263 238.927 L
586.5 237.7 L
584.737 238.927 L
585.359 236.871 L
583.647 235.573 L
S
GR
GS
1 0 1 RC
2 setlinecap
10.0 ML
N
632.647 235.573 M
634.795 235.573 L
635.5 233.5 L
636.205 235.573 L
638.353 235.573 L
636.641 236.871 L
637.263 238.927 L
635.5 237.7 L
633.737 238.927 L
634.359 236.871 L
632.647 235.573 L
S
GR
GS
1 0 1 RC
2 setlinecap
10.0 ML
N
681.647 242.573 M
683.795 242.573 L
684.5 240.5 L
685.205 242.573 L
687.353 242.573 L
685.641 243.871 L
686.263 245.927 L
684.5 244.7 L
682.737 245.927 L
683.359 243.871 L
681.647 242.573 L
S
GR
GS
2 setlinecap
10.0 ML
N
98 206.298 M
98 188.854 L
S
GR
GS
2 setlinecap
10.0 ML
N
146.833 239.654 M
146.833 214.336 L
S
GR
GS
2 setlinecap
10.0 ML
N
195.667 266.52 M
195.667 250.04 L
S
GR
GS
2 setlinecap
10.0 ML
N
244.5 273.763 M
244.5 254.594 L
S
GR
GS
2 setlinecap
10.0 ML
N
293.333 281.089 M
293.333 259.215 L
S
GR
GS
2 setlinecap
10.0 ML
N
342.167 291.535 M
342.167 268.929 L
S
GR
GS
2 setlinecap
10.0 ML
N
391 292.093 M
391 275.838 L
S
GR
GS
2 setlinecap
10.0 ML
N
439.833 292.876 M
439.833 277.892 L
S
GR
GS
2 setlinecap
10.0 ML
N
488.667 289.964 M
488.667 279.758 L
S
GR
GS
2 setlinecap
10.0 ML
N
537.5 293.446 M
537.5 276.127 L
S
GR
GS
2 setlinecap
10.0 ML
N
586.333 306.184 M
586.333 285.79 L
S
GR
GS
2 setlinecap
10.0 ML
N
635.167 309.97 M
635.167 290.515 L
S
GR
GS
2 setlinecap
10.0 ML
N
684 309.948 M
684 295.018 L
S
GR
GS
2 setlinecap
10.0 ML
N
97.941 206.298 M
103.86 206.298 L
S
GR
GS
2 setlinecap
10.0 ML
N
140.973 239.654 M
152.693 239.654 L
S
GR
GS
2 setlinecap
10.0 ML
N
189.807 266.52 M
201.527 266.52 L
S
GR
GS
2 setlinecap
10.0 ML
N
238.64 273.763 M
250.36 273.763 L
S
GR
GS
2 setlinecap
10.0 ML
N
287.473 281.089 M
299.193 281.089 L
S
GR
GS
2 setlinecap
10.0 ML
N
336.307 291.535 M
348.027 291.535 L
S
GR
GS
2 setlinecap
10.0 ML
N
385.14 292.093 M
396.86 292.093 L
S
GR
GS
2 setlinecap
10.0 ML
N
433.973 292.876 M
445.693 292.876 L
S
GR
GS
2 setlinecap
10.0 ML
N
482.807 289.964 M
494.527 289.964 L
S
GR
GS
2 setlinecap
10.0 ML
N
531.64 293.446 M
543.36 293.446 L
S
GR
GS
2 setlinecap
10.0 ML
N
580.473 306.184 M
592.193 306.184 L
S
GR
GS
2 setlinecap
10.0 ML
N
629.307 309.97 M
641.027 309.97 L
S
GR
GS
2 setlinecap
10.0 ML
N
678.14 309.948 M
684.059 309.948 L
S
GR
GS
2 setlinecap
10.0 ML
N
97.941 188.854 M
103.86 188.854 L
S
GR
GS
2 setlinecap
10.0 ML
N
140.973 214.336 M
152.693 214.336 L
S
GR
GS
2 setlinecap
10.0 ML
N
189.807 250.04 M
201.527 250.04 L
S
GR
GS
2 setlinecap
10.0 ML
N
238.64 254.594 M
250.36 254.594 L
S
GR
GS
2 setlinecap
10.0 ML
N
287.473 259.215 M
299.193 259.215 L
S
GR
GS
2 setlinecap
10.0 ML
N
336.307 268.929 M
348.027 268.929 L
S
GR
GS
2 setlinecap
10.0 ML
N
385.14 275.838 M
396.86 275.838 L
S
GR
GS
2 setlinecap
10.0 ML
N
433.973 277.892 M
445.693 277.892 L
S
GR
GS
2 setlinecap
10.0 ML
N
482.807 279.758 M
494.527 279.758 L
S
GR
GS
2 setlinecap
10.0 ML
N
531.64 276.127 M
543.36 276.127 L
S
GR
GS
2 setlinecap
10.0 ML
N
580.473 285.79 M
592.193 285.79 L
S
GR
GS
2 setlinecap
10.0 ML
N
629.307 290.515 M
641.027 290.515 L
S
GR
GS
2 setlinecap
10.0 ML
N
678.14 295.018 M
684.059 295.018 L
S
GR
GS
2 setlinecap
10.0 ML
N
98 197.576 M
146.833 226.995 L
195.667 258.28 L
244.5 264.179 L
293.333 270.152 L
342.167 280.232 L
391 283.965 L
439.833 285.384 L
488.667 284.861 L
537.5 284.787 L
586.333 295.987 L
635.167 300.243 L
684 302.483 L
S
GR
GS
2 setlinecap
10.0 ML
N
101.5 197.5 M
100.621 195.379 L
98.5 194.5 L
96.379 195.379 L
95.5 197.5 L
96.379 199.621 L
98.5 200.5 L
100.621 199.621 L
101.5 197.5 L
S
GR
GS
2 setlinecap
10.0 ML
N
149.5 226.5 M
148.621 224.379 L
146.5 223.5 L
144.379 224.379 L
143.5 226.5 L
144.379 228.621 L
146.5 229.5 L
148.621 228.621 L
149.5 226.5 L
S
GR
GS
2 setlinecap
10.0 ML
N
198.5 258.5 M
197.621 256.379 L
195.5 255.5 L
193.379 256.379 L
192.5 258.5 L
193.379 260.621 L
195.5 261.5 L
197.621 260.621 L
198.5 258.5 L
S
GR
GS
2 setlinecap
10.0 ML
N
247.5 264.5 M
246.621 262.379 L
244.5 261.5 L
242.379 262.379 L
241.5 264.5 L
242.379 266.621 L
244.5 267.5 L
246.621 266.621 L
247.5 264.5 L
S
GR
GS
2 setlinecap
10.0 ML
N
296.5 270.5 M
295.621 268.379 L
293.5 267.5 L
291.379 268.379 L
290.5 270.5 L
291.379 272.621 L
293.5 273.5 L
295.621 272.621 L
296.5 270.5 L
S
GR
GS
2 setlinecap
10.0 ML
N
345.5 280.5 M
344.621 278.379 L
342.5 277.5 L
340.379 278.379 L
339.5 280.5 L
340.379 282.621 L
342.5 283.5 L
344.621 282.621 L
345.5 280.5 L
S
GR
GS
2 setlinecap
10.0 ML
N
394.5 283.5 M
393.621 281.379 L
391.5 280.5 L
389.379 281.379 L
388.5 283.5 L
389.379 285.621 L
391.5 286.5 L
393.621 285.621 L
394.5 283.5 L
S
GR
GS
2 setlinecap
10.0 ML
N
442.5 285.5 M
441.621 283.379 L
439.5 282.5 L
437.379 283.379 L
436.5 285.5 L
437.379 287.621 L
439.5 288.5 L
441.621 287.621 L
442.5 285.5 L
S
GR
GS
2 setlinecap
10.0 ML
N
491.5 284.5 M
490.621 282.379 L
488.5 281.5 L
486.379 282.379 L
485.5 284.5 L
486.379 286.621 L
488.5 287.5 L
490.621 286.621 L
491.5 284.5 L
S
GR
GS
2 setlinecap
10.0 ML
N
540.5 284.5 M
539.621 282.379 L
537.5 281.5 L
535.379 282.379 L
534.5 284.5 L
535.379 286.621 L
537.5 287.5 L
539.621 286.621 L
540.5 284.5 L
S
GR
GS
2 setlinecap
10.0 ML
N
589.5 295.5 M
588.621 293.379 L
586.5 292.5 L
584.379 293.379 L
583.5 295.5 L
584.379 297.621 L
586.5 298.5 L
588.621 297.621 L
589.5 295.5 L
S
GR
GS
2 setlinecap
10.0 ML
N
638.5 300.5 M
637.621 298.379 L
635.5 297.5 L
633.379 298.379 L
632.5 300.5 L
633.379 302.621 L
635.5 303.5 L
637.621 302.621 L
638.5 300.5 L
S
GR
GS
2 setlinecap
10.0 ML
N
687.5 302.5 M
686.621 300.379 L
684.5 299.5 L
682.379 300.379 L
681.5 302.5 L
682.379 304.621 L
684.5 305.5 L
686.621 304.621 L
687.5 302.5 L
S
GR
GS
1 GC
N
438 116 M
438 41 L
684 41 L
684 116 L
cp
f
GR
GS
[1 0 0 1 482.20682 55.0625] CT
/Helvetica 18 F
GS
[1 0 0 1 0 0] CT
0 5.36 moveto 
1 -1 scale
(SVM with CS [Sys 3]) t 
GR
GR
GS
1 0 0 RC
2 setlinecap
10.0 ML
N
444.801 55.063 M
478.806 55.063 L
S
GR
GS
1 0 0 RC
2 setlinecap
10.0 ML
N
458 55.5 M
465 55.5 L
S
GR
GS
1 0 0 RC
2 setlinecap
10.0 ML
N
461.5 59 M
461.5 52 L
S
GR
GS
1 0 0 RC
2 setlinecap
10.0 ML
N
459 58 M
464 53 L
S
GR
GS
1 0 0 RC
2 setlinecap
10.0 ML
N
459 53 M
464 58 L
S
GR
GS
[1 0 0 1 482.20682 78.5] CT
/Helvetica 18 F
GS
[1 0 0 1 0 0] CT
0 5.36 moveto 
1 -1 scale
(FFNN with CS [Sys 4]) t 
GR
GR
GS
1 0 1 RC
2 setlinecap
10.0 ML
N
444.801 78.5 M
478.806 78.5 L
S
GR
GS
1 0 1 RC
2 setlinecap
10.0 ML
N
458.647 77.573 M
460.795 77.573 L
461.5 75.5 L
462.205 77.573 L
464.353 77.573 L
462.641 78.871 L
463.263 80.927 L
461.5 79.7 L
459.737 80.927 L
460.359 78.871 L
458.647 77.573 L
S
GR
GS
[1 0 0 1 482.20682 101.9375] CT
/Helvetica 18 F
GS
[1 0 0 1 0 0] CT
0 5.36 moveto 
1 -1 scale
(IMPC [Sys 5]) t 
GR
GR
GS
2 setlinecap
10.0 ML
N
444.801 101.938 M
478.806 101.938 L
S
GR
GS
2 setlinecap
10.0 ML
N
464.5 101.5 M
463.621 99.379 L
461.5 98.5 L
459.379 99.379 L
458.5 101.5 L
459.379 103.621 L
461.5 104.5 L
463.621 103.621 L
464.5 101.5 L
S
GR
GS
0.149 GC
2 setlinecap
10.0 ML
N
438 116 M
438 41 L
684 41 L
684 116 L
438 116 L
S
GR
%%Trailer
%%Pages: 1
%%EOF
