%!PS-Adobe-3.0 EPSF-3.0
%%Creator: (MATLAB, The Mathworks, Inc. Version 8.4.0.150421 \(R2014b\). Operating System: Mac OS X)
%%Title: /Users/jaszhang/ieee1/paper/_images/acc1_1.eps
%%CreationDate: 2017-01-30T23:06:06
%%Pages: (atend)
%%BoundingBox: 0 0 756 549
%%LanguageLevel: 2
%%EndComments
%%BeginProlog
%%BeginResource: procset (Apache XML Graphics Std ProcSet) 1.2 0
%%Version: 1.2 0
%%Copyright: (Copyright 2001-2003,2010 The Apache Software Foundation. License terms: http://www.apache.org/licenses/LICENSE-2.0)
/bd{bind def}bind def
/ld{load def}bd
/GR/grestore ld
/M/moveto ld
/LJ/setlinejoin ld
/C/curveto ld
/f/fill ld
/LW/setlinewidth ld
/GC/setgray ld
/t/show ld
/N/newpath ld
/CT/concat ld
/cp/closepath ld
/S/stroke ld
/L/lineto ld
/CC/setcmykcolor ld
/A/ashow ld
/GS/gsave ld
/RC/setrgbcolor ld
/RM/rmoveto ld
/ML/setmiterlimit ld
/re {4 2 roll M
1 index 0 rlineto
0 exch rlineto
neg 0 rlineto
cp } bd
/_ctm matrix def
/_tm matrix def
/BT { _ctm currentmatrix pop matrix _tm copy pop 0 0 moveto } bd
/ET { _ctm setmatrix } bd
/iTm { _ctm setmatrix _tm concat } bd
/Tm { _tm astore pop iTm 0 0 moveto } bd
/ux 0.0 def
/uy 0.0 def
/F {
  /Tp exch def
  /Tf exch def
  Tf findfont Tp scalefont setfont
  /cf Tf def  /cs Tp def
} bd
/ULS {currentpoint /uy exch def /ux exch def} bd
/ULE {
  /Tcx currentpoint pop def
  gsave
  newpath
  cf findfont cs scalefont dup
  /FontMatrix get 0 get /Ts exch def /FontInfo get dup
  /UnderlinePosition get Ts mul /To exch def
  /UnderlineThickness get Ts mul /Tt exch def
  ux uy To add moveto  Tcx uy To add lineto
  Tt setlinewidth stroke
  grestore
} bd
/OLE {
  /Tcx currentpoint pop def
  gsave
  newpath
  cf findfont cs scalefont dup
  /FontMatrix get 0 get /Ts exch def /FontInfo get dup
  /UnderlinePosition get Ts mul /To exch def
  /UnderlineThickness get Ts mul /Tt exch def
  ux uy To add cs add moveto Tcx uy To add cs add lineto
  Tt setlinewidth stroke
  grestore
} bd
/SOE {
  /Tcx currentpoint pop def
  gsave
  newpath
  cf findfont cs scalefont dup
  /FontMatrix get 0 get /Ts exch def /FontInfo get dup
  /UnderlinePosition get Ts mul /To exch def
  /UnderlineThickness get Ts mul /Tt exch def
  ux uy To add cs 10 mul 26 idiv add moveto Tcx uy To add cs 10 mul 26 idiv add lineto
  Tt setlinewidth stroke
  grestore
} bd
/QT {
/Y22 exch store
/X22 exch store
/Y21 exch store
/X21 exch store
currentpoint
/Y21 load 2 mul add 3 div exch
/X21 load 2 mul add 3 div exch
/X21 load 2 mul /X22 load add 3 div
/Y21 load 2 mul /Y22 load add 3 div
/X22 load /Y22 load curveto
} bd
/SSPD {
dup length /d exch dict def
{
/v exch def
/k exch def
currentpagedevice k known {
/cpdv currentpagedevice k get def
v cpdv ne {
/upd false def
/nullv v type /nulltype eq def
/nullcpdv cpdv type /nulltype eq def
nullv nullcpdv or
{
/upd true def
} {
/sametype v type cpdv type eq def
sametype {
v type /arraytype eq {
/vlen v length def
/cpdvlen cpdv length def
vlen cpdvlen eq {
0 1 vlen 1 sub {
/i exch def
/obj v i get def
/cpdobj cpdv i get def
obj cpdobj ne {
/upd true def
exit
} if
} for
} {
/upd true def
} ifelse
} {
v type /dicttype eq {
v {
/dv exch def
/dk exch def
/cpddv cpdv dk get def
dv cpddv ne {
/upd true def
exit
} if
} forall
} {
/upd true def
} ifelse
} ifelse
} if
} ifelse
upd true eq {
d k v put
} if
} if
} if
} forall
d length 0 gt {
d setpagedevice
} if
} bd
%%EndResource
%%BeginResource: procset (Apache XML Graphics EPS ProcSet) 1.0 0
%%Version: 1.0 0
%%Copyright: (Copyright 2002-2003 The Apache Software Foundation. License terms: http://www.apache.org/licenses/LICENSE-2.0)
/BeginEPSF { %def
/b4_Inc_state save def         % Save state for cleanup
/dict_count countdictstack def % Count objects on dict stack
/op_count count 1 sub def      % Count objects on operand stack
userdict begin                 % Push userdict on dict stack
/showpage { } def              % Redefine showpage, { } = null proc
0 setgray 0 setlinecap         % Prepare graphics state
1 setlinewidth 0 setlinejoin
10 setmiterlimit [ ] 0 setdash newpath
/languagelevel where           % If level not equal to 1 then
{pop languagelevel             % set strokeadjust and
1 ne                           % overprint to their defaults.
{false setstrokeadjust false setoverprint
} if
} if
} bd
/EndEPSF { %def
count op_count sub {pop} repeat            % Clean up stacks
countdictstack dict_count sub {end} repeat
b4_Inc_state restore
} bd
%%EndResource
%FOPBeginFontDict
%%IncludeResource: font Courier-Bold
%%IncludeResource: font Helvetica
%%IncludeResource: font Courier-BoldOblique
%%IncludeResource: font Courier-Oblique
%%IncludeResource: font Times-Roman
%%IncludeResource: font Helvetica-BoldOblique
%%IncludeResource: font Helvetica-Bold
%%IncludeResource: font Helvetica-Oblique
%%IncludeResource: font Times-BoldItalic
%%IncludeResource: font Courier
%%IncludeResource: font Times-Italic
%%IncludeResource: font Times-Bold
%%IncludeResource: font Symbol
%%IncludeResource: font ZapfDingbats
%FOPEndFontDict
%%BeginResource: encoding WinAnsiEncoding
/WinAnsiEncoding [
/.notdef /.notdef /.notdef /.notdef /.notdef
/.notdef /.notdef /.notdef /.notdef /.notdef
/.notdef /.notdef /.notdef /.notdef /.notdef
/.notdef /.notdef /.notdef /.notdef /.notdef
/.notdef /.notdef /.notdef /.notdef /.notdef
/.notdef /.notdef /.notdef /.notdef /.notdef
/.notdef /.notdef /space /exclam /quotedbl
/numbersign /dollar /percent /ampersand /quotesingle
/parenleft /parenright /asterisk /plus /comma
/hyphen /period /slash /zero /one
/two /three /four /five /six
/seven /eight /nine /colon /semicolon
/less /equal /greater /question /at
/A /B /C /D /E
/F /G /H /I /J
/K /L /M /N /O
/P /Q /R /S /T
/U /V /W /X /Y
/Z /bracketleft /backslash /bracketright /asciicircum
/underscore /quoteleft /a /b /c
/d /e /f /g /h
/i /j /k /l /m
/n /o /p /q /r
/s /t /u /v /w
/x /y /z /braceleft /bar
/braceright /asciitilde /bullet /Euro /bullet
/quotesinglbase /florin /quotedblbase /ellipsis /dagger
/daggerdbl /circumflex /perthousand /Scaron /guilsinglleft
/OE /bullet /Zcaron /bullet /bullet
/quoteleft /quoteright /quotedblleft /quotedblright /bullet
/endash /emdash /asciitilde /trademark /scaron
/guilsinglright /oe /bullet /zcaron /Ydieresis
/space /exclamdown /cent /sterling /currency
/yen /brokenbar /section /dieresis /copyright
/ordfeminine /guillemotleft /logicalnot /sfthyphen /registered
/macron /degree /plusminus /twosuperior /threesuperior
/acute /mu /paragraph /middot /cedilla
/onesuperior /ordmasculine /guillemotright /onequarter /onehalf
/threequarters /questiondown /Agrave /Aacute /Acircumflex
/Atilde /Adieresis /Aring /AE /Ccedilla
/Egrave /Eacute /Ecircumflex /Edieresis /Igrave
/Iacute /Icircumflex /Idieresis /Eth /Ntilde
/Ograve /Oacute /Ocircumflex /Otilde /Odieresis
/multiply /Oslash /Ugrave /Uacute /Ucircumflex
/Udieresis /Yacute /Thorn /germandbls /agrave
/aacute /acircumflex /atilde /adieresis /aring
/ae /ccedilla /egrave /eacute /ecircumflex
/edieresis /igrave /iacute /icircumflex /idieresis
/eth /ntilde /ograve /oacute /ocircumflex
/otilde /odieresis /divide /oslash /ugrave
/uacute /ucircumflex /udieresis /yacute /thorn
/ydieresis
] def
%%EndResource
%FOPBeginFontReencode
/Courier-Bold findfont
dup length dict begin
  {1 index /FID ne {def} {pop pop} ifelse} forall
  /Encoding WinAnsiEncoding def
  currentdict
end
/Courier-Bold exch definefont pop
/Helvetica findfont
dup length dict begin
  {1 index /FID ne {def} {pop pop} ifelse} forall
  /Encoding WinAnsiEncoding def
  currentdict
end
/Helvetica exch definefont pop
/Courier-BoldOblique findfont
dup length dict begin
  {1 index /FID ne {def} {pop pop} ifelse} forall
  /Encoding WinAnsiEncoding def
  currentdict
end
/Courier-BoldOblique exch definefont pop
/Courier-Oblique findfont
dup length dict begin
  {1 index /FID ne {def} {pop pop} ifelse} forall
  /Encoding WinAnsiEncoding def
  currentdict
end
/Courier-Oblique exch definefont pop
/Times-Roman findfont
dup length dict begin
  {1 index /FID ne {def} {pop pop} ifelse} forall
  /Encoding WinAnsiEncoding def
  currentdict
end
/Times-Roman exch definefont pop
/Helvetica-BoldOblique findfont
dup length dict begin
  {1 index /FID ne {def} {pop pop} ifelse} forall
  /Encoding WinAnsiEncoding def
  currentdict
end
/Helvetica-BoldOblique exch definefont pop
/Helvetica-Bold findfont
dup length dict begin
  {1 index /FID ne {def} {pop pop} ifelse} forall
  /Encoding WinAnsiEncoding def
  currentdict
end
/Helvetica-Bold exch definefont pop
/Helvetica-Oblique findfont
dup length dict begin
  {1 index /FID ne {def} {pop pop} ifelse} forall
  /Encoding WinAnsiEncoding def
  currentdict
end
/Helvetica-Oblique exch definefont pop
/Times-BoldItalic findfont
dup length dict begin
  {1 index /FID ne {def} {pop pop} ifelse} forall
  /Encoding WinAnsiEncoding def
  currentdict
end
/Times-BoldItalic exch definefont pop
/Courier findfont
dup length dict begin
  {1 index /FID ne {def} {pop pop} ifelse} forall
  /Encoding WinAnsiEncoding def
  currentdict
end
/Courier exch definefont pop
/Times-Italic findfont
dup length dict begin
  {1 index /FID ne {def} {pop pop} ifelse} forall
  /Encoding WinAnsiEncoding def
  currentdict
end
/Times-Italic exch definefont pop
/Times-Bold findfont
dup length dict begin
  {1 index /FID ne {def} {pop pop} ifelse} forall
  /Encoding WinAnsiEncoding def
  currentdict
end
/Times-Bold exch definefont pop
%FOPEndFontReencode
%%EndProlog
%%Page: 1 1
%%PageBoundingBox: 0 0 756 549
%%BeginPageSetup
[1 0 0 -1 0 549] CT
%%EndPageSetup
GS
1 GC
N
0 0 756 549 re
f
GR
GS
1 GC
N
0 0 756 549 re
f
GR
GS
1 GC
N
98 489 M
684 489 L
684 41 L
98 41 L
cp
f
GR
GS
0.873 GC
2 setlinecap
10.0 ML
N
98 489 M
98 41 L
S
GR
GS
0.873 GC
2 setlinecap
10.0 ML
N
195.667 489 M
195.667 41 L
S
GR
GS
0.873 GC
2 setlinecap
10.0 ML
N
293.333 489 M
293.333 41 L
S
GR
GS
0.873 GC
2 setlinecap
10.0 ML
N
391 489 M
391 41 L
S
GR
GS
0.873 GC
2 setlinecap
10.0 ML
N
488.667 489 M
488.667 41 L
S
GR
GS
0.873 GC
2 setlinecap
10.0 ML
N
586.333 489 M
586.333 41 L
S
GR
GS
0.873 GC
2 setlinecap
10.0 ML
N
684 489 M
684 41 L
S
GR
GS
0.873 GC
2 setlinecap
10.0 ML
N
684 489 M
98 489 L
S
GR
GS
0.873 GC
2 setlinecap
10.0 ML
N
684 414.333 M
98 414.333 L
S
GR
GS
0.873 GC
2 setlinecap
10.0 ML
N
684 339.667 M
98 339.667 L
S
GR
GS
0.873 GC
2 setlinecap
10.0 ML
N
684 265 M
98 265 L
S
GR
GS
0.873 GC
2 setlinecap
10.0 ML
N
684 190.333 M
98 190.333 L
S
GR
GS
0.873 GC
2 setlinecap
10.0 ML
N
684 115.667 M
98 115.667 L
S
GR
GS
0.873 GC
2 setlinecap
10.0 ML
N
684 41 M
98 41 L
S
GR
GS
[1 0 0 1 391 515] CT
0.149 GC
/Helvetica 22 F
GS
[1 0 0 1 0 0] CT
-89.241 16.94 moveto 
1 -1 scale
(Sampling Time \(s\)) t 
GR
GR
GS
0.149 GC
2 setlinecap
10.0 ML
N
98 489 M
684 489 L
S
GR
GS
0.149 GC
2 setlinecap
10.0 ML
N
98 41 M
684 41 L
S
GR
GS
0.149 GC
2 setlinecap
10.0 ML
N
98 489 M
98 483.14 L
S
GR
GS
0.149 GC
2 setlinecap
10.0 ML
N
98 41 M
98 46.86 L
S
GR
GS
0.149 GC
2 setlinecap
10.0 ML
N
195.667 489 M
195.667 483.14 L
S
GR
GS
0.149 GC
2 setlinecap
10.0 ML
N
195.667 41 M
195.667 46.86 L
S
GR
GS
0.149 GC
2 setlinecap
10.0 ML
N
293.333 489 M
293.333 483.14 L
S
GR
GS
0.149 GC
2 setlinecap
10.0 ML
N
293.333 41 M
293.333 46.86 L
S
GR
GS
0.149 GC
2 setlinecap
10.0 ML
N
391 489 M
391 483.14 L
S
GR
GS
0.149 GC
2 setlinecap
10.0 ML
N
391 41 M
391 46.86 L
S
GR
GS
0.149 GC
2 setlinecap
10.0 ML
N
488.667 489 M
488.667 483.14 L
S
GR
GS
0.149 GC
2 setlinecap
10.0 ML
N
488.667 41 M
488.667 46.86 L
S
GR
GS
0.149 GC
2 setlinecap
10.0 ML
N
586.333 489 M
586.333 483.14 L
S
GR
GS
0.149 GC
2 setlinecap
10.0 ML
N
586.333 41 M
586.333 46.86 L
S
GR
GS
0.149 GC
2 setlinecap
10.0 ML
N
684 489 M
684 483.14 L
S
GR
GS
0.149 GC
2 setlinecap
10.0 ML
N
684 41 M
684 46.86 L
S
GR
GS
[1 0 0 1 98 495] CT
0.149 GC
/Helvetica 20 F
GS
[1 0 0 1 0 0] CT
-11.123 15.4 moveto 
1 -1 scale
(60) t 
GR
GR
GS
[1 0 0 1 195.66667 495] CT
0.149 GC
/Helvetica 20 F
GS
[1 0 0 1 0 0] CT
-11.123 15.4 moveto 
1 -1 scale
(80) t 
GR
GR
GS
[1 0 0 1 293.33334 495] CT
0.149 GC
/Helvetica 20 F
GS
[1 0 0 1 0 0] CT
-16.685 15.4 moveto 
1 -1 scale
(100) t 
GR
GR
GS
[1 0 0 1 391 495] CT
0.149 GC
/Helvetica 20 F
GS
[1 0 0 1 0 0] CT
-16.685 15.4 moveto 
1 -1 scale
(120) t 
GR
GR
GS
[1 0 0 1 488.66666 495] CT
0.149 GC
/Helvetica 20 F
GS
[1 0 0 1 0 0] CT
-16.685 15.4 moveto 
1 -1 scale
(140) t 
GR
GR
GS
[1 0 0 1 586.33331 495] CT
0.149 GC
/Helvetica 20 F
GS
[1 0 0 1 0 0] CT
-16.685 15.4 moveto 
1 -1 scale
(160) t 
GR
GR
GS
[1 0 0 1 684 495] CT
0.149 GC
/Helvetica 20 F
GS
[1 0 0 1 0 0] CT
-16.685 15.4 moveto 
1 -1 scale
(180) t 
GR
GR
GS
[0 -1 1 0 66.75391 265] CT
0.149 GC
/Helvetica 22 F
GS
[1 0 0 1 0 0] CT
-44.607 -4.06 moveto 
1 -1 scale
(Error \(%\)) t 
GR
GR
GS
0.149 GC
2 setlinecap
10.0 ML
N
98 489 M
98 41 L
S
GR
GS
0.149 GC
2 setlinecap
10.0 ML
N
684 489 M
684 41 L
S
GR
GS
0.149 GC
2 setlinecap
10.0 ML
N
98 489 M
103.86 489 L
S
GR
GS
0.149 GC
2 setlinecap
10.0 ML
N
684 489 M
678.14 489 L
S
GR
GS
0.149 GC
2 setlinecap
10.0 ML
N
98 414.333 M
103.86 414.333 L
S
GR
GS
0.149 GC
2 setlinecap
10.0 ML
N
684 414.333 M
678.14 414.333 L
S
GR
GS
0.149 GC
2 setlinecap
10.0 ML
N
98 339.667 M
103.86 339.667 L
S
GR
GS
0.149 GC
2 setlinecap
10.0 ML
N
684 339.667 M
678.14 339.667 L
S
GR
GS
0.149 GC
2 setlinecap
10.0 ML
N
98 265 M
103.86 265 L
S
GR
GS
0.149 GC
2 setlinecap
10.0 ML
N
684 265 M
678.14 265 L
S
GR
GS
0.149 GC
2 setlinecap
10.0 ML
N
98 190.333 M
103.86 190.333 L
S
GR
GS
0.149 GC
2 setlinecap
10.0 ML
N
684 190.333 M
678.14 190.333 L
S
GR
GS
0.149 GC
2 setlinecap
10.0 ML
N
98 115.667 M
103.86 115.667 L
S
GR
GS
0.149 GC
2 setlinecap
10.0 ML
N
684 115.667 M
678.14 115.667 L
S
GR
GS
0.149 GC
2 setlinecap
10.0 ML
N
98 41 M
103.86 41 L
S
GR
GS
0.149 GC
2 setlinecap
10.0 ML
N
684 41 M
678.14 41 L
S
GR
GS
[1 0 0 1 92 489] CT
0.149 GC
/Helvetica 20 F
GS
[1 0 0 1 0 0] CT
-11.123 5.9 moveto 
1 -1 scale
(0) t 
GR
GR
GS
[1 0 0 1 92 414.33334] CT
0.149 GC
/Helvetica 20 F
GS
[1 0 0 1 0 0] CT
-11.123 5.9 moveto 
1 -1 scale
(5) t 
GR
GR
GS
[1 0 0 1 92 339.66666] CT
0.149 GC
/Helvetica 20 F
GS
[1 0 0 1 0 0] CT
-22.246 5.9 moveto 
1 -1 scale
(10) t 
GR
GR
GS
[1 0 0 1 92 265] CT
0.149 GC
/Helvetica 20 F
GS
[1 0 0 1 0 0] CT
-22.246 5.9 moveto 
1 -1 scale
(15) t 
GR
GR
GS
[1 0 0 1 92 190.33333] CT
0.149 GC
/Helvetica 20 F
GS
[1 0 0 1 0 0] CT
-22.246 5.9 moveto 
1 -1 scale
(20) t 
GR
GR
GS
[1 0 0 1 92 115.66666] CT
0.149 GC
/Helvetica 20 F
GS
[1 0 0 1 0 0] CT
-22.246 5.9 moveto 
1 -1 scale
(25) t 
GR
GR
GS
[1 0 0 1 92 41] CT
0.149 GC
/Helvetica 20 F
GS
[1 0 0 1 0 0] CT
-22.246 5.9 moveto 
1 -1 scale
(30) t 
GR
GR
GS
1 0 1 RC
2 setlinecap
10.0 ML
N
98 182 M
98 147.147 L
S
GR
GS
1 0 1 RC
2 setlinecap
10.0 ML
N
146.833 192.699 M
146.833 146.751 L
S
GR
GS
1 0 1 RC
2 setlinecap
10.0 ML
N
195.667 217.262 M
195.667 168.631 L
S
GR
GS
1 0 1 RC
2 setlinecap
10.0 ML
N
244.5 221.471 M
244.5 165.468 L
S
GR
GS
1 0 1 RC
2 setlinecap
10.0 ML
N
293.333 229.506 M
293.333 137.87 L
S
GR
GS
1 0 1 RC
2 setlinecap
10.0 ML
N
342.167 238.714 M
342.167 203.03 L
S
GR
GS
1 0 1 RC
2 setlinecap
10.0 ML
N
391 244.856 M
391 220.035 L
S
GR
GS
1 0 1 RC
2 setlinecap
10.0 ML
N
439.833 251.549 M
439.833 216.776 L
S
GR
GS
1 0 1 RC
2 setlinecap
10.0 ML
N
488.667 283.591 M
488.667 258.356 L
S
GR
GS
1 0 1 RC
2 setlinecap
10.0 ML
N
537.5 298.729 M
537.5 240.828 L
S
GR
GS
1 0 1 RC
2 setlinecap
10.0 ML
N
586.333 319.321 M
586.333 280.119 L
S
GR
GS
1 0 1 RC
2 setlinecap
10.0 ML
N
635.167 312.396 M
635.167 279.279 L
S
GR
GS
1 0 1 RC
2 setlinecap
10.0 ML
N
684 325.174 M
684 299.205 L
S
GR
GS
1 0 1 RC
2 setlinecap
10.0 ML
N
97.941 182 M
103.86 182 L
S
GR
GS
1 0 1 RC
2 setlinecap
10.0 ML
N
140.973 192.699 M
152.693 192.699 L
S
GR
GS
1 0 1 RC
2 setlinecap
10.0 ML
N
189.807 217.262 M
201.527 217.262 L
S
GR
GS
1 0 1 RC
2 setlinecap
10.0 ML
N
238.64 221.471 M
250.36 221.471 L
S
GR
GS
1 0 1 RC
2 setlinecap
10.0 ML
N
287.473 229.506 M
299.193 229.506 L
S
GR
GS
1 0 1 RC
2 setlinecap
10.0 ML
N
336.307 238.714 M
348.027 238.714 L
S
GR
GS
1 0 1 RC
2 setlinecap
10.0 ML
N
385.14 244.856 M
396.86 244.856 L
S
GR
GS
1 0 1 RC
2 setlinecap
10.0 ML
N
433.973 251.549 M
445.693 251.549 L
S
GR
GS
1 0 1 RC
2 setlinecap
10.0 ML
N
482.807 283.591 M
494.527 283.591 L
S
GR
GS
1 0 1 RC
2 setlinecap
10.0 ML
N
531.64 298.729 M
543.36 298.729 L
S
GR
GS
1 0 1 RC
2 setlinecap
10.0 ML
N
580.473 319.321 M
592.193 319.321 L
S
GR
GS
1 0 1 RC
2 setlinecap
10.0 ML
N
629.307 312.396 M
641.027 312.396 L
S
GR
GS
1 0 1 RC
2 setlinecap
10.0 ML
N
678.14 325.174 M
684.059 325.174 L
S
GR
GS
1 0 1 RC
2 setlinecap
10.0 ML
N
97.941 147.147 M
103.86 147.147 L
S
GR
GS
1 0 1 RC
2 setlinecap
10.0 ML
N
140.973 146.751 M
152.693 146.751 L
S
GR
GS
1 0 1 RC
2 setlinecap
10.0 ML
N
189.807 168.631 M
201.527 168.631 L
S
GR
GS
1 0 1 RC
2 setlinecap
10.0 ML
N
238.64 165.468 M
250.36 165.468 L
S
GR
GS
1 0 1 RC
2 setlinecap
10.0 ML
N
287.473 137.87 M
299.193 137.87 L
S
GR
GS
1 0 1 RC
2 setlinecap
10.0 ML
N
336.307 203.03 M
348.027 203.03 L
S
GR
GS
1 0 1 RC
2 setlinecap
10.0 ML
N
385.14 220.035 M
396.86 220.035 L
S
GR
GS
1 0 1 RC
2 setlinecap
10.0 ML
N
433.973 216.776 M
445.693 216.776 L
S
GR
GS
1 0 1 RC
2 setlinecap
10.0 ML
N
482.807 258.356 M
494.527 258.356 L
S
GR
GS
1 0 1 RC
2 setlinecap
10.0 ML
N
531.64 240.828 M
543.36 240.828 L
S
GR
GS
1 0 1 RC
2 setlinecap
10.0 ML
N
580.473 280.119 M
592.193 280.119 L
S
GR
GS
1 0 1 RC
2 setlinecap
10.0 ML
N
629.307 279.279 M
641.027 279.279 L
S
GR
GS
1 0 1 RC
2 setlinecap
10.0 ML
N
678.14 299.205 M
684.059 299.205 L
S
GR
GS
1 0 1 RC
2 setlinecap
10.0 ML
N
98 164.573 M
146.833 169.725 L
195.667 192.947 L
244.5 193.469 L
293.333 183.688 L
342.167 220.872 L
391 232.445 L
439.833 234.163 L
488.667 270.973 L
537.5 269.779 L
586.333 299.72 L
635.167 295.837 L
684 312.189 L
S
GR
GS
1 0 1 RC
2 setlinecap
10.0 ML
N
95.647 163.573 M
97.795 163.573 L
98.5 161.5 L
99.205 163.573 L
101.353 163.573 L
99.641 164.871 L
100.263 166.927 L
98.5 165.7 L
96.737 166.927 L
97.359 164.871 L
95.647 163.573 L
S
GR
GS
1 0 1 RC
2 setlinecap
10.0 ML
N
143.647 168.573 M
145.795 168.573 L
146.5 166.5 L
147.205 168.573 L
149.353 168.573 L
147.641 169.871 L
148.263 171.927 L
146.5 170.7 L
144.737 171.927 L
145.359 169.871 L
143.647 168.573 L
S
GR
GS
1 0 1 RC
2 setlinecap
10.0 ML
N
192.647 191.573 M
194.795 191.573 L
195.5 189.5 L
196.205 191.573 L
198.353 191.573 L
196.641 192.871 L
197.263 194.927 L
195.5 193.7 L
193.737 194.927 L
194.359 192.871 L
192.647 191.573 L
S
GR
GS
1 0 1 RC
2 setlinecap
10.0 ML
N
241.647 192.573 M
243.795 192.573 L
244.5 190.5 L
245.205 192.573 L
247.353 192.573 L
245.641 193.871 L
246.263 195.927 L
244.5 194.7 L
242.737 195.927 L
243.359 193.871 L
241.647 192.573 L
S
GR
GS
1 0 1 RC
2 setlinecap
10.0 ML
N
290.647 182.573 M
292.795 182.573 L
293.5 180.5 L
294.205 182.573 L
296.353 182.573 L
294.641 183.871 L
295.263 185.927 L
293.5 184.7 L
291.737 185.927 L
292.359 183.871 L
290.647 182.573 L
S
GR
GS
1 0 1 RC
2 setlinecap
10.0 ML
N
339.647 219.573 M
341.795 219.573 L
342.5 217.5 L
343.205 219.573 L
345.353 219.573 L
343.641 220.871 L
344.263 222.927 L
342.5 221.7 L
340.737 222.927 L
341.359 220.871 L
339.647 219.573 L
S
GR
GS
1 0 1 RC
2 setlinecap
10.0 ML
N
388.647 231.573 M
390.795 231.573 L
391.5 229.5 L
392.205 231.573 L
394.353 231.573 L
392.641 232.871 L
393.263 234.927 L
391.5 233.7 L
389.737 234.927 L
390.359 232.871 L
388.647 231.573 L
S
GR
GS
1 0 1 RC
2 setlinecap
10.0 ML
N
436.647 233.573 M
438.795 233.573 L
439.5 231.5 L
440.205 233.573 L
442.353 233.573 L
440.641 234.871 L
441.263 236.927 L
439.5 235.7 L
437.737 236.927 L
438.359 234.871 L
436.647 233.573 L
S
GR
GS
1 0 1 RC
2 setlinecap
10.0 ML
N
485.647 269.573 M
487.795 269.573 L
488.5 267.5 L
489.205 269.573 L
491.353 269.573 L
489.641 270.871 L
490.263 272.927 L
488.5 271.7 L
486.737 272.927 L
487.359 270.871 L
485.647 269.573 L
S
GR
GS
1 0 1 RC
2 setlinecap
10.0 ML
N
534.647 268.573 M
536.795 268.573 L
537.5 266.5 L
538.205 268.573 L
540.353 268.573 L
538.641 269.871 L
539.263 271.927 L
537.5 270.7 L
535.737 271.927 L
536.359 269.871 L
534.647 268.573 L
S
GR
GS
1 0 1 RC
2 setlinecap
10.0 ML
N
583.647 298.573 M
585.795 298.573 L
586.5 296.5 L
587.205 298.573 L
589.353 298.573 L
587.641 299.871 L
588.263 301.927 L
586.5 300.7 L
584.737 301.927 L
585.359 299.871 L
583.647 298.573 L
S
GR
GS
1 0 1 RC
2 setlinecap
10.0 ML
N
632.647 294.573 M
634.795 294.573 L
635.5 292.5 L
636.205 294.573 L
638.353 294.573 L
636.641 295.871 L
637.263 297.927 L
635.5 296.7 L
633.737 297.927 L
634.359 295.871 L
632.647 294.573 L
S
GR
GS
1 0 1 RC
2 setlinecap
10.0 ML
N
681.647 311.573 M
683.795 311.573 L
684.5 309.5 L
685.205 311.573 L
687.353 311.573 L
685.641 312.871 L
686.263 314.927 L
684.5 313.7 L
682.737 314.927 L
683.359 312.871 L
681.647 311.573 L
S
GR
GS
2 setlinecap
10.0 ML
N
98 273.407 M
98 265.105 L
S
GR
GS
2 setlinecap
10.0 ML
N
146.833 282.841 M
146.833 264.332 L
S
GR
GS
2 setlinecap
10.0 ML
N
195.667 302.34 M
195.667 284.406 L
S
GR
GS
2 setlinecap
10.0 ML
N
244.5 302.019 M
244.5 286.819 L
S
GR
GS
2 setlinecap
10.0 ML
N
293.333 307.772 M
293.333 294.654 L
S
GR
GS
2 setlinecap
10.0 ML
N
342.167 310.279 M
342.167 287.369 L
S
GR
GS
2 setlinecap
10.0 ML
N
391 310.374 M
391 296.832 L
S
GR
GS
2 setlinecap
10.0 ML
N
439.833 308.865 M
439.833 292.069 L
S
GR
GS
2 setlinecap
10.0 ML
N
488.667 316.791 M
488.667 305.049 L
S
GR
GS
2 setlinecap
10.0 ML
N
537.5 316.589 M
537.5 295.992 L
S
GR
GS
2 setlinecap
10.0 ML
N
586.333 322.866 M
586.333 312.712 L
S
GR
GS
2 setlinecap
10.0 ML
N
635.167 328.356 M
635.167 303.19 L
S
GR
GS
2 setlinecap
10.0 ML
N
684 335.997 M
684 320.189 L
S
GR
GS
2 setlinecap
10.0 ML
N
97.941 273.407 M
103.86 273.407 L
S
GR
GS
2 setlinecap
10.0 ML
N
140.973 282.841 M
152.693 282.841 L
S
GR
GS
2 setlinecap
10.0 ML
N
189.807 302.34 M
201.527 302.34 L
S
GR
GS
2 setlinecap
10.0 ML
N
238.64 302.019 M
250.36 302.019 L
S
GR
GS
2 setlinecap
10.0 ML
N
287.473 307.772 M
299.193 307.772 L
S
GR
GS
2 setlinecap
10.0 ML
N
336.307 310.279 M
348.027 310.279 L
S
GR
GS
2 setlinecap
10.0 ML
N
385.14 310.374 M
396.86 310.374 L
S
GR
GS
2 setlinecap
10.0 ML
N
433.973 308.865 M
445.693 308.865 L
S
GR
GS
2 setlinecap
10.0 ML
N
482.807 316.791 M
494.527 316.791 L
S
GR
GS
2 setlinecap
10.0 ML
N
531.64 316.589 M
543.36 316.589 L
S
GR
GS
2 setlinecap
10.0 ML
N
580.473 322.866 M
592.193 322.866 L
S
GR
GS
2 setlinecap
10.0 ML
N
629.307 328.356 M
641.027 328.356 L
S
GR
GS
2 setlinecap
10.0 ML
N
678.14 335.997 M
684.059 335.997 L
S
GR
GS
2 setlinecap
10.0 ML
N
97.941 265.105 M
103.86 265.105 L
S
GR
GS
2 setlinecap
10.0 ML
N
140.973 264.332 M
152.693 264.332 L
S
GR
GS
2 setlinecap
10.0 ML
N
189.807 284.406 M
201.527 284.406 L
S
GR
GS
2 setlinecap
10.0 ML
N
238.64 286.819 M
250.36 286.819 L
S
GR
GS
2 setlinecap
10.0 ML
N
287.473 294.654 M
299.193 294.654 L
S
GR
GS
2 setlinecap
10.0 ML
N
336.307 287.369 M
348.027 287.369 L
S
GR
GS
2 setlinecap
10.0 ML
N
385.14 296.832 M
396.86 296.832 L
S
GR
GS
2 setlinecap
10.0 ML
N
433.973 292.069 M
445.693 292.069 L
S
GR
GS
2 setlinecap
10.0 ML
N
482.807 305.049 M
494.527 305.049 L
S
GR
GS
2 setlinecap
10.0 ML
N
531.64 295.992 M
543.36 295.992 L
S
GR
GS
2 setlinecap
10.0 ML
N
580.473 312.712 M
592.193 312.712 L
S
GR
GS
2 setlinecap
10.0 ML
N
629.307 303.19 M
641.027 303.19 L
S
GR
GS
2 setlinecap
10.0 ML
N
678.14 320.189 M
684.059 320.189 L
S
GR
GS
2 setlinecap
10.0 ML
N
98 269.256 M
146.833 273.587 L
195.667 293.373 L
244.5 294.419 L
293.333 301.213 L
342.167 298.824 L
391 303.603 L
439.833 300.467 L
488.667 310.92 L
537.5 306.291 L
586.333 317.789 L
635.167 315.773 L
684 328.093 L
S
GR
GS
2 setlinecap
10.0 ML
N
101.5 269.5 M
100.621 267.379 L
98.5 266.5 L
96.379 267.379 L
95.5 269.5 L
96.379 271.621 L
98.5 272.5 L
100.621 271.621 L
101.5 269.5 L
S
GR
GS
2 setlinecap
10.0 ML
N
149.5 273.5 M
148.621 271.379 L
146.5 270.5 L
144.379 271.379 L
143.5 273.5 L
144.379 275.621 L
146.5 276.5 L
148.621 275.621 L
149.5 273.5 L
S
GR
GS
2 setlinecap
10.0 ML
N
198.5 293.5 M
197.621 291.379 L
195.5 290.5 L
193.379 291.379 L
192.5 293.5 L
193.379 295.621 L
195.5 296.5 L
197.621 295.621 L
198.5 293.5 L
S
GR
GS
2 setlinecap
10.0 ML
N
247.5 294.5 M
246.621 292.379 L
244.5 291.5 L
242.379 292.379 L
241.5 294.5 L
242.379 296.621 L
244.5 297.5 L
246.621 296.621 L
247.5 294.5 L
S
GR
GS
2 setlinecap
10.0 ML
N
296.5 301.5 M
295.621 299.379 L
293.5 298.5 L
291.379 299.379 L
290.5 301.5 L
291.379 303.621 L
293.5 304.5 L
295.621 303.621 L
296.5 301.5 L
S
GR
GS
2 setlinecap
10.0 ML
N
345.5 298.5 M
344.621 296.379 L
342.5 295.5 L
340.379 296.379 L
339.5 298.5 L
340.379 300.621 L
342.5 301.5 L
344.621 300.621 L
345.5 298.5 L
S
GR
GS
2 setlinecap
10.0 ML
N
394.5 303.5 M
393.621 301.379 L
391.5 300.5 L
389.379 301.379 L
388.5 303.5 L
389.379 305.621 L
391.5 306.5 L
393.621 305.621 L
394.5 303.5 L
S
GR
GS
2 setlinecap
10.0 ML
N
442.5 300.5 M
441.621 298.379 L
439.5 297.5 L
437.379 298.379 L
436.5 300.5 L
437.379 302.621 L
439.5 303.5 L
441.621 302.621 L
442.5 300.5 L
S
GR
GS
2 setlinecap
10.0 ML
N
491.5 310.5 M
490.621 308.379 L
488.5 307.5 L
486.379 308.379 L
485.5 310.5 L
486.379 312.621 L
488.5 313.5 L
490.621 312.621 L
491.5 310.5 L
S
GR
GS
2 setlinecap
10.0 ML
N
540.5 306.5 M
539.621 304.379 L
537.5 303.5 L
535.379 304.379 L
534.5 306.5 L
535.379 308.621 L
537.5 309.5 L
539.621 308.621 L
540.5 306.5 L
S
GR
GS
2 setlinecap
10.0 ML
N
589.5 317.5 M
588.621 315.379 L
586.5 314.5 L
584.379 315.379 L
583.5 317.5 L
584.379 319.621 L
586.5 320.5 L
588.621 319.621 L
589.5 317.5 L
S
GR
GS
2 setlinecap
10.0 ML
N
638.5 315.5 M
637.621 313.379 L
635.5 312.5 L
633.379 313.379 L
632.5 315.5 L
633.379 317.621 L
635.5 318.5 L
637.621 317.621 L
638.5 315.5 L
S
GR
GS
2 setlinecap
10.0 ML
N
687.5 328.5 M
686.621 326.379 L
684.5 325.5 L
682.379 326.379 L
681.5 328.5 L
682.379 330.621 L
684.5 331.5 L
686.621 330.621 L
687.5 328.5 L
S
GR
GS
1 0 0 RC
2 setlinecap
10.0 ML
N
98 293.994 M
98 214.054 L
S
GR
GS
1 0 0 RC
2 setlinecap
10.0 ML
N
146.833 363.294 M
146.833 240.178 L
S
GR
GS
1 0 0 RC
2 setlinecap
10.0 ML
N
195.667 360.584 M
195.667 279.923 L
S
GR
GS
1 0 0 RC
2 setlinecap
10.0 ML
N
244.5 377.159 M
244.5 257.225 L
S
GR
GS
1 0 0 RC
2 setlinecap
10.0 ML
N
293.333 428.088 M
293.333 390.126 L
S
GR
GS
1 0 0 RC
2 setlinecap
10.0 ML
N
342.167 447.99 M
342.167 400.986 L
S
GR
GS
1 0 0 RC
2 setlinecap
10.0 ML
N
391 435.647 M
391 391.527 L
S
GR
GS
1 0 0 RC
2 setlinecap
10.0 ML
N
439.833 441.815 M
439.833 390.286 L
S
GR
GS
1 0 0 RC
2 setlinecap
10.0 ML
N
488.667 458.169 M
488.667 414.999 L
S
GR
GS
1 0 0 RC
2 setlinecap
10.0 ML
N
537.5 463.294 M
537.5 437.949 L
S
GR
GS
1 0 0 RC
2 setlinecap
10.0 ML
N
586.333 467.981 M
586.333 454.915 L
S
GR
GS
1 0 0 RC
2 setlinecap
10.0 ML
N
635.167 474.633 M
635.167 466.631 L
S
GR
GS
1 0 0 RC
2 setlinecap
10.0 ML
N
684 473.882 M
684 468.577 L
S
GR
GS
1 0 0 RC
2 setlinecap
10.0 ML
N
97.941 293.994 M
103.86 293.994 L
S
GR
GS
1 0 0 RC
2 setlinecap
10.0 ML
N
140.973 363.294 M
152.693 363.294 L
S
GR
GS
1 0 0 RC
2 setlinecap
10.0 ML
N
189.807 360.584 M
201.527 360.584 L
S
GR
GS
1 0 0 RC
2 setlinecap
10.0 ML
N
238.64 377.159 M
250.36 377.159 L
S
GR
GS
1 0 0 RC
2 setlinecap
10.0 ML
N
287.473 428.088 M
299.193 428.088 L
S
GR
GS
1 0 0 RC
2 setlinecap
10.0 ML
N
336.307 447.99 M
348.027 447.99 L
S
GR
GS
1 0 0 RC
2 setlinecap
10.0 ML
N
385.14 435.647 M
396.86 435.647 L
S
GR
GS
1 0 0 RC
2 setlinecap
10.0 ML
N
433.973 441.815 M
445.693 441.815 L
S
GR
GS
1 0 0 RC
2 setlinecap
10.0 ML
N
482.807 458.169 M
494.527 458.169 L
S
GR
GS
1 0 0 RC
2 setlinecap
10.0 ML
N
531.64 463.294 M
543.36 463.294 L
S
GR
GS
1 0 0 RC
2 setlinecap
10.0 ML
N
580.473 467.981 M
592.193 467.981 L
S
GR
GS
1 0 0 RC
2 setlinecap
10.0 ML
N
629.307 474.633 M
641.027 474.633 L
S
GR
GS
1 0 0 RC
2 setlinecap
10.0 ML
N
678.14 473.882 M
684.059 473.882 L
S
GR
GS
1 0 0 RC
2 setlinecap
10.0 ML
N
97.941 214.054 M
103.86 214.054 L
S
GR
GS
1 0 0 RC
2 setlinecap
10.0 ML
N
140.973 240.178 M
152.693 240.178 L
S
GR
GS
1 0 0 RC
2 setlinecap
10.0 ML
N
189.807 279.923 M
201.527 279.923 L
S
GR
GS
1 0 0 RC
2 setlinecap
10.0 ML
N
238.64 257.225 M
250.36 257.225 L
S
GR
GS
1 0 0 RC
2 setlinecap
10.0 ML
N
287.473 390.126 M
299.193 390.126 L
S
GR
GS
1 0 0 RC
2 setlinecap
10.0 ML
N
336.307 400.986 M
348.027 400.986 L
S
GR
GS
1 0 0 RC
2 setlinecap
10.0 ML
N
385.14 391.527 M
396.86 391.527 L
S
GR
GS
1 0 0 RC
2 setlinecap
10.0 ML
N
433.973 390.286 M
445.693 390.286 L
S
GR
GS
1 0 0 RC
2 setlinecap
10.0 ML
N
482.807 414.999 M
494.527 414.999 L
S
GR
GS
1 0 0 RC
2 setlinecap
10.0 ML
N
531.64 437.949 M
543.36 437.949 L
S
GR
GS
1 0 0 RC
2 setlinecap
10.0 ML
N
580.473 454.915 M
592.193 454.915 L
S
GR
GS
1 0 0 RC
2 setlinecap
10.0 ML
N
629.307 466.631 M
641.027 466.631 L
S
GR
GS
1 0 0 RC
2 setlinecap
10.0 ML
N
678.14 468.577 M
684.059 468.577 L
S
GR
GS
1 0 0 RC
2 setlinecap
10.0 ML
N
98 254.024 M
146.833 301.736 L
195.667 320.253 L
244.5 317.192 L
293.333 409.107 L
342.167 424.488 L
391 413.587 L
439.833 416.051 L
488.667 436.584 L
537.5 450.621 L
586.333 461.448 L
635.167 470.632 L
684 471.229 L
S
GR
GS
1 0 0 RC
2 setlinecap
10.0 ML
N
95 254.5 M
102 254.5 L
S
GR
GS
1 0 0 RC
2 setlinecap
10.0 ML
N
98.5 258 M
98.5 251 L
S
GR
GS
1 0 0 RC
2 setlinecap
10.0 ML
N
96 257 M
101 252 L
S
GR
GS
1 0 0 RC
2 setlinecap
10.0 ML
N
96 252 M
101 257 L
S
GR
GS
1 0 0 RC
2 setlinecap
10.0 ML
N
143 301.5 M
150 301.5 L
S
GR
GS
1 0 0 RC
2 setlinecap
10.0 ML
N
146.5 305 M
146.5 298 L
S
GR
GS
1 0 0 RC
2 setlinecap
10.0 ML
N
144 304 M
149 299 L
S
GR
GS
1 0 0 RC
2 setlinecap
10.0 ML
N
144 299 M
149 304 L
S
GR
GS
1 0 0 RC
2 setlinecap
10.0 ML
N
192 320.5 M
199 320.5 L
S
GR
GS
1 0 0 RC
2 setlinecap
10.0 ML
N
195.5 324 M
195.5 317 L
S
GR
GS
1 0 0 RC
2 setlinecap
10.0 ML
N
193 323 M
198 318 L
S
GR
GS
1 0 0 RC
2 setlinecap
10.0 ML
N
193 318 M
198 323 L
S
GR
GS
1 0 0 RC
2 setlinecap
10.0 ML
N
241 317.5 M
248 317.5 L
S
GR
GS
1 0 0 RC
2 setlinecap
10.0 ML
N
244.5 321 M
244.5 314 L
S
GR
GS
1 0 0 RC
2 setlinecap
10.0 ML
N
242 320 M
247 315 L
S
GR
GS
1 0 0 RC
2 setlinecap
10.0 ML
N
242 315 M
247 320 L
S
GR
GS
1 0 0 RC
2 setlinecap
10.0 ML
N
290 409.5 M
297 409.5 L
S
GR
GS
1 0 0 RC
2 setlinecap
10.0 ML
N
293.5 413 M
293.5 406 L
S
GR
GS
1 0 0 RC
2 setlinecap
10.0 ML
N
291 412 M
296 407 L
S
GR
GS
1 0 0 RC
2 setlinecap
10.0 ML
N
291 407 M
296 412 L
S
GR
GS
1 0 0 RC
2 setlinecap
10.0 ML
N
339 424.5 M
346 424.5 L
S
GR
GS
1 0 0 RC
2 setlinecap
10.0 ML
N
342.5 428 M
342.5 421 L
S
GR
GS
1 0 0 RC
2 setlinecap
10.0 ML
N
340 427 M
345 422 L
S
GR
GS
1 0 0 RC
2 setlinecap
10.0 ML
N
340 422 M
345 427 L
S
GR
GS
1 0 0 RC
2 setlinecap
10.0 ML
N
388 413.5 M
395 413.5 L
S
GR
GS
1 0 0 RC
2 setlinecap
10.0 ML
N
391.5 417 M
391.5 410 L
S
GR
GS
1 0 0 RC
2 setlinecap
10.0 ML
N
389 416 M
394 411 L
S
GR
GS
1 0 0 RC
2 setlinecap
10.0 ML
N
389 411 M
394 416 L
S
GR
GS
1 0 0 RC
2 setlinecap
10.0 ML
N
436 416.5 M
443 416.5 L
S
GR
GS
1 0 0 RC
2 setlinecap
10.0 ML
N
439.5 420 M
439.5 413 L
S
GR
GS
1 0 0 RC
2 setlinecap
10.0 ML
N
437 419 M
442 414 L
S
GR
GS
1 0 0 RC
2 setlinecap
10.0 ML
N
437 414 M
442 419 L
S
GR
GS
1 0 0 RC
2 setlinecap
10.0 ML
N
485 436.5 M
492 436.5 L
S
GR
GS
1 0 0 RC
2 setlinecap
10.0 ML
N
488.5 440 M
488.5 433 L
S
GR
GS
1 0 0 RC
2 setlinecap
10.0 ML
N
486 439 M
491 434 L
S
GR
GS
1 0 0 RC
2 setlinecap
10.0 ML
N
486 434 M
491 439 L
S
GR
GS
1 0 0 RC
2 setlinecap
10.0 ML
N
534 450.5 M
541 450.5 L
S
GR
GS
1 0 0 RC
2 setlinecap
10.0 ML
N
537.5 454 M
537.5 447 L
S
GR
GS
1 0 0 RC
2 setlinecap
10.0 ML
N
535 453 M
540 448 L
S
GR
GS
1 0 0 RC
2 setlinecap
10.0 ML
N
535 448 M
540 453 L
S
GR
GS
1 0 0 RC
2 setlinecap
10.0 ML
N
583 461.5 M
590 461.5 L
S
GR
GS
1 0 0 RC
2 setlinecap
10.0 ML
N
586.5 465 M
586.5 458 L
S
GR
GS
1 0 0 RC
2 setlinecap
10.0 ML
N
584 464 M
589 459 L
S
GR
GS
1 0 0 RC
2 setlinecap
10.0 ML
N
584 459 M
589 464 L
S
GR
GS
1 0 0 RC
2 setlinecap
10.0 ML
N
632 470.5 M
639 470.5 L
S
GR
GS
1 0 0 RC
2 setlinecap
10.0 ML
N
635.5 474 M
635.5 467 L
S
GR
GS
1 0 0 RC
2 setlinecap
10.0 ML
N
633 473 M
638 468 L
S
GR
GS
1 0 0 RC
2 setlinecap
10.0 ML
N
633 468 M
638 473 L
S
GR
GS
1 0 0 RC
2 setlinecap
10.0 ML
N
681 471.5 M
688 471.5 L
S
GR
GS
1 0 0 RC
2 setlinecap
10.0 ML
N
684.5 475 M
684.5 468 L
S
GR
GS
1 0 0 RC
2 setlinecap
10.0 ML
N
682 474 M
687 469 L
S
GR
GS
1 0 0 RC
2 setlinecap
10.0 ML
N
682 469 M
687 474 L
S
GR
GS
1 GC
N
489 117 M
489 41 L
684 41 L
684 117 L
cp
f
GR
GS
[1 0 0 1 539.69702 55.25] CT
/Helvetica 18 F
GS
[1 0 0 1 0 0] CT
0 5.36 moveto 
1 -1 scale
(SVM [Sys 1]) t 
GR
GR
GS
1 0 1 RC
2 setlinecap
10.0 ML
N
496.8 55.25 M
535.797 55.25 L
S
GR
GS
1 0 1 RC
2 setlinecap
10.0 ML
N
513.647 54.573 M
515.795 54.573 L
516.5 52.5 L
517.205 54.573 L
519.353 54.573 L
517.641 55.871 L
518.263 57.927 L
516.5 56.7 L
514.737 57.927 L
515.359 55.871 L
513.647 54.573 L
S
GR
GS
[1 0 0 1 539.69702 79] CT
/Helvetica 18 F
GS
[1 0 0 1 0 0] CT
0 5.36 moveto 
1 -1 scale
(FFNN [Sys 2]) t 
GR
GR
GS
2 setlinecap
10.0 ML
N
496.8 79 M
535.797 79 L
S
GR
GS
2 setlinecap
10.0 ML
N
519.5 78.5 M
518.621 76.379 L
516.5 75.5 L
514.379 76.379 L
513.5 78.5 L
514.379 80.621 L
516.5 81.5 L
518.621 80.621 L
519.5 78.5 L
S
GR
GS
[1 0 0 1 539.69702 102.75] CT
/Helvetica 18 F
GS
[1 0 0 1 0 0] CT
0 5.36 moveto 
1 -1 scale
(IMPC [Sys 5]) t 
GR
GR
GS
1 0 0 RC
2 setlinecap
10.0 ML
N
496.8 102.75 M
535.797 102.75 L
S
GR
GS
1 0 0 RC
2 setlinecap
10.0 ML
N
513 102.5 M
520 102.5 L
S
GR
GS
1 0 0 RC
2 setlinecap
10.0 ML
N
516.5 106 M
516.5 99 L
S
GR
GS
1 0 0 RC
2 setlinecap
10.0 ML
N
514 105 M
519 100 L
S
GR
GS
1 0 0 RC
2 setlinecap
10.0 ML
N
514 100 M
519 105 L
S
GR
GS
0.149 GC
2 setlinecap
10.0 ML
N
489 117 M
489 41 L
684 41 L
684 117 L
489 117 L
S
GR
%%Trailer
%%Pages: 1
%%EOF
