%!PS-Adobe-3.0 EPSF-3.0
%%Creator: (MATLAB, The Mathworks, Inc. Version 8.4.0.150421 \(R2014b\). Operating System: Mac OS X)
%%Title: /Users/jaszhang/ieee1/paper/_images/com_k.eps
%%CreationDate: 2017-02-02T22:14:44
%%Pages: (atend)
%%BoundingBox: 0 0 876 574
%%LanguageLevel: 2
%%EndComments
%%BeginProlog
%%BeginResource: procset (Apache XML Graphics Std ProcSet) 1.2 0
%%Version: 1.2 0
%%Copyright: (Copyright 2001-2003,2010 The Apache Software Foundation. License terms: http://www.apache.org/licenses/LICENSE-2.0)
/bd{bind def}bind def
/ld{load def}bd
/GR/grestore ld
/M/moveto ld
/LJ/setlinejoin ld
/C/curveto ld
/f/fill ld
/LW/setlinewidth ld
/GC/setgray ld
/t/show ld
/N/newpath ld
/CT/concat ld
/cp/closepath ld
/S/stroke ld
/L/lineto ld
/CC/setcmykcolor ld
/A/ashow ld
/GS/gsave ld
/RC/setrgbcolor ld
/RM/rmoveto ld
/ML/setmiterlimit ld
/re {4 2 roll M
1 index 0 rlineto
0 exch rlineto
neg 0 rlineto
cp } bd
/_ctm matrix def
/_tm matrix def
/BT { _ctm currentmatrix pop matrix _tm copy pop 0 0 moveto } bd
/ET { _ctm setmatrix } bd
/iTm { _ctm setmatrix _tm concat } bd
/Tm { _tm astore pop iTm 0 0 moveto } bd
/ux 0.0 def
/uy 0.0 def
/F {
  /Tp exch def
  /Tf exch def
  Tf findfont Tp scalefont setfont
  /cf Tf def  /cs Tp def
} bd
/ULS {currentpoint /uy exch def /ux exch def} bd
/ULE {
  /Tcx currentpoint pop def
  gsave
  newpath
  cf findfont cs scalefont dup
  /FontMatrix get 0 get /Ts exch def /FontInfo get dup
  /UnderlinePosition get Ts mul /To exch def
  /UnderlineThickness get Ts mul /Tt exch def
  ux uy To add moveto  Tcx uy To add lineto
  Tt setlinewidth stroke
  grestore
} bd
/OLE {
  /Tcx currentpoint pop def
  gsave
  newpath
  cf findfont cs scalefont dup
  /FontMatrix get 0 get /Ts exch def /FontInfo get dup
  /UnderlinePosition get Ts mul /To exch def
  /UnderlineThickness get Ts mul /Tt exch def
  ux uy To add cs add moveto Tcx uy To add cs add lineto
  Tt setlinewidth stroke
  grestore
} bd
/SOE {
  /Tcx currentpoint pop def
  gsave
  newpath
  cf findfont cs scalefont dup
  /FontMatrix get 0 get /Ts exch def /FontInfo get dup
  /UnderlinePosition get Ts mul /To exch def
  /UnderlineThickness get Ts mul /Tt exch def
  ux uy To add cs 10 mul 26 idiv add moveto Tcx uy To add cs 10 mul 26 idiv add lineto
  Tt setlinewidth stroke
  grestore
} bd
/QT {
/Y22 exch store
/X22 exch store
/Y21 exch store
/X21 exch store
currentpoint
/Y21 load 2 mul add 3 div exch
/X21 load 2 mul add 3 div exch
/X21 load 2 mul /X22 load add 3 div
/Y21 load 2 mul /Y22 load add 3 div
/X22 load /Y22 load curveto
} bd
/SSPD {
dup length /d exch dict def
{
/v exch def
/k exch def
currentpagedevice k known {
/cpdv currentpagedevice k get def
v cpdv ne {
/upd false def
/nullv v type /nulltype eq def
/nullcpdv cpdv type /nulltype eq def
nullv nullcpdv or
{
/upd true def
} {
/sametype v type cpdv type eq def
sametype {
v type /arraytype eq {
/vlen v length def
/cpdvlen cpdv length def
vlen cpdvlen eq {
0 1 vlen 1 sub {
/i exch def
/obj v i get def
/cpdobj cpdv i get def
obj cpdobj ne {
/upd true def
exit
} if
} for
} {
/upd true def
} ifelse
} {
v type /dicttype eq {
v {
/dv exch def
/dk exch def
/cpddv cpdv dk get def
dv cpddv ne {
/upd true def
exit
} if
} forall
} {
/upd true def
} ifelse
} ifelse
} if
} ifelse
upd true eq {
d k v put
} if
} if
} if
} forall
d length 0 gt {
d setpagedevice
} if
} bd
%%EndResource
%%BeginResource: procset (Apache XML Graphics EPS ProcSet) 1.0 0
%%Version: 1.0 0
%%Copyright: (Copyright 2002-2003 The Apache Software Foundation. License terms: http://www.apache.org/licenses/LICENSE-2.0)
/BeginEPSF { %def
/b4_Inc_state save def         % Save state for cleanup
/dict_count countdictstack def % Count objects on dict stack
/op_count count 1 sub def      % Count objects on operand stack
userdict begin                 % Push userdict on dict stack
/showpage { } def              % Redefine showpage, { } = null proc
0 setgray 0 setlinecap         % Prepare graphics state
1 setlinewidth 0 setlinejoin
10 setmiterlimit [ ] 0 setdash newpath
/languagelevel where           % If level not equal to 1 then
{pop languagelevel             % set strokeadjust and
1 ne                           % overprint to their defaults.
{false setstrokeadjust false setoverprint
} if
} if
} bd
/EndEPSF { %def
count op_count sub {pop} repeat            % Clean up stacks
countdictstack dict_count sub {end} repeat
b4_Inc_state restore
} bd
%%EndResource
%FOPBeginFontDict
%%IncludeResource: font Courier-Bold
%%IncludeResource: font Helvetica
%%IncludeResource: font Courier-BoldOblique
%%IncludeResource: font Courier-Oblique
%%IncludeResource: font Times-Roman
%%IncludeResource: font Helvetica-BoldOblique
%%IncludeResource: font Helvetica-Bold
%%IncludeResource: font Helvetica-Oblique
%%IncludeResource: font Times-BoldItalic
%%IncludeResource: font Courier
%%IncludeResource: font Times-Italic
%%IncludeResource: font Times-Bold
%%IncludeResource: font Symbol
%%IncludeResource: font ZapfDingbats
%FOPEndFontDict
%%BeginResource: encoding WinAnsiEncoding
/WinAnsiEncoding [
/.notdef /.notdef /.notdef /.notdef /.notdef
/.notdef /.notdef /.notdef /.notdef /.notdef
/.notdef /.notdef /.notdef /.notdef /.notdef
/.notdef /.notdef /.notdef /.notdef /.notdef
/.notdef /.notdef /.notdef /.notdef /.notdef
/.notdef /.notdef /.notdef /.notdef /.notdef
/.notdef /.notdef /space /exclam /quotedbl
/numbersign /dollar /percent /ampersand /quotesingle
/parenleft /parenright /asterisk /plus /comma
/hyphen /period /slash /zero /one
/two /three /four /five /six
/seven /eight /nine /colon /semicolon
/less /equal /greater /question /at
/A /B /C /D /E
/F /G /H /I /J
/K /L /M /N /O
/P /Q /R /S /T
/U /V /W /X /Y
/Z /bracketleft /backslash /bracketright /asciicircum
/underscore /quoteleft /a /b /c
/d /e /f /g /h
/i /j /k /l /m
/n /o /p /q /r
/s /t /u /v /w
/x /y /z /braceleft /bar
/braceright /asciitilde /bullet /Euro /bullet
/quotesinglbase /florin /quotedblbase /ellipsis /dagger
/daggerdbl /circumflex /perthousand /Scaron /guilsinglleft
/OE /bullet /Zcaron /bullet /bullet
/quoteleft /quoteright /quotedblleft /quotedblright /bullet
/endash /emdash /asciitilde /trademark /scaron
/guilsinglright /oe /bullet /zcaron /Ydieresis
/space /exclamdown /cent /sterling /currency
/yen /brokenbar /section /dieresis /copyright
/ordfeminine /guillemotleft /logicalnot /sfthyphen /registered
/macron /degree /plusminus /twosuperior /threesuperior
/acute /mu /paragraph /middot /cedilla
/onesuperior /ordmasculine /guillemotright /onequarter /onehalf
/threequarters /questiondown /Agrave /Aacute /Acircumflex
/Atilde /Adieresis /Aring /AE /Ccedilla
/Egrave /Eacute /Ecircumflex /Edieresis /Igrave
/Iacute /Icircumflex /Idieresis /Eth /Ntilde
/Ograve /Oacute /Ocircumflex /Otilde /Odieresis
/multiply /Oslash /Ugrave /Uacute /Ucircumflex
/Udieresis /Yacute /Thorn /germandbls /agrave
/aacute /acircumflex /atilde /adieresis /aring
/ae /ccedilla /egrave /eacute /ecircumflex
/edieresis /igrave /iacute /icircumflex /idieresis
/eth /ntilde /ograve /oacute /ocircumflex
/otilde /odieresis /divide /oslash /ugrave
/uacute /ucircumflex /udieresis /yacute /thorn
/ydieresis
] def
%%EndResource
%FOPBeginFontReencode
/Courier-Bold findfont
dup length dict begin
  {1 index /FID ne {def} {pop pop} ifelse} forall
  /Encoding WinAnsiEncoding def
  currentdict
end
/Courier-Bold exch definefont pop
/Helvetica findfont
dup length dict begin
  {1 index /FID ne {def} {pop pop} ifelse} forall
  /Encoding WinAnsiEncoding def
  currentdict
end
/Helvetica exch definefont pop
/Courier-BoldOblique findfont
dup length dict begin
  {1 index /FID ne {def} {pop pop} ifelse} forall
  /Encoding WinAnsiEncoding def
  currentdict
end
/Courier-BoldOblique exch definefont pop
/Courier-Oblique findfont
dup length dict begin
  {1 index /FID ne {def} {pop pop} ifelse} forall
  /Encoding WinAnsiEncoding def
  currentdict
end
/Courier-Oblique exch definefont pop
/Times-Roman findfont
dup length dict begin
  {1 index /FID ne {def} {pop pop} ifelse} forall
  /Encoding WinAnsiEncoding def
  currentdict
end
/Times-Roman exch definefont pop
/Helvetica-BoldOblique findfont
dup length dict begin
  {1 index /FID ne {def} {pop pop} ifelse} forall
  /Encoding WinAnsiEncoding def
  currentdict
end
/Helvetica-BoldOblique exch definefont pop
/Helvetica-Bold findfont
dup length dict begin
  {1 index /FID ne {def} {pop pop} ifelse} forall
  /Encoding WinAnsiEncoding def
  currentdict
end
/Helvetica-Bold exch definefont pop
/Helvetica-Oblique findfont
dup length dict begin
  {1 index /FID ne {def} {pop pop} ifelse} forall
  /Encoding WinAnsiEncoding def
  currentdict
end
/Helvetica-Oblique exch definefont pop
/Times-BoldItalic findfont
dup length dict begin
  {1 index /FID ne {def} {pop pop} ifelse} forall
  /Encoding WinAnsiEncoding def
  currentdict
end
/Times-BoldItalic exch definefont pop
/Courier findfont
dup length dict begin
  {1 index /FID ne {def} {pop pop} ifelse} forall
  /Encoding WinAnsiEncoding def
  currentdict
end
/Courier exch definefont pop
/Times-Italic findfont
dup length dict begin
  {1 index /FID ne {def} {pop pop} ifelse} forall
  /Encoding WinAnsiEncoding def
  currentdict
end
/Times-Italic exch definefont pop
/Times-Bold findfont
dup length dict begin
  {1 index /FID ne {def} {pop pop} ifelse} forall
  /Encoding WinAnsiEncoding def
  currentdict
end
/Times-Bold exch definefont pop
%FOPEndFontReencode
%%EndProlog
%%Page: 1 1
%%PageBoundingBox: 0 0 876 574
%%BeginPageSetup
[1 0 0 -1 0 574] CT
%%EndPageSetup
GS
1 GC
N
0 0 876 574 re
f
GR
GS
1 GC
N
0 0 876 574 re
f
GR
GS
1 GC
N
114 511 M
793 511 L
793 43 L
114 43 L
cp
f
GR
GS
0.873 GC
2 setlinecap
10.0 ML
N
114 511 M
114 43 L
S
GR
GS
0.873 GC
2 setlinecap
10.0 ML
N
181.9 511 M
181.9 43 L
S
GR
GS
0.873 GC
2 setlinecap
10.0 ML
N
249.8 511 M
249.8 43 L
S
GR
GS
0.873 GC
2 setlinecap
10.0 ML
N
317.7 511 M
317.7 43 L
S
GR
GS
0.873 GC
2 setlinecap
10.0 ML
N
385.6 511 M
385.6 43 L
S
GR
GS
0.873 GC
2 setlinecap
10.0 ML
N
453.5 511 M
453.5 43 L
S
GR
GS
0.873 GC
2 setlinecap
10.0 ML
N
521.4 511 M
521.4 43 L
S
GR
GS
0.873 GC
2 setlinecap
10.0 ML
N
589.3 511 M
589.3 43 L
S
GR
GS
0.873 GC
2 setlinecap
10.0 ML
N
657.2 511 M
657.2 43 L
S
GR
GS
0.873 GC
2 setlinecap
10.0 ML
N
725.1 511 M
725.1 43 L
S
GR
GS
0.873 GC
2 setlinecap
10.0 ML
N
793 511 M
793 43 L
S
GR
GS
0.873 GC
2 setlinecap
10.0 ML
N
793 511 M
114 511 L
S
GR
GS
0.873 GC
2 setlinecap
10.0 ML
N
793 452.5 M
114 452.5 L
S
GR
GS
0.873 GC
2 setlinecap
10.0 ML
N
793 394 M
114 394 L
S
GR
GS
0.873 GC
2 setlinecap
10.0 ML
N
793 335.5 M
114 335.5 L
S
GR
GS
0.873 GC
2 setlinecap
10.0 ML
N
793 277 M
114 277 L
S
GR
GS
0.873 GC
2 setlinecap
10.0 ML
N
793 218.5 M
114 218.5 L
S
GR
GS
0.873 GC
2 setlinecap
10.0 ML
N
793 160 M
114 160 L
S
GR
GS
0.873 GC
2 setlinecap
10.0 ML
N
793 101.5 M
114 101.5 L
S
GR
GS
0.873 GC
2 setlinecap
10.0 ML
N
793 43 M
114 43 L
S
GR
GS
[1 0 0 1 453.5 537] CT
0.149 GC
/Helvetica 22 F
GS
[1 0 0 1 0 0] CT
-40.326 16.94 moveto 
1 -1 scale
(Time \(s\)) t 
GR
GR
GS
0.149 GC
2 setlinecap
10.0 ML
N
114 511 M
793 511 L
S
GR
GS
0.149 GC
2 setlinecap
10.0 ML
N
114 43 M
793 43 L
S
GR
GS
0.149 GC
2 setlinecap
10.0 ML
N
114 511 M
114 504.21 L
S
GR
GS
0.149 GC
2 setlinecap
10.0 ML
N
114 43 M
114 49.79 L
S
GR
GS
0.149 GC
2 setlinecap
10.0 ML
N
181.9 511 M
181.9 504.21 L
S
GR
GS
0.149 GC
2 setlinecap
10.0 ML
N
181.9 43 M
181.9 49.79 L
S
GR
GS
0.149 GC
2 setlinecap
10.0 ML
N
249.8 511 M
249.8 504.21 L
S
GR
GS
0.149 GC
2 setlinecap
10.0 ML
N
249.8 43 M
249.8 49.79 L
S
GR
GS
0.149 GC
2 setlinecap
10.0 ML
N
317.7 511 M
317.7 504.21 L
S
GR
GS
0.149 GC
2 setlinecap
10.0 ML
N
317.7 43 M
317.7 49.79 L
S
GR
GS
0.149 GC
2 setlinecap
10.0 ML
N
385.6 511 M
385.6 504.21 L
S
GR
GS
0.149 GC
2 setlinecap
10.0 ML
N
385.6 43 M
385.6 49.79 L
S
GR
GS
0.149 GC
2 setlinecap
10.0 ML
N
453.5 511 M
453.5 504.21 L
S
GR
GS
0.149 GC
2 setlinecap
10.0 ML
N
453.5 43 M
453.5 49.79 L
S
GR
GS
0.149 GC
2 setlinecap
10.0 ML
N
521.4 511 M
521.4 504.21 L
S
GR
GS
0.149 GC
2 setlinecap
10.0 ML
N
521.4 43 M
521.4 49.79 L
S
GR
GS
0.149 GC
2 setlinecap
10.0 ML
N
589.3 511 M
589.3 504.21 L
S
GR
GS
0.149 GC
2 setlinecap
10.0 ML
N
589.3 43 M
589.3 49.79 L
S
GR
GS
0.149 GC
2 setlinecap
10.0 ML
N
657.2 511 M
657.2 504.21 L
S
GR
GS
0.149 GC
2 setlinecap
10.0 ML
N
657.2 43 M
657.2 49.79 L
S
GR
GS
0.149 GC
2 setlinecap
10.0 ML
N
725.1 511 M
725.1 504.21 L
S
GR
GS
0.149 GC
2 setlinecap
10.0 ML
N
725.1 43 M
725.1 49.79 L
S
GR
GS
0.149 GC
2 setlinecap
10.0 ML
N
793 511 M
793 504.21 L
S
GR
GS
0.149 GC
2 setlinecap
10.0 ML
N
793 43 M
793 49.79 L
S
GR
GS
[1 0 0 1 114 517] CT
0.149 GC
/Helvetica 20 F
GS
[1 0 0 1 0 0] CT
-5.562 15.4 moveto 
1 -1 scale
(0) t 
GR
GR
GS
[1 0 0 1 181.89999 517] CT
0.149 GC
/Helvetica 20 F
GS
[1 0 0 1 0 0] CT
-11.123 15.4 moveto 
1 -1 scale
(10) t 
GR
GR
GS
[1 0 0 1 249.8 517] CT
0.149 GC
/Helvetica 20 F
GS
[1 0 0 1 0 0] CT
-11.123 15.4 moveto 
1 -1 scale
(20) t 
GR
GR
GS
[1 0 0 1 317.70001 517] CT
0.149 GC
/Helvetica 20 F
GS
[1 0 0 1 0 0] CT
-11.123 15.4 moveto 
1 -1 scale
(30) t 
GR
GR
GS
[1 0 0 1 385.60001 517] CT
0.149 GC
/Helvetica 20 F
GS
[1 0 0 1 0 0] CT
-11.123 15.4 moveto 
1 -1 scale
(40) t 
GR
GR
GS
[1 0 0 1 453.5 517] CT
0.149 GC
/Helvetica 20 F
GS
[1 0 0 1 0 0] CT
-11.123 15.4 moveto 
1 -1 scale
(50) t 
GR
GR
GS
[1 0 0 1 521.40002 517] CT
0.149 GC
/Helvetica 20 F
GS
[1 0 0 1 0 0] CT
-11.123 15.4 moveto 
1 -1 scale
(60) t 
GR
GR
GS
[1 0 0 1 589.29999 517] CT
0.149 GC
/Helvetica 20 F
GS
[1 0 0 1 0 0] CT
-11.123 15.4 moveto 
1 -1 scale
(70) t 
GR
GR
GS
[1 0 0 1 657.20001 517] CT
0.149 GC
/Helvetica 20 F
GS
[1 0 0 1 0 0] CT
-11.123 15.4 moveto 
1 -1 scale
(80) t 
GR
GR
GS
[1 0 0 1 725.09998 517] CT
0.149 GC
/Helvetica 20 F
GS
[1 0 0 1 0 0] CT
-11.123 15.4 moveto 
1 -1 scale
(90) t 
GR
GR
GS
[1 0 0 1 793 517] CT
0.149 GC
/Helvetica 20 F
GS
[1 0 0 1 0 0] CT
-16.685 15.4 moveto 
1 -1 scale
(100) t 
GR
GR
GS
[0 -1 1 0 76.09375 277] CT
0.149 GC
/Helvetica 22 F
GS
[1 0 0 1 0 0] CT
-63.588 -4.06 moveto 
1 -1 scale
(Speed \(mph\)) t 
GR
GR
GS
0.149 GC
2 setlinecap
10.0 ML
N
114 511 M
114 43 L
S
GR
GS
0.149 GC
2 setlinecap
10.0 ML
N
793 511 M
793 43 L
S
GR
GS
0.149 GC
2 setlinecap
10.0 ML
N
114 511 M
120.79 511 L
S
GR
GS
0.149 GC
2 setlinecap
10.0 ML
N
793 511 M
786.21 511 L
S
GR
GS
0.149 GC
2 setlinecap
10.0 ML
N
114 452.5 M
120.79 452.5 L
S
GR
GS
0.149 GC
2 setlinecap
10.0 ML
N
793 452.5 M
786.21 452.5 L
S
GR
GS
0.149 GC
2 setlinecap
10.0 ML
N
114 394 M
120.79 394 L
S
GR
GS
0.149 GC
2 setlinecap
10.0 ML
N
793 394 M
786.21 394 L
S
GR
GS
0.149 GC
2 setlinecap
10.0 ML
N
114 335.5 M
120.79 335.5 L
S
GR
GS
0.149 GC
2 setlinecap
10.0 ML
N
793 335.5 M
786.21 335.5 L
S
GR
GS
0.149 GC
2 setlinecap
10.0 ML
N
114 277 M
120.79 277 L
S
GR
GS
0.149 GC
2 setlinecap
10.0 ML
N
793 277 M
786.21 277 L
S
GR
GS
0.149 GC
2 setlinecap
10.0 ML
N
114 218.5 M
120.79 218.5 L
S
GR
GS
0.149 GC
2 setlinecap
10.0 ML
N
793 218.5 M
786.21 218.5 L
S
GR
GS
0.149 GC
2 setlinecap
10.0 ML
N
114 160 M
120.79 160 L
S
GR
GS
0.149 GC
2 setlinecap
10.0 ML
N
793 160 M
786.21 160 L
S
GR
GS
0.149 GC
2 setlinecap
10.0 ML
N
114 101.5 M
120.79 101.5 L
S
GR
GS
0.149 GC
2 setlinecap
10.0 ML
N
793 101.5 M
786.21 101.5 L
S
GR
GS
0.149 GC
2 setlinecap
10.0 ML
N
114 43 M
120.79 43 L
S
GR
GS
0.149 GC
2 setlinecap
10.0 ML
N
793 43 M
786.21 43 L
S
GR
GS
[1 0 0 1 108 511] CT
0.149 GC
/Helvetica 20 F
GS
[1 0 0 1 0 0] CT
-28.906 5.9 moveto 
1 -1 scale
(-10) t 
GR
GR
GS
[1 0 0 1 108 452.5] CT
0.149 GC
/Helvetica 20 F
GS
[1 0 0 1 0 0] CT
-17.783 5.9 moveto 
1 -1 scale
(-5) t 
GR
GR
GS
[1 0 0 1 108 394] CT
0.149 GC
/Helvetica 20 F
GS
[1 0 0 1 0 0] CT
-11.123 5.9 moveto 
1 -1 scale
(0) t 
GR
GR
GS
[1 0 0 1 108 335.5] CT
0.149 GC
/Helvetica 20 F
GS
[1 0 0 1 0 0] CT
-11.123 5.9 moveto 
1 -1 scale
(5) t 
GR
GR
GS
[1 0 0 1 108 277] CT
0.149 GC
/Helvetica 20 F
GS
[1 0 0 1 0 0] CT
-22.246 5.9 moveto 
1 -1 scale
(10) t 
GR
GR
GS
[1 0 0 1 108 218.5] CT
0.149 GC
/Helvetica 20 F
GS
[1 0 0 1 0 0] CT
-22.246 5.9 moveto 
1 -1 scale
(15) t 
GR
GR
GS
[1 0 0 1 108 160] CT
0.149 GC
/Helvetica 20 F
GS
[1 0 0 1 0 0] CT
-22.246 5.9 moveto 
1 -1 scale
(20) t 
GR
GR
GS
[1 0 0 1 108 101.5] CT
0.149 GC
/Helvetica 20 F
GS
[1 0 0 1 0 0] CT
-22.246 5.9 moveto 
1 -1 scale
(25) t 
GR
GR
GS
[1 0 0 1 108 43] CT
0.149 GC
/Helvetica 20 F
GS
[1 0 0 1 0 0] CT
-22.246 5.9 moveto 
1 -1 scale
(30) t 
GR
GR
GS
2 setlinecap
10.0 ML
2 LW
N
120.79 394 M
127.58 394 L
134.37 394 L
141.16 394 L
147.95 394 L
154.74 394 L
161.53 394 L
168.32 391.66 L
175.11 367.09 L
181.9 355.39 L
188.69 346.03 L
195.48 324.97 L
202.27 293.38 L
209.06 261.79 L
215.85 212.65 L
222.64 195.1 L
229.43 181.06 L
236.22 158.83 L
243.01 127.24 L
249.8 112.03 L
256.59 97.99 L
263.38 101.5 L
270.17 115.54 L
276.96 130.75 L
283.75 145.96 L
290.54 168.19 L
297.33 190.42 L
304.12 230.2 L
310.91 281.68 L
317.7 314.44 L
324.49 344.86 L
331.28 374.11 L
338.07 392.83 L
344.86 394 L
351.65 394 L
358.44 394 L
365.23 394 L
372.02 394 L
378.81 394 L
385.6 394 L
392.39 394 L
399.18 394 L
405.97 394 L
412.76 394 L
419.55 394 L
426.34 394 L
433.13 394 L
439.92 394 L
446.71 394 L
453.5 394 L
460.29 394 L
467.08 386.98 L
473.87 365.92 L
480.66 337.84 L
487.45 306.25 L
494.24 277 L
501.03 254.77 L
507.82 239.56 L
514.61 229.03 L
521.4 232.54 L
528.19 238.39 L
534.98 245.41 L
541.77 258.28 L
548.56 282.85 L
555.35 309.76 L
562.14 346.03 L
568.93 369.43 L
575.72 378.79 L
582.51 381.13 L
589.3 376.45 L
596.09 367.09 L
602.88 358.9 L
609.67 341.35 L
616.46 321.46 L
623.25 306.25 L
630.04 295.72 L
636.83 296.89 L
643.62 295.72 L
650.41 293.38 L
657.2 291.04 L
663.99 293.38 L
670.78 312.1 L
677.57 317.95 L
684.36 317.95 L
691.15 314.44 L
697.94 330.82 L
704.73 349.54 L
711.52 346.03 L
718.31 348.37 L
725.1 347.2 L
731.89 343.69 L
738.68 344.86 L
745.47 365.92 L
752.26 384.64 L
759.05 389.32 L
765.84 394 L
772.63 394 L
779.42 394 L
786.21 394 L
793 394 L
S
GR
GS
0 0.447 0.741 RC
[10 6] 0 setdash
2 LJ
1.5 LW
N
120.79 405.098 M
127.58 398.742 L
134.37 394.504 L
141.16 393.233 L
147.95 395.114 L
154.74 396.701 L
161.53 396.13 L
168.32 397.078 L
175.11 397.417 L
181.9 394.377 L
188.69 375.335 L
195.48 355.284 L
202.27 301.546 L
209.06 266.976 L
215.85 239.473 L
222.64 192.008 L
229.43 152.554 L
236.22 130.653 L
243.01 107.822 L
249.8 82.458 L
256.59 77.972 L
263.38 93.386 L
270.17 111.732 L
276.96 128.349 L
283.75 141.702 L
290.54 186.325 L
297.33 248.233 L
304.12 276.654 L
310.91 303.803 L
317.7 334.307 L
324.49 368.301 L
331.28 376.768 L
338.07 379.325 L
344.86 385.106 L
351.65 389.593 L
358.44 385.965 L
365.23 382.171 L
372.02 386.264 L
378.81 388.979 L
385.6 391.264 L
392.39 393.828 L
399.18 394.011 L
405.97 390.394 L
412.76 391.045 L
419.55 390.451 L
426.34 391.8 L
433.13 393.767 L
439.92 395.045 L
446.71 397.918 L
453.5 400.655 L
460.29 378.605 L
467.08 360.099 L
473.87 352.07 L
480.66 333.925 L
487.45 313.512 L
494.24 290.033 L
501.03 274.362 L
507.82 251.843 L
514.61 232.106 L
521.4 213.535 L
528.19 202.545 L
534.98 196.415 L
541.77 189.459 L
548.56 185.758 L
555.35 197.355 L
562.14 184.055 L
568.93 192.024 L
575.72 189.28 L
582.51 184.804 L
589.3 171.265 L
596.09 164.381 L
602.88 167.069 L
609.67 169.57 L
616.46 187.109 L
623.25 209.565 L
630.04 229.697 L
636.83 259.772 L
643.62 291.75 L
650.41 320.393 L
657.2 343.618 L
663.99 365.32 L
670.78 362.454 L
677.57 359.226 L
684.36 356.071 L
691.15 354.505 L
697.94 352.788 L
704.73 352.06 L
711.52 353.568 L
718.31 355.418 L
725.1 355.525 L
731.89 355.415 L
738.68 355.579 L
745.47 356.494 L
752.26 356.952 L
759.05 358.476 L
765.84 359.391 L
772.63 366.264 L
779.42 379.385 L
786.21 389.195 L
793 397.697 L
S
GR
GS
0.851 0.325 0.098 RC
[10 6] 0 setdash
2 LJ
1.5 LW
N
120.79 394.517 M
127.58 404.814 L
134.37 411.631 L
141.16 410.22 L
147.95 402.182 L
154.74 400.814 L
161.53 400.865 L
168.32 395.703 L
175.11 371.962 L
181.9 350.874 L
188.69 335.194 L
195.48 307.913 L
202.27 273.455 L
209.06 231.376 L
215.85 201.138 L
222.64 183.097 L
229.43 169.918 L
236.22 143.417 L
243.01 122.058 L
249.8 111.683 L
256.59 102.3 L
263.38 110.174 L
270.17 119.408 L
276.96 129.952 L
283.75 153.336 L
290.54 173.368 L
297.33 191.103 L
304.12 228.541 L
310.91 272.796 L
317.7 297.291 L
324.49 318.877 L
331.28 331.376 L
338.07 343.974 L
344.86 347.245 L
351.65 352.288 L
358.44 355.204 L
365.23 359.571 L
372.02 364.709 L
378.81 372.19 L
385.6 380.256 L
392.39 389.071 L
399.18 396.679 L
405.97 400.477 L
412.76 399.131 L
419.55 397.516 L
426.34 397.018 L
433.13 398.689 L
439.92 396.597 L
446.71 391.778 L
453.5 388.172 L
460.29 380.704 L
467.08 372.138 L
473.87 367.566 L
480.66 347.957 L
487.45 321.516 L
494.24 300.566 L
501.03 279.062 L
507.82 260.242 L
514.61 247.007 L
521.4 239.309 L
528.19 242.813 L
534.98 253.616 L
541.77 260.133 L
548.56 265.54 L
555.35 271.335 L
562.14 278.418 L
568.93 285.06 L
575.72 324.545 L
582.51 364.348 L
589.3 380.867 L
596.09 387.094 L
602.88 364.802 L
609.67 334.719 L
616.46 305.077 L
623.25 302.714 L
630.04 311.316 L
636.83 302.744 L
643.62 304.51 L
650.41 305.279 L
657.2 309.074 L
663.99 300.66 L
670.78 294.623 L
677.57 280.958 L
684.36 291.467 L
691.15 294.533 L
697.94 297.611 L
704.73 316.808 L
711.52 339.368 L
718.31 364.462 L
725.1 390.554 L
731.89 400.598 L
738.68 405.632 L
745.47 423.427 L
752.26 448.087 L
759.05 474.963 L
765.84 483.083 L
772.63 487.498 L
779.42 488.01 L
786.21 480.894 L
793 479.62 L
S
GR
GS
0.929 0.694 0.125 RC
[10 6] 0 setdash
2 LJ
1.5 LW
N
120.79 379.581 M
127.58 386.543 L
134.37 391.844 L
141.16 395.205 L
147.95 398.623 L
154.74 398.847 L
161.53 396.832 L
168.32 390.913 L
175.11 387.993 L
181.9 380.425 L
188.69 348.82 L
195.48 324.356 L
202.27 308.783 L
209.06 280.387 L
215.85 243.872 L
222.64 209.662 L
229.43 163.179 L
236.22 147.212 L
243.01 136.147 L
249.8 118.916 L
256.59 99.683 L
263.38 104.752 L
270.17 107.123 L
276.96 124.172 L
283.75 149.537 L
290.54 175.367 L
297.33 198.267 L
304.12 226.593 L
310.91 246.577 L
317.7 279.782 L
324.49 327.896 L
331.28 361.104 L
338.07 392.602 L
344.86 419.226 L
351.65 433.625 L
358.44 429.871 L
365.23 425.536 L
372.02 421.99 L
378.81 420.241 L
385.6 420.658 L
392.39 419.989 L
399.18 418.143 L
405.97 416.176 L
412.76 413.612 L
419.55 406.878 L
426.34 396.433 L
433.13 392.488 L
439.92 392.49 L
446.71 391.122 L
453.5 390.982 L
460.29 390.426 L
467.08 387.835 L
473.87 381.909 L
480.66 369.204 L
487.45 343.12 L
494.24 308.869 L
501.03 273.389 L
507.82 241.602 L
514.61 219.447 L
521.4 207.699 L
528.19 197.981 L
534.98 204.736 L
541.77 211.343 L
548.56 219.912 L
555.35 232.159 L
562.14 257.28 L
568.93 284.979 L
575.72 319.717 L
582.51 346.288 L
589.3 361.819 L
596.09 362.053 L
602.88 353.743 L
609.67 345.692 L
616.46 345.213 L
623.25 337.4 L
630.04 322.89 L
636.83 305.903 L
643.62 293.61 L
650.41 292.557 L
657.2 290.543 L
663.99 288.843 L
670.78 288.165 L
677.57 291.121 L
684.36 309.449 L
691.15 314.367 L
697.94 314.514 L
704.73 311.462 L
711.52 327.943 L
718.31 349.393 L
725.1 351.166 L
731.89 356.471 L
738.68 357.156 L
745.47 355.667 L
752.26 357.309 L
759.05 375.221 L
765.84 392.06 L
772.63 393.809 L
779.42 395.114 L
786.21 391.325 L
793 390.009 L
S
GR
GS
0 0 1 RC
[10 6] 0 setdash
2 LJ
1.5 LW
N
120.79 394 M
127.58 394 L
134.37 394 L
141.16 394 L
147.95 394 L
154.74 394 L
161.53 394 L
168.32 391.66 L
175.11 367.09 L
181.9 355.39 L
188.69 346.03 L
195.48 324.97 L
202.27 293.38 L
209.06 261.79 L
215.85 212.65 L
222.64 195.1 L
229.43 181.06 L
236.22 158.83 L
243.01 127.24 L
249.8 112.03 L
256.59 97.99 L
263.38 101.5 L
270.17 115.54 L
276.96 130.75 L
283.75 145.96 L
290.54 168.19 L
297.33 190.42 L
304.12 230.2 L
310.91 281.68 L
317.7 314.44 L
324.49 344.86 L
331.28 374.11 L
338.07 392.83 L
344.86 394 L
351.65 394 L
358.44 394 L
365.23 394 L
372.02 394 L
378.81 394 L
385.6 394 L
392.39 394 L
399.18 394 L
405.97 394 L
412.76 394 L
419.55 394 L
426.34 394 L
433.13 394 L
439.92 394 L
446.71 394 L
453.5 394 L
460.29 394 L
467.08 386.98 L
473.87 365.92 L
480.66 337.84 L
487.45 306.25 L
494.24 277 L
501.03 254.77 L
507.82 239.56 L
514.61 229.03 L
521.4 232.54 L
528.19 238.39 L
534.98 245.41 L
541.77 258.28 L
548.56 282.85 L
555.35 309.76 L
562.14 346.03 L
568.93 369.43 L
575.72 378.79 L
582.51 381.13 L
589.3 376.45 L
596.09 367.09 L
602.88 358.9 L
609.67 341.35 L
616.46 321.46 L
623.25 306.25 L
630.04 295.72 L
636.83 296.89 L
643.62 295.72 L
650.41 293.38 L
657.2 291.04 L
663.99 293.38 L
670.78 312.1 L
677.57 317.95 L
684.36 317.95 L
691.15 314.44 L
697.94 330.82 L
704.73 349.54 L
711.52 346.03 L
718.31 348.37 L
725.1 347.2 L
731.89 343.69 L
738.68 344.86 L
745.47 365.92 L
752.26 384.64 L
759.05 389.32 L
765.84 394 L
772.63 394 L
779.42 394 L
786.21 394 L
793 394 L
S
GR
GS
1 GC
N
614 160 M
614 43 L
793 43 L
793 160 L
cp
f
GR
GS
[1 0 0 1 657.61157 56.5] CT
/Helvetica 18 F
GS
[1 0 0 1 0 0] CT
0 5.36 moveto 
1 -1 scale
(Speed signal) t 
GR
GR
GS
2 setlinecap
10.0 ML
2 LW
N
620.709 56.5 M
654.257 56.5 L
S
GR
GS
[1 0 0 1 657.61157 79] CT
/Helvetica 18 F
GS
[1 0 0 1 0 0] CT
0 5.36 moveto 
1 -1 scale
(K = 5, m = 15) t 
GR
GR
GS
0 0.447 0.741 RC
[10 6] 0 setdash
2 LJ
1.5 LW
N
620.709 79 M
654.257 79 L
S
GR
GS
[1 0 0 1 657.61157 101.5] CT
/Helvetica 18 F
GS
[1 0 0 1 0 0] CT
0 5.36 moveto 
1 -1 scale
(K = 15, m = 15) t 
GR
GR
GS
0.851 0.325 0.098 RC
[10 6] 0 setdash
2 LJ
1.5 LW
N
620.709 101.5 M
654.257 101.5 L
S
GR
GS
[1 0 0 1 657.61157 124] CT
/Helvetica 18 F
GS
[1 0 0 1 0 0] CT
0 5.36 moveto 
1 -1 scale
(K = 25, m = 15) t 
GR
GR
GS
0.929 0.694 0.125 RC
[10 6] 0 setdash
2 LJ
1.5 LW
N
620.709 124 M
654.257 124 L
S
GR
GS
[1 0 0 1 657.61157 146.5] CT
/Helvetica 18 F
GS
[1 0 0 1 0 0] CT
0 5.36 moveto 
1 -1 scale
(K = 35, m = 15) t 
GR
GR
GS
0 0 1 RC
[10 6] 0 setdash
2 LJ
1.5 LW
N
620.709 146.5 M
654.257 146.5 L
S
GR
GS
0.149 GC
2 setlinecap
10.0 ML
N
614 160 M
614 43 L
793 43 L
793 160 L
614 160 L
S
GR
%%Trailer
%%Pages: 1
%%EOF
