%!PS-Adobe-3.0 EPSF-3.0
%%Creator: (MATLAB, The Mathworks, Inc. Version 8.4.0.150421 \(R2014b\). Operating System: Mac OS X)
%%Title: /Users/jaszhang/ieee1/paper/_images/com_m.eps
%%CreationDate: 2017-02-02T22:25:51
%%Pages: (atend)
%%BoundingBox: 0 0 878 582
%%LanguageLevel: 2
%%EndComments
%%BeginProlog
%%BeginResource: procset (Apache XML Graphics Std ProcSet) 1.2 0
%%Version: 1.2 0
%%Copyright: (Copyright 2001-2003,2010 The Apache Software Foundation. License terms: http://www.apache.org/licenses/LICENSE-2.0)
/bd{bind def}bind def
/ld{load def}bd
/GR/grestore ld
/M/moveto ld
/LJ/setlinejoin ld
/C/curveto ld
/f/fill ld
/LW/setlinewidth ld
/GC/setgray ld
/t/show ld
/N/newpath ld
/CT/concat ld
/cp/closepath ld
/S/stroke ld
/L/lineto ld
/CC/setcmykcolor ld
/A/ashow ld
/GS/gsave ld
/RC/setrgbcolor ld
/RM/rmoveto ld
/ML/setmiterlimit ld
/re {4 2 roll M
1 index 0 rlineto
0 exch rlineto
neg 0 rlineto
cp } bd
/_ctm matrix def
/_tm matrix def
/BT { _ctm currentmatrix pop matrix _tm copy pop 0 0 moveto } bd
/ET { _ctm setmatrix } bd
/iTm { _ctm setmatrix _tm concat } bd
/Tm { _tm astore pop iTm 0 0 moveto } bd
/ux 0.0 def
/uy 0.0 def
/F {
  /Tp exch def
  /Tf exch def
  Tf findfont Tp scalefont setfont
  /cf Tf def  /cs Tp def
} bd
/ULS {currentpoint /uy exch def /ux exch def} bd
/ULE {
  /Tcx currentpoint pop def
  gsave
  newpath
  cf findfont cs scalefont dup
  /FontMatrix get 0 get /Ts exch def /FontInfo get dup
  /UnderlinePosition get Ts mul /To exch def
  /UnderlineThickness get Ts mul /Tt exch def
  ux uy To add moveto  Tcx uy To add lineto
  Tt setlinewidth stroke
  grestore
} bd
/OLE {
  /Tcx currentpoint pop def
  gsave
  newpath
  cf findfont cs scalefont dup
  /FontMatrix get 0 get /Ts exch def /FontInfo get dup
  /UnderlinePosition get Ts mul /To exch def
  /UnderlineThickness get Ts mul /Tt exch def
  ux uy To add cs add moveto Tcx uy To add cs add lineto
  Tt setlinewidth stroke
  grestore
} bd
/SOE {
  /Tcx currentpoint pop def
  gsave
  newpath
  cf findfont cs scalefont dup
  /FontMatrix get 0 get /Ts exch def /FontInfo get dup
  /UnderlinePosition get Ts mul /To exch def
  /UnderlineThickness get Ts mul /Tt exch def
  ux uy To add cs 10 mul 26 idiv add moveto Tcx uy To add cs 10 mul 26 idiv add lineto
  Tt setlinewidth stroke
  grestore
} bd
/QT {
/Y22 exch store
/X22 exch store
/Y21 exch store
/X21 exch store
currentpoint
/Y21 load 2 mul add 3 div exch
/X21 load 2 mul add 3 div exch
/X21 load 2 mul /X22 load add 3 div
/Y21 load 2 mul /Y22 load add 3 div
/X22 load /Y22 load curveto
} bd
/SSPD {
dup length /d exch dict def
{
/v exch def
/k exch def
currentpagedevice k known {
/cpdv currentpagedevice k get def
v cpdv ne {
/upd false def
/nullv v type /nulltype eq def
/nullcpdv cpdv type /nulltype eq def
nullv nullcpdv or
{
/upd true def
} {
/sametype v type cpdv type eq def
sametype {
v type /arraytype eq {
/vlen v length def
/cpdvlen cpdv length def
vlen cpdvlen eq {
0 1 vlen 1 sub {
/i exch def
/obj v i get def
/cpdobj cpdv i get def
obj cpdobj ne {
/upd true def
exit
} if
} for
} {
/upd true def
} ifelse
} {
v type /dicttype eq {
v {
/dv exch def
/dk exch def
/cpddv cpdv dk get def
dv cpddv ne {
/upd true def
exit
} if
} forall
} {
/upd true def
} ifelse
} ifelse
} if
} ifelse
upd true eq {
d k v put
} if
} if
} if
} forall
d length 0 gt {
d setpagedevice
} if
} bd
%%EndResource
%%BeginResource: procset (Apache XML Graphics EPS ProcSet) 1.0 0
%%Version: 1.0 0
%%Copyright: (Copyright 2002-2003 The Apache Software Foundation. License terms: http://www.apache.org/licenses/LICENSE-2.0)
/BeginEPSF { %def
/b4_Inc_state save def         % Save state for cleanup
/dict_count countdictstack def % Count objects on dict stack
/op_count count 1 sub def      % Count objects on operand stack
userdict begin                 % Push userdict on dict stack
/showpage { } def              % Redefine showpage, { } = null proc
0 setgray 0 setlinecap         % Prepare graphics state
1 setlinewidth 0 setlinejoin
10 setmiterlimit [ ] 0 setdash newpath
/languagelevel where           % If level not equal to 1 then
{pop languagelevel             % set strokeadjust and
1 ne                           % overprint to their defaults.
{false setstrokeadjust false setoverprint
} if
} if
} bd
/EndEPSF { %def
count op_count sub {pop} repeat            % Clean up stacks
countdictstack dict_count sub {end} repeat
b4_Inc_state restore
} bd
%%EndResource
%FOPBeginFontDict
%%IncludeResource: font Courier-Bold
%%IncludeResource: font Helvetica
%%IncludeResource: font Courier-BoldOblique
%%IncludeResource: font Courier-Oblique
%%IncludeResource: font Times-Roman
%%IncludeResource: font Helvetica-BoldOblique
%%IncludeResource: font Helvetica-Bold
%%IncludeResource: font Helvetica-Oblique
%%IncludeResource: font Times-BoldItalic
%%IncludeResource: font Courier
%%IncludeResource: font Times-Italic
%%IncludeResource: font Times-Bold
%%IncludeResource: font Symbol
%%IncludeResource: font ZapfDingbats
%FOPEndFontDict
%%BeginResource: encoding WinAnsiEncoding
/WinAnsiEncoding [
/.notdef /.notdef /.notdef /.notdef /.notdef
/.notdef /.notdef /.notdef /.notdef /.notdef
/.notdef /.notdef /.notdef /.notdef /.notdef
/.notdef /.notdef /.notdef /.notdef /.notdef
/.notdef /.notdef /.notdef /.notdef /.notdef
/.notdef /.notdef /.notdef /.notdef /.notdef
/.notdef /.notdef /space /exclam /quotedbl
/numbersign /dollar /percent /ampersand /quotesingle
/parenleft /parenright /asterisk /plus /comma
/hyphen /period /slash /zero /one
/two /three /four /five /six
/seven /eight /nine /colon /semicolon
/less /equal /greater /question /at
/A /B /C /D /E
/F /G /H /I /J
/K /L /M /N /O
/P /Q /R /S /T
/U /V /W /X /Y
/Z /bracketleft /backslash /bracketright /asciicircum
/underscore /quoteleft /a /b /c
/d /e /f /g /h
/i /j /k /l /m
/n /o /p /q /r
/s /t /u /v /w
/x /y /z /braceleft /bar
/braceright /asciitilde /bullet /Euro /bullet
/quotesinglbase /florin /quotedblbase /ellipsis /dagger
/daggerdbl /circumflex /perthousand /Scaron /guilsinglleft
/OE /bullet /Zcaron /bullet /bullet
/quoteleft /quoteright /quotedblleft /quotedblright /bullet
/endash /emdash /asciitilde /trademark /scaron
/guilsinglright /oe /bullet /zcaron /Ydieresis
/space /exclamdown /cent /sterling /currency
/yen /brokenbar /section /dieresis /copyright
/ordfeminine /guillemotleft /logicalnot /sfthyphen /registered
/macron /degree /plusminus /twosuperior /threesuperior
/acute /mu /paragraph /middot /cedilla
/onesuperior /ordmasculine /guillemotright /onequarter /onehalf
/threequarters /questiondown /Agrave /Aacute /Acircumflex
/Atilde /Adieresis /Aring /AE /Ccedilla
/Egrave /Eacute /Ecircumflex /Edieresis /Igrave
/Iacute /Icircumflex /Idieresis /Eth /Ntilde
/Ograve /Oacute /Ocircumflex /Otilde /Odieresis
/multiply /Oslash /Ugrave /Uacute /Ucircumflex
/Udieresis /Yacute /Thorn /germandbls /agrave
/aacute /acircumflex /atilde /adieresis /aring
/ae /ccedilla /egrave /eacute /ecircumflex
/edieresis /igrave /iacute /icircumflex /idieresis
/eth /ntilde /ograve /oacute /ocircumflex
/otilde /odieresis /divide /oslash /ugrave
/uacute /ucircumflex /udieresis /yacute /thorn
/ydieresis
] def
%%EndResource
%FOPBeginFontReencode
/Courier-Bold findfont
dup length dict begin
  {1 index /FID ne {def} {pop pop} ifelse} forall
  /Encoding WinAnsiEncoding def
  currentdict
end
/Courier-Bold exch definefont pop
/Helvetica findfont
dup length dict begin
  {1 index /FID ne {def} {pop pop} ifelse} forall
  /Encoding WinAnsiEncoding def
  currentdict
end
/Helvetica exch definefont pop
/Courier-BoldOblique findfont
dup length dict begin
  {1 index /FID ne {def} {pop pop} ifelse} forall
  /Encoding WinAnsiEncoding def
  currentdict
end
/Courier-BoldOblique exch definefont pop
/Courier-Oblique findfont
dup length dict begin
  {1 index /FID ne {def} {pop pop} ifelse} forall
  /Encoding WinAnsiEncoding def
  currentdict
end
/Courier-Oblique exch definefont pop
/Times-Roman findfont
dup length dict begin
  {1 index /FID ne {def} {pop pop} ifelse} forall
  /Encoding WinAnsiEncoding def
  currentdict
end
/Times-Roman exch definefont pop
/Helvetica-BoldOblique findfont
dup length dict begin
  {1 index /FID ne {def} {pop pop} ifelse} forall
  /Encoding WinAnsiEncoding def
  currentdict
end
/Helvetica-BoldOblique exch definefont pop
/Helvetica-Bold findfont
dup length dict begin
  {1 index /FID ne {def} {pop pop} ifelse} forall
  /Encoding WinAnsiEncoding def
  currentdict
end
/Helvetica-Bold exch definefont pop
/Helvetica-Oblique findfont
dup length dict begin
  {1 index /FID ne {def} {pop pop} ifelse} forall
  /Encoding WinAnsiEncoding def
  currentdict
end
/Helvetica-Oblique exch definefont pop
/Times-BoldItalic findfont
dup length dict begin
  {1 index /FID ne {def} {pop pop} ifelse} forall
  /Encoding WinAnsiEncoding def
  currentdict
end
/Times-BoldItalic exch definefont pop
/Courier findfont
dup length dict begin
  {1 index /FID ne {def} {pop pop} ifelse} forall
  /Encoding WinAnsiEncoding def
  currentdict
end
/Courier exch definefont pop
/Times-Italic findfont
dup length dict begin
  {1 index /FID ne {def} {pop pop} ifelse} forall
  /Encoding WinAnsiEncoding def
  currentdict
end
/Times-Italic exch definefont pop
/Times-Bold findfont
dup length dict begin
  {1 index /FID ne {def} {pop pop} ifelse} forall
  /Encoding WinAnsiEncoding def
  currentdict
end
/Times-Bold exch definefont pop
%FOPEndFontReencode
%%EndProlog
%%Page: 1 1
%%PageBoundingBox: 0 0 878 582
%%BeginPageSetup
[1 0 0 -1 0 582] CT
%%EndPageSetup
GS
1 GC
N
0 0 878 582 re
f
GR
GS
1 GC
N
0 0 878 582 re
f
GR
GS
1 GC
N
114 518 M
795 518 L
795 44 L
114 44 L
cp
f
GR
GS
0.873 GC
2 setlinecap
10.0 ML
N
114 518 M
114 44 L
S
GR
GS
0.873 GC
2 setlinecap
10.0 ML
N
182.1 518 M
182.1 44 L
S
GR
GS
0.873 GC
2 setlinecap
10.0 ML
N
250.2 518 M
250.2 44 L
S
GR
GS
0.873 GC
2 setlinecap
10.0 ML
N
318.3 518 M
318.3 44 L
S
GR
GS
0.873 GC
2 setlinecap
10.0 ML
N
386.4 518 M
386.4 44 L
S
GR
GS
0.873 GC
2 setlinecap
10.0 ML
N
454.5 518 M
454.5 44 L
S
GR
GS
0.873 GC
2 setlinecap
10.0 ML
N
522.6 518 M
522.6 44 L
S
GR
GS
0.873 GC
2 setlinecap
10.0 ML
N
590.7 518 M
590.7 44 L
S
GR
GS
0.873 GC
2 setlinecap
10.0 ML
N
658.8 518 M
658.8 44 L
S
GR
GS
0.873 GC
2 setlinecap
10.0 ML
N
726.9 518 M
726.9 44 L
S
GR
GS
0.873 GC
2 setlinecap
10.0 ML
N
795 518 M
795 44 L
S
GR
GS
0.873 GC
2 setlinecap
10.0 ML
N
795 518 M
114 518 L
S
GR
GS
0.873 GC
2 setlinecap
10.0 ML
N
795 450.286 M
114 450.286 L
S
GR
GS
0.873 GC
2 setlinecap
10.0 ML
N
795 382.571 M
114 382.571 L
S
GR
GS
0.873 GC
2 setlinecap
10.0 ML
N
795 314.857 M
114 314.857 L
S
GR
GS
0.873 GC
2 setlinecap
10.0 ML
N
795 247.143 M
114 247.143 L
S
GR
GS
0.873 GC
2 setlinecap
10.0 ML
N
795 179.429 M
114 179.429 L
S
GR
GS
0.873 GC
2 setlinecap
10.0 ML
N
795 111.714 M
114 111.714 L
S
GR
GS
0.873 GC
2 setlinecap
10.0 ML
N
795 44 M
114 44 L
S
GR
GS
[1 0 0 1 454.5 544] CT
0.149 GC
/Helvetica 22 F
GS
[1 0 0 1 0 0] CT
-40.326 16.94 moveto 
1 -1 scale
(Time \(s\)) t 
GR
GR
GS
0.149 GC
2 setlinecap
10.0 ML
N
114 518 M
795 518 L
S
GR
GS
0.149 GC
2 setlinecap
10.0 ML
N
114 44 M
795 44 L
S
GR
GS
0.149 GC
2 setlinecap
10.0 ML
N
114 518 M
114 511.19 L
S
GR
GS
0.149 GC
2 setlinecap
10.0 ML
N
114 44 M
114 50.81 L
S
GR
GS
0.149 GC
2 setlinecap
10.0 ML
N
182.1 518 M
182.1 511.19 L
S
GR
GS
0.149 GC
2 setlinecap
10.0 ML
N
182.1 44 M
182.1 50.81 L
S
GR
GS
0.149 GC
2 setlinecap
10.0 ML
N
250.2 518 M
250.2 511.19 L
S
GR
GS
0.149 GC
2 setlinecap
10.0 ML
N
250.2 44 M
250.2 50.81 L
S
GR
GS
0.149 GC
2 setlinecap
10.0 ML
N
318.3 518 M
318.3 511.19 L
S
GR
GS
0.149 GC
2 setlinecap
10.0 ML
N
318.3 44 M
318.3 50.81 L
S
GR
GS
0.149 GC
2 setlinecap
10.0 ML
N
386.4 518 M
386.4 511.19 L
S
GR
GS
0.149 GC
2 setlinecap
10.0 ML
N
386.4 44 M
386.4 50.81 L
S
GR
GS
0.149 GC
2 setlinecap
10.0 ML
N
454.5 518 M
454.5 511.19 L
S
GR
GS
0.149 GC
2 setlinecap
10.0 ML
N
454.5 44 M
454.5 50.81 L
S
GR
GS
0.149 GC
2 setlinecap
10.0 ML
N
522.6 518 M
522.6 511.19 L
S
GR
GS
0.149 GC
2 setlinecap
10.0 ML
N
522.6 44 M
522.6 50.81 L
S
GR
GS
0.149 GC
2 setlinecap
10.0 ML
N
590.7 518 M
590.7 511.19 L
S
GR
GS
0.149 GC
2 setlinecap
10.0 ML
N
590.7 44 M
590.7 50.81 L
S
GR
GS
0.149 GC
2 setlinecap
10.0 ML
N
658.8 518 M
658.8 511.19 L
S
GR
GS
0.149 GC
2 setlinecap
10.0 ML
N
658.8 44 M
658.8 50.81 L
S
GR
GS
0.149 GC
2 setlinecap
10.0 ML
N
726.9 518 M
726.9 511.19 L
S
GR
GS
0.149 GC
2 setlinecap
10.0 ML
N
726.9 44 M
726.9 50.81 L
S
GR
GS
0.149 GC
2 setlinecap
10.0 ML
N
795 518 M
795 511.19 L
S
GR
GS
0.149 GC
2 setlinecap
10.0 ML
N
795 44 M
795 50.81 L
S
GR
GS
[1 0 0 1 114 524] CT
0.149 GC
/Helvetica 20 F
GS
[1 0 0 1 0 0] CT
-5.562 15.4 moveto 
1 -1 scale
(0) t 
GR
GR
GS
[1 0 0 1 182.10001 524] CT
0.149 GC
/Helvetica 20 F
GS
[1 0 0 1 0 0] CT
-11.123 15.4 moveto 
1 -1 scale
(10) t 
GR
GR
GS
[1 0 0 1 250.2 524] CT
0.149 GC
/Helvetica 20 F
GS
[1 0 0 1 0 0] CT
-11.123 15.4 moveto 
1 -1 scale
(20) t 
GR
GR
GS
[1 0 0 1 318.29999 524] CT
0.149 GC
/Helvetica 20 F
GS
[1 0 0 1 0 0] CT
-11.123 15.4 moveto 
1 -1 scale
(30) t 
GR
GR
GS
[1 0 0 1 386.39999 524] CT
0.149 GC
/Helvetica 20 F
GS
[1 0 0 1 0 0] CT
-11.123 15.4 moveto 
1 -1 scale
(40) t 
GR
GR
GS
[1 0 0 1 454.5 524] CT
0.149 GC
/Helvetica 20 F
GS
[1 0 0 1 0 0] CT
-11.123 15.4 moveto 
1 -1 scale
(50) t 
GR
GR
GS
[1 0 0 1 522.59998 524] CT
0.149 GC
/Helvetica 20 F
GS
[1 0 0 1 0 0] CT
-11.123 15.4 moveto 
1 -1 scale
(60) t 
GR
GR
GS
[1 0 0 1 590.70001 524] CT
0.149 GC
/Helvetica 20 F
GS
[1 0 0 1 0 0] CT
-11.123 15.4 moveto 
1 -1 scale
(70) t 
GR
GR
GS
[1 0 0 1 658.79999 524] CT
0.149 GC
/Helvetica 20 F
GS
[1 0 0 1 0 0] CT
-11.123 15.4 moveto 
1 -1 scale
(80) t 
GR
GR
GS
[1 0 0 1 726.90002 524] CT
0.149 GC
/Helvetica 20 F
GS
[1 0 0 1 0 0] CT
-11.123 15.4 moveto 
1 -1 scale
(90) t 
GR
GR
GS
[1 0 0 1 795 524] CT
0.149 GC
/Helvetica 20 F
GS
[1 0 0 1 0 0] CT
-16.685 15.4 moveto 
1 -1 scale
(100) t 
GR
GR
GS
[0 -1 1 0 82.75391 281] CT
0.149 GC
/Helvetica 22 F
GS
[1 0 0 1 0 0] CT
-63.588 -4.06 moveto 
1 -1 scale
(Speed \(mph\)) t 
GR
GR
GS
0.149 GC
2 setlinecap
10.0 ML
N
114 518 M
114 44 L
S
GR
GS
0.149 GC
2 setlinecap
10.0 ML
N
795 518 M
795 44 L
S
GR
GS
0.149 GC
2 setlinecap
10.0 ML
N
114 518 M
120.81 518 L
S
GR
GS
0.149 GC
2 setlinecap
10.0 ML
N
795 518 M
788.19 518 L
S
GR
GS
0.149 GC
2 setlinecap
10.0 ML
N
114 450.286 M
120.81 450.286 L
S
GR
GS
0.149 GC
2 setlinecap
10.0 ML
N
795 450.286 M
788.19 450.286 L
S
GR
GS
0.149 GC
2 setlinecap
10.0 ML
N
114 382.571 M
120.81 382.571 L
S
GR
GS
0.149 GC
2 setlinecap
10.0 ML
N
795 382.571 M
788.19 382.571 L
S
GR
GS
0.149 GC
2 setlinecap
10.0 ML
N
114 314.857 M
120.81 314.857 L
S
GR
GS
0.149 GC
2 setlinecap
10.0 ML
N
795 314.857 M
788.19 314.857 L
S
GR
GS
0.149 GC
2 setlinecap
10.0 ML
N
114 247.143 M
120.81 247.143 L
S
GR
GS
0.149 GC
2 setlinecap
10.0 ML
N
795 247.143 M
788.19 247.143 L
S
GR
GS
0.149 GC
2 setlinecap
10.0 ML
N
114 179.429 M
120.81 179.429 L
S
GR
GS
0.149 GC
2 setlinecap
10.0 ML
N
795 179.429 M
788.19 179.429 L
S
GR
GS
0.149 GC
2 setlinecap
10.0 ML
N
114 111.714 M
120.81 111.714 L
S
GR
GS
0.149 GC
2 setlinecap
10.0 ML
N
795 111.714 M
788.19 111.714 L
S
GR
GS
0.149 GC
2 setlinecap
10.0 ML
N
114 44 M
120.81 44 L
S
GR
GS
0.149 GC
2 setlinecap
10.0 ML
N
795 44 M
788.19 44 L
S
GR
GS
[1 0 0 1 108 518] CT
0.149 GC
/Helvetica 20 F
GS
[1 0 0 1 0 0] CT
-17.783 5.9 moveto 
1 -1 scale
(-5) t 
GR
GR
GS
[1 0 0 1 108 450.28571] CT
0.149 GC
/Helvetica 20 F
GS
[1 0 0 1 0 0] CT
-11.123 5.9 moveto 
1 -1 scale
(0) t 
GR
GR
GS
[1 0 0 1 108 382.57144] CT
0.149 GC
/Helvetica 20 F
GS
[1 0 0 1 0 0] CT
-11.123 5.9 moveto 
1 -1 scale
(5) t 
GR
GR
GS
[1 0 0 1 108 314.85715] CT
0.149 GC
/Helvetica 20 F
GS
[1 0 0 1 0 0] CT
-22.246 5.9 moveto 
1 -1 scale
(10) t 
GR
GR
GS
[1 0 0 1 108 247.14285] CT
0.149 GC
/Helvetica 20 F
GS
[1 0 0 1 0 0] CT
-22.246 5.9 moveto 
1 -1 scale
(15) t 
GR
GR
GS
[1 0 0 1 108 179.42857] CT
0.149 GC
/Helvetica 20 F
GS
[1 0 0 1 0 0] CT
-22.246 5.9 moveto 
1 -1 scale
(20) t 
GR
GR
GS
[1 0 0 1 108 111.71429] CT
0.149 GC
/Helvetica 20 F
GS
[1 0 0 1 0 0] CT
-22.246 5.9 moveto 
1 -1 scale
(25) t 
GR
GR
GS
[1 0 0 1 108 44] CT
0.149 GC
/Helvetica 20 F
GS
[1 0 0 1 0 0] CT
-22.246 5.9 moveto 
1 -1 scale
(30) t 
GR
GR
GS
2 setlinecap
10.0 ML
2 LW
N
120.81 450.286 M
127.62 450.286 L
134.43 450.286 L
141.24 450.286 L
148.05 450.286 L
154.86 450.286 L
161.67 450.286 L
168.48 447.577 L
175.29 419.137 L
182.1 405.594 L
188.91 394.76 L
195.72 370.383 L
202.53 333.817 L
209.34 297.251 L
216.15 240.371 L
222.96 220.057 L
229.77 203.806 L
236.58 178.074 L
243.39 141.509 L
250.2 123.903 L
257.01 107.651 L
263.82 111.714 L
270.63 127.966 L
277.44 145.571 L
284.25 163.177 L
291.06 188.909 L
297.87 214.64 L
304.68 260.686 L
311.49 320.274 L
318.3 358.194 L
325.11 393.406 L
331.92 427.263 L
338.73 448.931 L
345.54 450.286 L
352.35 450.286 L
359.16 450.286 L
365.97 450.286 L
372.78 450.286 L
379.59 450.286 L
386.4 450.286 L
393.21 450.286 L
400.02 450.286 L
406.83 450.286 L
413.64 450.286 L
420.45 450.286 L
427.26 450.286 L
434.07 450.286 L
440.88 450.286 L
447.69 450.286 L
454.5 450.286 L
461.31 450.286 L
468.12 442.16 L
474.93 417.783 L
481.74 385.28 L
488.55 348.714 L
495.36 314.857 L
502.17 289.126 L
508.98 271.52 L
515.79 259.331 L
522.6 263.394 L
529.41 270.166 L
536.22 278.291 L
543.03 293.189 L
549.84 321.629 L
556.65 352.777 L
563.46 394.76 L
570.27 421.846 L
577.08 432.68 L
583.89 435.389 L
590.7 429.971 L
597.51 419.137 L
604.32 409.657 L
611.13 389.343 L
617.94 366.32 L
624.75 348.714 L
631.56 336.526 L
638.37 337.88 L
645.18 336.526 L
651.99 333.817 L
658.8 331.109 L
665.61 333.817 L
672.42 355.486 L
679.23 362.257 L
686.04 362.257 L
692.85 358.194 L
699.66 377.154 L
706.47 398.823 L
713.28 394.76 L
720.09 397.469 L
726.9 396.114 L
733.71 392.051 L
740.52 393.406 L
747.33 417.783 L
754.14 439.451 L
760.95 444.869 L
767.76 450.286 L
774.57 450.286 L
781.38 450.286 L
788.19 450.286 L
795 450.286 L
S
GR
GS
0 0.447 0.741 RC
[10 6] 0 setdash
2 LJ
1.5 LW
N
120.81 454.05 M
127.62 454.054 L
134.43 453.449 L
141.24 452.159 L
148.05 450.87 L
154.86 450.285 L
161.67 450.974 L
168.48 452.966 L
175.29 454.301 L
182.1 454.38 L
188.91 454.464 L
195.72 454.511 L
202.53 454.589 L
209.34 454.651 L
216.15 454.106 L
222.96 455.036 L
229.77 454.977 L
236.58 454.746 L
243.39 453.79 L
250.2 453.249 L
257.01 453.168 L
263.82 452.507 L
270.63 452.113 L
277.44 452.035 L
284.25 451.66 L
291.06 451.039 L
297.87 450.418 L
304.68 450.202 L
311.49 450.015 L
318.3 450.242 L
325.11 450.604 L
331.92 450.847 L
338.73 451.055 L
345.54 450.787 L
352.35 450.496 L
359.16 450.53 L
365.97 450.607 L
372.78 450.325 L
379.59 450.286 L
386.4 450.467 L
393.21 450.864 L
400.02 451.285 L
406.83 450.281 L
413.64 441.203 L
420.45 432.007 L
427.26 431.761 L
434.07 437.342 L
440.88 435.84 L
447.69 420.767 L
454.5 400.154 L
461.31 386.577 L
468.12 381.42 L
474.93 384.638 L
481.74 385.282 L
488.55 381.42 L
495.36 380.159 L
502.17 376.932 L
508.98 378.845 L
515.79 385.922 L
522.6 393.641 L
529.41 397.498 L
536.22 394.567 L
543.03 383.849 L
549.84 373.414 L
556.65 365.732 L
563.46 363.73 L
570.27 366.833 L
577.08 373.743 L
583.89 373.679 L
590.7 369.164 L
597.51 360.652 L
604.32 355.866 L
611.13 356.232 L
617.94 353.397 L
624.75 350.735 L
631.56 350.198 L
638.37 347.664 L
645.18 356.339 L
651.99 371.504 L
658.8 378.545 L
665.61 372.503 L
672.42 365.15 L
679.23 371.189 L
686.04 392.966 L
692.85 400.851 L
699.66 401.591 L
706.47 398.825 L
713.28 414.763 L
720.09 428.787 L
726.9 434.38 L
733.71 440.291 L
740.52 445.206 L
747.33 448.807 L
754.14 448.805 L
760.95 448.85 L
767.76 448.726 L
774.57 448.689 L
781.38 448.692 L
788.19 448.696 L
795 447.92 L
S
GR
GS
0.851 0.325 0.098 RC
[10 6] 0 setdash
2 LJ
1.5 LW
N
120.81 430.229 M
127.62 430.551 L
134.43 432.036 L
141.24 435.205 L
148.05 438.097 L
154.86 437.58 L
161.67 434.932 L
168.48 431.226 L
175.29 428.449 L
182.1 404.703 L
188.91 391.551 L
195.72 378.192 L
202.53 355.686 L
209.34 325.769 L
216.15 294.962 L
222.96 242.627 L
229.77 223.126 L
236.58 206.345 L
243.39 183.478 L
250.2 149.702 L
257.01 136.104 L
263.82 123.09 L
270.63 127.996 L
277.44 149.817 L
284.25 177.433 L
291.06 203.498 L
297.87 234.321 L
304.68 263.993 L
311.49 308.967 L
318.3 361.281 L
325.11 389.883 L
331.92 415.829 L
338.73 440.143 L
345.54 451.936 L
352.35 446.855 L
359.16 446.37 L
365.97 447.739 L
372.78 450.018 L
379.59 453.496 L
386.4 455.195 L
393.21 456.157 L
400.02 455.298 L
406.83 450.502 L
413.64 446.963 L
420.45 445.721 L
427.26 443.325 L
434.07 443.86 L
440.88 445.201 L
447.69 444.028 L
454.5 440.48 L
461.31 437.942 L
468.12 435.819 L
474.93 424.004 L
481.74 395.786 L
488.55 361.215 L
495.36 324.919 L
502.17 292.57 L
508.98 267.793 L
515.79 250.304 L
522.6 238.578 L
529.41 246.829 L
536.22 262.276 L
543.03 278.069 L
549.84 299.569 L
556.65 331.323 L
563.46 363.442 L
570.27 405.442 L
577.08 431.572 L
583.89 438.845 L
590.7 436.689 L
597.51 426.863 L
604.32 413.558 L
611.13 406.504 L
617.94 386.525 L
624.75 361.257 L
631.56 344.157 L
638.37 333.194 L
645.18 332.154 L
651.99 329.37 L
658.8 326.277 L
665.61 322.708 L
672.42 324.787 L
679.23 343.841 L
686.04 347.017 L
692.85 348.307 L
699.66 350.403 L
706.47 369.767 L
713.28 395.672 L
720.09 398.75 L
726.9 406.848 L
733.71 409.019 L
740.52 405.868 L
747.33 404.592 L
754.14 425.823 L
760.95 444.169 L
767.76 447.153 L
774.57 449.957 L
781.38 447.448 L
788.19 445.985 L
795 445.637 L
S
GR
GS
0.929 0.694 0.125 RC
[10 6] 0 setdash
2 LJ
1.5 LW
N
120.81 452.159 M
127.62 452.369 L
134.43 452.023 L
141.24 449.434 L
148.05 448.745 L
154.86 448.103 L
161.67 446.159 L
168.48 443.103 L
175.29 436.189 L
182.1 400.9 L
188.91 384.158 L
195.72 371.94 L
202.53 343.799 L
209.34 302.408 L
216.15 263.326 L
222.96 206.582 L
229.77 188.613 L
236.58 176.854 L
243.39 154.985 L
250.2 123.202 L
257.01 112.122 L
263.82 104.694 L
270.63 115.994 L
277.44 140.723 L
284.25 164.744 L
291.06 188.63 L
297.87 218.68 L
304.68 247.564 L
311.49 293.047 L
318.3 351.184 L
325.11 386.064 L
331.92 417.566 L
338.73 447.936 L
345.54 466.236 L
352.35 461.479 L
359.16 454.734 L
365.97 451.757 L
372.78 449.255 L
379.59 447.648 L
386.4 446.596 L
393.21 446.624 L
400.02 446.591 L
406.83 446.577 L
413.64 446.728 L
420.45 446.942 L
427.26 447.27 L
434.07 447.003 L
440.88 444.647 L
447.69 442.272 L
454.5 439.406 L
461.31 436.662 L
468.12 433.477 L
474.93 421.721 L
481.74 393.114 L
488.55 358.99 L
495.36 322.544 L
502.17 290.343 L
508.98 266.947 L
515.79 255.02 L
522.6 251.511 L
529.41 267.081 L
536.22 284.326 L
543.03 300.648 L
549.84 321.935 L
556.65 352.841 L
563.46 383.039 L
570.27 419.881 L
577.08 440.004 L
583.89 442.728 L
590.7 437.771 L
597.51 425.871 L
604.32 412.176 L
611.13 399.69 L
617.94 377.968 L
624.75 355.791 L
631.56 340.042 L
638.37 332.081 L
645.18 336.008 L
651.99 335.001 L
658.8 333.393 L
665.61 335.314 L
672.42 341.867 L
679.23 365.855 L
686.04 373.406 L
692.85 373.13 L
699.66 368.958 L
706.47 389.232 L
713.28 413.909 L
720.09 409.058 L
726.9 409.249 L
733.71 405.704 L
740.52 399.615 L
747.33 397.208 L
754.14 419.152 L
760.95 441.32 L
767.76 445.133 L
774.57 451.268 L
781.38 455.035 L
788.19 457.291 L
795 457.026 L
S
GR
GS
0.494 0.184 0.557 RC
[10 6] 0 setdash
2 LJ
1.5 LW
N
120.81 449.071 M
127.62 450.375 L
134.43 449.823 L
141.24 448.542 L
148.05 446.711 L
154.86 443.117 L
161.67 438.77 L
168.48 436.42 L
175.29 428.708 L
182.1 399.621 L
188.91 383.99 L
195.72 366.749 L
202.53 336.973 L
209.34 296.962 L
216.15 257.838 L
222.96 202.916 L
229.77 185.447 L
236.58 171.291 L
243.39 149.04 L
250.2 117.782 L
257.01 106.468 L
263.82 100.903 L
270.63 113.92 L
277.44 137.518 L
284.25 162.919 L
291.06 189.225 L
297.87 218.98 L
304.68 247.794 L
311.49 294.694 L
318.3 353.109 L
325.11 388.627 L
331.92 420.771 L
338.73 449.019 L
345.54 465.128 L
352.35 459.152 L
359.16 452.967 L
365.97 451.514 L
372.78 450.459 L
379.59 449.991 L
386.4 450.347 L
393.21 451.515 L
400.02 451.618 L
406.83 451.456 L
413.64 451.356 L
420.45 450.56 L
427.26 450.105 L
434.07 448.722 L
440.88 447.855 L
447.69 447.131 L
454.5 447.222 L
461.31 446.398 L
468.12 445.473 L
474.93 436.213 L
481.74 411.619 L
488.55 378.346 L
495.36 340.73 L
502.17 306.521 L
508.98 281.49 L
515.79 265.641 L
522.6 258.321 L
529.41 268.11 L
536.22 279.927 L
543.03 292.422 L
549.84 310.317 L
556.65 340.763 L
563.46 373.279 L
570.27 413.259 L
577.08 435.939 L
583.89 442.449 L
590.7 441.123 L
597.51 431.608 L
604.32 415.762 L
611.13 399.416 L
617.94 374.693 L
624.75 350.653 L
631.56 335.15 L
638.37 325.082 L
645.18 327.309 L
651.99 325.105 L
658.8 325.431 L
665.61 327.037 L
672.42 330.417 L
679.23 353.45 L
686.04 360.381 L
692.85 360.711 L
699.66 357.847 L
706.47 380.617 L
713.28 405.358 L
720.09 400.347 L
726.9 403.947 L
733.71 402.316 L
740.52 398.754 L
747.33 400.335 L
754.14 423.282 L
760.95 444.26 L
767.76 450.102 L
774.57 454.831 L
781.38 454.212 L
788.19 453.421 L
795 451.214 L
S
GR
GS
1 GC
N
616 162 M
616 44 L
795 44 L
795 162 L
cp
f
GR
GS
[1 0 0 1 659.61157 57.61539] CT
/Helvetica 18 F
GS
[1 0 0 1 0 0] CT
0 5.36 moveto 
1 -1 scale
(Speed signal) t 
GR
GR
GS
2 setlinecap
10.0 ML
2 LW
N
622.709 57.615 M
656.257 57.615 L
S
GR
GS
[1 0 0 1 659.61157 80.30769] CT
/Helvetica 18 F
GS
[1 0 0 1 0 0] CT
0 5.36 moveto 
1 -1 scale
(m = 5, K = 10) t 
GR
GR
GS
0 0.447 0.741 RC
[10 6] 0 setdash
2 LJ
1.5 LW
N
622.709 80.308 M
656.257 80.308 L
S
GR
GS
[1 0 0 1 659.61157 103] CT
/Helvetica 18 F
GS
[1 0 0 1 0 0] CT
0 5.36 moveto 
1 -1 scale
(m = 15, K = 10) t 
GR
GR
GS
0.851 0.325 0.098 RC
[10 6] 0 setdash
2 LJ
1.5 LW
N
622.709 103 M
656.257 103 L
S
GR
GS
[1 0 0 1 659.61157 125.69231] CT
/Helvetica 18 F
GS
[1 0 0 1 0 0] CT
0 5.36 moveto 
1 -1 scale
(m = 30, K = 10) t 
GR
GR
GS
0.929 0.694 0.125 RC
[10 6] 0 setdash
2 LJ
1.5 LW
N
622.709 125.692 M
656.257 125.692 L
S
GR
GS
[1 0 0 1 659.61157 148.38461] CT
/Helvetica 18 F
GS
[1 0 0 1 0 0] CT
0 5.36 moveto 
1 -1 scale
(m = 50, K = 10) t 
GR
GR
GS
0.494 0.184 0.557 RC
[10 6] 0 setdash
2 LJ
1.5 LW
N
622.709 148.385 M
656.257 148.385 L
S
GR
GS
0.149 GC
2 setlinecap
10.0 ML
N
616 162 M
616 44 L
795 44 L
795 162 L
616 162 L
S
GR
%%Trailer
%%Pages: 1
%%EOF
