%!PS-Adobe-3.0 EPSF-3.0
%%Creator: (MATLAB, The Mathworks, Inc. Version 8.4.0.150421 \(R2014b\). Operating System: Mac OS X)
%%Title: /Users/jaszhang/ieee1/paper/_images/speed.eps
%%CreationDate: 2017-02-03T00:55:46
%%Pages: (atend)
%%BoundingBox: 0 0 766 372
%%LanguageLevel: 2
%%EndComments
%%BeginProlog
%%BeginResource: procset (Apache XML Graphics Std ProcSet) 1.2 0
%%Version: 1.2 0
%%Copyright: (Copyright 2001-2003,2010 The Apache Software Foundation. License terms: http://www.apache.org/licenses/LICENSE-2.0)
/bd{bind def}bind def
/ld{load def}bd
/GR/grestore ld
/M/moveto ld
/LJ/setlinejoin ld
/C/curveto ld
/f/fill ld
/LW/setlinewidth ld
/GC/setgray ld
/t/show ld
/N/newpath ld
/CT/concat ld
/cp/closepath ld
/S/stroke ld
/L/lineto ld
/CC/setcmykcolor ld
/A/ashow ld
/GS/gsave ld
/RC/setrgbcolor ld
/RM/rmoveto ld
/ML/setmiterlimit ld
/re {4 2 roll M
1 index 0 rlineto
0 exch rlineto
neg 0 rlineto
cp } bd
/_ctm matrix def
/_tm matrix def
/BT { _ctm currentmatrix pop matrix _tm copy pop 0 0 moveto } bd
/ET { _ctm setmatrix } bd
/iTm { _ctm setmatrix _tm concat } bd
/Tm { _tm astore pop iTm 0 0 moveto } bd
/ux 0.0 def
/uy 0.0 def
/F {
  /Tp exch def
  /Tf exch def
  Tf findfont Tp scalefont setfont
  /cf Tf def  /cs Tp def
} bd
/ULS {currentpoint /uy exch def /ux exch def} bd
/ULE {
  /Tcx currentpoint pop def
  gsave
  newpath
  cf findfont cs scalefont dup
  /FontMatrix get 0 get /Ts exch def /FontInfo get dup
  /UnderlinePosition get Ts mul /To exch def
  /UnderlineThickness get Ts mul /Tt exch def
  ux uy To add moveto  Tcx uy To add lineto
  Tt setlinewidth stroke
  grestore
} bd
/OLE {
  /Tcx currentpoint pop def
  gsave
  newpath
  cf findfont cs scalefont dup
  /FontMatrix get 0 get /Ts exch def /FontInfo get dup
  /UnderlinePosition get Ts mul /To exch def
  /UnderlineThickness get Ts mul /Tt exch def
  ux uy To add cs add moveto Tcx uy To add cs add lineto
  Tt setlinewidth stroke
  grestore
} bd
/SOE {
  /Tcx currentpoint pop def
  gsave
  newpath
  cf findfont cs scalefont dup
  /FontMatrix get 0 get /Ts exch def /FontInfo get dup
  /UnderlinePosition get Ts mul /To exch def
  /UnderlineThickness get Ts mul /Tt exch def
  ux uy To add cs 10 mul 26 idiv add moveto Tcx uy To add cs 10 mul 26 idiv add lineto
  Tt setlinewidth stroke
  grestore
} bd
/QT {
/Y22 exch store
/X22 exch store
/Y21 exch store
/X21 exch store
currentpoint
/Y21 load 2 mul add 3 div exch
/X21 load 2 mul add 3 div exch
/X21 load 2 mul /X22 load add 3 div
/Y21 load 2 mul /Y22 load add 3 div
/X22 load /Y22 load curveto
} bd
/SSPD {
dup length /d exch dict def
{
/v exch def
/k exch def
currentpagedevice k known {
/cpdv currentpagedevice k get def
v cpdv ne {
/upd false def
/nullv v type /nulltype eq def
/nullcpdv cpdv type /nulltype eq def
nullv nullcpdv or
{
/upd true def
} {
/sametype v type cpdv type eq def
sametype {
v type /arraytype eq {
/vlen v length def
/cpdvlen cpdv length def
vlen cpdvlen eq {
0 1 vlen 1 sub {
/i exch def
/obj v i get def
/cpdobj cpdv i get def
obj cpdobj ne {
/upd true def
exit
} if
} for
} {
/upd true def
} ifelse
} {
v type /dicttype eq {
v {
/dv exch def
/dk exch def
/cpddv cpdv dk get def
dv cpddv ne {
/upd true def
exit
} if
} forall
} {
/upd true def
} ifelse
} ifelse
} if
} ifelse
upd true eq {
d k v put
} if
} if
} if
} forall
d length 0 gt {
d setpagedevice
} if
} bd
%%EndResource
%%BeginResource: procset (Apache XML Graphics EPS ProcSet) 1.0 0
%%Version: 1.0 0
%%Copyright: (Copyright 2002-2003 The Apache Software Foundation. License terms: http://www.apache.org/licenses/LICENSE-2.0)
/BeginEPSF { %def
/b4_Inc_state save def         % Save state for cleanup
/dict_count countdictstack def % Count objects on dict stack
/op_count count 1 sub def      % Count objects on operand stack
userdict begin                 % Push userdict on dict stack
/showpage { } def              % Redefine showpage, { } = null proc
0 setgray 0 setlinecap         % Prepare graphics state
1 setlinewidth 0 setlinejoin
10 setmiterlimit [ ] 0 setdash newpath
/languagelevel where           % If level not equal to 1 then
{pop languagelevel             % set strokeadjust and
1 ne                           % overprint to their defaults.
{false setstrokeadjust false setoverprint
} if
} if
} bd
/EndEPSF { %def
count op_count sub {pop} repeat            % Clean up stacks
countdictstack dict_count sub {end} repeat
b4_Inc_state restore
} bd
%%EndResource
%FOPBeginFontDict
%%IncludeResource: font Courier-Bold
%%IncludeResource: font Helvetica
%%IncludeResource: font Courier-BoldOblique
%%IncludeResource: font Courier-Oblique
%%IncludeResource: font Times-Roman
%%IncludeResource: font Helvetica-BoldOblique
%%IncludeResource: font Helvetica-Bold
%%IncludeResource: font Helvetica-Oblique
%%IncludeResource: font Times-BoldItalic
%%IncludeResource: font Courier
%%IncludeResource: font Times-Italic
%%IncludeResource: font Times-Bold
%%IncludeResource: font Symbol
%%IncludeResource: font ZapfDingbats
%FOPEndFontDict
%%BeginResource: encoding WinAnsiEncoding
/WinAnsiEncoding [
/.notdef /.notdef /.notdef /.notdef /.notdef
/.notdef /.notdef /.notdef /.notdef /.notdef
/.notdef /.notdef /.notdef /.notdef /.notdef
/.notdef /.notdef /.notdef /.notdef /.notdef
/.notdef /.notdef /.notdef /.notdef /.notdef
/.notdef /.notdef /.notdef /.notdef /.notdef
/.notdef /.notdef /space /exclam /quotedbl
/numbersign /dollar /percent /ampersand /quotesingle
/parenleft /parenright /asterisk /plus /comma
/hyphen /period /slash /zero /one
/two /three /four /five /six
/seven /eight /nine /colon /semicolon
/less /equal /greater /question /at
/A /B /C /D /E
/F /G /H /I /J
/K /L /M /N /O
/P /Q /R /S /T
/U /V /W /X /Y
/Z /bracketleft /backslash /bracketright /asciicircum
/underscore /quoteleft /a /b /c
/d /e /f /g /h
/i /j /k /l /m
/n /o /p /q /r
/s /t /u /v /w
/x /y /z /braceleft /bar
/braceright /asciitilde /bullet /Euro /bullet
/quotesinglbase /florin /quotedblbase /ellipsis /dagger
/daggerdbl /circumflex /perthousand /Scaron /guilsinglleft
/OE /bullet /Zcaron /bullet /bullet
/quoteleft /quoteright /quotedblleft /quotedblright /bullet
/endash /emdash /asciitilde /trademark /scaron
/guilsinglright /oe /bullet /zcaron /Ydieresis
/space /exclamdown /cent /sterling /currency
/yen /brokenbar /section /dieresis /copyright
/ordfeminine /guillemotleft /logicalnot /sfthyphen /registered
/macron /degree /plusminus /twosuperior /threesuperior
/acute /mu /paragraph /middot /cedilla
/onesuperior /ordmasculine /guillemotright /onequarter /onehalf
/threequarters /questiondown /Agrave /Aacute /Acircumflex
/Atilde /Adieresis /Aring /AE /Ccedilla
/Egrave /Eacute /Ecircumflex /Edieresis /Igrave
/Iacute /Icircumflex /Idieresis /Eth /Ntilde
/Ograve /Oacute /Ocircumflex /Otilde /Odieresis
/multiply /Oslash /Ugrave /Uacute /Ucircumflex
/Udieresis /Yacute /Thorn /germandbls /agrave
/aacute /acircumflex /atilde /adieresis /aring
/ae /ccedilla /egrave /eacute /ecircumflex
/edieresis /igrave /iacute /icircumflex /idieresis
/eth /ntilde /ograve /oacute /ocircumflex
/otilde /odieresis /divide /oslash /ugrave
/uacute /ucircumflex /udieresis /yacute /thorn
/ydieresis
] def
%%EndResource
%FOPBeginFontReencode
/Courier-Bold findfont
dup length dict begin
  {1 index /FID ne {def} {pop pop} ifelse} forall
  /Encoding WinAnsiEncoding def
  currentdict
end
/Courier-Bold exch definefont pop
/Helvetica findfont
dup length dict begin
  {1 index /FID ne {def} {pop pop} ifelse} forall
  /Encoding WinAnsiEncoding def
  currentdict
end
/Helvetica exch definefont pop
/Courier-BoldOblique findfont
dup length dict begin
  {1 index /FID ne {def} {pop pop} ifelse} forall
  /Encoding WinAnsiEncoding def
  currentdict
end
/Courier-BoldOblique exch definefont pop
/Courier-Oblique findfont
dup length dict begin
  {1 index /FID ne {def} {pop pop} ifelse} forall
  /Encoding WinAnsiEncoding def
  currentdict
end
/Courier-Oblique exch definefont pop
/Times-Roman findfont
dup length dict begin
  {1 index /FID ne {def} {pop pop} ifelse} forall
  /Encoding WinAnsiEncoding def
  currentdict
end
/Times-Roman exch definefont pop
/Helvetica-BoldOblique findfont
dup length dict begin
  {1 index /FID ne {def} {pop pop} ifelse} forall
  /Encoding WinAnsiEncoding def
  currentdict
end
/Helvetica-BoldOblique exch definefont pop
/Helvetica-Bold findfont
dup length dict begin
  {1 index /FID ne {def} {pop pop} ifelse} forall
  /Encoding WinAnsiEncoding def
  currentdict
end
/Helvetica-Bold exch definefont pop
/Helvetica-Oblique findfont
dup length dict begin
  {1 index /FID ne {def} {pop pop} ifelse} forall
  /Encoding WinAnsiEncoding def
  currentdict
end
/Helvetica-Oblique exch definefont pop
/Times-BoldItalic findfont
dup length dict begin
  {1 index /FID ne {def} {pop pop} ifelse} forall
  /Encoding WinAnsiEncoding def
  currentdict
end
/Times-BoldItalic exch definefont pop
/Courier findfont
dup length dict begin
  {1 index /FID ne {def} {pop pop} ifelse} forall
  /Encoding WinAnsiEncoding def
  currentdict
end
/Courier exch definefont pop
/Times-Italic findfont
dup length dict begin
  {1 index /FID ne {def} {pop pop} ifelse} forall
  /Encoding WinAnsiEncoding def
  currentdict
end
/Times-Italic exch definefont pop
/Times-Bold findfont
dup length dict begin
  {1 index /FID ne {def} {pop pop} ifelse} forall
  /Encoding WinAnsiEncoding def
  currentdict
end
/Times-Bold exch definefont pop
%FOPEndFontReencode
%%EndProlog
%%Page: 1 1
%%PageBoundingBox: 0 0 766 372
%%BeginPageSetup
[1 0 0 -1 0 372] CT
%%EndPageSetup
GS
1 GC
N
0 0 766 372 re
f
GR
GS
1 GC
N
0 0 766 372 re
f
GR
GS
1 GC
N
100 325 M
693 325 L
693 28 L
100 28 L
cp
f
GR
GS
0.873 GC
2 setlinecap
10.0 ML
N
100 325 M
100 28 L
S
GR
GS
0.873 GC
2 setlinecap
10.0 ML
N
184.714 325 M
184.714 28 L
S
GR
GS
0.873 GC
2 setlinecap
10.0 ML
N
269.429 325 M
269.429 28 L
S
GR
GS
0.873 GC
2 setlinecap
10.0 ML
N
354.143 325 M
354.143 28 L
S
GR
GS
0.873 GC
2 setlinecap
10.0 ML
N
438.857 325 M
438.857 28 L
S
GR
GS
0.873 GC
2 setlinecap
10.0 ML
N
523.571 325 M
523.571 28 L
S
GR
GS
0.873 GC
2 setlinecap
10.0 ML
N
608.286 325 M
608.286 28 L
S
GR
GS
0.873 GC
2 setlinecap
10.0 ML
N
693 325 M
693 28 L
S
GR
GS
0.873 GC
2 setlinecap
10.0 ML
N
693 325 M
100 325 L
S
GR
GS
0.873 GC
2 setlinecap
10.0 ML
N
693 287.875 M
100 287.875 L
S
GR
GS
0.873 GC
2 setlinecap
10.0 ML
N
693 250.75 M
100 250.75 L
S
GR
GS
0.873 GC
2 setlinecap
10.0 ML
N
693 213.625 M
100 213.625 L
S
GR
GS
0.873 GC
2 setlinecap
10.0 ML
N
693 176.5 M
100 176.5 L
S
GR
GS
0.873 GC
2 setlinecap
10.0 ML
N
693 139.375 M
100 139.375 L
S
GR
GS
0.873 GC
2 setlinecap
10.0 ML
N
693 102.25 M
100 102.25 L
S
GR
GS
0.873 GC
2 setlinecap
10.0 ML
N
693 65.125 M
100 65.125 L
S
GR
GS
0.873 GC
2 setlinecap
10.0 ML
N
693 28 M
100 28 L
S
GR
GS
[1 0 0 1 396.5 351] CT
0.149 GC
/Helvetica 22 F
GS
[1 0 0 1 0 0] CT
-40.326 16.94 moveto 
1 -1 scale
(Time \(s\)) t 
GR
GR
GS
0.149 GC
2 setlinecap
10.0 ML
N
100 325 M
693 325 L
S
GR
GS
0.149 GC
2 setlinecap
10.0 ML
N
100 28 M
693 28 L
S
GR
GS
0.149 GC
2 setlinecap
10.0 ML
N
100 325 M
100 319.07 L
S
GR
GS
0.149 GC
2 setlinecap
10.0 ML
N
100 28 M
100 33.93 L
S
GR
GS
0.149 GC
2 setlinecap
10.0 ML
N
184.714 325 M
184.714 319.07 L
S
GR
GS
0.149 GC
2 setlinecap
10.0 ML
N
184.714 28 M
184.714 33.93 L
S
GR
GS
0.149 GC
2 setlinecap
10.0 ML
N
269.429 325 M
269.429 319.07 L
S
GR
GS
0.149 GC
2 setlinecap
10.0 ML
N
269.429 28 M
269.429 33.93 L
S
GR
GS
0.149 GC
2 setlinecap
10.0 ML
N
354.143 325 M
354.143 319.07 L
S
GR
GS
0.149 GC
2 setlinecap
10.0 ML
N
354.143 28 M
354.143 33.93 L
S
GR
GS
0.149 GC
2 setlinecap
10.0 ML
N
438.857 325 M
438.857 319.07 L
S
GR
GS
0.149 GC
2 setlinecap
10.0 ML
N
438.857 28 M
438.857 33.93 L
S
GR
GS
0.149 GC
2 setlinecap
10.0 ML
N
523.571 325 M
523.571 319.07 L
S
GR
GS
0.149 GC
2 setlinecap
10.0 ML
N
523.571 28 M
523.571 33.93 L
S
GR
GS
0.149 GC
2 setlinecap
10.0 ML
N
608.286 325 M
608.286 319.07 L
S
GR
GS
0.149 GC
2 setlinecap
10.0 ML
N
608.286 28 M
608.286 33.93 L
S
GR
GS
0.149 GC
2 setlinecap
10.0 ML
N
693 325 M
693 319.07 L
S
GR
GS
0.149 GC
2 setlinecap
10.0 ML
N
693 28 M
693 33.93 L
S
GR
GS
[1 0 0 1 100 331] CT
0.149 GC
/Helvetica 20 F
GS
[1 0 0 1 0 0] CT
-5.562 15.4 moveto 
1 -1 scale
(0) t 
GR
GR
GS
[1 0 0 1 184.71428 331] CT
0.149 GC
/Helvetica 20 F
GS
[1 0 0 1 0 0] CT
-16.685 15.4 moveto 
1 -1 scale
(200) t 
GR
GR
GS
[1 0 0 1 269.42856 331] CT
0.149 GC
/Helvetica 20 F
GS
[1 0 0 1 0 0] CT
-16.685 15.4 moveto 
1 -1 scale
(400) t 
GR
GR
GS
[1 0 0 1 354.14285 331] CT
0.149 GC
/Helvetica 20 F
GS
[1 0 0 1 0 0] CT
-16.685 15.4 moveto 
1 -1 scale
(600) t 
GR
GR
GS
[1 0 0 1 438.85715 331] CT
0.149 GC
/Helvetica 20 F
GS
[1 0 0 1 0 0] CT
-16.685 15.4 moveto 
1 -1 scale
(800) t 
GR
GR
GS
[1 0 0 1 523.57141 331] CT
0.149 GC
/Helvetica 20 F
GS
[1 0 0 1 0 0] CT
-22.246 15.4 moveto 
1 -1 scale
(1000) t 
GR
GR
GS
[1 0 0 1 608.28571 331] CT
0.149 GC
/Helvetica 20 F
GS
[1 0 0 1 0 0] CT
-22.246 15.4 moveto 
1 -1 scale
(1200) t 
GR
GR
GS
[1 0 0 1 693 331] CT
0.149 GC
/Helvetica 20 F
GS
[1 0 0 1 0 0] CT
-22.246 15.4 moveto 
1 -1 scale
(1400) t 
GR
GR
GS
[0 -1 1 0 68.75391 176.5] CT
0.149 GC
/Helvetica 22 F
GS
[1 0 0 1 0 0] CT
-63.588 -4.06 moveto 
1 -1 scale
(Speed \(mph\)) t 
GR
GR
GS
0.149 GC
2 setlinecap
10.0 ML
N
100 325 M
100 28 L
S
GR
GS
0.149 GC
2 setlinecap
10.0 ML
N
693 325 M
693 28 L
S
GR
GS
0.149 GC
2 setlinecap
10.0 ML
N
100 325 M
105.93 325 L
S
GR
GS
0.149 GC
2 setlinecap
10.0 ML
N
693 325 M
687.07 325 L
S
GR
GS
0.149 GC
2 setlinecap
10.0 ML
N
100 287.875 M
105.93 287.875 L
S
GR
GS
0.149 GC
2 setlinecap
10.0 ML
N
693 287.875 M
687.07 287.875 L
S
GR
GS
0.149 GC
2 setlinecap
10.0 ML
N
100 250.75 M
105.93 250.75 L
S
GR
GS
0.149 GC
2 setlinecap
10.0 ML
N
693 250.75 M
687.07 250.75 L
S
GR
GS
0.149 GC
2 setlinecap
10.0 ML
N
100 213.625 M
105.93 213.625 L
S
GR
GS
0.149 GC
2 setlinecap
10.0 ML
N
693 213.625 M
687.07 213.625 L
S
GR
GS
0.149 GC
2 setlinecap
10.0 ML
N
100 176.5 M
105.93 176.5 L
S
GR
GS
0.149 GC
2 setlinecap
10.0 ML
N
693 176.5 M
687.07 176.5 L
S
GR
GS
0.149 GC
2 setlinecap
10.0 ML
N
100 139.375 M
105.93 139.375 L
S
GR
GS
0.149 GC
2 setlinecap
10.0 ML
N
693 139.375 M
687.07 139.375 L
S
GR
GS
0.149 GC
2 setlinecap
10.0 ML
N
100 102.25 M
105.93 102.25 L
S
GR
GS
0.149 GC
2 setlinecap
10.0 ML
N
693 102.25 M
687.07 102.25 L
S
GR
GS
0.149 GC
2 setlinecap
10.0 ML
N
100 65.125 M
105.93 65.125 L
S
GR
GS
0.149 GC
2 setlinecap
10.0 ML
N
693 65.125 M
687.07 65.125 L
S
GR
GS
0.149 GC
2 setlinecap
10.0 ML
N
100 28 M
105.93 28 L
S
GR
GS
0.149 GC
2 setlinecap
10.0 ML
N
693 28 M
687.07 28 L
S
GR
GS
[1 0 0 1 94 325] CT
0.149 GC
/Helvetica 20 F
GS
[1 0 0 1 0 0] CT
-11.123 5.9 moveto 
1 -1 scale
(0) t 
GR
GR
GS
[1 0 0 1 94 287.875] CT
0.149 GC
/Helvetica 20 F
GS
[1 0 0 1 0 0] CT
-22.246 5.9 moveto 
1 -1 scale
(10) t 
GR
GR
GS
[1 0 0 1 94 250.75] CT
0.149 GC
/Helvetica 20 F
GS
[1 0 0 1 0 0] CT
-22.246 5.9 moveto 
1 -1 scale
(20) t 
GR
GR
GS
[1 0 0 1 94 213.625] CT
0.149 GC
/Helvetica 20 F
GS
[1 0 0 1 0 0] CT
-22.246 5.9 moveto 
1 -1 scale
(30) t 
GR
GR
GS
[1 0 0 1 94 176.5] CT
0.149 GC
/Helvetica 20 F
GS
[1 0 0 1 0 0] CT
-22.246 5.9 moveto 
1 -1 scale
(40) t 
GR
GR
GS
[1 0 0 1 94 139.375] CT
0.149 GC
/Helvetica 20 F
GS
[1 0 0 1 0 0] CT
-22.246 5.9 moveto 
1 -1 scale
(50) t 
GR
GR
GS
[1 0 0 1 94 102.25] CT
0.149 GC
/Helvetica 20 F
GS
[1 0 0 1 0 0] CT
-22.246 5.9 moveto 
1 -1 scale
(60) t 
GR
GR
GS
[1 0 0 1 94 65.125] CT
0.149 GC
/Helvetica 20 F
GS
[1 0 0 1 0 0] CT
-22.246 5.9 moveto 
1 -1 scale
(70) t 
GR
GR
GS
[1 0 0 1 94 28] CT
0.149 GC
/Helvetica 20 F
GS
[1 0 0 1 0 0] CT
-22.246 5.9 moveto 
1 -1 scale
(80) t 
GR
GR
GS
0 0 1 RC
2 setlinecap
10.0 ML
1.5 LW
N
100.424 325 M
100.847 325 L
101.271 318.318 L
101.694 316.832 L
102.118 312.378 L
102.541 306.066 L
102.965 299.384 L
103.389 298.641 L
103.812 293.815 L
104.236 291.216 L
104.659 282.306 L
105.083 282.306 L
105.506 282.306 L
105.93 288.989 L
106.354 289.36 L
106.777 292.33 L
107.201 296.785 L
107.624 305.324 L
108.048 305.324 L
108.471 317.204 L
108.895 318.318 L
109.319 309.408 L
109.742 299.013 L
110.166 290.845 L
110.589 282.306 L
111.013 273.396 L
111.436 266.714 L
111.86 258.918 L
112.284 252.235 L
112.707 247.409 L
113.131 248.522 L
113.554 248.522 L
113.978 244.81 L
114.401 244.81 L
114.825 230.702 L
115.249 226.619 L
115.672 224.762 L
116.096 222.535 L
116.519 223.649 L
116.943 222.535 L
117.366 220.679 L
117.79 222.164 L
118.214 223.649 L
118.637 219.565 L
119.061 216.224 L
119.484 204.715 L
119.908 201.745 L
120.331 198.404 L
120.755 195.063 L
121.179 192.092 L
121.602 188.751 L
122.026 186.524 L
122.449 182.069 L
122.873 179.47 L
123.296 178.356 L
123.72 175.757 L
124.144 176.129 L
124.567 179.47 L
124.991 182.069 L
125.414 188.38 L
125.838 193.577 L
126.261 193.206 L
126.685 190.979 L
127.109 188.751 L
127.532 183.925 L
127.956 180.955 L
128.379 177.614 L
128.803 174.644 L
129.226 172.788 L
129.65 172.416 L
130.074 173.901 L
130.497 173.901 L
130.921 175.757 L
131.344 175.386 L
131.768 176.129 L
132.191 176.5 L
132.615 173.159 L
133.039 171.302 L
133.462 169.075 L
133.886 170.56 L
134.309 184.667 L
134.733 201.002 L
135.156 213.996 L
135.58 227.732 L
136.004 236.271 L
136.427 244.439 L
136.851 252.235 L
137.274 254.462 L
137.698 257.804 L
138.121 260.402 L
138.545 264.115 L
138.969 263.744 L
139.392 263.001 L
139.816 257.432 L
140.239 248.151 L
140.663 240.355 L
141.086 231.074 L
141.51 226.619 L
141.934 221.421 L
142.357 217.709 L
142.781 213.254 L
143.204 208.056 L
143.628 201.745 L
144.051 200.631 L
144.475 194.32 L
144.899 192.092 L
145.322 186.895 L
145.746 186.524 L
146.169 181.698 L
146.593 182.069 L
147.016 182.069 L
147.44 185.41 L
147.864 186.152 L
148.287 189.865 L
148.711 189.494 L
149.134 186.524 L
149.558 184.296 L
149.981 179.841 L
150.405 177.614 L
150.829 176.129 L
151.252 176.129 L
151.676 175.015 L
152.099 177.614 L
152.523 172.416 L
152.946 172.788 L
153.37 166.105 L
153.794 163.135 L
154.217 159.794 L
154.641 163.506 L
155.064 165.734 L
155.488 164.991 L
155.911 166.848 L
156.335 170.189 L
156.759 170.189 L
157.182 170.931 L
157.606 175.015 L
158.029 177.243 L
158.453 178.356 L
158.876 180.212 L
159.3 183.925 L
159.724 183.925 L
160.147 180.584 L
160.571 176.871 L
160.994 175.015 L
161.418 172.045 L
161.841 175.015 L
162.265 176.871 L
162.689 175.386 L
163.112 172.416 L
163.536 170.56 L
163.959 171.674 L
164.383 172.045 L
164.806 173.901 L
165.23 176.129 L
165.654 182.069 L
166.077 194.32 L
166.501 205.829 L
166.924 219.194 L
167.348 225.134 L
167.771 228.475 L
168.195 231.074 L
168.619 229.96 L
169.042 231.074 L
169.466 232.559 L
169.889 232.559 L
170.313 234.415 L
170.736 231.445 L
171.16 231.074 L
171.584 220.679 L
172.007 220.679 L
172.431 221.421 L
172.854 221.792 L
173.278 219.194 L
173.701 220.679 L
174.125 218.822 L
174.549 213.254 L
174.972 206.2 L
175.396 199.518 L
175.819 191.35 L
176.243 184.667 L
176.666 178.727 L
177.09 171.302 L
177.514 166.105 L
177.937 160.536 L
178.361 153.854 L
178.784 147.542 L
179.208 143.83 L
179.631 143.087 L
180.055 147.171 L
180.479 146.057 L
180.902 144.201 L
181.326 142.345 L
181.749 142.345 L
182.173 134.92 L
182.596 134.549 L
183.02 131.95 L
183.444 128.238 L
183.867 139.004 L
184.291 138.632 L
184.714 148.285 L
185.138 151.998 L
185.561 154.596 L
185.985 150.512 L
186.409 147.171 L
186.832 147.171 L
187.256 143.83 L
187.679 143.087 L
188.103 137.519 L
188.526 131.208 L
188.95 130.465 L
189.374 128.98 L
189.797 126.01 L
190.221 121.184 L
190.644 118.214 L
191.068 114.873 L
191.491 109.304 L
191.915 102.621 L
192.339 101.136 L
192.762 101.879 L
193.186 101.507 L
193.609 97.424 L
194.033 93.34 L
194.456 89.256 L
194.88 86.286 L
195.304 83.688 L
195.727 83.316 L
196.151 83.688 L
196.574 85.173 L
196.998 85.173 L
197.421 84.059 L
197.845 83.688 L
198.269 90.37 L
198.692 89.627 L
199.116 88.885 L
199.539 87.771 L
199.963 86.658 L
200.386 86.658 L
200.81 85.544 L
201.234 88.143 L
201.657 90.741 L
202.081 92.598 L
202.504 94.454 L
202.928 96.681 L
203.351 101.879 L
203.775 105.22 L
204.199 80.717 L
204.622 77.748 L
205.046 74.777 L
205.469 74.406 L
205.893 73.292 L
206.316 72.921 L
206.74 71.808 L
207.164 72.179 L
207.587 73.664 L
208.011 75.891 L
208.434 78.119 L
208.858 79.233 L
209.281 79.975 L
209.705 79.233 L
210.129 78.49 L
210.552 77.005 L
210.976 76.634 L
211.399 78.119 L
211.823 78.49 L
212.246 80.346 L
212.67 84.059 L
213.094 88.143 L
213.517 89.999 L
213.941 89.999 L
214.364 86.658 L
214.788 88.143 L
215.211 88.514 L
215.635 89.256 L
216.059 88.143 L
216.482 85.915 L
216.906 83.688 L
217.329 82.945 L
217.753 84.059 L
218.176 82.202 L
218.6 80.346 L
219.024 78.49 L
219.447 78.119 L
219.871 76.634 L
220.294 77.748 L
220.718 76.262 L
221.141 75.52 L
221.565 73.664 L
221.989 74.406 L
222.412 74.035 L
222.836 74.406 L
223.259 73.292 L
223.683 72.55 L
224.106 70.694 L
224.53 67.724 L
224.954 64.754 L
225.377 61.784 L
225.801 59.927 L
226.224 57.329 L
226.648 58.071 L
227.071 64.754 L
227.495 73.292 L
227.919 79.604 L
228.342 83.316 L
228.766 85.173 L
229.189 85.915 L
229.613 81.46 L
230.036 77.005 L
230.46 76.262 L
230.884 72.55 L
231.307 69.209 L
231.731 67.352 L
232.154 64.383 L
232.578 61.412 L
233.001 61.041 L
233.425 61.041 L
233.849 60.67 L
234.272 60.299 L
234.696 58.071 L
235.119 58.071 L
235.543 58.814 L
235.966 60.299 L
236.39 63.269 L
236.814 64.383 L
237.237 64.754 L
237.661 64.383 L
238.084 64.383 L
238.508 62.898 L
238.931 60.67 L
239.355 56.215 L
239.779 53.616 L
240.202 50.646 L
240.626 48.419 L
241.049 48.79 L
241.473 49.904 L
241.896 50.275 L
242.32 51.017 L
242.744 53.616 L
243.167 58.071 L
243.591 65.496 L
244.014 66.61 L
244.438 71.808 L
244.861 77.005 L
245.285 79.604 L
245.709 79.233 L
246.132 76.262 L
246.556 73.292 L
246.979 71.065 L
247.403 69.209 L
247.826 71.065 L
248.25 74.777 L
248.674 75.52 L
249.097 75.891 L
249.521 76.262 L
249.944 78.119 L
250.368 80.346 L
250.791 81.831 L
251.215 86.286 L
251.639 87.029 L
252.062 87.771 L
252.486 87.029 L
252.909 85.915 L
253.333 85.173 L
253.756 83.316 L
254.18 80.717 L
254.604 77.748 L
255.027 75.891 L
255.451 74.035 L
255.874 72.55 L
256.298 72.179 L
256.721 71.808 L
257.145 72.921 L
257.569 72.55 L
257.992 72.921 L
258.416 72.55 L
258.839 69.951 L
259.263 68.838 L
259.686 69.209 L
260.11 67.352 L
260.534 67.352 L
260.957 65.125 L
261.381 76.634 L
261.804 81.089 L
262.228 82.202 L
262.651 82.574 L
263.075 81.46 L
263.499 79.604 L
263.922 76.634 L
264.346 74.035 L
264.769 70.694 L
265.193 66.981 L
265.616 66.239 L
266.04 65.867 L
266.464 67.724 L
266.887 65.867 L
267.311 65.867 L
267.734 67.724 L
268.158 72.921 L
268.581 72.55 L
269.005 71.436 L
269.429 68.466 L
269.852 66.61 L
270.276 64.011 L
270.699 61.041 L
271.123 59.185 L
271.546 57.7 L
271.97 56.958 L
272.394 58.442 L
272.817 59.556 L
273.241 61.041 L
273.664 61.041 L
274.088 62.526 L
274.511 62.526 L
274.935 64.754 L
275.359 66.61 L
275.782 69.209 L
276.206 68.466 L
276.629 67.724 L
277.053 64.754 L
277.476 65.867 L
277.9 68.466 L
278.324 71.808 L
278.747 76.262 L
279.171 77.748 L
279.594 77.005 L
280.018 82.202 L
280.441 85.544 L
280.865 88.143 L
281.289 89.627 L
281.712 89.999 L
282.136 88.514 L
282.559 85.915 L
282.983 84.059 L
283.406 81.46 L
283.83 78.49 L
284.254 74.777 L
284.677 73.292 L
285.101 75.149 L
285.524 74.035 L
285.948 75.149 L
286.371 78.861 L
286.795 79.604 L
287.219 80.717 L
287.642 83.316 L
288.066 83.688 L
288.489 83.316 L
288.913 85.173 L
289.336 85.544 L
289.76 85.915 L
290.184 87.4 L
290.607 92.598 L
291.031 92.969 L
291.454 94.082 L
291.878 93.34 L
292.301 94.082 L
292.725 97.795 L
293.149 97.052 L
293.572 95.939 L
293.996 95.196 L
294.419 94.082 L
294.843 91.113 L
295.266 94.454 L
295.69 80.346 L
296.114 75.891 L
296.537 72.179 L
296.961 69.209 L
297.384 69.58 L
297.808 71.065 L
298.231 72.179 L
298.655 74.035 L
299.079 74.035 L
299.502 74.035 L
299.926 75.52 L
300.349 80.717 L
300.773 88.885 L
301.196 93.34 L
301.62 94.825 L
302.044 92.969 L
302.467 92.226 L
302.891 93.34 L
303.314 93.711 L
303.738 91.113 L
304.161 89.999 L
304.585 85.915 L
305.009 82.574 L
305.432 78.861 L
305.856 78.119 L
306.279 74.035 L
306.703 73.292 L
307.126 71.808 L
307.55 70.323 L
307.974 72.55 L
308.397 76.634 L
308.821 79.604 L
309.244 79.604 L
309.668 78.119 L
310.091 77.005 L
310.515 74.035 L
310.939 70.694 L
311.362 67.724 L
311.786 64.383 L
312.209 62.155 L
312.633 58.071 L
313.056 56.215 L
313.48 51.389 L
313.904 47.305 L
314.327 43.964 L
314.751 39.509 L
315.174 37.652 L
315.598 37.281 L
316.021 39.88 L
316.445 42.85 L
316.869 46.934 L
317.292 51.76 L
317.716 51.76 L
318.139 52.131 L
318.563 55.101 L
318.986 60.299 L
319.41 65.867 L
319.834 73.292 L
320.257 79.233 L
320.681 82.945 L
321.104 83.688 L
321.528 82.574 L
321.951 84.801 L
322.375 82.574 L
322.799 85.173 L
323.222 84.059 L
323.646 82.574 L
324.069 81.831 L
324.493 83.316 L
324.916 85.173 L
325.34 86.286 L
325.764 89.999 L
326.187 89.999 L
326.611 89.999 L
327.034 88.143 L
327.458 82.574 L
327.881 79.604 L
328.305 78.49 L
328.729 80.717 L
329.152 81.089 L
329.576 79.975 L
329.999 78.861 L
330.423 77.376 L
330.846 78.49 L
331.27 79.233 L
331.694 79.604 L
332.117 83.688 L
332.541 82.574 L
332.964 81.831 L
333.388 79.233 L
333.811 79.233 L
334.235 74.406 L
334.659 69.58 L
335.082 65.867 L
335.506 64.383 L
335.929 57.7 L
336.353 63.64 L
336.776 67.724 L
337.2 74.406 L
337.624 78.49 L
338.047 79.975 L
338.471 80.717 L
338.894 78.49 L
339.318 77.376 L
339.741 73.664 L
340.165 75.52 L
340.589 72.55 L
341.012 80.346 L
341.436 95.568 L
341.859 101.507 L
342.283 104.849 L
342.706 107.076 L
343.13 103.364 L
343.554 98.537 L
343.977 94.454 L
344.401 87.771 L
344.824 85.173 L
345.248 83.316 L
345.671 81.089 L
346.095 79.975 L
346.519 75.52 L
346.942 72.921 L
347.366 68.838 L
347.789 71.808 L
348.213 62.898 L
348.636 63.269 L
349.06 59.556 L
349.484 59.556 L
349.907 61.412 L
350.331 53.987 L
350.754 51.389 L
351.178 49.904 L
351.601 47.305 L
352.025 46.563 L
352.449 44.706 L
352.872 46.563 L
353.296 49.904 L
353.719 51.389 L
354.143 50.646 L
354.566 52.131 L
354.99 54.359 L
355.414 55.101 L
355.837 53.987 L
356.261 52.874 L
356.684 53.987 L
357.108 52.502 L
357.531 52.502 L
357.955 55.844 L
358.379 55.473 L
358.802 56.586 L
359.226 58.071 L
359.649 58.071 L
360.073 55.101 L
360.496 50.646 L
360.92 50.646 L
361.344 48.79 L
361.767 48.048 L
362.191 48.79 L
362.614 48.048 L
363.038 48.79 L
363.461 47.676 L
363.885 49.161 L
364.309 50.646 L
364.732 50.275 L
365.156 48.79 L
365.579 49.161 L
366.003 49.161 L
366.426 55.844 L
366.85 61.041 L
367.274 64.754 L
367.697 67.724 L
368.121 69.951 L
368.544 70.694 L
368.968 70.694 L
369.391 71.436 L
369.815 82.945 L
370.239 90.741 L
370.662 100.765 L
371.086 104.849 L
371.509 107.448 L
371.933 111.16 L
372.356 112.645 L
372.78 114.873 L
373.204 119.327 L
373.627 121.555 L
374.051 121.926 L
374.474 118.956 L
374.898 112.645 L
375.321 106.705 L
375.745 100.765 L
376.169 95.568 L
376.592 92.969 L
377.016 88.885 L
377.439 85.915 L
377.863 85.915 L
378.286 87.771 L
378.71 91.484 L
379.134 92.598 L
379.557 98.537 L
379.981 105.591 L
380.404 115.244 L
380.828 136.034 L
381.251 156.081 L
381.675 160.536 L
382.099 169.075 L
382.522 186.895 L
382.946 203.601 L
383.369 222.906 L
383.793 238.499 L
384.216 256.319 L
384.64 269.684 L
385.064 288.989 L
385.487 300.497 L
385.911 307.551 L
386.334 314.234 L
386.758 315.348 L
387.181 321.288 L
387.605 325 L
388.029 325 L
388.452 325 L
388.876 301.983 L
389.299 306.438 L
389.723 299.755 L
390.146 299.013 L
390.57 297.527 L
390.994 301.611 L
391.417 304.581 L
391.841 304.581 L
392.264 297.156 L
392.688 293.444 L
393.111 295.3 L
393.535 286.761 L
393.959 291.216 L
394.382 296.043 L
394.806 299.755 L
395.229 298.27 L
395.653 287.504 L
396.076 274.139 L
396.5 264.115 L
396.924 257.061 L
397.347 255.205 L
397.771 256.69 L
398.194 257.061 L
398.618 257.061 L
399.041 251.121 L
399.465 247.78 L
399.889 251.121 L
400.312 254.462 L
400.736 251.493 L
401.159 245.181 L
401.583 238.87 L
402.006 234.786 L
402.43 228.475 L
402.854 221.792 L
403.277 215.853 L
403.701 211.026 L
404.124 206.943 L
404.548 206.943 L
404.971 203.973 L
405.395 198.033 L
405.819 198.033 L
406.242 189.865 L
406.666 188.38 L
407.089 185.41 L
407.513 183.182 L
407.936 176.129 L
408.36 170.189 L
408.784 165.363 L
409.207 165.363 L
409.631 167.961 L
410.054 170.56 L
410.478 171.302 L
410.901 169.818 L
411.325 167.219 L
411.749 162.021 L
412.172 159.794 L
412.596 158.309 L
413.019 158.68 L
413.443 158.309 L
413.866 159.051 L
414.29 156.824 L
414.714 154.967 L
415.137 152.74 L
415.561 151.626 L
415.984 153.854 L
416.408 155.71 L
416.831 154.967 L
417.255 152.74 L
417.679 149.77 L
418.102 148.285 L
418.526 147.171 L
418.949 146.057 L
419.373 139.746 L
419.796 136.405 L
420.22 133.435 L
420.644 133.435 L
421.067 140.118 L
421.491 150.512 L
421.914 157.566 L
422.338 164.249 L
422.761 166.848 L
423.185 170.931 L
423.609 172.788 L
424.032 178.727 L
424.456 186.895 L
424.879 197.29 L
425.303 202.859 L
425.726 206.571 L
426.15 203.973 L
426.574 202.859 L
426.997 193.949 L
427.421 193.577 L
427.844 186.524 L
428.268 186.895 L
428.691 187.637 L
429.115 191.721 L
429.539 193.577 L
429.962 200.26 L
430.386 198.404 L
430.809 198.404 L
431.233 199.146 L
431.656 212.14 L
432.08 240.726 L
432.504 282.677 L
432.927 311.264 L
433.351 322.772 L
433.774 325 L
434.198 325 L
434.621 325 L
435.045 325 L
435.469 325 L
435.892 325 L
436.316 325 L
436.739 325 L
437.163 325 L
437.586 325 L
438.01 325 L
438.434 325 L
438.857 325 L
439.281 325 L
439.704 325 L
440.128 325 L
440.551 325 L
440.975 325 L
441.399 325 L
441.822 325 L
442.246 325 L
442.669 325 L
443.093 325 L
443.516 325 L
443.94 325 L
444.364 325 L
444.787 325 L
445.211 309.779 L
445.634 308.294 L
446.058 300.869 L
446.481 294.186 L
446.905 283.791 L
447.329 274.139 L
447.752 270.055 L
448.176 262.63 L
448.599 255.947 L
449.023 243.696 L
449.446 237.756 L
449.87 230.702 L
450.294 225.134 L
450.717 224.762 L
451.141 221.792 L
451.564 208.799 L
451.988 204.715 L
452.411 198.404 L
452.835 193.949 L
453.259 190.607 L
453.682 188.751 L
454.106 191.35 L
454.529 196.919 L
454.953 205.458 L
455.376 218.822 L
455.8 235.158 L
456.224 253.349 L
456.647 273.025 L
457.071 299.755 L
457.494 316.09 L
457.918 325 L
458.341 325 L
458.765 316.832 L
459.189 325 L
459.612 325 L
460.036 316.832 L
460.459 325 L
460.883 325 L
461.306 325 L
461.73 325 L
462.154 311.264 L
462.577 297.527 L
463.001 281.564 L
463.424 267.085 L
463.848 252.978 L
464.271 242.954 L
464.695 232.188 L
465.119 225.876 L
465.542 216.595 L
465.966 215.481 L
466.389 212.14 L
466.813 206.943 L
467.236 204.344 L
467.66 201.745 L
468.084 201.745 L
468.507 195.063 L
468.931 190.979 L
469.354 191.721 L
469.778 191.721 L
470.201 193.206 L
470.625 193.949 L
471.049 193.206 L
471.472 191.721 L
471.896 192.835 L
472.319 191.721 L
472.743 189.865 L
473.166 185.781 L
473.59 188.751 L
474.014 187.637 L
474.437 185.41 L
474.861 187.637 L
475.284 192.464 L
475.708 198.404 L
476.131 200.26 L
476.555 206.2 L
476.979 206.943 L
477.402 212.14 L
477.826 218.08 L
478.249 220.307 L
478.673 222.535 L
479.096 225.505 L
479.52 225.505 L
479.944 232.559 L
480.367 245.181 L
480.791 245.181 L
481.214 306.066 L
481.638 321.659 L
482.061 322.401 L
482.485 325 L
482.909 325 L
483.332 325 L
483.756 325 L
484.179 325 L
484.603 325 L
485.026 325 L
485.45 325 L
485.874 325 L
486.297 325 L
486.721 317.575 L
487.144 311.264 L
487.568 296.785 L
487.991 281.935 L
488.415 282.677 L
488.839 267.828 L
489.262 260.031 L
489.686 256.319 L
490.109 255.576 L
490.533 249.636 L
490.956 245.553 L
491.38 235.9 L
491.804 229.217 L
492.227 225.134 L
492.651 221.421 L
493.074 214.368 L
493.498 208.428 L
493.921 205.458 L
494.345 202.116 L
494.769 199.146 L
495.192 198.033 L
495.616 195.805 L
496.039 197.661 L
496.463 203.23 L
496.886 202.488 L
497.31 206.571 L
497.734 207.685 L
498.157 212.14 L
498.581 214.368 L
499.004 215.11 L
499.428 215.481 L
499.851 218.451 L
500.275 218.822 L
500.699 218.822 L
501.122 217.337 L
501.546 215.853 L
501.969 213.254 L
502.393 209.913 L
502.816 205.458 L
503.24 201.374 L
503.664 198.404 L
504.087 196.919 L
504.511 190.236 L
504.934 188.38 L
505.358 186.895 L
505.781 188.38 L
506.205 185.781 L
506.629 181.326 L
507.052 180.584 L
507.476 182.069 L
507.899 182.069 L
508.323 183.182 L
508.746 186.524 L
509.17 186.152 L
509.594 187.266 L
510.017 188.751 L
510.441 189.123 L
510.864 189.865 L
511.288 190.979 L
511.711 189.123 L
512.135 193.206 L
512.559 194.32 L
512.982 196.176 L
513.406 197.29 L
513.829 195.434 L
514.253 193.206 L
514.676 187.266 L
515.1 186.152 L
515.524 183.182 L
515.947 179.841 L
516.371 179.099 L
516.794 181.698 L
517.218 178.356 L
517.641 178.727 L
518.065 177.243 L
518.489 176.5 L
518.912 173.53 L
519.336 174.273 L
519.759 174.644 L
520.183 177.614 L
520.606 177.243 L
521.03 180.584 L
521.454 185.781 L
521.877 185.41 L
522.301 185.781 L
522.724 188.751 L
523.148 184.296 L
523.571 183.554 L
523.995 180.212 L
524.419 179.841 L
524.842 179.47 L
525.266 187.637 L
525.689 189.123 L
526.113 187.266 L
526.536 188.009 L
526.96 189.494 L
527.384 185.781 L
527.807 186.152 L
528.231 184.667 L
528.654 186.895 L
529.078 189.123 L
529.501 205.829 L
529.925 252.606 L
530.349 268.57 L
530.772 281.564 L
531.196 301.24 L
531.619 315.348 L
532.043 325 L
532.466 325 L
532.89 325 L
533.314 325 L
533.737 324.629 L
534.161 325 L
534.584 325 L
535.008 316.832 L
535.431 325 L
535.855 325 L
536.279 325 L
536.702 325 L
537.126 325 L
537.549 325 L
537.973 325 L
538.396 325 L
538.82 325 L
539.244 325 L
539.667 325 L
540.091 325 L
540.514 325 L
540.938 325 L
541.361 325 L
541.785 325 L
542.209 325 L
542.632 325 L
543.056 325 L
543.479 325 L
543.903 325 L
544.326 325 L
544.75 325 L
545.174 325 L
545.597 325 L
546.021 325 L
546.444 325 L
546.868 325 L
547.291 325 L
547.715 325 L
548.139 325 L
548.562 324.629 L
548.986 325 L
549.409 325 L
549.833 325 L
550.256 316.832 L
550.68 325 L
551.104 325 L
551.527 325 L
551.951 325 L
552.374 325 L
552.798 325 L
553.221 325 L
553.645 325 L
554.069 325 L
554.492 325 L
554.916 325 L
555.339 325 L
555.763 325 L
556.186 325 L
556.61 325 L
557.034 311.635 L
557.457 304.21 L
557.881 304.953 L
558.304 314.605 L
558.728 325 L
559.151 325 L
559.575 325 L
559.999 325 L
560.422 325 L
560.846 325 L
561.269 325 L
561.693 325 L
562.116 325 L
562.54 325 L
562.964 325 L
563.387 325 L
563.811 325 L
564.234 325 L
564.658 325 L
565.081 325 L
565.505 325 L
565.929 325 L
566.352 325 L
566.776 325 L
567.199 325 L
567.623 325 L
568.046 314.605 L
568.47 297.156 L
568.894 284.534 L
569.317 271.169 L
569.741 260.402 L
570.164 255.576 L
570.588 259.66 L
571.011 261.888 L
571.435 263.372 L
571.859 269.313 L
572.282 272.283 L
572.706 266.714 L
573.129 258.546 L
573.553 249.636 L
573.976 243.325 L
574.4 236.643 L
574.824 229.217 L
575.247 229.589 L
575.671 234.786 L
576.094 235.529 L
576.518 229.96 L
576.941 224.391 L
577.365 221.421 L
577.789 214.739 L
578.212 212.882 L
578.636 209.541 L
579.059 207.314 L
579.483 206.943 L
579.906 209.541 L
580.33 212.14 L
580.754 223.277 L
581.177 251.121 L
581.601 240.355 L
582.024 263.372 L
582.448 273.767 L
582.871 280.079 L
583.295 281.193 L
583.719 281.935 L
584.142 282.677 L
584.566 284.534 L
584.989 287.133 L
585.413 290.103 L
585.836 289.731 L
586.26 280.45 L
586.684 264.857 L
587.107 255.205 L
587.531 246.666 L
587.954 236.271 L
588.378 232.188 L
588.801 223.649 L
589.225 217.337 L
589.649 211.769 L
590.072 203.973 L
590.496 202.859 L
590.919 196.919 L
591.343 197.661 L
591.766 193.206 L
592.19 188.751 L
592.614 186.895 L
593.037 186.895 L
593.461 188.751 L
593.884 191.35 L
594.308 193.206 L
594.731 193.206 L
595.155 190.607 L
595.579 186.895 L
596.002 188.38 L
596.426 188.009 L
596.849 183.182 L
597.273 185.41 L
597.696 180.584 L
598.12 175.757 L
598.544 172.788 L
598.967 170.56 L
599.391 164.991 L
599.814 165.363 L
600.238 165.363 L
600.661 164.249 L
601.085 161.65 L
601.509 165.363 L
601.932 166.105 L
602.356 170.189 L
602.779 184.667 L
603.203 203.23 L
603.626 216.966 L
604.05 231.816 L
604.474 245.924 L
604.897 250.007 L
605.321 256.319 L
605.744 268.941 L
606.168 279.336 L
606.591 288.617 L
607.015 304.581 L
607.439 313.12 L
607.862 317.575 L
608.286 316.832 L
608.709 302.354 L
609.133 286.019 L
609.556 267.456 L
609.98 261.516 L
610.404 252.978 L
610.827 247.038 L
611.251 232.93 L
611.674 226.619 L
612.098 221.421 L
612.521 214.739 L
612.945 213.625 L
613.369 205.829 L
613.792 204.344 L
614.216 202.488 L
614.639 201.002 L
615.063 199.518 L
615.486 193.206 L
615.91 192.092 L
616.334 190.607 L
616.757 189.123 L
617.181 186.152 L
617.604 192.464 L
618.028 191.35 L
618.451 191.721 L
618.875 190.979 L
619.299 192.464 L
619.722 193.206 L
620.146 193.206 L
620.569 198.033 L
620.993 203.23 L
621.416 211.026 L
621.84 216.224 L
622.264 230.702 L
622.687 237.756 L
623.111 252.606 L
623.534 269.684 L
623.958 289.36 L
624.381 309.036 L
624.805 320.916 L
625.229 325 L
625.652 325 L
626.076 325 L
626.499 325 L
626.923 313.491 L
627.346 293.444 L
627.77 276.366 L
628.194 262.259 L
628.617 248.522 L
629.041 239.613 L
629.464 229.589 L
629.888 217.337 L
630.311 208.799 L
630.735 198.033 L
631.159 193.949 L
631.582 186.524 L
632.006 174.273 L
632.429 170.56 L
632.853 168.704 L
633.276 164.62 L
633.7 165.363 L
634.124 163.877 L
634.547 163.135 L
634.971 165.734 L
635.394 169.075 L
635.818 173.901 L
636.241 180.584 L
636.665 194.691 L
637.089 212.14 L
637.512 237.756 L
637.936 261.516 L
638.359 280.079 L
638.783 298.641 L
639.206 314.605 L
639.63 325 L
640.054 325 L
640.477 325 L
640.901 325 L
641.324 325 L
641.748 325 L
642.171 325 L
642.595 325 L
643.019 325 L
643.442 325 L
643.866 325 L
644.289 325 L
644.713 325 L
645.136 325 L
645.56 325 L
645.984 325 L
646.407 325 L
646.831 325 L
647.254 325 L
647.678 325 L
648.101 325 L
648.525 325 L
648.949 325 L
649.372 325 L
649.796 325 L
650.219 325 L
650.643 325 L
651.066 325 L
651.49 325 L
651.914 325 L
652.337 325 L
652.761 325 L
653.184 325 L
653.608 325 L
654.031 325 L
654.455 325 L
654.879 325 L
655.302 325 L
655.726 325 L
656.149 325 L
656.573 325 L
656.996 325 L
657.42 325 L
657.844 325 L
658.267 325 L
658.691 325 L
659.114 325 L
659.538 325 L
659.961 325 L
660.385 325 L
660.809 325 L
661.232 325 L
661.656 325 L
662.079 325 L
662.503 325 L
662.926 325 L
663.35 325 L
663.774 325 L
664.197 325 L
664.621 325 L
665.044 325 L
665.468 325 L
665.891 325 L
666.315 325 L
666.739 325 L
667.162 325 L
667.586 325 L
668.009 325 L
668.433 325 L
668.856 325 L
669.28 325 L
669.704 325 L
670.127 325 L
670.551 325 L
670.974 325 L
671.398 312.378 L
671.821 296.043 L
672.245 286.761 L
672.669 278.223 L
673.092 270.055 L
673.516 267.828 L
673.939 264.857 L
674.363 255.576 L
674.786 246.666 L
675.21 238.87 L
675.634 231.816 L
676.057 227.732 L
676.481 227.732 L
676.904 234.786 L
677.328 234.786 L
677.751 270.797 L
678.175 287.133 L
678.599 294.186 L
679.022 298.641 L
679.446 299.755 L
679.869 303.467 L
680.293 301.24 L
680.716 301.983 L
681.14 295.3 L
681.564 282.306 L
681.987 282.677 L
682.411 287.504 L
682.834 289.731 L
683.258 295.3 L
683.681 305.324 L
684.105 313.862 L
684.529 311.264 L
684.952 312.749 L
685.376 318.318 L
685.799 325 L
686.223 325 L
686.646 325 L
687.07 325 L
687.494 325 L
687.917 325 L
688.341 325 L
688.764 325 L
689.188 325 L
689.611 317.575 L
690.035 316.461 L
690.459 319.06 L
690.882 325 L
691.306 325 L
S
GR
GS
1 0 0 RC
[8 3 2 3] 0 setdash
2 LJ
1.5 LW
N
170.313 325 M
170.313 28 L
S
GR
GS
1 0 0 RC
[8 3 2 3] 0 setdash
2 LJ
1.5 LW
N
388.452 325 M
388.452 28 L
S
GR
%%Trailer
%%Pages: 1
%%EOF
